%!PS-Adobe-3.0
%%BoundingBox: 91 288 519 502
%%Title: Graphics produced by IDL
%%For: yssu@archMini, /home/yssu/SURF2015/Summer/single_band/OffMat/data
%%Creator: IDL Version 8.3 (linux x86_64 m64)
%%CreationDate: Fri Jul 31 15:43:28 2015
%%DocumentData: Clean7bit
%%Requirements: color
%%LanguageLevel: 2
%%PageOrder: Ascend
%%Pages: (atend)
%%DocumentNeededResources: (atend)
%%EndComments
%%BeginProlog
save
%+ prolog.ps -- Prolog for IDL generated PostScript files
%+ Copyright (c) 1988-2013 Exelis Visual Information Solutions, Inc. All Rights Reserved.
%v 5
/$IDL_DICT 40 dict def $IDL_DICT begin /bdef { bind def } bind def /C
{currentpoint newpath moveto} bdef /CP {currentpoint} bdef /D {currentpoint
stroke moveto} bdef /F {closepath fill} bdef /K { setgray } bdef /M {moveto}
bdef /N {rmoveto} bdef /P {lineto} bdef /R {rlineto} bdef /S {gsave show
grestore} bdef /X {currentpoint pop} bdef /Z {gsave currentpoint lineto 20
setlinewidth 1 setlinecap stroke grestore} bdef /L0 {[] 0 setdash} bdef /L1
{[40 100] 0 setdash} bdef /L2 {[200 200] 0 setdash} bdef /L3 {[200 100 50
100] 0 setdash} bdef /L4 {[300 100 50 100 50 100 50 100] 0 setdash} bdef /L5
{[400 200] 0 setdash} bdef /STDFONT { findfont exch scalefont setfont } bdef
/ISOFONT { findfont dup length dict begin { 1 index /FID ne {def} {pop pop}
ifelse } forall /Encoding ISOLatin1Encoding def currentdict end /idltmpfont
exch definefont exch scalefont setfont } bdef /ISOBULLET { gsave /Helvetica
findfont exch scalefont setfont (\267) show currentpoint grestore moveto}
bdef /MITERLIMIT { 2.5 setmiterlimit } bdef end
%%EndProlog
%%Page: 0 1
%%PageRequirements: color
%%PageResources: (atend)
%%PageOrientation: Portrait
%%PageBoundingBox: 91 288 519 502
%%BeginPageSetup
save
$IDL_DICT begin 91 288 translate 0.0283465 dup scale MITERLIMIT
%%IncludeResource: font Helvetica
423.333 /Helvetica STDFONT
%%EndPageSetup
10 setlinewidth L0 0.000 0.000 0.000 setrgbcolor 6026 7370 M -117 -307 R D
6026 7370 M 117 -307 R D 5953 7165 M 146 0 R D 6216 7268 M 0 -205 R D
6216 7209 M 44 44 R 29 15 R 44 0 R 29 -15 R 14 -44 R 0 -146 R D 6376 7209 M
44 44 R 29 15 R 44 0 R 30 -15 R 14 -44 R 0 -146 R D 6654 7268 M 0 -322 R D
6654 7224 M 29 29 R 29 15 R 44 0 R 29 -15 R 30 -29 R 14 -44 R 0 -29 R
-14 -44 R -30 -29 R -29 -15 R -44 0 R -29 15 R -29 29 R D 6931 7370 M
0 -307 R D 7034 7370 M 14 -15 R 15 15 R -15 15 R -14 -15 R D 7048 7268 M
0 -205 R D 7180 7370 M 0 -248 R 14 -44 R 30 -15 R 29 0 R D 7136 7268 M
102 0 R D 7340 7268 M 0 -146 R 15 -44 R 29 -15 R 44 0 R 29 15 R 44 44 R D
7501 7268 M 0 -205 R D 7779 7370 M 0 -307 R D 7779 7224 M -30 29 R -29 15 R
-44 0 R -29 -15 R -29 -29 R -15 -44 R 0 -29 R 15 -44 R 29 -29 R 29 -15 R
44 0 R 29 15 R 30 29 R D 7881 7180 M 175 0 R 0 29 R -15 30 R -14 14 R
-29 15 R -44 0 R -29 -15 R -30 -29 R -14 -44 R 0 -29 R 14 -44 R 30 -29 R
29 -15 R 44 0 R 29 15 R 29 29 R D 8377 7180 M 176 0 R 0 29 R -15 30 R
-15 14 R -29 15 R -44 0 R -29 -15 R -29 -29 R -15 -44 R 0 -29 R 15 -44 R
29 -29 R 29 -15 R 44 0 R 29 15 R 30 29 R D 8801 7224 M -15 29 R -43 15 R
-44 0 R -44 -15 R -15 -29 R 15 -29 R 29 -15 R 73 -15 R 29 -14 R 15 -29 R
0 -15 R -15 -29 R -43 -15 R -44 0 R -44 15 R -15 29 R D 8918 7370 M 0 -248 R
14 -44 R 30 -15 R 29 0 R D 8874 7268 M 102 0 R D 9064 7370 M 14 -15 R
15 15 R -15 15 R -14 -15 R D 9078 7268 M 0 -205 R D 9195 7268 M 0 -205 R D
9195 7209 M 44 44 R 29 15 R 44 0 R 29 -15 R 15 -44 R 0 -146 R D 9356 7209 M
44 44 R 29 15 R 44 0 R 29 -15 R 15 -44 R 0 -146 R D 9794 7268 M 0 -205 R D
9794 7224 M -29 29 R -29 15 R -44 0 R -29 -15 R -30 -29 R -14 -44 R 0 -29 R
14 -44 R 30 -29 R 29 -15 R 44 0 R 29 15 R 29 29 R D 9926 7370 M 0 -248 R
14 -44 R 29 -15 R 30 0 R D 9882 7268 M 102 0 R D 10145 7268 M -30 -15 R
-29 -29 R -14 -44 R 0 -29 R 14 -44 R 29 -29 R 30 -15 R 43 0 R 30 15 R
29 29 R 14 44 R 0 29 R -14 44 R -29 29 R -30 15 R -43 0 R D 10364 7268 M
0 -205 R D 10364 7180 M 14 44 R 30 29 R 29 15 R 44 0 R D 10700 7224 M
-15 29 R -44 15 R -44 0 R -43 -15 R -15 -29 R 15 -29 R 29 -15 R 73 -15 R
29 -14 R 15 -29 R 0 -15 R -15 -29 R -44 -15 R -44 0 R -43 15 R -15 29 R D
40 setlinewidth 2220 1408 M 12227 0 R D 2220 1408 M 0 109 R D
10 setlinewidth 1905 1125 M -35 -11 R -24 -35 R -12 -59 R 0 -35 R 12 -58 R
24 -35 R 35 -12 R 23 0 R 35 12 R 23 35 R 12 58 R 0 35 R -12 59 R -23 35 R
-35 11 R -23 0 R D 2092 903 M -12 -11 R 12 -12 R 11 12 R -11 11 R D
2337 1044 M -12 -35 R -23 -24 R -35 -11 R -12 0 R -35 11 R -23 24 R -12 35 R
0 11 R 12 35 R 23 24 R 35 11 R 12 0 R 35 -11 R 23 -24 R 12 -46 R 0 -59 R
-12 -58 R -23 -35 R -35 -12 R -24 0 R -35 12 R -11 23 R D 2489 1125 M
-35 -11 R -24 -35 R -11 -59 R 0 -35 R 11 -58 R 24 -35 R 35 -12 R 23 0 R
35 12 R 24 35 R 11 58 R 0 35 R -11 59 R -24 35 R -35 11 R -23 0 R D
40 setlinewidth 5277 1408 M 0 109 R D 10 setlinewidth 4961 1125 M -35 -11 R
-23 -35 R -12 -59 R 0 -35 R 12 -58 R 23 -35 R 35 -12 R 24 0 R 35 12 R
23 35 R 12 58 R 0 35 R -12 59 R -23 35 R -35 11 R -24 0 R D 5148 903 M
-11 -11 R 11 -12 R 12 12 R -12 11 R D 5394 1044 M -12 -35 R -23 -24 R
-35 -11 R -12 0 R -35 11 R -24 24 R -11 35 R 0 11 R 11 35 R 24 24 R 35 11 R
12 0 R 35 -11 R 23 -24 R 12 -46 R 0 -59 R -12 -58 R -23 -35 R -35 -12 R
-24 0 R -35 12 R -12 23 R D 5616 1125 M -117 0 R -12 -105 R 12 12 R 35 12 R
35 0 R 35 -12 R 23 -23 R 12 -35 R 0 -24 R -12 -35 R -23 -23 R -35 -12 R
-35 0 R -35 12 R -12 11 R -12 24 R D 40 setlinewidth 8334 1408 M 0 109 R D
10 setlinewidth 7983 1079 M 23 11 R 35 35 R 0 -245 R D 8205 903 M -12 -11 R
12 -12 R 12 12 R -12 11 R D 8369 1125 M -35 -11 R -24 -35 R -11 -59 R
0 -35 R 11 -58 R 24 -35 R 35 -12 R 23 0 R 35 12 R 23 35 R 12 58 R 0 35 R
-12 59 R -23 35 R -35 11 R -23 0 R D 8602 1125 M -35 -11 R -23 -35 R
-12 -59 R 0 -35 R 12 -58 R 23 -35 R 35 -12 R 24 0 R 35 12 R 23 35 R 12 58 R
0 35 R -12 59 R -23 35 R -35 11 R -24 0 R D 40 setlinewidth 11390 1408 M
0 109 R D 10 setlinewidth 11040 1079 M 23 11 R 35 35 R 0 -245 R D
11262 903 M -12 -11 R 12 -12 R 11 12 R -11 11 R D 11425 1125 M -35 -11 R
-23 -35 R -12 -59 R 0 -35 R 12 -58 R 23 -35 R 35 -12 R 24 0 R 35 12 R
23 35 R 12 58 R 0 35 R -12 59 R -23 35 R -35 11 R -24 0 R D 11729 1125 M
-117 0 R -11 -105 R 11 12 R 35 12 R 35 0 R 35 -12 R 24 -23 R 12 -35 R
0 -24 R -12 -35 R -24 -23 R -35 -12 R -35 0 R -35 12 R -11 11 R -12 24 R D
40 setlinewidth 14447 1408 M 0 109 R D 10 setlinewidth 14097 1079 M 23 11 R
35 35 R 0 -245 R D 14319 903 M -12 -11 R 12 -12 R 11 12 R -11 11 R D
14447 1079 M 23 11 R 35 35 R 0 -245 R D 14716 1125 M -35 -11 R -24 -35 R
-11 -59 R 0 -35 R 11 -58 R 24 -35 R 35 -12 R 23 0 R 35 12 R 24 35 R 11 58 R
0 35 R -11 59 R -24 35 R -35 11 R -23 0 R D 40 setlinewidth 2831 1408 M
0 54 R D 3443 1408 M 0 54 R D 4054 1408 M 0 54 R D 4665 1408 M 0 54 R D
5888 1408 M 0 54 R D 6500 1408 M 0 54 R D 7111 1408 M 0 54 R D 7722 1408 M
0 54 R D 8945 1408 M 0 54 R D 9556 1408 M 0 54 R D 10168 1408 M 0 54 R D
10779 1408 M 0 54 R D 12002 1408 M 0 54 R D 12613 1408 M 0 54 R D
13224 1408 M 0 54 R D 13836 1408 M 0 54 R D 10 setlinewidth 5979 668 M
-93 -246 R D 5979 668 M 94 -246 R D 5921 504 M 117 0 R D 6131 586 M 0 -164 R
D 6131 539 M 35 35 R 24 12 R 35 0 R 23 -12 R 12 -35 R 0 -117 R D 6260 539 M
35 35 R 23 12 R 35 0 R 23 -12 R 12 -35 R 0 -117 R D 6482 586 M 0 -257 R D
6482 551 M 23 23 R 23 12 R 35 0 R 24 -12 R 23 -23 R 12 -35 R 0 -23 R
-12 -36 R -23 -23 R -24 -12 R -35 0 R -23 12 R -23 23 R D 6704 668 M
0 -246 R D 6785 668 M 12 -12 R 12 12 R -12 11 R -12 -11 R D 6797 586 M
0 -164 R D 6902 668 M 0 -199 R 12 -35 R 23 -12 R 24 0 R D 6867 586 M 82 0 R
D 7031 586 M 0 -117 R 11 -35 R 24 -12 R 35 0 R 23 12 R 35 35 R D 7159 586 M
0 -164 R D 7381 668 M 0 -246 R D 7381 551 M -23 23 R -23 12 R -35 0 R
-24 -12 R -23 -23 R -12 -35 R 0 -23 R 12 -36 R 23 -23 R 24 -12 R 35 0 R
23 12 R 23 23 R D 7463 516 M 140 0 R 0 23 R -11 24 R -12 11 R -23 12 R
-35 0 R -24 -12 R -23 -23 R -12 -35 R 0 -23 R 12 -36 R 23 -23 R 24 -12 R
35 0 R 23 12 R 23 23 R D 7919 586 M -24 -12 R -23 -23 R -12 -35 R 0 -23 R
12 -36 R 23 -23 R 24 -12 R 35 0 R 23 12 R 24 23 R 11 36 R 0 23 R -11 35 R
-24 23 R -23 12 R -35 0 R D 8164 668 M -23 0 R -24 -12 R -11 -35 R 0 -199 R
D 8071 586 M 81 0 R D 8421 668 M 0 -246 R D 8421 551 M 24 23 R 23 12 R
35 0 R 23 -12 R 24 -23 R 11 -35 R 0 -23 R -11 -36 R -24 -23 R -23 -12 R
-35 0 R -23 12 R -24 23 R D 8632 516 M 140 0 R 0 23 R -12 24 R -12 11 R
-23 12 R -35 0 R -23 -12 R -24 -23 R -11 -35 R 0 -23 R 11 -36 R 24 -23 R
23 -12 R 35 0 R 23 12 R 24 23 R D 8982 586 M 0 -164 R D 8982 551 M -23 23 R
-24 12 R -35 0 R -23 -12 R -23 -23 R -12 -35 R 0 -23 R 12 -36 R 23 -23 R
23 -12 R 35 0 R 24 12 R 23 23 R D 9076 586 M 0 -164 R D 9076 539 M 35 35 R
23 12 R 35 0 R 23 -12 R 12 -35 R 0 -117 R D 9204 539 M 35 35 R 23 12 R
36 0 R 23 -12 R 12 -35 R 0 -117 R D 9695 715 M -24 -24 R -23 -35 R -23 -47 R
-12 -58 R 0 -47 R 12 -58 R 23 -59 R 23 -35 R 24 -23 R D 9777 586 M 0 -117 R
11 -35 R 24 -12 R 35 0 R 23 12 R 35 35 R D 9905 586 M 0 -164 R D 9999 586 M
0 -164 R D 9999 539 M 35 35 R 23 12 R 35 0 R 23 -12 R 12 -35 R 0 -117 R D
10209 668 M 12 -12 R 11 12 R -11 11 R -12 -11 R D 10221 586 M 0 -164 R D
10326 668 M 0 -199 R 11 -35 R 24 -12 R 23 0 R D 10291 586 M 81 0 R D
10571 551 M -12 23 R -35 12 R -35 0 R -35 -12 R -11 -23 R 11 -23 R 24 -12 R
58 -12 R 23 -11 R 12 -24 R 0 -12 R -12 -23 R -35 -12 R -35 0 R -35 12 R
-11 23 R D 10641 715 M 24 -24 R 23 -35 R 23 -47 R 12 -58 R 0 -47 R -12 -58 R
-23 -59 R -23 -35 R -24 -23 R D 40 setlinewidth 2220 6852 M 12227 0 R D
2220 6852 M 0 -109 R D 5277 6852 M 0 -109 R D 8334 6852 M 0 -109 R D
11390 6852 M 0 -109 R D 14447 6852 M 0 -109 R D 2831 6852 M 0 -54 R D
3443 6852 M 0 -54 R D 4054 6852 M 0 -54 R D 4665 6852 M 0 -54 R D
5888 6852 M 0 -54 R D 6500 6852 M 0 -54 R D 7111 6852 M 0 -54 R D
7722 6852 M 0 -54 R D 8945 6852 M 0 -54 R D 9556 6852 M 0 -54 R D
10168 6852 M 0 -54 R D 10779 6852 M 0 -54 R D 12002 6852 M 0 -54 R D
12613 6852 M 0 -54 R D 13224 6852 M 0 -54 R D 13836 6852 M 0 -54 R D
2220 1408 M 0 5444 R D 2220 1408 M 245 0 R D 10 setlinewidth 1618 1653 M
-35 -11 R -23 -35 R -12 -59 R 0 -35 R 12 -58 R 23 -35 R 35 -12 R 24 0 R
35 12 R 23 35 R 12 58 R 0 35 R -12 59 R -23 35 R -35 11 R -24 0 R D
1805 1431 M -11 -11 R 11 -12 R 12 12 R -12 11 R D 1934 1607 M 23 11 R
35 35 R 0 -245 R D 40 setlinewidth 2220 2769 M 245 0 R D 10 setlinewidth
1583 2827 M 24 12 R 35 35 R 0 -246 R D 1805 2652 M -11 -12 R 11 -12 R
12 12 R -12 12 R D 1969 2874 M -35 -12 R -24 -35 R -11 -59 R 0 -35 R
11 -58 R 24 -35 R 35 -12 R 23 0 R 35 12 R 24 35 R 11 58 R 0 35 R -11 59 R
-24 35 R -35 12 R -23 0 R D 40 setlinewidth 2220 4130 M 245 0 R D
10 setlinewidth 1350 4188 M 23 12 R 35 35 R 0 -246 R D 1618 4235 M -35 -12 R
-23 -35 R -12 -59 R 0 -35 R 12 -58 R 23 -35 R 35 -12 R 24 0 R 35 12 R
23 35 R 12 58 R 0 35 R -12 59 R -23 35 R -35 12 R -24 0 R D 1805 4013 M
-11 -12 R 11 -12 R 12 12 R -12 12 R D 1969 4235 M -35 -12 R -24 -35 R
-11 -59 R 0 -35 R 11 -58 R 24 -35 R 35 -12 R 23 0 R 35 12 R 24 35 R 11 58 R
0 35 R -11 59 R -24 35 R -35 12 R -23 0 R D 40 setlinewidth 2220 5491 M
245 0 R D 10 setlinewidth 1116 5549 M 23 12 R 35 35 R 0 -246 R D 1385 5596 M
-35 -12 R -24 -35 R -11 -59 R 0 -35 R 11 -58 R 24 -35 R 35 -12 R 23 0 R
35 12 R 23 35 R 12 58 R 0 35 R -12 59 R -23 35 R -35 12 R -23 0 R D
1618 5596 M -35 -12 R -23 -35 R -12 -59 R 0 -35 R 12 -58 R 23 -35 R 35 -12 R
24 0 R 35 12 R 23 35 R 12 58 R 0 35 R -12 59 R -23 35 R -35 12 R -24 0 R D
1805 5374 M -11 -12 R 11 -12 R 12 12 R -12 12 R D 1969 5596 M -35 -12 R
-24 -35 R -11 -59 R 0 -35 R 11 -58 R 24 -35 R 35 -12 R 23 0 R 35 12 R
24 35 R 11 58 R 0 35 R -11 59 R -24 35 R -35 12 R -23 0 R D 40 setlinewidth
2220 6852 M 245 0 R D 10 setlinewidth 882 6804 M 24 12 R 35 35 R 0 -245 R D
1151 6851 M -35 -12 R -23 -35 R -12 -58 R 0 -35 R 12 -59 R 23 -35 R 35 -11 R
23 0 R 35 11 R 24 35 R 11 59 R 0 35 R -11 58 R -24 35 R -35 12 R -23 0 R D
1385 6851 M -35 -12 R -24 -35 R -11 -58 R 0 -35 R 11 -59 R 24 -35 R 35 -11 R
23 0 R 35 11 R 23 35 R 12 59 R 0 35 R -12 58 R -23 35 R -35 12 R -23 0 R D
1618 6851 M -35 -12 R -23 -35 R -12 -58 R 0 -35 R 12 -59 R 23 -35 R 35 -11 R
24 0 R 35 11 R 23 35 R 12 59 R 0 35 R -12 58 R -23 35 R -35 12 R -24 0 R D
1805 6629 M -11 -12 R 11 -11 R 12 11 R -12 12 R D 1969 6851 M -35 -12 R
-24 -35 R -11 -58 R 0 -35 R 11 -59 R 24 -35 R 35 -11 R 23 0 R 35 11 R
24 35 R 11 59 R 0 35 R -11 58 R -24 35 R -35 12 R -23 0 R D 40 setlinewidth
2220 1818 M 122 0 R D 2220 2057 M 122 0 R D 2220 2227 M 122 0 R D
2220 2359 M 122 0 R D 2220 2467 M 122 0 R D 2220 2558 M 122 0 R D
2220 2637 M 122 0 R D 2220 2707 M 122 0 R D 2220 3179 M 122 0 R D
2220 3418 M 122 0 R D 2220 3588 M 122 0 R D 2220 3720 M 122 0 R D
2220 3828 M 122 0 R D 2220 3919 M 122 0 R D 2220 3998 M 122 0 R D
2220 4068 M 122 0 R D 2220 4540 M 122 0 R D 2220 4779 M 122 0 R D
2220 4949 M 122 0 R D 2220 5081 M 122 0 R D 2220 5189 M 122 0 R D
2220 5280 M 122 0 R D 2220 5359 M 122 0 R D 2220 5429 M 122 0 R D
2220 5901 M 122 0 R D 2220 6140 M 122 0 R D 2220 6310 M 122 0 R D
2220 6442 M 122 0 R D 2220 6550 M 122 0 R D 2220 6641 M 122 0 R D
2220 6720 M 122 0 R D 2220 6790 M 122 0 R D 14447 1408 M 0 5444 R D
14447 1408 M -244 0 R D 14447 2769 M -244 0 R D 14447 4130 M -244 0 R D
14447 5491 M -244 0 R D 14447 6852 M -244 0 R D 14447 1818 M -122 0 R D
14447 2057 M -122 0 R D 14447 2227 M -122 0 R D 14447 2359 M -122 0 R D
14447 2467 M -122 0 R D 14447 2558 M -122 0 R D 14447 2637 M -122 0 R D
14447 2707 M -122 0 R D 14447 3179 M -122 0 R D 14447 3418 M -122 0 R D
14447 3588 M -122 0 R D 14447 3720 M -122 0 R D 14447 3828 M -122 0 R D
14447 3919 M -122 0 R D 14447 3998 M -122 0 R D 14447 4068 M -122 0 R D
14447 4540 M -122 0 R D 14447 4779 M -122 0 R D 14447 4949 M -122 0 R D
14447 5081 M -122 0 R D 14447 5189 M -122 0 R D 14447 5280 M -122 0 R D
14447 5359 M -122 0 R D 14447 5429 M -122 0 R D 14447 5901 M -122 0 R D
14447 6140 M -122 0 R D 14447 6310 M -122 0 R D 14447 6442 M -122 0 R D
14447 6550 M -122 0 R D 14447 6641 M -122 0 R D 14447 6720 M -122 0 R D
14447 6790 M -122 0 R D 20 setlinewidth 5472 3179 M 21 0 R 22 0 R 21 0 R
0 -1771 R 21 0 R 21 0 R 0 1361 R 21 0 R 22 0 R 21 0 R 21 0 R 0 -1361 R
21 0 R 21 0 R 22 0 R 21 0 R 0 1361 R 21 0 R 21 0 R 0 819 R 21 0 R 22 0 R
0 -409 R 21 0 R 21 0 R 0 239 R 21 0 R 21 0 R 0 302 R 22 0 R 21 0 R 0 -132 R
21 0 R 21 0 R 0 542 R 21 0 R 22 0 R 0 -1361 R 21 0 R 21 0 R 0 1150 R 21 0 R
21 0 R 0 -501 R 22 0 R 21 0 R 0 501 R 21 0 R 21 0 R 0 211 R 21 0 R 22 0 R
0 314 R 21 0 R 21 0 R 0 65 R 21 0 R 21 0 R 0 -65 R 22 0 R 21 0 R 0 -36 R
21 0 R 21 0 R 0 -38 R 21 0 R 22 0 R 0 38 R 21 0 R 21 0 R 0 161 R 21 0 R
21 0 R 21 0 R 22 0 R 0 190 R 21 0 R 21 0 R 0 -111 R 21 0 R 21 0 R 0 47 R
22 0 R 21 0 R 0 192 R 21 0 R 21 0 R 0 91 R 21 0 R 22 0 R 0 -29 R 21 0 R
21 0 R 0 132 R 21 0 R 21 0 R 0 46 R 22 0 R 21 0 R 0 42 R 21 0 R 21 0 R
0 -21 R 21 0 R 22 0 R 0 11 R 21 0 R 21 0 R 0 86 R 21 0 R 21 0 R 0 170 R
22 0 R 21 0 R 0 -49 R 21 0 R 21 0 R 0 95 R 21 0 R 22 0 R 0 -26 R 21 0 R
21 0 R 0 44 R 21 0 R 21 0 R 0 -50 R 22 0 R 21 0 R 0 145 R 21 0 R 21 0 R
0 -11 R 21 0 R 22 0 R 0 -10 R 21 0 R 21 0 R 0 137 R 21 0 R 21 0 R 0 -86 R
22 0 R 21 0 R 0 38 R 21 0 R 21 0 R 0 127 R 21 0 R 21 0 R 0 -156 R 22 0 R
21 0 R 0 202 R 21 0 R 21 0 R 0 36 R 21 0 R 22 0 R 0 -132 R 21 0 R 21 0 R
0 93 R 21 0 R 21 0 R 0 23 R 22 0 R 21 0 R 0 -59 R 21 0 R 21 0 R 0 116 R
21 0 R 22 0 R 0 -91 R 21 0 R 21 0 R 0 88 R 21 0 R 21 0 R 0 21 R 22 0 R
21 0 R 0 -59 R 21 0 R 21 0 R 0 140 R 21 0 R 22 0 R 0 -64 R 21 0 R 21 0 R
0 -12 R 21 0 R 21 0 R 0 -32 R 22 0 R 21 0 R 0 -9 R 21 0 R 21 0 R 0 -29 R
21 0 R 22 0 R 0 41 R 21 0 R 21 0 R 0 -28 R 21 0 R 21 0 R 0 19 R 22 0 R
21 0 R 0 61 R 21 0 R 21 0 R 0 -31 R 21 0 R 22 0 R 0 -46 R 21 0 R 21 0 R
0 -36 R 21 0 R 21 0 R 0 7 R 21 0 R 22 0 R 0 -74 R 21 0 R 21 0 R 0 77 R
21 0 R 21 0 R 0 -59 R 22 0 R 21 0 R 0 -30 R 21 0 R 21 0 R 0 23 R 21 0 R
22 0 R 0 -101 R 21 0 R 21 0 R 0 -69 R 21 0 R 21 0 R 0 65 R 22 0 R 21 0 R
0 17 R 21 0 R 21 0 R 0 -49 R 21 0 R 22 0 R 0 -4 R 21 0 R 21 0 R 0 -86 R
21 0 R 21 0 R 0 37 R 22 0 R 21 0 R 0 -118 R 21 0 R 21 0 R 0 -148 R 21 0 R
22 0 R 0 24 R 21 0 R 21 0 R 0 7 R 21 0 R 21 0 R 0 -136 R 22 0 R 21 0 R
0 97 R 21 0 R 21 0 R 0 -97 R 21 0 R 22 0 R 0 72 R 21 0 R 21 0 R 0 -302 R
21 0 R 21 0 R 0 41 R 21 0 R 22 0 R 0 -132 R 21 0 R 21 0 R 0 77 R 21 0 R
21 0 R 0 28 R 22 0 R 21 0 R 0 -174 R 21 0 R 21 0 R 0 116 R 21 0 R 22 0 R
0 -63 R 21 0 R 21 0 R 21 0 R 21 0 R 0 -112 R 22 0 R 21 0 R 0 -137 R 21 0 R
21 0 R 0 -82 R 21 0 R 22 0 R 0 29 R 21 0 R 21 0 R 0 -161 R 21 0 R 21 0 R
0 69 R 22 0 R 21 0 R 0 -69 R 21 0 R 21 0 R 0 -79 R 21 0 R 22 0 R 0 -143 R
21 0 R 21 0 R 0 184 R 21 0 R 21 0 R 0 -451 R 22 0 R 21 0 R 0 366 R 21 0 R
21 0 R 0 -565 R 21 0 R 22 0 R 0 199 R 21 0 R 21 0 R 0 -199 R 21 0 R 21 0 R
0 -541 R 22 0 R 21 0 R 0 239 R 21 0 R 21 0 R 0 -239 R 21 0 R 21 0 R
0 -1771 R 22 0 R 21 0 R 0 1771 R 21 0 R 21 0 R 0 -1771 R 21 0 R 22 0 R
0 1361 R 21 0 R 21 0 R 21 0 R 21 0 R 0 649 R 22 0 R 21 0 R 0 -2010 R 21 0 R
21 0 R 21 0 R 22 0 R 21 0 R 21 0 R 0 1361 R 21 0 R 21 0 R 0 -1361 R 22 0 R
21 0 R 0 1361 R 21 0 R 21 0 R 0 -1361 R 21 0 R 22 0 R 0 1361 R 21 0 R D
60 setlinewidth 1.000 0.000 0.000 setrgbcolor 5472 2541 M 43 100 R 42 98 R
42 96 R 43 95 R 42 94 R 43 92 R 42 91 R 42 89 R 43 87 R 42 86 R 43 85 R
42 83 R 42 81 R 43 81 R 42 78 R 43 77 R 42 76 R 42 74 R 43 73 R 42 71 R
43 69 R 42 68 R 42 67 R 43 65 R 42 64 R 42 62 R 43 61 R 42 59 R 43 57 R
42 57 R 42 54 R 43 53 R 42 52 R 43 50 R 42 49 R 42 47 R 43 46 R 42 44 R
43 42 R 42 42 R 42 39 R 43 39 R 42 36 R 43 35 R 42 34 R 42 32 R 43 31 R
42 29 R 43 28 R 42 26 R 42 25 R 43 23 R 42 22 R 42 20 R 43 19 R 42 17 R
43 16 R 42 14 R 42 13 R 43 11 R 42 10 R 43 8 R 42 7 R 42 5 R 43 4 R 42 2 R
43 1 R 42 -1 R 42 -2 R 43 -4 R 42 -5 R 43 -7 R 42 -8 R 42 -10 R 43 -11 R
42 -13 R 42 -14 R 43 -15 R 42 -18 R 43 -18 R 42 -20 R 42 -22 R 43 -23 R
42 -25 R 43 -26 R 42 -28 R 42 -29 R 43 -31 R 42 -32 R 43 -33 R 42 -36 R
42 -36 R 43 -38 R 42 -40 R 43 -41 R 42 -43 R 42 -44 R 43 -45 R 42 -48 R
42 -48 R 43 -50 R 42 -52 R 43 -53 R 42 -55 R 42 -56 R 43 -57 R 42 -59 R
43 -61 R 42 -62 R 42 -64 R 43 -65 R 42 -66 R 43 -68 R 42 -70 R 42 -71 R
43 -72 R 42 -75 R 43 -75 R 42 -77 R 42 -79 R 43 -80 R 42 -81 R 43 -83 R
42 -85 R 42 -86 R 43 -87 R 42 -89 R 42 -91 R 43 -92 R 42 -93 R 43 -95 R
42 -97 R 42 -98 R 43 -99 R 42 -101 R 43 -103 R 42 -104 R 42 -105 R 43 -107 R
D 10 setlinewidth 0.000 0.000 0.000 setrgbcolor 2866 6471 M 0 -163 R D
2866 6424 M 36 36 R 23 11 R 35 0 R 23 -11 R 12 -36 R 0 -116 R D 2995 6424 M
35 36 R 23 11 R 35 0 R 24 -11 R 12 -36 R 0 -116 R D 3205 6401 M 141 0 R
0 23 R -12 24 R -12 12 R -23 11 R -35 0 R -24 -11 R -23 -24 R -12 -35 R
0 -23 R 12 -35 R 23 -24 R 24 -11 R 35 0 R 23 11 R 24 24 R D 3556 6471 M
0 -163 R D 3556 6436 M -24 24 R -23 11 R -35 0 R -23 -11 R -24 -24 R
-11 -35 R 0 -23 R 11 -35 R 24 -24 R 23 -11 R 35 0 R 23 11 R 24 24 R D
3649 6471 M 0 -163 R D 3649 6424 M 35 36 R 24 11 R 35 0 R 23 -11 R 12 -36 R
0 -116 R D 4058 6448 M 211 0 R D 4058 6378 M 211 0 R D 4794 6553 M -35 -12 R
-23 -35 R -12 -58 R 0 -35 R 12 -59 R 23 -35 R 35 -11 R 24 0 R 35 11 R
23 35 R 12 59 R 0 35 R -12 58 R -23 35 R -35 12 R -24 0 R D 4981 6331 M
-11 -12 R 11 -11 R 12 11 R -12 12 R D 5227 6471 M -12 -35 R -23 -23 R
-35 -12 R -12 0 R -35 12 R -24 23 R -11 35 R 0 12 R 11 35 R 24 23 R 35 12 R
12 0 R 35 -12 R 23 -23 R 12 -47 R 0 -58 R -12 -59 R -23 -35 R -35 -11 R
-24 0 R -35 11 R -12 24 R D 5460 6471 M -11 -35 R -24 -23 R -35 -12 R
-11 0 R -35 12 R -24 23 R -12 35 R 0 12 R 12 35 R 24 23 R 35 12 R 11 0 R
35 -12 R 24 -23 R 11 -47 R 0 -58 R -11 -59 R -24 -35 R -35 -11 R -23 0 R
-35 11 R -12 24 R D 5694 6471 M -12 -35 R -23 -23 R -35 -12 R -12 0 R
-35 12 R -23 23 R -12 35 R 0 12 R 12 35 R 23 23 R 35 12 R 12 0 R 35 -12 R
23 -23 R 12 -47 R 0 -58 R -12 -59 R -23 -35 R -35 -11 R -23 0 R -35 11 R
-12 24 R D 5928 6518 M -12 23 R -35 12 R -23 0 R -35 -12 R -24 -35 R
-11 -58 R 0 -59 R 11 -46 R 24 -24 R 35 -11 R 11 0 R 35 11 R 24 24 R 11 35 R
0 11 R -11 35 R -24 24 R -35 12 R -11 0 R -35 -12 R -24 -24 R -11 -35 R D
6173 6553 M -117 -245 R D 6010 6553 M 163 0 R D 2866 6119 M 0 -163 R D
2866 6049 M 12 35 R 24 24 R 23 11 R 35 0 R D 3018 6119 M 0 -163 R D
3018 6072 M 35 36 R 24 11 R 35 0 R 23 -11 R 12 -36 R 0 -116 R D 3147 6072 M
35 36 R 23 11 R 35 0 R 24 -11 R 11 -36 R 0 -116 R D 3486 6084 M -12 24 R
-35 11 R -35 0 R -35 -11 R -12 -24 R 12 -23 R 23 -12 R 59 -12 R 23 -11 R
12 -24 R 0 -11 R -12 -24 R -35 -11 R -35 0 R -35 11 R -12 24 R D 3754 6096 M
211 0 R D 3754 6026 M 211 0 R D 4678 6201 M -36 -12 R -23 -35 R -12 -58 R
0 -35 R 12 -59 R 23 -35 R 36 -11 R 23 0 R 35 11 R 23 35 R 12 59 R 0 35 R
-12 58 R -23 35 R -35 12 R -23 0 R D 4864 5979 M -11 -12 R 11 -11 R 12 11 R
-12 12 R D 5028 6201 M -35 -12 R -23 -35 R -12 -58 R 0 -35 R 12 -59 R
23 -35 R 35 -11 R 23 0 R 35 11 R 24 35 R 12 59 R 0 35 R -12 58 R -24 35 R
-35 12 R -23 0 R D 5227 6154 M 23 12 R 35 35 R 0 -245 R D 5449 6201 M
128 0 R -70 -93 R 35 0 R 24 -12 R 11 -12 R 12 -35 R 0 -23 R -12 -35 R
-23 -24 R -35 -11 R -35 0 R -35 11 R -12 12 R -12 23 R D 5717 6201 M
-35 -12 R -11 -23 R 0 -23 R 11 -24 R 24 -11 R 46 -12 R 36 -12 R 23 -23 R
12 -24 R 0 -35 R -12 -23 R -12 -12 R -35 -11 R -47 0 R -35 11 R -11 12 R
-12 23 R 0 35 R 12 24 R 23 23 R 35 12 R 47 12 R 23 11 R 12 24 R 0 23 R
-12 23 R -35 12 R -47 0 R D 2878 5849 M 0 -199 R 12 -35 R 23 -11 R 24 0 R D
2843 5767 M 82 0 R D 3007 5849 M 0 -245 R D 3007 5720 M 35 36 R 23 11 R
35 0 R 24 -11 R 11 -36 R 0 -116 R D 3217 5697 M 140 0 R 0 23 R -11 24 R
-12 12 R -24 11 R -35 0 R -23 -11 R -23 -24 R -12 -35 R 0 -23 R 12 -35 R
23 -24 R 23 -11 R 35 0 R 24 11 R 23 24 R D 3486 5767 M -24 -11 R -23 -24 R
-12 -35 R 0 -23 R 12 -35 R 23 -24 R 24 -11 R 35 0 R 23 11 R 24 24 R 11 35 R
0 23 R -11 35 R -24 24 R -23 11 R -35 0 R D 3661 5767 M 0 -163 R D
3661 5697 M 12 35 R 23 24 R 23 11 R 35 0 R D 3790 5767 M 70 -163 R 70 163 R
D 3860 5604 M -24 -59 R -23 -23 R -23 -12 R -12 0 R D 4187 5744 M 210 0 R D
4187 5674 M 210 0 R D 5110 5849 M -35 -12 R -24 -35 R -11 -58 R 0 -35 R
11 -59 R 24 -35 R 35 -11 R 23 0 R 35 11 R 24 35 R 11 59 R 0 35 R -11 58 R
-24 35 R -35 12 R -23 0 R D 5297 5627 M -12 -12 R 12 -11 R 11 11 R -11 12 R
D 5460 5849 M -35 -12 R -23 -35 R -12 -58 R 0 -35 R 12 -59 R 23 -35 R
35 -11 R 24 0 R 35 11 R 23 35 R 12 59 R 0 35 R -12 58 R -23 35 R -35 12 R
-24 0 R D 5659 5802 M 23 12 R 35 35 R 0 -245 R D 5881 5849 M 129 0 R
-71 -93 R 35 0 R 24 -12 R 12 -12 R 11 -35 R 0 -23 R -11 -35 R -24 -24 R
-35 -11 R -35 0 R -35 11 R -12 12 R -11 23 R D 6243 5767 M -11 -35 R
-24 -23 R -35 -12 R -12 0 R -35 12 R -23 23 R -12 35 R 0 12 R 12 35 R
23 23 R 35 12 R 12 0 R 35 -12 R 24 -23 R 11 -47 R 0 -58 R -11 -59 R
-24 -35 R -35 -11 R -23 0 R -35 11 R -12 24 R D
%%PageTrailer
end
restore
showpage
%%PageResources: font Helvetica
%%Trailer
restore
%%Pages: 1
%%DocumentNeededResources: font Helvetica
%%EOF
