%!PS-Adobe-3.0
%%BoundingBox: 91 181 519 609
%%Title: Graphics produced by IDL
%%For: yssu@ArchTest, 
%%      /home/yssu/SURF2015/Thesis/point_source/bbody/moving_pivots/hists/newPSDHists
%%Creator: IDL Version 8.3 (linux x86_64 m64)
%%CreationDate: Thu May  5 00:50:11 2016
%%DocumentData: Clean7bit
%%Requirements: color
%%LanguageLevel: 2
%%PageOrder: Ascend
%%Pages: (atend)
%%DocumentNeededResources: (atend)
%%EndComments
%%BeginProlog
save
%+ prolog.ps -- Prolog for IDL generated PostScript files
%+ Copyright (c) 1988-2013 Exelis Visual Information Solutions, Inc. All Rights Reserved.
%v 5
/$IDL_DICT 40 dict def $IDL_DICT begin /bdef { bind def } bind def /C
{currentpoint newpath moveto} bdef /CP {currentpoint} bdef /D {currentpoint
stroke moveto} bdef /F {closepath fill} bdef /K { setgray } bdef /M {moveto}
bdef /N {rmoveto} bdef /P {lineto} bdef /R {rlineto} bdef /S {gsave show
grestore} bdef /X {currentpoint pop} bdef /Z {gsave currentpoint lineto 20
setlinewidth 1 setlinecap stroke grestore} bdef /L0 {[] 0 setdash} bdef /L1
{[40 100] 0 setdash} bdef /L2 {[200 200] 0 setdash} bdef /L3 {[200 100 50
100] 0 setdash} bdef /L4 {[300 100 50 100 50 100 50 100] 0 setdash} bdef /L5
{[400 200] 0 setdash} bdef /STDFONT { findfont exch scalefont setfont } bdef
/ISOFONT { findfont dup length dict begin { 1 index /FID ne {def} {pop pop}
ifelse } forall /Encoding ISOLatin1Encoding def currentdict end /idltmpfont
exch definefont exch scalefont setfont } bdef /ISOBULLET { gsave /Helvetica
findfont exch scalefont setfont (\267) show currentpoint grestore moveto}
bdef /MITERLIMIT { 2.5 setmiterlimit } bdef end
%%EndProlog
%%Page: 0 1
%%PageRequirements: color
%%PageResources: (atend)
%%PageOrientation: Portrait
%%PageBoundingBox: 91 181 519 609
%%BeginPageSetup
save
$IDL_DICT begin 91 181 translate 0.0283465 dup scale MITERLIMIT
%%IncludeResource: font Helvetica
423.333 /Helvetica STDFONT
%%EndPageSetup
40 setlinewidth L0 0.000 0.000 0.000 setrgbcolor 3330 2112 M 10784 0 R D
3330 2112 M 0 239 R D 3127 1471 M -2 -37 R 0 75 R F
3125 1509 M 0 -75 R -5 -33 R F
3125 1509 M -5 -108 R 0 140 R F
3120 1541 M 0 -140 R -9 -27 R F
3120 1541 M -9 -167 R 0 195 R F
3111 1569 M 0 -195 R -12 -23 R F
3111 1569 M -12 -218 R -1 241 R F
3098 1592 M 1 -241 R -16 -17 R F
3098 1592 M -15 -258 R 0 275 R F
3083 1609 M 0 -275 R -20 -13 R F
3083 1609 M -20 -288 R 0 301 R F
3063 1622 M 0 -301 R -1 151 R F
3063 1622 M -1 -150 R -1 26 R F
3063 1321 M -22 -7 R 3 64 R F
3063 1321 M -19 57 R 6 11 R F
3063 1321 M -13 68 R 6 15 R F
3063 1321 M -7 83 R 3 19 R F
3063 1321 M -4 102 R 2 22 R F
3063 1321 M -2 124 R 1 27 R F
3002 1365 M 12 -2 R 0 -51 R F
3014 1312 M 0 51 R 12 2 R F
3014 1312 M 12 53 R 15 -51 R F
3041 1314 M -15 51 R 10 5 R F
3041 1314 M -5 56 R 8 8 R F
2977 1389 M 7 -11 R 3 -64 R F
2987 1314 M -3 64 R 8 -8 R F
2987 1314 M 5 56 R 22 -58 R F
3014 1312 M -22 58 R 10 -5 R F
2966 1472 M 1 -27 R -3 -123 R F
2964 1322 M 3 123 R 2 -22 R F
2964 1322 M 5 101 R 18 -109 R F
2987 1314 M -18 109 R 3 -19 R F
2987 1314 M -15 90 R 5 -15 R F
3063 1622 M -2 -124 R -2 22 R F
3063 1622 M -4 -102 R -3 19 R F
3063 1622 M -7 -83 R -6 15 R F
3063 1622 M -13 -68 R -6 11 R F
3063 1622 M -19 -57 R -4 64 R F
3040 1629 M 4 -64 R -8 8 R F
3040 1629 M -4 -56 R -10 5 R F
3040 1629 M -14 -51 R -12 2 R F
3040 1629 M -26 -49 R 0 52 R F
3014 1580 M -12 -2 R 12 54 R F
3014 1632 M -12 -54 R -10 -5 R F
3014 1632 M -22 -59 R -5 56 R F
2987 1629 M 5 -56 R -8 -8 R F
2987 1629 M -3 -64 R -7 -11 R F
2977 1554 M -5 -15 R 15 90 R F
2987 1629 M -15 -90 R -3 -18 R F
2987 1629 M -18 -108 R -5 101 R F
2964 1622 M 5 -101 R -2 -23 R F
2964 1622 M 3 -124 R -1 -26 R F
2901 1472 M 2 37 R 0 -75 R F
2903 1434 M 0 75 R 5 33 R F
2903 1434 M 5 108 R 0 -141 R F
2908 1401 M 0 141 R 9 27 R F
2908 1401 M 9 168 R 0 -195 R F
2917 1374 M 0 195 R 12 23 R F
2917 1374 M 12 218 R 0 -241 R F
2929 1351 M 0 241 R 16 17 R F
2929 1351 M 16 258 R 0 -275 R F
2945 1334 M 0 275 R 19 13 R F
2945 1334 M 19 288 R 0 -300 R F
2964 1322 M 0 300 R 2 -150 R F
3236 1320 M -65 0 R 0 66 R F
3236 1320 M -65 66 R 65 0 R F
3410 1435 M 59 188 R 0 -303 R F
3469 1320 M 0 303 R 0 -186 R F
3469 1320 M 0 117 R 0 -50 R F
3469 1387 M 0 50 R 37 0 R F
3469 1387 M 37 50 R 0 -50 R F
3277 1442 M 115 181 R -115 -236 R F
3277 1387 M 115 236 R -67 -188 R F
3277 1387 M 48 48 R 84 -48 R F
3409 1387 M -84 48 R 85 0 R F
3409 1387 M 1 48 R -1 -115 R F
3409 1320 M 1 115 R 59 -115 R F
3410 1569 M -85 -134 R 67 188 R F
3410 1569 M -18 54 R 77 0 R F
3410 1569 M 59 54 R -59 -188 R F
3696 1419 M 4 97 R 13 -188 R F
3713 1328 M -13 188 R 17 -9 R F
3713 1328 M 4 179 R 12 -166 R F
3729 1341 M -12 166 R 15 -12 R F
3729 1341 M 3 154 R 10 -138 R F
3742 1357 M -10 138 R 12 -15 R F
3742 1357 M 2 123 R 8 -104 R F
3752 1376 M -8 104 R 8 -18 R F
3752 1376 M 0 86 R 5 -65 R F
3757 1397 M -5 65 R 6 -20 R F
3757 1397 M 1 45 R 1 -22 R F
3689 1385 M 4 9 R 1 -76 R F
3694 1318 M -1 76 R 2 12 R F
3694 1318 M 1 88 R 18 -78 R F
3713 1328 M -18 78 R 1 13 R F
3660 1362 M 9 3 R 4 -52 R F
3673 1313 M -4 52 R 8 5 R F
3673 1313 M 4 57 R 17 -52 R F
3694 1318 M -17 52 R 7 6 R F
3694 1318 M -10 58 R 5 9 R F
3650 1311 M -27 2 R 6 52 R F
3650 1311 M -21 54 R 10 -3 R F
3650 1311 M -11 51 R 11 -1 R F
3650 1311 M 0 50 R 10 1 R F
3650 1311 M 10 51 R 13 -49 R F
3623 1313 M -23 8 R 3 74 R F
3623 1313 M -20 82 R 5 -10 R F
3623 1313 M -15 72 R 5 -8 R F
3623 1313 M -10 64 R 8 -7 R F
3623 1313 M -2 57 R 8 -5 R F
3600 1321 M -20 12 R 3 275 R F
3600 1321 M -17 287 R 16 -107 R F
3600 1321 M -1 180 R 1 -82 R F
3600 1321 M 0 98 R 1 -13 R F
3600 1321 M 1 85 R 2 -11 R F
3700 1516 M -4 -97 R -1 12 R F
3700 1516 M -5 -85 R -2 10 R F
3700 1516 M -7 -75 R -4 9 R F
3700 1516 M -11 -66 R -6 8 R F
3700 1516 M -17 -58 R -3 63 R F
3680 1521 M 3 -63 R -7 6 R F
3680 1521 M -4 -57 R -8 4 R F
3680 1521 M -12 -53 R -9 3 R F
3680 1521 M -21 -50 R -1 52 R F
3658 1523 M 1 -52 R -10 51 R F
3649 1522 M 10 -51 R -11 1 R F
3649 1522 M -1 -50 R -7 49 R F
3641 1521 M 7 -49 R -11 -1 R F
3641 1521 M -4 -50 R -4 48 R F
3633 1519 M 4 -48 R -9 -3 R F
3633 1519 M -5 -51 R -3 49 R F
3625 1517 M 3 -49 R -8 -4 R F
3625 1517 M -5 -53 R -2 50 R F
3618 1514 M 2 -50 R -7 -6 R F
3618 1514 M -5 -56 R -2 52 R F
3611 1510 M 2 -52 R -6 -8 R F
3611 1510 M -4 -60 R -2 56 R F
3605 1506 M 2 -56 R -4 -9 R F
3605 1506 M -2 -65 R -2 -10 R F
3600 1419 M -1 82 R 6 5 R F
3600 1419 M 5 87 R -4 -75 R F
3583 1608 M -3 -275 R -14 256 R F
3566 1589 M 14 -256 R -16 17 R F
3566 1589 M -2 -239 R -12 215 R F
3552 1565 M 12 -215 R -13 22 R F
3552 1565 M -1 -193 R -9 164 R F
3542 1536 M 9 -164 R -9 26 R F
3542 1536 M 0 -138 R -6 105 R F
3536 1503 M 6 -105 R -6 31 R F
3536 1503 M 0 -74 R -2 36 R F
3751 1552 M -63 0 R 6 74 R F
3751 1552 M -57 74 R 16 -6 R F
3751 1552 M -41 68 R 13 -10 R F
3751 1552 M -28 58 R 12 -11 R F
3751 1552 M -16 47 R 8 -14 R F
3751 1552 M -8 33 R 6 -16 R F
3694 1626 M -6 -74 R -2 7 R F
3694 1626 M -8 -67 R -2 6 R F
3694 1626 M -10 -61 R -3 5 R F
3694 1626 M -13 -56 R -5 60 R F
3676 1630 M 5 -60 R -5 5 R F
3676 1630 M 0 -55 R -5 3 R F
3676 1630 M -5 -52 R -6 2 R F
3676 1630 M -11 -50 R -7 2 R F
3676 1630 M -18 -48 R -1 50 R F
3657 1632 M 1 -50 R -8 0 R F
3657 1632 M -7 -50 R -12 -1 R F
3657 1632 M -19 -51 R -9 -4 R F
3657 1632 M -28 -55 R 0 52 R F
3629 1629 M 0 -52 R -9 -6 R F
3629 1629 M -9 -58 R -7 -9 R F
3629 1629 M -16 -67 R -5 -12 R F
3629 1629 M -21 -79 R -4 71 R F
3604 1621 M 4 -71 R -4 -14 R F
3604 1621 M 0 -85 R -3 -16 R F
3604 1621 M -3 -101 R -2 -19 R F
3604 1621 M -5 -120 R -16 107 R F
6026 2112 M 0 239 R D 5823 1471 M -2 -37 R 0 75 R F
5821 1509 M 0 -75 R -5 -33 R F
5821 1509 M -5 -108 R 0 140 R F
5816 1541 M 0 -140 R -9 -27 R F
5816 1541 M -9 -167 R 0 195 R F
5807 1569 M 0 -195 R -12 -23 R F
5807 1569 M -12 -218 R -1 241 R F
5794 1592 M 1 -241 R -16 -17 R F
5794 1592 M -15 -258 R 0 275 R F
5779 1609 M 0 -275 R -20 -13 R F
5779 1609 M -20 -288 R 0 301 R F
5759 1622 M 0 -301 R -1 151 R F
5759 1622 M -1 -150 R -1 26 R F
5759 1321 M -23 -7 R 4 64 R F
5759 1321 M -19 57 R 6 11 R F
5759 1321 M -13 68 R 6 15 R F
5759 1321 M -7 83 R 3 19 R F
5759 1321 M -4 102 R 2 22 R F
5759 1321 M -2 124 R 1 27 R F
5698 1365 M 12 -2 R 0 -51 R F
5710 1312 M 0 51 R 12 2 R F
5710 1312 M 12 53 R 14 -51 R F
5736 1314 M -14 51 R 10 5 R F
5736 1314 M -4 56 R 8 8 R F
5673 1389 M 7 -11 R 3 -64 R F
5683 1314 M -3 64 R 8 -8 R F
5683 1314 M 5 56 R 22 -58 R F
5710 1312 M -22 58 R 10 -5 R F
5662 1472 M 1 -27 R -3 -123 R F
5660 1322 M 3 123 R 2 -22 R F
5660 1322 M 5 101 R 18 -109 R F
5683 1314 M -18 109 R 3 -19 R F
5683 1314 M -15 90 R 5 -15 R F
5759 1622 M -2 -124 R -2 22 R F
5759 1622 M -4 -102 R -3 19 R F
5759 1622 M -7 -83 R -6 15 R F
5759 1622 M -13 -68 R -6 11 R F
5759 1622 M -19 -57 R -4 64 R F
5736 1629 M 4 -64 R -8 8 R F
5736 1629 M -4 -56 R -10 5 R F
5736 1629 M -14 -51 R -12 2 R F
5736 1629 M -26 -49 R 0 52 R F
5710 1580 M -12 -2 R 12 54 R F
5710 1632 M -12 -54 R -10 -5 R F
5710 1632 M -22 -59 R -5 56 R F
5683 1629 M 5 -56 R -8 -8 R F
5683 1629 M -3 -64 R -7 -11 R F
5673 1554 M -5 -15 R 15 90 R F
5683 1629 M -15 -90 R -3 -18 R F
5683 1629 M -18 -108 R -5 101 R F
5660 1622 M 5 -101 R -2 -23 R F
5660 1622 M 3 -124 R -1 -26 R F
5597 1472 M 2 37 R 0 -75 R F
5599 1434 M 0 75 R 5 33 R F
5599 1434 M 5 108 R 0 -141 R F
5604 1401 M 0 141 R 9 27 R F
5604 1401 M 9 168 R 0 -195 R F
5613 1374 M 0 195 R 12 23 R F
5613 1374 M 12 218 R 0 -241 R F
5625 1351 M 0 241 R 16 17 R F
5625 1351 M 16 258 R 0 -275 R F
5641 1334 M 0 275 R 19 13 R F
5641 1334 M 19 288 R 0 -300 R F
5660 1322 M 0 300 R 2 -150 R F
5932 1320 M -65 0 R 0 66 R F
5932 1320 M -65 66 R 65 0 R F
6106 1435 M 60 188 R 0 -303 R F
6166 1320 M 0 303 R 0 -186 R F
6166 1320 M 0 117 R 0 -50 R F
6166 1387 M 0 50 R 36 0 R F
6166 1387 M 36 50 R 0 -50 R F
5973 1442 M 115 181 R -115 -236 R F
5973 1387 M 115 236 R -67 -188 R F
5973 1387 M 48 48 R 84 -48 R F
6105 1387 M -84 48 R 85 0 R F
6105 1387 M 1 48 R -1 -115 R F
6105 1320 M 1 115 R 60 -115 R F
6106 1569 M -85 -134 R 67 188 R F
6106 1569 M -18 54 R 78 0 R F
6106 1569 M 60 54 R -60 -188 R F
6383 1570 M -153 0 R 221 53 R F
6383 1570 M 68 53 R -64 -136 R F
6383 1570 M 4 -83 R -15 -31 R F
6383 1570 M -11 -114 R -12 -32 R F
6383 1570 M -23 -146 R 0 115 R F
6360 1539 M 0 -115 R -10 -33 R F
6360 1539 M -10 -148 R -6 -35 R F
6360 1539 M -16 -183 R -4 -36 R F
6360 1539 M -20 -219 R -1 189 R F
6340 1320 M -65 0 R 3 32 R F
6340 1320 M -62 32 R 6 32 R F
6340 1320 M -56 64 R 9 31 R F
6340 1320 M -47 95 R 12 32 R F
6340 1320 M -35 127 R 15 31 R F
6340 1320 M -20 158 R 19 31 R F
6451 1623 M 0 -47 R -24 -29 R F
6451 1623 M -24 -76 R -21 -29 R F
6451 1623 M -45 -105 R -19 -31 R F
6451 1623 M -221 -53 R 0 53 R F
8722 2112 M 0 239 R D 8519 1471 M -2 -37 R 0 75 R F
8517 1509 M 0 -75 R -5 -33 R F
8517 1509 M -5 -108 R 0 140 R F
8512 1541 M 0 -140 R -9 -27 R F
8512 1541 M -9 -167 R 0 195 R F
8503 1569 M 0 -195 R -12 -23 R F
8503 1569 M -12 -218 R -1 241 R F
8490 1592 M 1 -241 R -16 -17 R F
8490 1592 M -15 -258 R 0 275 R F
8475 1609 M 0 -275 R -20 -13 R F
8475 1609 M -20 -288 R 0 301 R F
8455 1622 M 0 -301 R -1 151 R F
8455 1622 M -1 -150 R -1 26 R F
8455 1321 M -22 -7 R 3 64 R F
8455 1321 M -19 57 R 6 11 R F
8455 1321 M -13 68 R 6 15 R F
8455 1321 M -7 83 R 3 19 R F
8455 1321 M -4 102 R 2 22 R F
8455 1321 M -2 124 R 1 27 R F
8394 1365 M 12 -2 R 0 -51 R F
8406 1312 M 0 51 R 12 2 R F
8406 1312 M 12 53 R 15 -51 R F
8433 1314 M -15 51 R 10 5 R F
8433 1314 M -5 56 R 8 8 R F
8369 1389 M 7 -11 R 3 -64 R F
8379 1314 M -3 64 R 8 -8 R F
8379 1314 M 5 56 R 22 -58 R F
8406 1312 M -22 58 R 10 -5 R F
8358 1472 M 1 -27 R -3 -123 R F
8356 1322 M 3 123 R 2 -22 R F
8356 1322 M 5 101 R 18 -109 R F
8379 1314 M -18 109 R 3 -19 R F
8379 1314 M -15 90 R 5 -15 R F
8455 1622 M -2 -124 R -2 22 R F
8455 1622 M -4 -102 R -3 19 R F
8455 1622 M -7 -83 R -6 15 R F
8455 1622 M -13 -68 R -6 11 R F
8455 1622 M -19 -57 R -4 64 R F
8432 1629 M 4 -64 R -8 8 R F
8432 1629 M -4 -56 R -10 5 R F
8432 1629 M -14 -51 R -12 2 R F
8432 1629 M -26 -49 R 0 52 R F
8406 1580 M -12 -2 R 12 54 R F
8406 1632 M -12 -54 R -10 -5 R F
8406 1632 M -22 -59 R -5 56 R F
8379 1629 M 5 -56 R -8 -8 R F
8379 1629 M -3 -64 R -7 -11 R F
8369 1554 M -5 -15 R 15 90 R F
8379 1629 M -15 -90 R -3 -18 R F
8379 1629 M -18 -108 R -5 101 R F
8356 1622 M 5 -101 R -2 -23 R F
8356 1622 M 3 -124 R -1 -26 R F
8293 1472 M 2 37 R 0 -75 R F
8295 1434 M 0 75 R 5 33 R F
8295 1434 M 5 108 R 0 -141 R F
8300 1401 M 0 141 R 9 27 R F
8300 1401 M 9 168 R 0 -195 R F
8309 1374 M 0 195 R 12 23 R F
8309 1374 M 12 218 R 0 -241 R F
8321 1351 M 0 241 R 16 17 R F
8321 1351 M 16 258 R 0 -275 R F
8337 1334 M 0 275 R 19 13 R F
8337 1334 M 19 288 R 0 -300 R F
8356 1322 M 0 300 R 2 -150 R F
8628 1320 M -65 0 R 0 66 R F
8628 1320 M -65 66 R 65 0 R F
8802 1435 M 59 188 R 0 -303 R F
8861 1320 M 0 303 R 0 -186 R F
8861 1320 M 0 117 R 0 -50 R F
8861 1387 M 0 50 R 37 0 R F
8861 1387 M 37 50 R 0 -50 R F
8669 1442 M 115 181 R -115 -236 R F
8669 1387 M 115 236 R -67 -188 R F
8669 1387 M 48 48 R 84 -48 R F
8801 1387 M -84 48 R 85 0 R F
8801 1387 M 1 48 R -1 -115 R F
8801 1320 M 1 115 R 59 -115 R F
8802 1569 M -85 -134 R 67 188 R F
8802 1569 M -18 54 R 77 0 R F
8802 1569 M 59 54 R -59 -188 R F
9076 1522 M 3 6 R 1 -90 R F
9080 1438 M -1 90 R 2 8 R F
9080 1438 M 1 98 R 3 -106 R F
9084 1430 M -3 106 R 1 8 R F
9084 1430 M -2 114 R 17 75 R F
9099 1619 M -17 -75 R -1 83 R F
9028 1507 M 10 0 R 0 -49 R F
9038 1458 M 0 49 R 10 0 R F
9038 1458 M 10 49 R 1 -50 R F
9049 1457 M -1 50 R 9 2 R F
9049 1457 M 8 52 R 1 -54 R F
9058 1455 M -1 54 R 7 3 R F
9058 1455 M 6 57 R 3 -61 R F
9067 1451 M -3 61 R 7 5 R F
9067 1451 M 4 66 R 3 -72 R F
9074 1445 M -3 72 R 5 5 R F
9074 1445 M 2 77 R 4 -84 R F
8997 1528 M 4 -6 R 2 -77 R F
9003 1445 M -2 77 R 5 -5 R F
9003 1445 M 3 72 R 4 -66 R F
9010 1451 M -4 66 R 6 -5 R F
9010 1451 M 2 61 R 7 -57 R F
9019 1455 M -7 57 R 7 -3 R F
9019 1455 M 0 54 R 9 -52 R F
9028 1457 M -9 52 R 9 -2 R F
9028 1457 M 0 50 R 10 -49 R F
8997 1438 M -4 -8 R 1 114 R F
8997 1438 M -3 106 R 1 -8 R F
8997 1438 M -2 98 R 2 -8 R F
8997 1438 M 0 90 R 6 -83 R F
9080 1383 M 4 8 R 1 -73 R F
9085 1318 M -1 73 R 2 9 R F
9085 1318 M 1 82 R 18 -74 R F
9104 1326 M -18 74 R 1 11 R F
9104 1326 M -17 85 R 12 208 R F
9099 1619 M -12 -208 R -1 10 R F
9099 1619 M -13 -198 R -2 9 R F
9081 1627 M 1 -83 R -1 9 R F
9081 1627 M 0 -74 R -2 7 R F
9081 1627 M -2 -67 R -4 6 R F
9081 1627 M -6 -61 R -5 6 R F
9081 1627 M -11 -55 R -6 4 R F
9081 1627 M -17 -51 R -3 55 R F
9061 1631 M 3 -55 R -8 3 R F
9061 1631 M -5 -52 R -8 2 R F
9061 1631 M -13 -50 R -10 1 R F
9061 1631 M -23 -49 R 0 50 R F
9038 1582 M -9 -1 R 9 51 R F
9038 1632 M -9 -51 R -9 -2 R F
9038 1632 M -18 -53 R -5 52 R F
9015 1631 M 5 -52 R -7 -3 R F
9015 1631 M -2 -55 R -7 -5 R F
9015 1631 M -9 -60 R -5 -5 R F
9015 1631 M -14 -65 R -4 -6 R F
9015 1631 M -18 -71 R -2 -8 R F
9015 1631 M -20 -79 R 0 75 R F
8995 1627 M 0 -75 R -1 -8 R F
8995 1627 M -1 -83 R -1 -114 R F
8995 1627 M -2 -197 R -3 -9 R F
8995 1627 M -5 -206 R -1 -10 R F
8995 1627 M -6 -216 R -12 208 R F
9148 1387 M -5 -19 R 1 76 R F
9148 1387 M -4 57 R 3 -11 R F
9148 1387 M -1 46 R 3 -12 R F
9148 1387 M 2 34 R 0 -13 R F
9124 1471 M 8 -8 R 2 -112 R F
9134 1351 M -2 112 R 7 -9 R F
9134 1351 M 5 103 R 4 -86 R F
9143 1368 M -4 86 R 5 -10 R F
9120 1337 M -16 -11 R 0 158 R F
9120 1337 M -16 147 R 11 -6 R F
9120 1337 M -5 141 R 9 -7 R F
9120 1337 M 4 134 R 10 -120 R F
9140 1566 M 2 -20 R -1 -10 R F
9140 1566 M 1 -30 R -1 -10 R F
9140 1566 M 0 -40 R -3 -9 R F
9140 1566 M -3 -49 R -2 65 R F
9137 1517 M -4 -8 R 2 73 R F
9135 1582 M -2 -73 R -6 -7 R F
9135 1582 M -8 -80 R -1 95 R F
9126 1597 M 1 -95 R -6 -7 R F
9126 1597 M -5 -102 R -7 114 R F
9114 1609 M 7 -114 R -8 -6 R F
9114 1609 M -1 -120 R -9 -5 R F
9104 1484 M 0 -158 R -5 293 R F
9104 1484 M -5 135 R 15 -10 R F
9049 1364 M 10 2 R 4 -53 R F
9063 1313 M -4 53 R 8 4 R F
9063 1313 M 4 57 R 18 -52 R F
9085 1318 M -18 52 R 7 6 R F
9085 1318 M -11 58 R 6 7 R F
9017 1366 M 10 -2 R 11 -53 R F
9038 1311 M -11 53 R 11 -1 R F
9038 1311 M 0 52 R 25 -50 R F
9063 1313 M -25 50 R 11 1 R F
9013 1313 M -22 5 R 1 72 R F
9013 1313 M -21 77 R 4 -8 R F
9013 1313 M -17 69 R 6 -7 R F
9013 1313 M -11 62 R 7 -5 R F
9013 1313 M -4 57 R 8 -4 R F
9013 1313 M 4 53 R 21 -55 R F
8991 1318 M -19 8 R 0 158 R F
8991 1318 M -19 166 R 5 135 R F
8991 1318 M -14 301 R 12 -208 R F
8991 1318 M -2 93 R 1 -11 R F
8991 1318 M -1 82 R 2 -10 R F
8943 1462 M 8 8 R 5 -133 R F
8956 1337 M -5 133 R 10 7 R F
8956 1337 M 5 140 R 11 -151 R F
8972 1326 M -11 151 R 11 7 R F
8929 1433 M 3 11 R 1 -76 R F
8933 1368 M -1 76 R 5 9 R F
8933 1368 M 4 85 R 6 -102 R F
8943 1351 M -6 102 R 6 9 R F
8943 1351 M 0 111 R 13 -125 R F
8928 1387 M -2 21 R 1 13 R F
8928 1387 M -1 34 R 2 12 R F
8928 1387 M 1 46 R 4 -65 R F
8949 1502 M 1 95 R 5 -101 R F
8955 1496 M -5 101 R 12 12 R F
8955 1496 M 7 113 R 1 -120 R F
8963 1489 M -1 120 R 15 10 R F
8963 1489 M 14 130 R -5 -135 R F
8944 1509 M -4 8 R 2 65 R F
8944 1509 M -2 73 R 8 15 R F
8944 1509 M 6 88 R -1 -95 R F
8937 1526 M -2 10 R 2 29 R F
8937 1526 M 0 39 R 5 17 R F
8937 1526 M 5 56 R -2 -65 R F
8937 1565 M -2 -29 R 0 10 R F
11418 2112 M 0 239 R D 11215 1471 M -2 -37 R 0 75 R F
11213 1509 M 0 -75 R -5 -33 R F
11213 1509 M -5 -108 R 0 140 R F
11208 1541 M 0 -140 R -9 -27 R F
11208 1541 M -9 -167 R 0 195 R F
11199 1569 M 0 -195 R -12 -23 R F
11199 1569 M -12 -218 R -1 241 R F
11186 1592 M 1 -241 R -16 -17 R F
11186 1592 M -15 -258 R 0 275 R F
11171 1609 M 0 -275 R -20 -13 R F
11171 1609 M -20 -288 R 0 301 R F
11151 1622 M 0 -301 R -1 151 R F
11151 1622 M -1 -150 R -1 26 R F
11151 1321 M -22 -7 R 3 64 R F
11151 1321 M -19 57 R 6 11 R F
11151 1321 M -13 68 R 6 15 R F
11151 1321 M -7 83 R 3 19 R F
11151 1321 M -4 102 R 2 22 R F
11151 1321 M -2 124 R 1 27 R F
11090 1365 M 12 -2 R 0 -51 R F
11102 1312 M 0 51 R 12 2 R F
11102 1312 M 12 53 R 15 -51 R F
11129 1314 M -15 51 R 10 5 R F
11129 1314 M -5 56 R 8 8 R F
11065 1389 M 7 -11 R 3 -64 R F
11075 1314 M -3 64 R 8 -8 R F
11075 1314 M 5 56 R 22 -58 R F
11102 1312 M -22 58 R 10 -5 R F
11054 1472 M 1 -27 R -3 -123 R F
11052 1322 M 3 123 R 2 -22 R F
11052 1322 M 5 101 R 18 -109 R F
11075 1314 M -18 109 R 3 -19 R F
11075 1314 M -15 90 R 5 -15 R F
11151 1622 M -2 -124 R -2 22 R F
11151 1622 M -4 -102 R -3 19 R F
11151 1622 M -7 -83 R -6 15 R F
11151 1622 M -13 -68 R -6 11 R F
11151 1622 M -19 -57 R -4 64 R F
11128 1629 M 4 -64 R -8 8 R F
11128 1629 M -4 -56 R -10 5 R F
11128 1629 M -14 -51 R -12 2 R F
11128 1629 M -26 -49 R 0 52 R F
11102 1580 M -12 -2 R 12 54 R F
11102 1632 M -12 -54 R -10 -5 R F
11102 1632 M -22 -59 R -5 56 R F
11075 1629 M 5 -56 R -8 -8 R F
11075 1629 M -3 -64 R -7 -11 R F
11065 1554 M -5 -15 R 15 90 R F
11075 1629 M -15 -90 R -3 -18 R F
11075 1629 M -18 -108 R -5 101 R F
11052 1622 M 5 -101 R -2 -23 R F
11052 1622 M 3 -124 R -1 -26 R F
10989 1472 M 2 37 R 0 -75 R F
10991 1434 M 0 75 R 5 33 R F
10991 1434 M 5 108 R 0 -141 R F
10996 1401 M 0 141 R 9 27 R F
10996 1401 M 9 168 R 0 -195 R F
11005 1374 M 0 195 R 12 23 R F
11005 1374 M 12 218 R 0 -241 R F
11017 1351 M 0 241 R 16 17 R F
11017 1351 M 16 258 R 0 -275 R F
11033 1334 M 0 275 R 19 13 R F
11033 1334 M 19 288 R 0 -300 R F
11052 1322 M 0 300 R 2 -150 R F
11324 1320 M -65 0 R 0 66 R F
11324 1320 M -65 66 R 65 0 R F
11498 1435 M 59 188 R 0 -303 R F
11557 1320 M 0 303 R 0 -186 R F
11557 1320 M 0 117 R 0 -50 R F
11557 1387 M 0 50 R 37 0 R F
11557 1387 M 37 50 R 0 -50 R F
11365 1442 M 115 181 R -115 -236 R F
11365 1387 M 115 236 R -67 -188 R F
11365 1387 M 48 48 R 84 -48 R F
11497 1387 M -84 48 R 85 0 R F
11497 1387 M 1 48 R -1 -115 R F
11497 1320 M 1 115 R 59 -115 R F
11498 1569 M -85 -134 R 67 188 R F
11498 1569 M -18 54 R 77 0 R F
11498 1569 M 59 54 R -59 -188 R F
11778 1423 M 2 19 R 16 -107 R F
11796 1335 M -16 107 R 19 168 R F
11796 1335 M 3 275 R 15 -256 R F
11814 1354 M -15 256 R 17 -17 R F
11814 1354 M 2 239 R 12 -215 R F
11828 1378 M -12 215 R 13 -22 R F
11828 1378 M 1 193 R 9 -165 R F
11838 1406 M -9 165 R 9 -27 R F
11838 1406 M 0 138 R 6 -104 R F
11844 1440 M -6 104 R 6 -31 R F
11844 1440 M 0 73 R 1 -35 R F
11766 1381 M 5 12 R 4 -72 R F
11775 1321 M -4 72 R 5 14 R F
11775 1321 M 1 86 R 20 -72 R F
11796 1335 M -20 72 R 2 16 R F
11730 1361 M 11 1 R 9 -49 R F
11750 1313 M -9 49 R 10 4 R F
11750 1313 M 1 53 R 24 -45 R F
11775 1321 M -24 45 R 8 6 R F
11775 1321 M -16 51 R 7 9 R F
11722 1311 M -19 1 R 0 56 R F
11722 1311 M -19 57 R 5 -3 R F
11722 1311 M -14 54 R 6 -3 R F
11722 1311 M -8 51 R 8 -1 R F
11722 1311 M 0 50 R 8 0 R F
11722 1311 M 8 50 R 20 -48 R F
11703 1312 M -18 4 R 6 74 R F
11703 1312 M -12 78 R 2 -7 R F
11703 1312 M -10 71 R 2 -6 R F
11703 1312 M -8 65 R 4 -5 R F
11703 1312 M -4 60 R 4 -4 R F
11691 1390 M -6 -74 R -15 7 R F
11691 1390 M -21 -67 R -14 9 R F
11691 1390 M -35 -58 R -11 12 R F
11691 1390 M -46 -46 R -9 13 R F
11691 1390 M -55 -33 R -5 16 R F
11691 1390 M -60 -17 R -3 18 R F
11779 1622 M 20 -12 R -19 -168 R F
11779 1622 M 1 -180 R -1 81 R F
11779 1622 M 0 -99 R -1 13 R F
11779 1622 M -1 -86 R -2 11 R F
11779 1622 M -3 -75 R -5 10 R F
11779 1622 M -8 -65 R -6 9 R F
11779 1622 M -14 -56 R -7 7 R F
11779 1622 M -21 -49 R -2 56 R F
11730 1421 M 1 50 R 8 -49 R F
11739 1422 M -8 49 R 11 1 R F
11739 1422 M 3 50 R 5 -49 R F
11747 1423 M -5 49 R 9 2 R F
11747 1423 M 4 51 R 3 -48 R F
11754 1426 M -3 48 R 8 5 R F
11754 1426 M 5 53 R 2 -50 R F
11761 1429 M -2 50 R 7 6 R F
11761 1429 M 5 56 R 2 -52 R F
11768 1433 M -2 52 R 6 7 R F
11768 1433 M 4 59 R 2 -55 R F
11774 1437 M -2 55 R 4 9 R F
11774 1437 M 2 64 R 4 -59 R F
11780 1442 M -4 59 R 2 11 R F
11780 1442 M -2 70 R 1 11 R F
11721 1420 M -22 2 R 4 57 R F
11721 1420 M -18 59 R 8 -5 R F
11721 1420 M -10 54 R 9 -2 R F
11721 1420 M -1 52 R 11 -1 R F
11721 1420 M 10 51 R -1 -50 R F
11699 1422 M -19 5 R 4 85 R F
11699 1422 M -15 90 R 2 -10 R F
11699 1422 M -13 80 R 4 -9 R F
11699 1422 M -9 71 R 6 -8 R F
11699 1422 M -3 63 R 7 -6 R F
11680 1427 M -18 9 R 4 179 R F
11680 1427 M -14 188 R 19 9 R F
11680 1427 M 5 197 R -2 -100 R F
11680 1427 M 3 97 R 1 -12 R F
11756 1629 M 2 -56 R -8 4 R F
11756 1629 M -6 -52 R -10 3 R F
11756 1629 M -16 -49 R -11 1 R F
11756 1629 M -27 -48 R 0 51 R F
11729 1581 M -10 -1 R 10 52 R F
11729 1632 M -10 -52 R -9 -2 R F
11729 1632 M -19 -54 R -4 52 R F
11706 1630 M 4 -52 R -8 -5 R F
11706 1630 M -4 -57 R -7 -7 R F
11695 1566 M -5 -8 R 16 72 R F
11706 1630 M -16 -72 R -4 -10 R F
11706 1630 M -20 -82 R -1 76 R F
11685 1624 M 1 -76 R -2 -11 R F
11685 1624 M -1 -87 R -1 -13 R F
11666 1615 M -4 -179 R -12 166 R F
11650 1602 M 12 -166 R -15 12 R F
11650 1602 M -3 -154 R -10 137 R F
11637 1585 M 10 -137 R -12 15 R F
11637 1585 M -2 -122 R -8 104 R F
11627 1567 M 8 -104 R -8 17 R F
11627 1567 M 0 -87 R -5 65 R F
11622 1545 M 5 -65 R -6 20 R F
11622 1545 M -1 -45 R -1 22 R F
14114 2112 M 0 239 R D 13911 1471 M -2 -37 R 0 75 R F
13909 1509 M 0 -75 R -5 -33 R F
13909 1509 M -5 -108 R 0 140 R F
13904 1541 M 0 -140 R -9 -27 R F
13904 1541 M -9 -167 R 0 195 R F
13895 1569 M 0 -195 R -12 -23 R F
13895 1569 M -12 -218 R -1 241 R F
13882 1592 M 1 -241 R -16 -17 R F
13882 1592 M -15 -258 R 0 275 R F
13867 1609 M 0 -275 R -19 -13 R F
13867 1609 M -19 -288 R -1 301 R F
13847 1622 M 1 -301 R -2 151 R F
13847 1622 M -1 -150 R -1 26 R F
13848 1321 M -23 -7 R 3 64 R F
13848 1321 M -20 57 R 6 11 R F
13848 1321 M -14 68 R 6 15 R F
13848 1321 M -8 83 R 3 19 R F
13848 1321 M -5 102 R 2 22 R F
13848 1321 M -3 124 R 1 27 R F
13786 1365 M 12 -2 R 0 -51 R F
13798 1312 M 0 51 R 12 2 R F
13798 1312 M 12 53 R 15 -51 R F
13825 1314 M -15 51 R 10 5 R F
13825 1314 M -5 56 R 8 8 R F
13761 1389 M 7 -11 R 3 -64 R F
13771 1314 M -3 64 R 8 -8 R F
13771 1314 M 5 56 R 22 -58 R F
13798 1312 M -22 58 R 10 -5 R F
13750 1472 M 1 -27 R -3 -123 R F
13748 1322 M 3 123 R 2 -22 R F
13748 1322 M 5 101 R 18 -109 R F
13771 1314 M -18 109 R 3 -19 R F
13771 1314 M -15 90 R 5 -15 R F
13847 1622 M -2 -124 R -2 22 R F
13847 1622 M -4 -102 R -3 19 R F
13847 1622 M -7 -83 R -6 15 R F
13847 1622 M -13 -68 R -6 11 R F
13847 1622 M -19 -57 R -4 64 R F
13824 1629 M 4 -64 R -8 8 R F
13824 1629 M -4 -56 R -10 5 R F
13824 1629 M -14 -51 R -12 2 R F
13824 1629 M -26 -49 R 0 52 R F
13798 1580 M -12 -2 R 12 54 R F
13798 1632 M -12 -54 R -10 -5 R F
13798 1632 M -22 -59 R -5 56 R F
13771 1629 M 5 -56 R -8 -8 R F
13771 1629 M -3 -64 R -7 -11 R F
13761 1554 M -5 -15 R 15 90 R F
13771 1629 M -15 -90 R -3 -18 R F
13771 1629 M -18 -108 R -5 101 R F
13748 1622 M 5 -101 R -2 -23 R F
13748 1622 M 3 -124 R -1 -26 R F
13685 1472 M 2 37 R 0 -75 R F
13687 1434 M 0 75 R 5 33 R F
13687 1434 M 5 108 R 0 -141 R F
13692 1401 M 0 141 R 9 27 R F
13692 1401 M 9 168 R 0 -195 R F
13701 1374 M 0 195 R 12 23 R F
13701 1374 M 12 218 R 0 -241 R F
13713 1351 M 0 241 R 16 17 R F
13713 1351 M 16 258 R 0 -275 R F
13729 1334 M 0 275 R 19 13 R F
13729 1334 M 19 288 R 0 -300 R F
13748 1322 M 0 300 R 2 -150 R F
14020 1320 M -65 0 R 0 66 R F
14020 1320 M -65 66 R 65 0 R F
14222 1418 M 2 99 R 13 -189 R F
14237 1328 M -13 189 R 18 -9 R F
14237 1328 M 5 180 R 12 -167 R F
14254 1341 M -12 167 R 15 -12 R F
14254 1341 M 3 155 R 11 -139 R F
14268 1357 M -11 139 R 13 -16 R F
14268 1357 M 2 123 R 8 -104 R F
14278 1376 M -8 104 R 9 -17 R F
14278 1376 M 1 87 R 5 -66 R F
14284 1397 M -5 66 R 5 -20 R F
14284 1397 M 0 46 R 2 -22 R F
14208 1376 M 6 8 R 3 -65 R F
14217 1319 M -3 65 R 4 10 R F
14217 1319 M 1 75 R 19 -66 R F
14237 1328 M -19 66 R 3 11 R F
14237 1328 M -16 77 R 1 13 R F
14182 1362 M 10 3 R 3 -52 R F
14195 1313 M -3 52 R 9 4 R F
14195 1313 M 6 56 R 16 -50 R F
14217 1319 M -16 50 R 7 7 R F
14170 1311 M -23 2 R 4 51 R F
14170 1311 M -19 53 R 9 -2 R F
14170 1311 M -10 51 R 10 -1 R F
14170 1311 M 0 50 R 12 1 R F
14170 1311 M 12 51 R 13 -49 R F
14147 1313 M -21 4 R 2 69 R F
14147 1313 M -19 73 R 4 -8 R F
14147 1313 M -15 65 R 5 -6 R F
14147 1313 M -10 59 R 7 -5 R F
14147 1313 M -3 54 R 7 -3 R F
14126 1317 M -18 8 R 15 79 R F
14126 1317 M -3 87 R 2 -10 R F
14126 1317 M -1 77 R 3 -8 R F
14123 1404 M -15 -79 R -15 11 R F
14123 1404 M -30 -68 R -13 13 R F
14123 1404 M -43 -55 R -9 16 R F
14123 1404 M -52 -39 R -6 18 R F
14123 1404 M -58 -21 R -3 21 R F
14224 1517 M -2 -99 R -1 13 R F
14224 1517 M -3 -86 R -3 10 R F
14224 1517 M -6 -76 R -4 10 R F
14224 1517 M -10 -66 R -6 8 R F
14224 1517 M -16 -58 R -4 63 R F
14208 1459 M -8 7 R 4 56 R F
14204 1522 M -4 -56 R -8 4 R F
14204 1522 M -12 -52 R -10 54 R F
14182 1524 M 10 -54 R -10 3 R F
14182 1524 M 0 -51 R -8 51 R F
14174 1524 M 8 -51 R -12 1 R F
14174 1524 M -4 -50 R -3 49 R F
14167 1523 M 3 -49 R -6 0 R F
14167 1523 M -3 -49 R -5 48 R F
14159 1522 M 5 -48 R -7 -1 R F
14159 1522 M -2 -49 R -5 47 R F
14152 1520 M 5 -47 R -5 -2 R F
14152 1520 M 0 -49 R -6 -2 R F
14152 1520 M -6 -51 R 0 49 R F
14146 1518 M 0 -49 R -5 -4 R F
14146 1518 M -5 -53 R -1 50 R F
14140 1515 M 1 -50 R -4 -3 R F
14140 1515 M -3 -53 R -3 49 R F
14134 1511 M 3 -49 R -4 -5 R F
14134 1511 M -1 -54 R -4 -5 R F
14134 1511 M -5 -59 R 0 56 R F
14129 1508 M 0 -56 R -36 171 R F
14129 1508 M -36 115 R 44 -53 R F
14137 1570 M -44 53 R 179 0 R F
14137 1570 M 135 53 R 0 -53 R F
14093 1623 M 36 -171 R -56 4 R F
14543 1471 M -2 -37 R 0 75 R F
14541 1509 M 0 -75 R -5 -33 R F
14541 1509 M -5 -108 R 0 140 R F
14536 1541 M 0 -140 R -9 -27 R F
14536 1541 M -9 -167 R 0 195 R F
14527 1569 M 0 -195 R -12 -23 R F
14527 1569 M -12 -218 R 0 241 R F
14515 1592 M 0 -241 R -16 -17 R F
14515 1592 M -16 -258 R 0 275 R F
14499 1609 M 0 -275 R -19 -13 R F
14499 1609 M -19 -288 R -1 301 R F
14479 1622 M 1 -301 R -2 151 R F
14479 1622 M -1 -150 R -1 26 R F
14480 1321 M -23 -7 R 3 64 R F
14480 1321 M -20 57 R 7 11 R F
14480 1321 M -13 68 R 5 15 R F
14480 1321 M -8 83 R 3 19 R F
14480 1321 M -5 102 R 2 22 R F
14480 1321 M -3 124 R 1 27 R F
14418 1365 M 12 -2 R 0 -51 R F
14430 1312 M 0 51 R 12 2 R F
14430 1312 M 12 53 R 15 -51 R F
14457 1314 M -15 51 R 10 5 R F
14457 1314 M -5 56 R 8 8 R F
14394 1389 M 6 -11 R 4 -64 R F
14404 1314 M -4 64 R 8 -8 R F
14404 1314 M 4 56 R 22 -58 R F
14430 1312 M -22 58 R 10 -5 R F
14382 1472 M 1 -27 R -2 -123 R F
14381 1322 M 2 123 R 2 -22 R F
14381 1322 M 4 101 R 19 -109 R F
14404 1314 M -19 109 R 4 -19 R F
14404 1314 M -15 90 R 5 -15 R F
14479 1622 M -2 -124 R -2 22 R F
14479 1622 M -4 -102 R -3 19 R F
14479 1622 M -7 -83 R -5 15 R F
14479 1622 M -12 -68 R -7 11 R F
14479 1622 M -19 -57 R -4 64 R F
14456 1629 M 4 -64 R -8 8 R F
14456 1629 M -4 -56 R -10 5 R F
14456 1629 M -14 -51 R -12 2 R F
14456 1629 M -26 -49 R 0 52 R F
14430 1580 M -12 -2 R 12 54 R F
14430 1632 M -12 -54 R -10 -5 R F
14430 1632 M -22 -59 R -4 56 R F
14404 1629 M 4 -56 R -8 -8 R F
14404 1629 M -4 -64 R -6 -11 R F
14394 1554 M -5 -15 R 15 90 R F
14404 1629 M -15 -90 R -4 -18 R F
14404 1629 M -19 -108 R -4 101 R F
14381 1622 M 4 -101 R -2 -23 R F
14381 1622 M 2 -124 R -1 -26 R F
14317 1472 M 2 37 R 0 -75 R F
14319 1434 M 0 75 R 5 33 R F
14319 1434 M 5 108 R 0 -141 R F
14324 1401 M 0 141 R 9 27 R F
14324 1401 M 9 168 R 0 -195 R F
14333 1374 M 0 195 R 12 23 R F
14333 1374 M 12 218 R 0 -241 R F
14345 1351 M 0 241 R 16 17 R F
14345 1351 M 16 258 R 0 -275 R F
14361 1334 M 0 275 R 20 13 R F
14361 1334 M 20 288 R 0 -300 R F
14381 1322 M 0 300 R 1 -150 R F
3600 2112 M 0 120 R D 3869 2112 M 0 120 R D 4139 2112 M 0 120 R D
4408 2112 M 0 120 R D 4678 2112 M 0 120 R D 4948 2112 M 0 120 R D
5217 2112 M 0 120 R D 5487 2112 M 0 120 R D 5756 2112 M 0 120 R D
6296 2112 M 0 120 R D 6565 2112 M 0 120 R D 6835 2112 M 0 120 R D
7104 2112 M 0 120 R D 7374 2112 M 0 120 R D 7644 2112 M 0 120 R D
7913 2112 M 0 120 R D 8183 2112 M 0 120 R D 8452 2112 M 0 120 R D
8992 2112 M 0 120 R D 9261 2112 M 0 120 R D 9531 2112 M 0 120 R D
9800 2112 M 0 120 R D 10070 2112 M 0 120 R D 10340 2112 M 0 120 R D
10609 2112 M 0 120 R D 10879 2112 M 0 120 R D 11148 2112 M 0 120 R D
11688 2112 M 0 120 R D 11957 2112 M 0 120 R D 12227 2112 M 0 120 R D
12496 2112 M 0 120 R D 12766 2112 M 0 120 R D 13036 2112 M 0 120 R D
13305 2112 M 0 120 R D 13575 2112 M 0 120 R D 13844 2112 M 0 120 R D
3330 14057 M 10784 0 R D 3330 14057 M 0 -239 R D 6026 14057 M 0 -239 R D
8722 14057 M 0 -239 R D 11418 14057 M 0 -239 R D 14114 14057 M 0 -239 R D
3600 14057 M 0 -119 R D 3869 14057 M 0 -119 R D 4139 14057 M 0 -119 R D
4408 14057 M 0 -119 R D 4678 14057 M 0 -119 R D 4948 14057 M 0 -119 R D
5217 14057 M 0 -119 R D 5487 14057 M 0 -119 R D 5756 14057 M 0 -119 R D
6296 14057 M 0 -119 R D 6565 14057 M 0 -119 R D 6835 14057 M 0 -119 R D
7104 14057 M 0 -119 R D 7374 14057 M 0 -119 R D 7644 14057 M 0 -119 R D
7913 14057 M 0 -119 R D 8183 14057 M 0 -119 R D 8452 14057 M 0 -119 R D
8992 14057 M 0 -119 R D 9261 14057 M 0 -119 R D 9531 14057 M 0 -119 R D
9800 14057 M 0 -119 R D 10070 14057 M 0 -119 R D 10340 14057 M 0 -119 R D
10609 14057 M 0 -119 R D 10879 14057 M 0 -119 R D 11148 14057 M 0 -119 R D
11688 14057 M 0 -119 R D 11957 14057 M 0 -119 R D 12227 14057 M 0 -119 R D
12496 14057 M 0 -119 R D 12766 14057 M 0 -119 R D 13036 14057 M 0 -119 R D
13305 14057 M 0 -119 R D 13575 14057 M 0 -119 R D 13844 14057 M 0 -119 R D
3330 2112 M 0 11945 R D 3330 2112 M 216 0 R D 2770 2263 M -1 -37 R 0 75 R F
2769 2301 M 0 -75 R -6 -33 R F
2769 2301 M -6 -108 R 0 140 R F
2763 2333 M 0 -140 R -8 -27 R F
2763 2333 M -8 -167 R 0 195 R F
2755 2361 M 0 -195 R -13 -23 R F
2755 2361 M -13 -218 R 0 241 R F
2742 2384 M 0 -241 R -15 -17 R F
2742 2384 M -15 -258 R -1 275 R F
2726 2401 M 1 -275 R -20 -13 R F
2726 2401 M -19 -288 R 0 301 R F
2707 2414 M 0 -301 R -1 151 R F
2707 2414 M -1 -150 R -1 26 R F
2707 2113 M -23 -7 R 4 64 R F
2707 2113 M -19 57 R 6 11 R F
2707 2113 M -13 68 R 5 15 R F
2707 2113 M -8 83 R 4 19 R F
2707 2113 M -4 102 R 2 22 R F
2707 2113 M -2 124 R 1 27 R F
2646 2157 M 12 -2 R 0 -51 R F
2658 2104 M 0 51 R 11 2 R F
2658 2104 M 11 53 R 15 -51 R F
2684 2106 M -15 51 R 10 5 R F
2684 2106 M -5 56 R 9 8 R F
2621 2181 M 7 -11 R 3 -64 R F
2631 2106 M -3 64 R 8 -8 R F
2631 2106 M 5 56 R 22 -58 R F
2658 2104 M -22 58 R 10 -5 R F
2610 2264 M 1 -27 R -3 -123 R F
2608 2114 M 3 123 R 2 -22 R F
2608 2114 M 5 101 R 18 -109 R F
2631 2106 M -18 109 R 3 -19 R F
2631 2106 M -15 90 R 5 -15 R F
2707 2414 M -2 -124 R -2 22 R F
2707 2414 M -4 -102 R -4 19 R F
2707 2414 M -8 -83 R -5 15 R F
2707 2414 M -13 -68 R -6 11 R F
2707 2414 M -19 -57 R -4 64 R F
2684 2421 M 4 -64 R -9 8 R F
2684 2421 M -5 -56 R -10 5 R F
2684 2421 M -15 -51 R -11 2 R F
2684 2421 M -26 -49 R 0 52 R F
2658 2372 M -12 -2 R 12 54 R F
2658 2424 M -12 -54 R -10 -5 R F
2658 2424 M -22 -59 R -5 56 R F
2631 2421 M 5 -56 R -8 -8 R F
2631 2421 M -3 -64 R -7 -11 R F
2621 2346 M -5 -15 R 15 90 R F
2631 2421 M -15 -90 R -3 -18 R F
2631 2421 M -18 -108 R -5 101 R F
2608 2414 M 5 -101 R -2 -23 R F
2608 2414 M 3 -124 R -1 -26 R F
2545 2264 M 2 37 R 0 -75 R F
2547 2226 M 0 75 R 5 33 R F
2547 2226 M 5 108 R 0 -141 R F
2552 2193 M 0 141 R 9 27 R F
2552 2193 M 9 168 R 0 -195 R F
2561 2166 M 0 195 R 12 23 R F
2561 2166 M 12 218 R 0 -241 R F
2573 2143 M 0 241 R 16 17 R F
2573 2143 M 16 258 R 0 -275 R F
2589 2126 M 0 275 R 19 13 R F
2589 2126 M 19 288 R 0 -300 R F
2608 2114 M 0 300 R 2 -150 R F
2880 2112 M -66 0 R 0 66 R F
2880 2112 M -66 66 R 66 0 R F
3082 2112 M -61 0 R 4 286 R F
3082 2112 M -57 286 R 5 12 R F
3082 2112 M -52 298 R 2 14 R F
3082 2112 M -50 312 R 50 0 R F
3021 2325 M -75 0 R 5 44 R F
3021 2325 M -70 44 R 19 1 R F
3021 2325 M -51 45 R 16 2 R F
3021 2325 M -35 47 R 14 4 R F
3021 2325 M -21 51 R 10 6 R F
3021 2325 M -11 57 R 9 7 R F
3021 2325 M -2 64 R 6 9 R F
3021 2325 M 4 73 R -4 -286 R F
2951 2369 M -5 -44 R 0 44 R F
3330 5098 M 216 0 R D 2703 4887 M -62 0 R 5 286 R F
2703 4887 M -57 286 R 4 12 R F
2703 4887 M -53 298 R 3 14 R F
2703 4887 M -50 312 R 50 0 R F
2641 5100 M -74 0 R 4 44 R F
2641 5100 M -70 44 R 19 1 R F
2641 5100 M -51 45 R 17 2 R F
2641 5100 M -34 47 R 13 4 R F
2641 5100 M -21 51 R 11 6 R F
2641 5100 M -10 57 R 8 7 R F
2641 5100 M -2 64 R 7 9 R F
2641 5100 M 5 73 R -5 -286 R F
2571 5144 M -4 -44 R 0 44 R F
2880 4887 M -66 0 R 0 66 R F
2880 4887 M -66 66 R 66 0 R F
3150 5038 M -2 -37 R 0 75 R F
3148 5076 M 0 -75 R -5 -33 R F
3148 5076 M -5 -108 R 0 140 R F
3143 5108 M 0 -140 R -9 -27 R F
3143 5108 M -9 -167 R 0 195 R F
3134 5136 M 0 -195 R -12 -23 R F
3134 5136 M -12 -218 R 0 241 R F
3122 5159 M 0 -241 R -16 -17 R F
3122 5159 M -16 -258 R 0 275 R F
3106 5176 M 0 -275 R -19 -12 R F
3106 5176 M -19 -287 R -1 300 R F
3086 5189 M 1 -300 R -2 150 R F
3086 5189 M -1 -150 R -1 26 R F
3087 4889 M -23 -8 R 3 64 R F
3087 4889 M -20 56 R 7 11 R F
3087 4889 M -13 67 R 5 15 R F
3087 4889 M -8 82 R 3 19 R F
3087 4889 M -5 101 R 2 22 R F
3087 4889 M -3 123 R 1 27 R F
3025 4932 M 12 -2 R 0 -51 R F
3037 4879 M 0 51 R 12 2 R F
3037 4879 M 12 53 R 15 -51 R F
3064 4881 M -15 51 R 10 5 R F
3064 4881 M -5 56 R 8 8 R F
3001 4956 M 6 -11 R 4 -64 R F
3011 4881 M -4 64 R 8 -8 R F
3011 4881 M 4 56 R 22 -58 R F
3037 4879 M -22 58 R 10 -5 R F
2989 5039 M 1 -27 R -2 -123 R F
2988 4889 M 2 123 R 2 -22 R F
2988 4889 M 4 101 R 19 -109 R F
3011 4881 M -19 109 R 4 -19 R F
3011 4881 M -15 90 R 5 -15 R F
3086 5189 M -2 -124 R -2 23 R F
3086 5189 M -4 -101 R -3 18 R F
3086 5189 M -7 -83 R -5 15 R F
3086 5189 M -12 -68 R -7 11 R F
3086 5189 M -19 -57 R -3 64 R F
3064 5196 M 3 -64 R -8 8 R F
3064 5196 M -5 -56 R -10 5 R F
3064 5196 M -15 -51 R -12 2 R F
3064 5196 M -27 -49 R 0 52 R F
3037 5147 M -12 -2 R 12 54 R F
3037 5199 M -12 -54 R -10 -5 R F
3037 5199 M -22 -59 R -4 56 R F
3011 5196 M 4 -56 R -8 -8 R F
3011 5196 M -4 -64 R -6 -11 R F
3001 5121 M -5 -15 R 15 90 R F
3011 5196 M -15 -90 R -4 -18 R F
3011 5196 M -19 -108 R -4 101 R F
2988 5189 M 4 -101 R -2 -23 R F
2988 5189 M 2 -124 R -1 -26 R F
2925 5039 M 1 37 R 0 -75 R F
2926 5001 M 0 75 R 6 33 R F
2926 5001 M 6 108 R 0 -141 R F
2932 4968 M 0 141 R 8 27 R F
2932 4968 M 8 168 R 0 -195 R F
2940 4941 M 0 195 R 13 23 R F
2940 4941 M 13 218 R 0 -241 R F
2953 4918 M 0 241 R 15 17 R F
2953 4918 M 15 258 R 0 -275 R F
2968 4901 M 0 275 R 20 13 R F
2968 4901 M 20 288 R 0 -300 R F
2988 4889 M 0 300 R 1 -150 R F
3330 8085 M 216 0 R D 2450 7873 M -62 0 R 5 287 R F
2450 7873 M -57 287 R 4 11 R F
2450 7873 M -53 298 R 3 14 R F
2450 7873 M -50 312 R 50 0 R F
2388 8086 M -74 0 R 5 44 R F
2388 8086 M -69 44 R 19 1 R F
2388 8086 M -50 45 R 16 2 R F
2388 8086 M -34 47 R 13 4 R F
2388 8086 M -21 51 R 11 6 R F
2388 8086 M -10 57 R 8 7 R F
2388 8086 M -2 64 R 7 10 R F
2388 8086 M 5 74 R -5 -287 R F
2319 8130 M -5 -44 R 0 44 R F
2770 8024 M -1 -37 R 0 75 R F
2769 8062 M 0 -75 R -6 -33 R F
2769 8062 M -6 -108 R 0 141 R F
2763 8095 M 0 -141 R -8 -27 R F
2763 8095 M -8 -168 R 0 195 R F
2755 8122 M 0 -195 R -13 -22 R F
2755 8122 M -13 -217 R 0 240 R F
2742 8145 M 0 -240 R -15 -18 R F
2742 8145 M -15 -258 R -1 276 R F
2726 8163 M 1 -276 R -20 -12 R F
2726 8163 M -19 -288 R 0 300 R F
2707 8175 M 0 -300 R -1 150 R F
2707 8175 M -1 -150 R -1 26 R F
2707 7875 M -23 -8 R 4 64 R F
2707 7875 M -19 56 R 6 12 R F
2707 7875 M -13 68 R 5 14 R F
2707 7875 M -8 82 R 4 19 R F
2707 7875 M -4 101 R 2 23 R F
2707 7875 M -2 124 R 1 26 R F
2646 7918 M 12 -1 R 0 -52 R F
2658 7865 M 0 52 R 11 1 R F
2658 7865 M 11 53 R 15 -51 R F
2684 7867 M -15 51 R 10 5 R F
2684 7867 M -5 56 R 9 8 R F
2621 7942 M 7 -11 R 3 -64 R F
2631 7867 M -3 64 R 8 -8 R F
2631 7867 M 5 56 R 22 -58 R F
2658 7865 M -22 58 R 10 -5 R F
2610 8025 M 1 -27 R -3 -123 R F
2608 7875 M 3 123 R 2 -22 R F
2608 7875 M 5 101 R 18 -109 R F
2631 7867 M -18 109 R 3 -19 R F
2631 7867 M -15 90 R 5 -15 R F
2707 8175 M -2 -124 R -2 23 R F
2707 8175 M -4 -101 R -4 18 R F
2707 8175 M -8 -83 R -5 15 R F
2707 8175 M -13 -68 R -6 11 R F
2707 8175 M -19 -57 R -4 65 R F
2684 8183 M 4 -65 R -9 8 R F
2684 8183 M -5 -57 R -10 5 R F
2684 8183 M -15 -52 R -11 2 R F
2684 8183 M -26 -50 R 0 52 R F
2658 8133 M -12 -2 R 12 54 R F
2658 8185 M -12 -54 R -10 -5 R F
2658 8185 M -22 -59 R -5 57 R F
2631 8183 M 5 -57 R -8 -8 R F
2631 8183 M -3 -65 R -7 -11 R F
2621 8107 M -5 -14 R 15 90 R F
2631 8183 M -15 -90 R -3 -19 R F
2631 8183 M -18 -109 R -5 101 R F
2608 8175 M 5 -101 R -2 -23 R F
2608 8175 M 3 -124 R -1 -26 R F
2545 8025 M 2 38 R 0 -76 R F
2547 7987 M 0 76 R 5 32 R F
2547 7987 M 5 108 R 0 -140 R F
2552 7955 M 0 140 R 9 28 R F
2552 7955 M 9 168 R 0 -196 R F
2561 7927 M 0 196 R 12 22 R F
2561 7927 M 12 218 R 0 -240 R F
2573 7905 M 0 240 R 16 18 R F
2573 7905 M 16 258 R 0 -276 R F
2589 7887 M 0 276 R 19 12 R F
2589 7887 M 19 288 R 0 -300 R F
2608 7875 M 0 300 R 2 -150 R F
2880 7873 M -66 0 R 0 66 R F
2880 7873 M -66 66 R 66 0 R F
3150 8024 M -2 -37 R 0 75 R F
3148 8062 M 0 -75 R -5 -33 R F
3148 8062 M -5 -108 R 0 141 R F
3143 8095 M 0 -141 R -9 -27 R F
3143 8095 M -9 -168 R 0 195 R F
3134 8122 M 0 -195 R -12 -22 R F
3134 8122 M -12 -217 R 0 240 R F
3122 8145 M 0 -240 R -16 -18 R F
3122 8145 M -16 -258 R 0 276 R F
3106 8163 M 0 -276 R -19 -12 R F
3106 8163 M -19 -288 R -1 300 R F
3086 8175 M 1 -300 R -2 150 R F
3086 8175 M -1 -150 R -1 26 R F
3087 7875 M -23 -8 R 3 64 R F
3087 7875 M -20 56 R 7 12 R F
3087 7875 M -13 68 R 5 14 R F
3087 7875 M -8 82 R 3 19 R F
3087 7875 M -5 101 R 2 23 R F
3087 7875 M -3 124 R 1 26 R F
3025 7918 M 12 -1 R 0 -52 R F
3037 7865 M 0 52 R 12 1 R F
3037 7865 M 12 53 R 15 -51 R F
3064 7867 M -15 51 R 10 5 R F
3064 7867 M -5 56 R 8 8 R F
3001 7942 M 6 -11 R 4 -64 R F
3011 7867 M -4 64 R 8 -8 R F
3011 7867 M 4 56 R 22 -58 R F
3037 7865 M -22 58 R 10 -5 R F
2989 8025 M 1 -27 R -2 -123 R F
2988 7875 M 2 123 R 2 -22 R F
2988 7875 M 4 101 R 19 -109 R F
3011 7867 M -19 109 R 4 -19 R F
3011 7867 M -15 90 R 5 -15 R F
3086 8175 M -2 -124 R -2 23 R F
3086 8175 M -4 -101 R -3 18 R F
3086 8175 M -7 -83 R -5 15 R F
3086 8175 M -12 -68 R -7 11 R F
3086 8175 M -19 -57 R -3 65 R F
3064 8183 M 3 -65 R -8 8 R F
3064 8183 M -5 -57 R -10 5 R F
3064 8183 M -15 -52 R -12 2 R F
3064 8183 M -27 -50 R 0 52 R F
3037 8133 M -12 -2 R 12 54 R F
3037 8185 M -12 -54 R -10 -5 R F
3037 8185 M -22 -59 R -4 57 R F
3011 8183 M 4 -57 R -8 -8 R F
3011 8183 M -4 -65 R -6 -11 R F
3001 8107 M -5 -14 R 15 90 R F
3011 8183 M -15 -90 R -4 -19 R F
3011 8183 M -19 -109 R -4 101 R F
2988 8175 M 4 -101 R -2 -23 R F
2988 8175 M 2 -124 R -1 -26 R F
2925 8025 M 1 38 R 0 -76 R F
2926 7987 M 0 76 R 6 32 R F
2926 7987 M 6 108 R 0 -140 R F
2932 7955 M 0 140 R 8 28 R F
2932 7955 M 8 168 R 0 -196 R F
2940 7927 M 0 196 R 13 22 R F
2940 7927 M 13 218 R 0 -240 R F
2953 7905 M 0 240 R 15 18 R F
2953 7905 M 15 258 R 0 -276 R F
2968 7887 M 0 276 R 20 12 R F
2968 7887 M 20 288 R 0 -300 R F
2988 7875 M 0 300 R 1 -150 R F
3330 11071 M 216 0 R D 2197 10860 M -61 0 R 4 286 R F
2197 10860 M -57 286 R 5 12 R F
2197 10860 M -52 298 R 2 13 R F
2197 10860 M -50 311 R 50 0 R F
2136 11073 M -75 0 R 5 43 R F
2136 11073 M -70 43 R 19 1 R F
2136 11073 M -51 44 R 16 3 R F
2136 11073 M -35 47 R 14 4 R F
2136 11073 M -21 51 R 10 5 R F
2136 11073 M -11 56 R 9 7 R F
2136 11073 M -2 63 R 6 10 R F
2136 11073 M 4 73 R -4 -286 R F
2066 11116 M -5 -43 R 0 43 R F
2518 11011 M -2 -38 R 0 75 R F
2516 11048 M 0 -75 R -5 -32 R F
2516 11048 M -5 -107 R 0 140 R F
2511 11081 M 0 -140 R -9 -28 R F
2511 11081 M -9 -168 R 0 196 R F
2502 11109 M 0 -196 R -12 -22 R F
2502 11109 M -12 -218 R 0 240 R F
2490 11131 M 0 -240 R -16 -18 R F
2490 11131 M -16 -258 R 0 276 R F
2474 11149 M 0 -276 R -19 -12 R F
2474 11149 M -19 -288 R -1 300 R F
2454 11161 M 1 -300 R -2 150 R F
2454 11161 M -1 -150 R -1 26 R F
2455 10861 M -23 -7 R 3 64 R F
2455 10861 M -20 57 R 7 11 R F
2455 10861 M -13 68 R 5 15 R F
2455 10861 M -8 83 R 3 18 R F
2455 10861 M -5 101 R 2 23 R F
2455 10861 M -3 124 R 1 26 R F
2393 10905 M 12 -2 R 0 -52 R F
2405 10851 M 0 52 R 12 2 R F
2405 10851 M 12 54 R 15 -51 R F
2432 10854 M -15 51 R 10 4 R F
2432 10854 M -5 55 R 8 9 R F
2368 10929 M 7 -12 R 3 -63 R F
2378 10854 M -3 63 R 8 -8 R F
2378 10854 M 5 55 R 22 -58 R F
2405 10851 M -22 58 R 10 -4 R F
2357 11011 M 1 -26 R -2 -124 R F
2356 10861 M 2 124 R 2 -23 R F
2356 10861 M 4 101 R 18 -108 R F
2378 10854 M -18 108 R 3 -19 R F
2378 10854 M -15 89 R 5 -14 R F
2454 11161 M -2 -124 R -2 23 R F
2454 11161 M -4 -101 R -3 19 R F
2454 11161 M -7 -82 R -5 14 R F
2454 11161 M -12 -68 R -7 12 R F
2454 11161 M -19 -56 R -4 64 R F
2431 11169 M 4 -64 R -8 8 R F
2431 11169 M -4 -56 R -10 4 R F
2431 11169 M -14 -52 R -12 2 R F
2431 11169 M -26 -50 R 0 52 R F
2405 11119 M -12 -1 R 12 53 R F
2405 11171 M -12 -53 R -10 -5 R F
2405 11171 M -22 -58 R -5 56 R F
2378 11169 M 5 -56 R -8 -8 R F
2378 11169 M -3 -64 R -7 -11 R F
2368 11094 M -5 -15 R 15 90 R F
2378 11169 M -15 -90 R -3 -19 R F
2378 11169 M -18 -109 R -4 101 R F
2356 11161 M 4 -101 R -2 -22 R F
2356 11161 M 2 -123 R -1 -27 R F
2292 11011 M 2 38 R 0 -76 R F
2294 10973 M 0 76 R 5 32 R F
2294 10973 M 5 108 R 0 -140 R F
2299 10941 M 0 140 R 9 28 R F
2299 10941 M 9 168 R 0 -196 R F
2308 10913 M 0 196 R 12 22 R F
2308 10913 M 12 218 R 0 -240 R F
2320 10891 M 0 240 R 16 18 R F
2320 10891 M 16 258 R 0 -275 R F
2336 10874 M 0 275 R 20 12 R F
2336 10874 M 20 287 R 0 -300 R F
2356 10861 M 0 300 R 1 -150 R F
2770 11011 M -1 -38 R 0 75 R F
2769 11048 M 0 -75 R -6 -32 R F
2769 11048 M -6 -107 R 0 140 R F
2763 11081 M 0 -140 R -8 -28 R F
2763 11081 M -8 -168 R 0 196 R F
2755 11109 M 0 -196 R -13 -22 R F
2755 11109 M -13 -218 R 0 240 R F
2742 11131 M 0 -240 R -15 -18 R F
2742 11131 M -15 -258 R -1 276 R F
2726 11149 M 1 -276 R -20 -12 R F
2726 11149 M -19 -288 R 0 300 R F
2707 11161 M 0 -300 R -1 150 R F
2707 11161 M -1 -150 R -1 26 R F
2707 10861 M -23 -7 R 4 64 R F
2707 10861 M -19 57 R 6 11 R F
2707 10861 M -13 68 R 5 15 R F
2707 10861 M -8 83 R 4 18 R F
2707 10861 M -4 101 R 2 23 R F
2707 10861 M -2 124 R 1 26 R F
2646 10905 M 12 -2 R 0 -52 R F
2658 10851 M 0 52 R 11 2 R F
2658 10851 M 11 54 R 15 -51 R F
2684 10854 M -15 51 R 10 4 R F
2684 10854 M -5 55 R 9 9 R F
2621 10929 M 7 -12 R 3 -63 R F
2631 10854 M -3 63 R 8 -8 R F
2631 10854 M 5 55 R 22 -58 R F
2658 10851 M -22 58 R 10 -4 R F
2610 11011 M 1 -26 R -3 -124 R F
2608 10861 M 3 124 R 2 -23 R F
2608 10861 M 5 101 R 18 -108 R F
2631 10854 M -18 108 R 3 -19 R F
2631 10854 M -15 89 R 5 -14 R F
2707 11161 M -2 -124 R -2 23 R F
2707 11161 M -4 -101 R -4 19 R F
2707 11161 M -8 -82 R -5 14 R F
2707 11161 M -13 -68 R -6 12 R F
2707 11161 M -19 -56 R -4 64 R F
2684 11169 M 4 -64 R -9 8 R F
2684 11169 M -5 -56 R -10 4 R F
2684 11169 M -15 -52 R -11 2 R F
2684 11169 M -26 -50 R 0 52 R F
2658 11119 M -12 -1 R 12 53 R F
2658 11171 M -12 -53 R -10 -5 R F
2658 11171 M -22 -58 R -5 56 R F
2631 11169 M 5 -56 R -8 -8 R F
2631 11169 M -3 -64 R -7 -11 R F
2621 11094 M -5 -15 R 15 90 R F
2631 11169 M -15 -90 R -3 -19 R F
2631 11169 M -18 -109 R -5 101 R F
2608 11161 M 5 -101 R -2 -22 R F
2608 11161 M 3 -123 R -1 -27 R F
2545 11011 M 2 38 R 0 -76 R F
2547 10973 M 0 76 R 5 32 R F
2547 10973 M 5 108 R 0 -140 R F
2552 10941 M 0 140 R 9 28 R F
2552 10941 M 9 168 R 0 -196 R F
2561 10913 M 0 196 R 12 22 R F
2561 10913 M 12 218 R 0 -240 R F
2573 10891 M 0 240 R 16 18 R F
2573 10891 M 16 258 R 0 -275 R F
2589 10874 M 0 275 R 19 12 R F
2589 10874 M 19 287 R 0 -300 R F
2608 10861 M 0 300 R 2 -150 R F
2880 10860 M -66 0 R 0 65 R F
2880 10860 M -66 65 R 66 0 R F
3150 11011 M -2 -38 R 0 75 R F
3148 11048 M 0 -75 R -5 -32 R F
3148 11048 M -5 -107 R 0 140 R F
3143 11081 M 0 -140 R -9 -28 R F
3143 11081 M -9 -168 R 0 196 R F
3134 11109 M 0 -196 R -12 -22 R F
3134 11109 M -12 -218 R 0 240 R F
3122 11131 M 0 -240 R -16 -18 R F
3122 11131 M -16 -258 R 0 276 R F
3106 11149 M 0 -276 R -19 -12 R F
3106 11149 M -19 -288 R -1 300 R F
3086 11161 M 1 -300 R -2 150 R F
3086 11161 M -1 -150 R -1 26 R F
3087 10861 M -23 -7 R 3 64 R F
3087 10861 M -20 57 R 7 11 R F
3087 10861 M -13 68 R 5 15 R F
3087 10861 M -8 83 R 3 18 R F
3087 10861 M -5 101 R 2 23 R F
3087 10861 M -3 124 R 1 26 R F
3025 10905 M 12 -2 R 0 -52 R F
3037 10851 M 0 52 R 12 2 R F
3037 10851 M 12 54 R 15 -51 R F
3064 10854 M -15 51 R 10 4 R F
3064 10854 M -5 55 R 8 9 R F
3001 10929 M 6 -12 R 4 -63 R F
3011 10854 M -4 63 R 8 -8 R F
3011 10854 M 4 55 R 22 -58 R F
3037 10851 M -22 58 R 10 -4 R F
2989 11011 M 1 -26 R -2 -124 R F
2988 10861 M 2 124 R 2 -23 R F
2988 10861 M 4 101 R 19 -108 R F
3011 10854 M -19 108 R 4 -19 R F
3011 10854 M -15 89 R 5 -14 R F
3086 11161 M -2 -124 R -2 23 R F
3086 11161 M -4 -101 R -3 19 R F
3086 11161 M -7 -82 R -5 14 R F
3086 11161 M -12 -68 R -7 12 R F
3086 11161 M -19 -56 R -3 64 R F
3064 11169 M 3 -64 R -8 8 R F
3064 11169 M -5 -56 R -10 4 R F
3064 11169 M -15 -52 R -12 2 R F
3064 11169 M -27 -50 R 0 52 R F
3037 11119 M -12 -1 R 12 53 R F
3037 11171 M -12 -53 R -10 -5 R F
3037 11171 M -22 -58 R -4 56 R F
3011 11169 M 4 -56 R -8 -8 R F
3011 11169 M -4 -64 R -6 -11 R F
3001 11094 M -5 -15 R 15 90 R F
3011 11169 M -15 -90 R -4 -19 R F
3011 11169 M -19 -109 R -4 101 R F
2988 11161 M 4 -101 R -2 -22 R F
2988 11161 M 2 -123 R -1 -27 R F
2925 11011 M 1 38 R 0 -76 R F
2926 10973 M 0 76 R 6 32 R F
2926 10973 M 6 108 R 0 -140 R F
2932 10941 M 0 140 R 8 28 R F
2932 10941 M 8 168 R 0 -196 R F
2940 10913 M 0 196 R 13 22 R F
2940 10913 M 13 218 R 0 -240 R F
2953 10891 M 0 240 R 15 18 R F
2953 10891 M 15 258 R 0 -275 R F
2968 10874 M 0 275 R 20 12 R F
2968 10874 M 20 287 R 0 -300 R F
2988 10861 M 0 300 R 1 -150 R F
3330 14057 M 216 0 R D 1944 13687 M -61 0 R 4 287 R F
1944 13687 M -57 287 R 5 11 R F
1944 13687 M -52 298 R 3 14 R F
1944 13687 M -49 312 R 49 0 R F
1883 13901 M -74 0 R 4 43 R F
1883 13901 M -70 43 R 19 1 R F
1883 13901 M -51 44 R 16 2 R F
1883 13901 M -35 46 R 14 4 R F
1883 13901 M -21 50 R 11 6 R F
1883 13901 M -10 56 R 8 7 R F
1883 13901 M -2 63 R 6 10 R F
1883 13901 M 4 73 R -4 -287 R F
1813 13944 M -4 -43 R 0 43 R F
2265 13839 M -2 -38 R 0 75 R F
2263 13876 M 0 -75 R -5 -33 R F
2263 13876 M -5 -108 R 0 141 R F
2258 13909 M 0 -141 R -9 -27 R F
2258 13909 M -9 -168 R 0 195 R F
2249 13936 M 0 -195 R -12 -22 R F
2249 13936 M -12 -217 R 0 240 R F
2237 13959 M 0 -240 R -16 -18 R F
2237 13959 M -16 -258 R 0 276 R F
2221 13977 M 0 -276 R -19 -12 R F
2221 13977 M -19 -288 R 0 300 R F
2202 13989 M 0 -300 R -2 150 R F
2202 13989 M -2 -150 R 0 26 R F
2202 13689 M -23 -8 R 3 64 R F
2202 13689 M -20 56 R 7 12 R F
2202 13689 M -13 68 R 5 15 R F
2202 13689 M -8 83 R 3 18 R F
2202 13689 M -5 101 R 3 23 R F
2202 13689 M -2 124 R 0 26 R F
2141 13732 M 11 -1 R 0 -52 R F
2152 13679 M 0 52 R 12 1 R F
2152 13679 M 12 53 R 15 -51 R F
2179 13681 M -15 51 R 10 5 R F
2179 13681 M -5 56 R 8 8 R F
2116 13756 M 6 -11 R 4 -64 R F
2126 13681 M -4 64 R 9 -8 R F
2126 13681 M 5 56 R 21 -58 R F
2152 13679 M -21 58 R 10 -5 R F
2104 13839 M 1 -26 R -2 -124 R F
2103 13689 M 2 124 R 2 -23 R F
2103 13689 M 4 101 R 19 -109 R F
2126 13681 M -19 109 R 4 -19 R F
2126 13681 M -15 90 R 5 -15 R F
2202 13989 M -2 -124 R -3 23 R F
2202 13989 M -5 -101 R -3 18 R F
2202 13989 M -8 -83 R -5 15 R F
2202 13989 M -13 -68 R -7 12 R F
2202 13989 M -20 -56 R -3 64 R F
2179 13997 M 3 -64 R -8 8 R F
2179 13997 M -5 -56 R -10 4 R F
2179 13997 M -15 -52 R -12 2 R F
2179 13997 M -27 -50 R 0 52 R F
2152 13947 M -11 -2 R 11 54 R F
2152 13999 M -11 -54 R -10 -4 R F
2152 13999 M -21 -58 R -5 56 R F
2126 13997 M 5 -56 R -9 -8 R F
2126 13997 M -4 -64 R -6 -12 R F
2116 13921 M -5 -14 R 15 90 R F
2126 13997 M -15 -90 R -4 -19 R F
2126 13997 M -19 -109 R -4 101 R F
2103 13989 M 4 -101 R -2 -23 R F
2103 13989 M 2 -124 R -1 -26 R F
2040 13839 M 1 38 R 0 -76 R F
2041 13801 M 0 76 R 6 32 R F
2041 13801 M 6 108 R 0 -140 R F
2047 13769 M 0 140 R 8 28 R F
2047 13769 M 8 168 R 0 -196 R F
2055 13741 M 0 196 R 13 22 R F
2055 13741 M 13 218 R 0 -240 R F
2068 13719 M 0 240 R 15 18 R F
2068 13719 M 15 258 R 0 -276 R F
2083 13701 M 0 276 R 20 12 R F
2083 13701 M 20 288 R 0 -300 R F
2103 13689 M 0 300 R 1 -150 R F
2518 13839 M -2 -38 R 0 75 R F
2516 13876 M 0 -75 R -5 -33 R F
2516 13876 M -5 -108 R 0 141 R F
2511 13909 M 0 -141 R -9 -27 R F
2511 13909 M -9 -168 R 0 195 R F
2502 13936 M 0 -195 R -12 -22 R F
2502 13936 M -12 -217 R 0 240 R F
2490 13959 M 0 -240 R -16 -18 R F
2490 13959 M -16 -258 R 0 276 R F
2474 13977 M 0 -276 R -19 -12 R F
2474 13977 M -19 -288 R -1 300 R F
2454 13989 M 1 -300 R -2 150 R F
2454 13989 M -1 -150 R -1 26 R F
2455 13689 M -23 -8 R 3 64 R F
2455 13689 M -20 56 R 7 12 R F
2455 13689 M -13 68 R 5 15 R F
2455 13689 M -8 83 R 3 18 R F
2455 13689 M -5 101 R 2 23 R F
2455 13689 M -3 124 R 1 26 R F
2393 13732 M 12 -1 R 0 -52 R F
2405 13679 M 0 52 R 12 1 R F
2405 13679 M 12 53 R 15 -51 R F
2432 13681 M -15 51 R 10 5 R F
2432 13681 M -5 56 R 8 8 R F
2368 13756 M 7 -11 R 3 -64 R F
2378 13681 M -3 64 R 8 -8 R F
2378 13681 M 5 56 R 22 -58 R F
2405 13679 M -22 58 R 10 -5 R F
2357 13839 M 1 -26 R -2 -124 R F
2356 13689 M 2 124 R 2 -23 R F
2356 13689 M 4 101 R 18 -109 R F
2378 13681 M -18 109 R 3 -19 R F
2378 13681 M -15 90 R 5 -15 R F
2454 13989 M -2 -124 R -2 23 R F
2454 13989 M -4 -101 R -3 18 R F
2454 13989 M -7 -83 R -5 15 R F
2454 13989 M -12 -68 R -7 12 R F
2454 13989 M -19 -56 R -4 64 R F
2431 13997 M 4 -64 R -8 8 R F
2431 13997 M -4 -56 R -10 4 R F
2431 13997 M -14 -52 R -12 2 R F
2431 13997 M -26 -50 R 0 52 R F
2405 13947 M -12 -2 R 12 54 R F
2405 13999 M -12 -54 R -10 -4 R F
2405 13999 M -22 -58 R -5 56 R F
2378 13997 M 5 -56 R -8 -8 R F
2378 13997 M -3 -64 R -7 -12 R F
2368 13921 M -5 -14 R 15 90 R F
2378 13997 M -15 -90 R -3 -19 R F
2378 13997 M -18 -109 R -4 101 R F
2356 13989 M 4 -101 R -2 -23 R F
2356 13989 M 2 -124 R -1 -26 R F
2292 13839 M 2 38 R 0 -76 R F
2294 13801 M 0 76 R 5 32 R F
2294 13801 M 5 108 R 0 -140 R F
2299 13769 M 0 140 R 9 28 R F
2299 13769 M 9 168 R 0 -196 R F
2308 13741 M 0 196 R 12 22 R F
2308 13741 M 12 218 R 0 -240 R F
2320 13719 M 0 240 R 16 18 R F
2320 13719 M 16 258 R 0 -276 R F
2336 13701 M 0 276 R 20 12 R F
2336 13701 M 20 288 R 0 -300 R F
2356 13689 M 0 300 R 1 -150 R F
2770 13839 M -1 -38 R 0 75 R F
2769 13876 M 0 -75 R -6 -33 R F
2769 13876 M -6 -108 R 0 141 R F
2763 13909 M 0 -141 R -8 -27 R F
2763 13909 M -8 -168 R 0 195 R F
2755 13936 M 0 -195 R -13 -22 R F
2755 13936 M -13 -217 R 0 240 R F
2742 13959 M 0 -240 R -15 -18 R F
2742 13959 M -15 -258 R -1 276 R F
2726 13977 M 1 -276 R -20 -12 R F
2726 13977 M -19 -288 R 0 300 R F
2707 13989 M 0 -300 R -1 150 R F
2707 13989 M -1 -150 R -1 26 R F
2707 13689 M -23 -8 R 4 64 R F
2707 13689 M -19 56 R 6 12 R F
2707 13689 M -13 68 R 5 15 R F
2707 13689 M -8 83 R 4 18 R F
2707 13689 M -4 101 R 2 23 R F
2707 13689 M -2 124 R 1 26 R F
2646 13732 M 12 -1 R 0 -52 R F
2658 13679 M 0 52 R 11 1 R F
2658 13679 M 11 53 R 15 -51 R F
2684 13681 M -15 51 R 10 5 R F
2684 13681 M -5 56 R 9 8 R F
2621 13756 M 7 -11 R 3 -64 R F
2631 13681 M -3 64 R 8 -8 R F
2631 13681 M 5 56 R 22 -58 R F
2658 13679 M -22 58 R 10 -5 R F
2610 13839 M 1 -26 R -3 -124 R F
2608 13689 M 3 124 R 2 -23 R F
2608 13689 M 5 101 R 18 -109 R F
2631 13681 M -18 109 R 3 -19 R F
2631 13681 M -15 90 R 5 -15 R F
2707 13989 M -2 -124 R -2 23 R F
2707 13989 M -4 -101 R -4 18 R F
2707 13989 M -8 -83 R -5 15 R F
2707 13989 M -13 -68 R -6 12 R F
2707 13989 M -19 -56 R -4 64 R F
2684 13997 M 4 -64 R -9 8 R F
2684 13997 M -5 -56 R -10 4 R F
2684 13997 M -15 -52 R -11 2 R F
2684 13997 M -26 -50 R 0 52 R F
2658 13947 M -12 -2 R 12 54 R F
2658 13999 M -12 -54 R -10 -4 R F
2658 13999 M -22 -58 R -5 56 R F
2631 13997 M 5 -56 R -8 -8 R F
2631 13997 M -3 -64 R -7 -12 R F
2621 13921 M -5 -14 R 15 90 R F
2631 13997 M -15 -90 R -3 -19 R F
2631 13997 M -18 -109 R -5 101 R F
2608 13989 M 5 -101 R -2 -23 R F
2608 13989 M 3 -124 R -1 -26 R F
2545 13839 M 2 38 R 0 -76 R F
2547 13801 M 0 76 R 5 32 R F
2547 13801 M 5 108 R 0 -140 R F
2552 13769 M 0 140 R 9 28 R F
2552 13769 M 9 168 R 0 -196 R F
2561 13741 M 0 196 R 12 22 R F
2561 13741 M 12 218 R 0 -240 R F
2573 13719 M 0 240 R 16 18 R F
2573 13719 M 16 258 R 0 -276 R F
2589 13701 M 0 276 R 19 12 R F
2589 13701 M 19 288 R 0 -300 R F
2608 13689 M 0 300 R 2 -150 R F
2880 13687 M -66 0 R 0 66 R F
2880 13687 M -66 66 R 66 0 R F
3150 13839 M -2 -38 R 0 75 R F
3148 13876 M 0 -75 R -5 -33 R F
3148 13876 M -5 -108 R 0 141 R F
3143 13909 M 0 -141 R -9 -27 R F
3143 13909 M -9 -168 R 0 195 R F
3134 13936 M 0 -195 R -12 -22 R F
3134 13936 M -12 -217 R 0 240 R F
3122 13959 M 0 -240 R -16 -18 R F
3122 13959 M -16 -258 R 0 276 R F
3106 13977 M 0 -276 R -19 -12 R F
3106 13977 M -19 -288 R -1 300 R F
3086 13989 M 1 -300 R -2 150 R F
3086 13989 M -1 -150 R -1 26 R F
3087 13689 M -23 -8 R 3 64 R F
3087 13689 M -20 56 R 7 12 R F
3087 13689 M -13 68 R 5 15 R F
3087 13689 M -8 83 R 3 18 R F
3087 13689 M -5 101 R 2 23 R F
3087 13689 M -3 124 R 1 26 R F
3025 13732 M 12 -1 R 0 -52 R F
3037 13679 M 0 52 R 12 1 R F
3037 13679 M 12 53 R 15 -51 R F
3064 13681 M -15 51 R 10 5 R F
3064 13681 M -5 56 R 8 8 R F
3001 13756 M 6 -11 R 4 -64 R F
3011 13681 M -4 64 R 8 -8 R F
3011 13681 M 4 56 R 22 -58 R F
3037 13679 M -22 58 R 10 -5 R F
2989 13839 M 1 -26 R -2 -124 R F
2988 13689 M 2 124 R 2 -23 R F
2988 13689 M 4 101 R 19 -109 R F
3011 13681 M -19 109 R 4 -19 R F
3011 13681 M -15 90 R 5 -15 R F
3086 13989 M -2 -124 R -2 23 R F
3086 13989 M -4 -101 R -3 18 R F
3086 13989 M -7 -83 R -5 15 R F
3086 13989 M -12 -68 R -7 12 R F
3086 13989 M -19 -56 R -3 64 R F
3064 13997 M 3 -64 R -8 8 R F
3064 13997 M -5 -56 R -10 4 R F
3064 13997 M -15 -52 R -12 2 R F
3064 13997 M -27 -50 R 0 52 R F
3037 13947 M -12 -2 R 12 54 R F
3037 13999 M -12 -54 R -10 -4 R F
3037 13999 M -22 -58 R -4 56 R F
3011 13997 M 4 -56 R -8 -8 R F
3011 13997 M -4 -64 R -6 -12 R F
3001 13921 M -5 -14 R 15 90 R F
3011 13997 M -15 -90 R -4 -19 R F
3011 13997 M -19 -109 R -4 101 R F
2988 13989 M 4 -101 R -2 -23 R F
2988 13989 M 2 -124 R -1 -26 R F
2925 13839 M 1 38 R 0 -76 R F
2926 13801 M 0 76 R 6 32 R F
2926 13801 M 6 108 R 0 -140 R F
2932 13769 M 0 140 R 8 28 R F
2932 13769 M 8 168 R 0 -196 R F
2940 13741 M 0 196 R 13 22 R F
2940 13741 M 13 218 R 0 -240 R F
2953 13719 M 0 240 R 15 18 R F
2953 13719 M 15 258 R 0 -276 R F
2968 13701 M 0 276 R 20 12 R F
2968 13701 M 20 288 R 0 -300 R F
2988 13689 M 0 300 R 1 -150 R F
3330 3011 M 108 0 R D 3330 3537 M 108 0 R D 3330 3910 M 108 0 R D
3330 4199 M 108 0 R D 3330 4436 M 108 0 R D 3330 4636 M 108 0 R D
3330 4809 M 108 0 R D 3330 4962 M 108 0 R D 3330 5997 M 108 0 R D
3330 6523 M 108 0 R D 3330 6896 M 108 0 R D 3330 7186 M 108 0 R D
3330 7422 M 108 0 R D 3330 7622 M 108 0 R D 3330 7795 M 108 0 R D
3330 7948 M 108 0 R D 3330 8984 M 108 0 R D 3330 9509 M 108 0 R D
3330 9882 M 108 0 R D 3330 10172 M 108 0 R D 3330 10408 M 108 0 R D
3330 10608 M 108 0 R D 3330 10781 M 108 0 R D 3330 10934 M 108 0 R D
3330 11970 M 108 0 R D 3330 12496 M 108 0 R D 3330 12869 M 108 0 R D
3330 13158 M 108 0 R D 3330 13395 M 108 0 R D 3330 13594 M 108 0 R D
3330 13768 M 108 0 R D 3330 13920 M 108 0 R D 14114 2112 M 0 11945 R D
14114 2112 M -216 0 R D 14114 5098 M -216 0 R D 14114 8085 M -216 0 R D
14114 11071 M -216 0 R D 14114 14057 M -216 0 R D 14114 3011 M -108 0 R D
14114 3537 M -108 0 R D 14114 3910 M -108 0 R D 14114 4199 M -108 0 R D
14114 4436 M -108 0 R D 14114 4636 M -108 0 R D 14114 4809 M -108 0 R D
14114 4962 M -108 0 R D 14114 5997 M -108 0 R D 14114 6523 M -108 0 R D
14114 6896 M -108 0 R D 14114 7186 M -108 0 R D 14114 7422 M -108 0 R D
14114 7622 M -108 0 R D 14114 7795 M -108 0 R D 14114 7948 M -108 0 R D
14114 8984 M -108 0 R D 14114 9509 M -108 0 R D 14114 9882 M -108 0 R D
14114 10172 M -108 0 R D 14114 10408 M -108 0 R D 14114 10608 M -108 0 R D
14114 10781 M -108 0 R D 14114 10934 M -108 0 R D 14114 11970 M -108 0 R D
14114 12496 M -108 0 R D 14114 12869 M -108 0 R D 14114 13158 M -108 0 R D
14114 13395 M -108 0 R D 14114 13594 M -108 0 R D 14114 13768 M -108 0 R D
14114 13920 M -108 0 R D 5157 5098 M 49 0 R 0 -2986 R 49 0 R 49 0 R 49 0 R
49 0 R 49 0 R 49 0 R 49 0 R 48 0 R 0 2986 R 49 0 R 49 0 R 0 -2986 R 49 0 R
49 0 R 49 0 R 49 0 R 0 2986 R 49 0 R 49 0 R 49 0 R 49 0 R 49 0 R 49 0 R
0 1425 R 49 0 R 49 0 R 0 -526 R 49 0 R 49 0 R 48 0 R 49 0 R 0 1951 R 49 0 R
49 0 R 0 -1052 R 49 0 R 49 0 R 0 290 R 49 0 R 49 0 R 0 1335 R 49 0 R 49 0 R
0 -96 R 49 0 R 49 0 R 0 185 R 49 0 R 49 0 R 0 855 R 49 0 R 49 0 R 0 128 R
49 0 R 48 0 R 49 0 R 49 0 R 0 353 R 49 0 R 49 0 R 0 200 R 49 0 R 49 0 R
0 77 R 49 0 R 49 0 R 0 440 R 49 0 R 49 0 R 0 -131 R 49 0 R 49 0 R 0 513 R
49 0 R 49 0 R 49 0 R 49 0 R 49 0 R 48 0 R 0 315 R 49 0 R 49 0 R 0 -10 R
49 0 R 49 0 R 0 306 R 49 0 R 49 0 R 0 -112 R 49 0 R 49 0 R 0 207 R 49 0 R
49 0 R 0 206 R 49 0 R 49 0 R 0 -74 R 49 0 R 49 0 R 0 181 R 49 0 R 49 0 R
0 169 R 48 0 R 49 0 R 0 -49 R 49 0 R 49 0 R 0 -79 R 49 0 R 49 0 R 0 165 R
49 0 R 49 0 R 0 -69 R 49 0 R 49 0 R 0 32 R 49 0 R 49 0 R 0 -88 R 49 0 R
49 0 R 0 17 R 49 0 R 49 0 R 0 66 R 49 0 R 48 0 R 0 -111 R 49 0 R 49 0 R
0 89 R 49 0 R 49 0 R 0 53 R 49 0 R 49 0 R 0 -322 R 49 0 R 49 0 R 0 145 R
49 0 R 49 0 R 0 -172 R 49 0 R 49 0 R 0 -20 R 49 0 R 49 0 R 0 -86 R 49 0 R
49 0 R 0 -234 R 48 0 R 49 0 R 0 -35 R 49 0 R 49 0 R 0 -124 R 49 0 R 49 0 R
0 -104 R 49 0 R 49 0 R 0 -249 R 49 0 R 49 0 R 0 -168 R 49 0 R 49 0 R
0 -378 R 49 0 R 49 0 R 0 151 R 49 0 R 49 0 R 0 -131 R 49 0 R 49 0 R 0 -145 R
48 0 R 49 0 R 0 -381 R 49 0 R 49 0 R 0 241 R 49 0 R 49 0 R 0 -695 R 49 0 R
49 0 R 0 -445 R 49 0 R 49 0 R 0 217 R 49 0 R 49 0 R 0 -51 R 49 0 R 49 0 R
0 -663 R 49 0 R 49 0 R 0 163 R 49 0 R 48 0 R 0 -688 R 49 0 R 49 0 R 0 -137 R
49 0 R 49 0 R 0 -1425 R 49 0 R 49 0 R 0 -1425 R 49 0 R 49 0 R 0 1425 R
49 0 R 49 0 R 0 -526 R 49 0 R 49 0 R 49 0 R 49 0 R 0 526 R 49 0 R 49 0 R
0 -526 R 48 0 R 49 0 R 0 -3885 R 49 0 R 49 0 R 0 2986 R 49 0 R 49 0 R 49 0 R
49 0 R 0 -2986 R 49 0 R 49 0 R 49 0 R 49 0 R 0 2986 R 49 0 R D
60 setlinewidth 1.000 0.000 0.000 setrgbcolor 5157 2464 M 98 432 R 98 422 R
98 412 R 98 403 R 97 392 R 98 383 R 98 374 R 98 363 R 98 354 R 98 344 R
98 334 R 98 325 R 97 315 R 98 305 R 98 295 R 98 286 R 98 275 R 98 266 R
98 257 R 98 246 R 98 237 R 97 227 R 98 218 R 98 208 R 98 197 R 98 189 R
98 178 R 98 169 R 98 159 R 98 149 R 97 139 R 98 130 R 98 120 R 98 110 R
98 101 R 98 91 R 98 81 R 98 71 R 97 61 R 98 52 R 98 42 R 98 33 R 98 22 R
98 13 R 98 3 R 98 -6 R 98 -17 R 97 -26 R 98 -36 R 98 -45 R 98 -56 R 98 -65 R
98 -75 R 98 -84 R 98 -94 R 97 -104 R 98 -114 R 98 -124 R 98 -133 R 98 -143 R
98 -153 R 98 -162 R 98 -172 R 98 -182 R 97 -192 R 98 -202 R 98 -211 R
98 -221 R 98 -230 R 98 -241 R 98 -250 R 98 -260 R 98 -269 R 97 -280 R
98 -289 R 98 -299 R 98 -308 R 98 -319 R 98 -328 R 98 -338 R 98 -347 R
97 -357 R 98 -367 R 98 -377 R 98 -387 R 98 -396 R 98 -406 R 98 -416 R D
0.000 0.000 0.000 setrgbcolor 3993 6553 M -3 -11 R 5 86 R F
3995 6628 M -5 -86 R -1 -14 R F
3995 6628 M -6 -100 R -3 90 R F
3986 6618 M 3 -90 R 0 -190 R F
3986 6618 M 3 -280 R -83 0 R F
3906 6338 M 0 315 R 80 0 R F
3906 6338 M 80 315 R 0 -35 R F
4171 6338 M -82 0 R 13 321 R F
4171 6338 M -69 321 R 12 -3 R F
4171 6338 M -57 318 R 11 -5 R F
4171 6338 M -46 313 R 10 -7 R F
4171 6338 M -36 306 R 10 -8 R F
4171 6338 M -26 298 R 9 -9 R F
4171 6338 M -17 289 R 8 -11 R F
4171 6338 M -9 278 R 8 10 R F
4171 6338 M -1 288 R 1 -97 R F
4089 6540 M -1 11 R 0 110 R F
4089 6540 M -1 121 R 14 -2 R F
4089 6540 M 13 119 R -13 -321 R F
4088 6661 M 0 -110 R -2 10 R F
4088 6661 M -2 -100 R -4 8 R F
4088 6661 M -6 -92 R -5 7 R F
4088 6661 M -11 -85 R -3 86 R F
4077 6576 M -7 6 R 4 80 R F
4074 6662 M -4 -80 R -8 4 R F
4074 6662 M -12 -76 R -1 75 R F
4061 6661 M 1 -75 R -9 2 R F
4061 6661 M -8 -73 R -4 71 R F
4049 6659 M 4 -71 R -10 1 R F
4049 6659 M -6 -70 R -6 67 R F
4037 6656 M 6 -67 R -12 -1 R F
4037 6656 M -6 -68 R -5 63 R F
4026 6651 M 5 -63 R -10 -3 R F
4026 6651 M -5 -66 R -6 60 R F
4015 6645 M 6 -60 R -9 -5 R F
4015 6645 M -3 -65 R -7 57 R F
4005 6637 M 7 -57 R -8 -7 R F
4005 6637 M -1 -64 R -6 -9 R F
3998 6564 M -5 -11 R 2 75 R F
3998 6564 M -3 64 R 10 9 R F
4355 6338 M -83 0 R 2 322 R F
4355 6338 M -81 322 R 20 -5 R F
4355 6338 M -61 317 R 18 -9 R F
4355 6338 M -43 308 R 15 -12 R F
4355 6338 M -28 296 R 12 -15 R F
4355 6338 M -16 281 R 9 -18 R F
4355 6338 M -7 263 R 5 -20 R F
4355 6338 M -2 243 R 2 -23 R F
4274 6660 M -2 -322 R 0 203 R F
4274 6660 M -2 -119 R -1 11 R F
4274 6660 M -3 -108 R -3 9 R F
4274 6660 M -6 -99 R -3 8 R F
4274 6660 M -9 -91 R -6 7 R F
4274 6660 M -15 -84 R -7 6 R F
4274 6660 M -22 -78 R 0 80 R F
4225 6589 M 0 70 R 10 -71 R F
4235 6588 M -10 71 R 13 2 R F
4235 6588 M 3 73 R 6 -75 R F
4244 6586 M -6 75 R 14 1 R F
4244 6586 M 8 76 R 0 -80 R F
4179 6564 M 1 72 R 6 -63 R F
4186 6573 M -6 63 R 10 8 R F
4186 6573 M 4 71 R 4 -64 R F
4194 6580 M -4 64 R 11 6 R F
4194 6580 M 7 70 R 2 -65 R F
4203 6585 M -2 65 R 12 5 R F
4203 6585 M 10 70 R 0 -67 R F
4213 6588 M 0 67 R 12 4 R F
4213 6588 M 12 71 R 0 -70 R F
4171 6529 M -1 97 R 2 -84 R F
4172 6542 M -2 84 R 10 10 R F
4172 6542 M 8 94 R -5 -82 R F
4175 6554 M 5 82 R -1 -72 R F
4706 6433 M -8 -23 R -11 -21 R F
4706 6433 M -19 -44 R -15 -18 R F
4706 6433 M -34 -62 R -17 -16 R F
4706 6433 M -51 -78 R -21 -12 R F
4706 6433 M -72 -90 R -12 90 R F
4600 6407 M 6 5 R 6 -78 R F
4612 6334 M -6 78 R 6 6 R F
4612 6334 M 0 84 R 22 -75 R F
4634 6343 M -22 75 R 5 7 R F
4634 6343 M -17 82 R 5 8 R F
4575 6399 M 9 1 R 3 -71 R F
4587 6329 M -3 71 R 8 3 R F
4587 6329 M 5 74 R 20 -69 R F
4612 6334 M -20 69 R 8 4 R F
4537 6403 M 13 -4 R 10 -72 R F
4560 6327 M -10 72 R 14 -1 R F
4560 6327 M 4 71 R 23 -69 R F
4587 6329 M -23 69 R 11 1 R F
4528 6330 M -29 8 R 2 118 R F
4528 6330 M -27 126 R 3 -15 R F
4528 6330 M -24 111 R 6 -13 R F
4528 6330 M -18 98 R 7 -11 R F
4528 6330 M -11 87 R 9 -8 R F
4528 6330 M -2 79 R 11 -6 R F
4528 6330 M 9 73 R 23 -76 R F
4411 6497 M 3 37 R 0 -74 R F
4414 6460 M 0 74 R 7 33 R F
4414 6460 M 7 107 R 0 -140 R F
4421 6427 M 0 140 R 13 28 R F
4421 6427 M 13 168 R 0 -197 R F
4434 6398 M 0 197 R 17 25 R F
4434 6398 M 17 222 R 0 -247 R F
4451 6373 M 0 247 R 21 19 R F
4451 6373 M 21 266 R 1 -286 R F
4473 6353 M -1 286 R 26 14 R F
4473 6353 M 25 300 R 1 -315 R F
4499 6338 M -1 315 R 1 -124 R F
4499 6338 M 0 191 R 0 -56 R F
4499 6473 M 0 56 R 124 0 R F
4499 6473 M 124 56 R 87 -56 R F
4710 6473 M -87 56 R 0 124 R F
4710 6473 M -87 180 R 26 -13 R F
4710 6495 M 0 -4 R 0 -4 R F
4710 6495 M 0 -8 R 0 -3 R F
4710 6495 M 0 -11 R 0 -2 R F
4710 6495 M 0 -13 R 0 -3 R F
4710 6495 M 0 -16 R 0 -2 R F
4710 6495 M 0 -18 R 0 -2 R F
4710 6495 M 0 -20 R 0 -2 R F
4710 6495 M 0 -22 R -2 60 R F
4710 6473 M -61 167 R 22 -20 R F
4710 6473 M -39 147 R 17 -24 R F
4710 6473 M -22 123 R 13 -29 R F
4710 6473 M -9 94 R 7 -34 R F
4623 6653 M 0 -124 R -1 15 R F
4623 6653 M -1 -109 R -4 13 R F
4623 6653 M -5 -96 R -5 11 R F
4623 6653 M -10 -85 R -7 9 R F
4623 6653 M -17 -76 R -9 7 R F
4623 6653 M -26 -69 R -4 78 R F
4593 6662 M 4 -78 R -10 6 R F
4593 6662 M -6 -72 R -12 3 R F
4593 6662 M -18 -69 R -14 1 R F
4593 6662 M -32 -68 R -2 70 R F
4561 6594 M -13 -1 R 11 71 R F
4559 6664 M -11 -71 R -12 -3 R F
4559 6664 M -23 -74 R -10 72 R F
4526 6662 M 10 -72 R -10 -6 R F
4526 6662 M 0 -78 R -9 -7 R F
4526 6662 M -9 -85 R -7 -9 R F
4526 6662 M -16 -94 R -5 -12 R F
4526 6662 M -21 -106 R -4 -13 R F
4526 6662 M -25 -119 R -3 110 R F
4499 6529 M -1 124 R 3 -110 R F
4501 6456 M -2 -118 R 0 135 R F
4840 6555 M -79 0 R 2 28 R F
4840 6555 M -77 28 R 6 21 R F
4840 6555 M -71 49 R 11 17 R F
4840 6555 M -60 66 R 15 16 R F
4840 6555 M -45 82 R 19 12 R F
4840 6555 M -26 94 R 22 8 R F
4840 6555 M -4 102 R 4 -98 R F
4944 6572 M 4 87 R -4 -96 R F
4944 6563 M 4 96 R -3 -166 R F
4944 6563 M 1 -70 R -4 59 R F
4941 6552 M 4 -59 R -10 -5 R F
4941 6552 M -6 -64 R -4 55 R F
4931 6543 M 4 -55 R -12 -4 R F
4931 6543 M -8 -59 R -9 52 R F
4914 6536 M 9 -52 R -12 -3 R F
4914 6536 M -3 -55 R -13 -4 R F
4914 6536 M -16 -59 R -7 55 R F
4891 6532 M 7 -55 R -12 -2 R F
4891 6532 M -5 -57 R -5 55 R F
4881 6530 M 5 -55 R -8 -2 R F
4881 6530 M -3 -57 R -6 -1 R F
4881 6530 M -9 -58 R -1 57 R F
4871 6529 M 1 -57 R -2 -1 R F
4871 6529 M -1 -58 R -7 57 R F
4863 6528 M 7 -57 R -10 -3 R F
4863 6528 M -3 -60 R -4 59 R F
4856 6527 M 4 -59 R -9 -4 R F
4856 6527 M -5 -63 R -7 -4 R F
4856 6527 M -12 -67 R -5 -5 R F
4856 6527 M -17 -72 R -4 -5 R F
4856 6527 M -21 -77 R -3 -6 R F
4856 6527 M -24 -83 R -2 78 R F
4832 6444 M -1 -7 R -1 85 R F
4830 6522 M 1 -85 R -1 -8 R F
4830 6522 M 0 -93 R -7 -101 R F
4823 6328 M 7 101 R 1 -8 R F
4823 6328 M 8 93 R 14 -95 R F
4845 6326 M -14 95 R 2 -8 R F
4845 6326 M -12 87 R 4 -6 R F
4863 6392 M 9 -1 R 5 -62 R F
4877 6329 M -5 62 R 16 1 R F
4877 6329 M 11 63 R 4 -59 R F
4892 6333 M -4 59 R 15 4 R F
4892 6333 M 11 63 R 2 -57 R F
4905 6339 M -2 57 R 12 6 R F
4905 6339 M 10 63 R 2 -56 R F
4917 6346 M -2 56 R 11 8 R F
4917 6346 M 9 64 R 3 -55 R F
4929 6355 M -3 55 R 8 11 R F
4929 6355 M 5 66 R 4 -56 R F
4938 6365 M -4 56 R 7 12 R F
4938 6365 M 3 68 R 6 -56 R F
4947 6377 M -6 56 R 3 14 R F
4947 6377 M -3 70 R 1 16 R F
4862 6327 M -17 -1 R 3 71 R F
4862 6327 M -14 70 R 7 -3 R F
4862 6327 M -7 67 R 8 -2 R F
4862 6327 M 1 65 R 14 -63 R F
4845 6326 M -8 81 R 5 -6 R F
4845 6326 M -3 75 R 6 -4 R F
4830 6522 M -7 -194 R -16 187 R F
4807 6515 M 16 -187 R -19 5 R F
4807 6515 M -3 -182 R -15 173 R F
4789 6506 M 15 -173 R -16 8 R F
4789 6506 M -1 -165 R -14 11 R F
4750 6427 M 1 21 R 0 -44 R F
4751 6404 M 0 44 R 5 18 R F
4751 6404 M 5 62 R 0 -82 R F
4756 6384 M 0 82 R 8 16 R F
4756 6384 M 8 98 R 0 -115 R F
4764 6367 M 0 115 R 10 13 R F
4764 6367 M 10 128 R 0 -143 R F
4774 6352 M 0 143 R 15 11 R F
5044 6338 M -88 0 R 75 28 R F
5044 6338 M -13 28 R 2 -4 R F
5044 6338 M -11 24 R 3 -4 R F
5044 6338 M -8 20 R 4 -3 R F
5044 6338 M -4 17 R 4 -3 R F
4991 6641 M 16 -12 R 20 -242 R F
5027 6387 M -20 242 R 11 -16 R F
5027 6387 M -9 226 R 8 -217 R F
5026 6396 M -8 217 R 6 -17 R F
5026 6396 M -2 200 R 2 -21 R F
5031 6366 M -75 -28 R 73 34 R F
5029 6372 M -73 -34 R 16 313 R F
5029 6372 M -57 279 R 55 -272 R F
5027 6379 M -55 272 R 19 -10 R F
5027 6379 M -36 262 R 36 -254 R F
4972 6651 M -16 -313 R -2 4 R F
4972 6651 M -18 -309 R -2 4 R F
4972 6651 M -20 -305 R -1 5 R F
4972 6651 M -21 -300 R -1 5 R F
4972 6651 M -22 -295 R -1 5 R F
4972 6651 M -23 -290 R -1 298 R F
4948 6659 M 1 -298 R -1 5 R F
4948 6659 M 0 -293 R -1 5 R F
4948 6659 M -1 -288 R 0 6 R F
4948 6659 M -1 -282 R -2 86 R F
4948 6659 M -3 -196 R 0 30 R F
4948 6659 M -4 -87 R -3 7 R F
4948 6659 M -7 -80 R -3 6 R F
4948 6659 M -10 -74 R -6 5 R F
4948 6659 M -16 -69 R -7 4 R F
4948 6659 M -23 -65 R -4 69 R F
4921 6663 M 4 -69 R -8 2 R F
4921 6663 M -4 -67 R -11 2 R F
4921 6663 M -15 -65 R -13 0 R F
4921 6663 M -28 -65 R -3 66 R F
4893 6598 M -12 0 R 9 66 R F
4890 6664 M -9 -66 R -11 -2 R F
4890 6664 M -20 -68 R -9 67 R F
4861 6663 M 9 -67 R -9 -3 R F
4861 6663 M 0 -70 R -8 -5 R F
4861 6663 M -8 -75 R -5 -5 R F
4861 6663 M -13 -80 R -5 -7 R F
4861 6663 M -18 -87 R -2 -8 R F
4861 6663 M -20 -95 R -5 89 R F
4836 6657 M 5 -89 R -1 -9 R F
4763 6583 M -2 -28 R 0 5 R F
5189 6552 M -3 -13 R 6 87 R F
5192 6626 M -6 -87 R -1 -14 R F
5192 6626 M -7 -101 R -2 91 R F
5183 6616 M 2 -91 R 0 -187 R F
5183 6616 M 2 -278 R -85 0 R F
5100 6338 M 0 315 R 83 0 R F
5100 6338 M 83 315 R 0 -37 R F
5383 6338 M -85 0 R 5 322 R F
5383 6338 M -80 322 R 21 -5 R F
5383 6338 M -59 317 R 18 -9 R F
5383 6338 M -41 308 R 15 -12 R F
5383 6338 M -26 296 R 11 -15 R F
5383 6338 M -15 281 R 8 -19 R F
5383 6338 M -7 262 R 5 -22 R F
5383 6338 M -2 240 R 2 -25 R F
5303 6660 M -5 -322 R 0 190 R F
5303 6660 M -5 -132 R -1 16 R F
5303 6660 M -6 -116 R -2 13 R F
5303 6660 M -8 -103 R -3 11 R F
5303 6660 M -11 -92 R -5 9 R F
5303 6660 M -16 -83 R -7 6 R F
5303 6660 M -23 -77 R -2 78 R F
5202 6573 M 0 63 R 10 -55 R F
5212 6581 M -10 55 R 11 8 R F
5212 6581 M 1 63 R 10 -57 R F
5223 6587 M -10 57 R 12 6 R F
5223 6587 M 2 63 R 10 -60 R F
5235 6590 M -10 60 R 12 5 R F
5235 6590 M 2 65 R 12 -64 R F
5249 6591 M -12 64 R 13 4 R F
5249 6591 M 1 68 R 11 -69 R F
5261 6590 M -11 69 R 14 2 R F
5261 6590 M 3 71 R 8 -73 R F
5272 6588 M -8 73 R 14 0 R F
5272 6588 M 6 73 R 2 -78 R F
5194 6564 M -5 -12 R 3 74 R F
5194 6564 M -2 62 R 10 10 R F
5194 6564 M 8 72 R 0 -63 R F
5661 6424 M 0 57 R 348 0 R F
5661 6424 M 348 57 R 0 -57 R F
5661 6549 M 0 57 R 348 0 R F
5661 6549 M 348 57 R 0 -57 R F
7246 6539 M -3 -50 R 0 100 R F
7243 6589 M 0 -100 R -7 -44 R F
7243 6589 M -7 -144 R 0 188 R F
7236 6633 M 0 -188 R -11 -36 R F
7236 6633 M -11 -224 R -1 260 R F
7224 6669 M 1 -260 R -17 -30 R F
7224 6669 M -16 -290 R 0 321 R F
7208 6700 M 0 -321 R -21 -23 R F
7208 6700 M -21 -344 R 0 367 R F
7187 6723 M 0 -367 R -26 -17 R F
7187 6723 M -26 -384 R 0 401 R F
7161 6740 M 0 -401 R -2 201 R F
7161 6740 M -2 -200 R -1 35 R F
7161 6339 M -30 -9 R 4 85 R F
7161 6339 M -26 76 R 9 15 R F
7161 6339 M -17 91 R 7 20 R F
7161 6339 M -10 111 R 5 25 R F
7161 6339 M -5 136 R 2 30 R F
7161 6339 M -3 166 R 1 35 R F
7080 6397 M 15 -2 R 0 -69 R F
7095 6326 M 0 69 R 16 2 R F
7095 6326 M 16 71 R 20 -67 R F
7131 6330 M -20 67 R 13 7 R F
7131 6330 M -7 74 R 11 11 R F
7047 6430 M 8 -15 R 5 -85 R F
7060 6330 M -5 85 R 11 -11 R F
7060 6330 M 6 74 R 29 -78 R F
7095 6326 M -29 78 R 14 -7 R F
7031 6540 M 1 -36 R -3 -165 R F
7029 6339 M 3 165 R 3 -30 R F
7029 6339 M 6 135 R 25 -144 R F
7060 6330 M -25 144 R 5 -25 R F
7060 6330 M -20 119 R 7 -19 R F
7161 6740 M -3 -165 R -2 30 R F
7161 6740 M -5 -135 R -5 25 R F
7161 6740 M -10 -110 R -7 19 R F
7161 6740 M -17 -91 R -9 15 R F
7161 6740 M -26 -76 R -4 86 R F
7131 6750 M 4 -86 R -11 11 R F
7131 6750 M -7 -75 R -13 6 R F
7131 6750 M -20 -69 R -16 3 R F
7131 6750 M -36 -66 R 0 69 R F
7095 6684 M -15 -3 R 15 72 R F
7095 6753 M -15 -72 R -14 -6 R F
7095 6753 M -29 -78 R -6 75 R F
7060 6750 M 6 -75 R -11 -11 R F
7060 6750 M -5 -86 R -8 -15 R F
7047 6649 M -7 -19 R 20 120 R F
7060 6750 M -20 -120 R -5 -25 R F
7060 6750 M -25 -145 R -6 135 R F
7029 6740 M 6 -135 R -3 -30 R F
7029 6740 M 3 -165 R -1 -35 R F
6945 6540 M 3 50 R 0 -101 R F
6948 6489 M 0 101 R 7 43 R F
6948 6489 M 7 144 R 0 -187 R F
6955 6446 M 0 187 R 11 37 R F
6955 6446 M 11 224 R 0 -261 R F
6966 6409 M 0 261 R 17 30 R F
6966 6409 M 17 291 R 0 -321 R F
6983 6379 M 0 321 R 21 23 R F
6983 6379 M 21 344 R 0 -367 R F
7004 6356 M 0 367 R 25 17 R F
7004 6356 M 25 384 R 0 -401 R F
7029 6339 M 0 401 R 2 -200 R F
7392 6338 M -88 0 R 0 87 R F
7392 6338 M -88 87 R 88 0 R F
7624 6491 M 79 250 R 0 -403 R F
7703 6338 M 0 403 R 0 -248 R F
7703 6338 M 0 155 R 0 -66 R F
7703 6427 M 0 66 R 48 0 R F
7703 6427 M 48 66 R 0 -66 R F
7446 6500 M 154 241 R -154 -314 R F
7446 6427 M 154 314 R -89 -250 R F
7446 6427 M 65 64 R 111 -64 R F
7622 6427 M -111 64 R 113 0 R F
7622 6427 M 2 64 R -2 -153 R F
7622 6338 M 2 153 R 79 -153 R F
7624 6669 M -113 -178 R 89 250 R F
7624 6669 M -24 72 R 103 0 R F
7624 6669 M 79 72 R -79 -250 R F
7988 6607 M 5 8 R 0 -120 R F
7993 6495 M 0 120 R 3 10 R F
7993 6495 M 3 130 R 3 -141 R F
7999 6484 M -3 141 R 1 11 R F
7999 6484 M -2 152 R 23 101 R F
8020 6737 M -23 -101 R -1 110 R F
7925 6587 M 13 0 R 1 -65 R F
7939 6522 M -1 65 R 13 0 R F
7939 6522 M 12 65 R 2 -66 R F
7953 6521 M -2 66 R 12 3 R F
7953 6521 M 10 69 R 2 -73 R F
7965 6517 M -2 73 R 10 4 R F
7965 6517 M 8 77 R 3 -82 R F
7976 6512 M -3 82 R 9 6 R F
7976 6512 M 6 88 R 4 -96 R F
7986 6504 M -4 96 R 6 7 R F
7986 6504 M 2 103 R 5 -112 R F
7884 6615 M 4 -8 R 3 -103 R F
7891 6504 M -3 103 R 7 -8 R F
7891 6504 M 4 95 R 6 -87 R F
7901 6512 M -6 87 R 8 -5 R F
7901 6512 M 2 82 R 9 -77 R F
7912 6517 M -9 77 R 10 -4 R F
7912 6517 M 1 73 R 12 -69 R F
7925 6521 M -12 69 R 12 -3 R F
7925 6521 M 0 66 R 14 -65 R F
7883 6495 M -5 -11 R 2 152 R F
7883 6495 M -3 141 R 1 -11 R F
7883 6495 M -2 130 R 3 -10 R F
7883 6495 M 1 120 R 7 -111 R F
7994 6421 M 5 11 R 2 -98 R F
8001 6334 M -2 98 R 3 12 R F
8001 6334 M 1 110 R 24 -99 R F
8026 6345 M -24 99 R 1 14 R F
8026 6345 M -23 113 R 17 279 R F
8020 6737 M -17 -279 R -1 14 R F
8020 6737 M -18 -265 R -3 12 R F
7996 6746 M 1 -110 R -1 11 R F
7996 6746 M 0 -99 R -3 10 R F
7996 6746 M -3 -89 R -5 9 R F
7996 6746 M -8 -80 R -7 7 R F
7996 6746 M -15 -73 R -8 6 R F
7996 6746 M -23 -67 R -4 73 R F
7969 6752 M 4 -73 R -10 4 R F
7969 6752 M -6 -69 R -12 3 R F
7969 6752 M -18 -66 R -13 0 R F
7969 6752 M -31 -66 R 0 68 R F
7938 6686 M -13 0 R 13 68 R F
7938 6754 M -13 -68 R -11 -3 R F
7938 6754 M -24 -71 R -6 69 R F
7908 6752 M 6 -69 R -10 -4 R F
7908 6752 M -4 -73 R -8 -6 R F
7908 6752 M -12 -79 R -7 -8 R F
7908 6752 M -19 -87 R -5 -8 R F
7908 6752 M -24 -95 R -3 -10 R F
7908 6752 M -27 -105 R 0 99 R F
7881 6746 M 0 -99 R -1 -11 R F
7881 6746 M -1 -110 R -2 -152 R F
7881 6746 M -3 -262 R -4 -12 R F
7881 6746 M -7 -274 R -1 -14 R F
7881 6746 M -8 -288 R -16 279 R F
8085 6427 M -7 -26 R 1 102 R F
8085 6427 M -6 76 R 5 -14 R F
8085 6427 M -1 62 R 3 -16 R F
8085 6427 M 2 46 R 1 -18 R F
8053 6539 M 11 -11 R 1 -149 R F
8065 6379 M -1 149 R 9 -12 R F
8065 6379 M 8 137 R 5 -115 R F
8078 6401 M -5 115 R 6 -13 R F
8048 6360 M -22 -15 R 1 211 R F
8048 6360 M -21 196 R 14 -8 R F
8048 6360 M -7 188 R 12 -9 R F
8048 6360 M 5 179 R 12 -160 R F
8074 6665 M 3 -26 R -1 -13 R F
8074 6665 M 2 -39 R -3 -13 R F
8074 6665 M -1 -52 R -3 -12 R F
8074 6665 M -4 -64 R -3 86 R F
8070 6601 M -6 -11 R 3 97 R F
8067 6687 M -3 -97 R -7 -10 R F
8067 6687 M -10 -107 R -1 127 R F
8056 6707 M 1 -127 R -8 -9 R F
8056 6707 M -7 -136 R -9 152 R F
8040 6723 M 9 -152 R -11 -8 R F
8040 6723 M -2 -160 R -11 -7 R F
8027 6556 M -1 -211 R -6 392 R F
8027 6556 M -7 181 R 20 -14 R F
7953 6396 M 13 3 R 5 -71 R F
7971 6328 M -5 71 R 11 5 R F
7971 6328 M 6 76 R 24 -70 R F
8001 6334 M -24 70 R 9 8 R F
8001 6334 M -15 78 R 8 9 R F
7911 6399 M 13 -3 R 14 -70 R F
7938 6326 M -14 70 R 15 -1 R F
7938 6326 M 1 69 R 32 -67 R F
7971 6328 M -32 67 R 14 1 R F
7905 6328 M -30 6 R 2 97 R F
7905 6328 M -28 103 R 6 -11 R F
7905 6328 M -22 92 R 7 -9 R F
7905 6328 M -15 83 R 10 -7 R F
7905 6328 M -5 76 R 11 -5 R F
7905 6328 M 6 71 R 27 -73 R F
7875 6334 M -25 11 R 0 211 R F
7875 6334 M -25 222 R 7 181 R F
7875 6334 M -18 403 R 16 -279 R F
7875 6334 M -2 124 R 1 -14 R F
7875 6334 M -1 110 R 3 -13 R F
7812 6527 M 11 11 R 5 -178 R F
7828 6360 M -5 178 R 12 9 R F
7828 6360 M 7 187 R 15 -202 R F
7850 6345 M -15 202 R 15 9 R F
7793 6488 M 4 14 R 2 -101 R F
7799 6401 M -2 101 R 7 13 R F
7799 6401 M 5 114 R 7 -136 R F
7811 6379 M -7 136 R 8 12 R F
7811 6379 M 1 148 R 16 -167 R F
7791 6426 M -2 29 R 1 18 R F
7791 6426 M -1 47 R 3 15 R F
7791 6426 M 2 62 R 6 -87 R F
7819 6580 M 2 127 R 6 -135 R F
7827 6572 M -6 135 R 16 16 R F
7827 6572 M 10 151 R 1 -160 R F
7838 6563 M -1 160 R 20 14 R F
7838 6563 M 19 174 R -7 -181 R F
7812 6590 M -5 10 R 3 87 R F
7812 6590 M -2 97 R 11 20 R F
7812 6590 M 9 117 R -2 -127 R F
7803 6612 M -2 13 R 2 40 R F
7803 6612 M 0 53 R 7 22 R F
7803 6612 M 7 75 R -3 -87 R F
7803 6665 M -2 -40 R 0 14 R F
3995 5831 M -3 -14 R 1 93 R F
3993 5910 M -1 -93 R -1 -17 R F
3993 5910 M -2 -110 R -6 95 R F
3985 5895 M 6 -95 R 0 -166 R F
3985 5895 M 6 -261 R -85 0 R F
3906 5634 M 0 315 R 79 0 R F
3906 5634 M 79 315 R 0 -54 R F
4088 5872 M -28 0 R 1 85 R F
4088 5872 M -27 85 R 15 1 R F
4088 5872 M -12 86 R 2 0 R F
4088 5872 M -10 86 R 2 0 R F
4088 5872 M -8 86 R 2 0 R F
4088 5872 M -6 86 R 1 0 R F
4088 5872 M -5 86 R 3 0 R F
4088 5872 M -2 86 R 2 -1 R F
4061 5957 M -1 -85 R -13 82 R F
4047 5954 M 13 -82 R -16 -1 R F
4047 5954 M -3 -83 R -9 78 R F
4035 5949 M 9 -78 R -14 -4 R F
4035 5949 M -5 -82 R -7 76 R F
4023 5943 M 7 -76 R -12 -5 R F
4023 5943 M -5 -81 R -6 72 R F
4012 5934 M 6 -72 R -10 -8 R F
4012 5934 M -4 -80 R -6 69 R F
4002 5923 M 6 -69 R -8 -10 R F
4002 5923 M -2 -79 R -5 -13 R F
3995 5831 M -2 79 R 9 13 R F
4221 5849 M -3 -11 R 5 86 R F
4223 5924 M -5 -86 R 0 -14 R F
4223 5924 M -5 -100 R -4 90 R F
4214 5914 M 4 -90 R 0 -190 R F
4214 5914 M 4 -280 R -84 0 R F
4134 5634 M 0 315 R 80 0 R F
4134 5634 M 80 315 R 0 -35 R F
4399 5634 M -82 0 R 13 321 R F
4399 5634 M -69 321 R 12 -3 R F
4399 5634 M -57 318 R 11 -5 R F
4399 5634 M -46 313 R 10 -7 R F
4399 5634 M -36 306 R 10 -8 R F
4399 5634 M -26 298 R 9 -9 R F
4399 5634 M -17 289 R 8 -11 R F
4399 5634 M -9 278 R 9 10 R F
4399 5634 M 0 288 R 0 -97 R F
4317 5836 M -1 11 R 0 110 R F
4317 5836 M -1 121 R 14 -2 R F
4317 5836 M 13 119 R -13 -321 R F
4316 5957 M 0 -110 R -2 10 R F
4316 5957 M -2 -100 R -4 8 R F
4316 5957 M -6 -92 R -5 7 R F
4316 5957 M -11 -85 R -3 86 R F
4305 5872 M -7 6 R 4 80 R F
4302 5958 M -4 -80 R -8 4 R F
4302 5958 M -12 -76 R -1 75 R F
4289 5957 M 1 -75 R -9 2 R F
4289 5957 M -8 -73 R -4 71 R F
4277 5955 M 4 -71 R -10 1 R F
4277 5955 M -6 -70 R -6 67 R F
4265 5952 M 6 -67 R -12 -1 R F
4265 5952 M -6 -68 R -5 63 R F
4254 5947 M 5 -63 R -10 -3 R F
4254 5947 M -5 -66 R -6 60 R F
4243 5941 M 6 -60 R -9 -5 R F
4243 5941 M -3 -65 R -7 57 R F
4233 5933 M 7 -57 R -8 -7 R F
4233 5933 M -1 -64 R -6 -9 R F
4226 5860 M -5 -11 R 2 75 R F
4226 5860 M -3 64 R 10 9 R F
4583 5634 M -83 0 R 2 322 R F
4583 5634 M -81 322 R 20 -5 R F
4583 5634 M -61 317 R 18 -9 R F
4583 5634 M -43 308 R 15 -12 R F
4583 5634 M -28 296 R 12 -15 R F
4583 5634 M -16 281 R 9 -18 R F
4583 5634 M -7 263 R 5 -20 R F
4583 5634 M -2 243 R 2 -23 R F
4502 5956 M -2 -322 R 0 203 R F
4502 5956 M -2 -119 R -1 11 R F
4502 5956 M -3 -108 R -2 9 R F
4502 5956 M -5 -99 R -4 8 R F
4502 5956 M -9 -91 R -6 7 R F
4502 5956 M -15 -84 R -6 6 R F
4502 5956 M -21 -78 R -1 80 R F
4453 5885 M 0 70 R 10 -71 R F
4463 5884 M -10 71 R 13 2 R F
4463 5884 M 3 73 R 7 -75 R F
4473 5882 M -7 75 R 14 1 R F
4473 5882 M 7 76 R 1 -80 R F
4407 5860 M 1 72 R 6 -63 R F
4414 5869 M -6 63 R 10 8 R F
4414 5869 M 4 71 R 4 -64 R F
4422 5876 M -4 64 R 11 6 R F
4422 5876 M 7 70 R 2 -65 R F
4431 5881 M -2 65 R 12 5 R F
4431 5881 M 10 70 R 0 -67 R F
4441 5884 M 0 67 R 12 4 R F
4441 5884 M 12 71 R 0 -70 R F
4399 5825 M 0 97 R 1 -84 R F
4400 5838 M -1 84 R 9 10 R F
4400 5838 M 8 94 R -5 -82 R F
4403 5850 M 5 82 R -1 -72 R F
4839 5713 M 1 7 R 1 -90 R F
4841 5630 M -1 90 R 5 100 R F
4841 5630 M 4 190 R 21 -181 R F
4866 5639 M -21 181 R 24 -9 R F
4866 5639 M 3 172 R 18 -160 R F
4887 5651 M -18 160 R 19 -9 R F
4887 5651 M 1 151 R 16 -135 R F
4904 5667 M -16 135 R 14 -10 R F
4904 5667 M -2 125 R 10 -12 R F
4841 5630 M -30 -5 R 8 68 R F
4841 5630 M -22 63 R 7 4 R F
4841 5630 M -15 67 R 6 5 R F
4841 5630 M -9 72 R 4 5 R F
4841 5630 M -5 77 R 3 6 R F
4811 5625 M -34 -2 R 11 66 R F
4811 5625 M -23 64 R 12 0 R F
4811 5625 M -11 64 R 10 2 R F
4811 5625 M -1 66 R 9 2 R F
4777 5623 M -31 2 R 3 70 R F
4777 5623 M -28 72 R 11 -3 R F
4777 5623 M -17 69 R 13 -3 R F
4777 5623 M -4 66 R 15 0 R F
4746 5625 M -27 5 R 5 95 R F
4746 5625 M -22 100 R 3 -10 R F
4746 5625 M -19 90 R 5 -8 R F
4746 5625 M -14 82 R 7 -7 R F
4746 5625 M -7 75 R 10 -5 R F
4722 5736 M 2 -11 R -5 -95 R F
4722 5736 M -3 -106 R -24 9 R F
4722 5736 M -27 -97 R -20 13 R F
4722 5736 M -47 -84 R -16 16 R F
4722 5736 M -63 -68 R -12 19 R F
4722 5736 M -75 -49 R -7 21 R F
4722 5736 M -82 -28 R -2 25 R F
4722 5736 M -84 -3 R 0 3 R F
4904 5667 M 8 113 R 3 -95 R F
4915 5685 M -3 95 R 7 -13 R F
4915 5685 M 4 82 R 4 -59 R F
4923 5708 M -4 59 R 4 -16 R F
4923 5708 M 0 43 R 2 -18 R F
4806 5830 M 5 -1 R 0 -83 R F
4811 5746 M 0 83 R 5 -2 R F
4811 5746 M 5 81 R 11 -88 R F
4827 5739 M -11 88 R 29 -7 R F
4827 5739 M 18 81 R -8 -90 R F
4837 5730 M 8 90 R -5 -100 R F
4811 5746 M -22 7 R 4 80 R F
4811 5746 M -18 87 R 7 -2 R F
4811 5746 M -11 85 R 6 -1 R F
4789 5753 M -9 2 R 13 78 R F
4793 5833 M -13 -78 R -9 2 R F
4793 5833 M -22 -76 R -6 83 R F
4765 5840 M 6 -83 R -8 1 R F
4765 5840 M -2 -82 R -6 2 R F
4757 5760 M -29 8 R 2 98 R F
4757 5760 M -27 106 R 4 -9 R F
4757 5760 M -23 97 R 12 -9 R F
4757 5760 M -11 88 R 19 -8 R F
4915 5853 M -82 0 R 0 100 R F
4915 5853 M -82 100 R 24 -8 R F
4915 5853 M -58 92 R 19 -13 R F
4915 5853 M -39 79 R 16 -15 R F
4915 5853 M -23 64 R 12 -19 R F
4915 5853 M -11 45 R 7 -21 R F
4833 5953 M 0 -100 R -2 9 R F
4833 5953 M -2 -91 R -3 9 R F
4833 5953 M -5 -82 R -4 7 R F
4833 5953 M -9 -75 R -7 6 R F
4833 5953 M -16 -69 R -8 5 R F
4833 5953 M -24 -64 R -2 70 R F
4807 5959 M 2 -70 R -9 3 R F
4807 5959 M -7 -67 R -10 2 R F
4807 5959 M -17 -65 R -13 1 R F
4807 5959 M -30 -64 R 0 65 R F
4777 5895 M -11 0 R 11 65 R F
4777 5960 M -11 -65 R -10 -2 R F
4777 5960 M -21 -67 R -7 66 R F
4749 5959 M 7 -66 R -8 -2 R F
4749 5959 M -1 -68 R -6 -3 R F
4749 5959 M -7 -71 R -6 -4 R F
4749 5959 M -13 -75 R -3 -5 R F
4749 5959 M -16 -80 R -2 -6 R F
4749 5959 M -18 -86 R -8 80 R F
4723 5953 M 8 -80 R -1 -7 R F
4723 5953 M 7 -87 R -2 -98 R F
4723 5953 M 5 -185 R -24 9 R F
4723 5953 M -19 -176 R -3 167 R F
4649 5838 M 0 40 R 4 -56 R F
4653 5822 M -4 56 R 7 21 R F
4653 5822 M 3 77 R 5 -90 R F
4661 5809 M -5 90 R 11 18 R F
4661 5809 M 6 108 R 4 -120 R F
4671 5797 M -4 120 R 15 15 R F
4671 5797 M 11 135 R 3 -145 R F
4685 5787 M -3 145 R 19 12 R F
4685 5787 M 16 157 R 3 -167 R F
4649 5878 M 0 -40 R -2 17 R F
5186 5720 M 0 57 R 348 0 R F
5186 5720 M 348 57 R 0 -57 R F
5186 5845 M 0 57 R 348 0 R F
5186 5845 M 348 57 R 0 -57 R F
6136 5787 M 79 250 R 0 -403 R F
6215 5634 M 0 403 R 0 -248 R F
6215 5634 M 0 155 R 0 -66 R F
6215 5723 M 0 66 R 48 0 R F
6215 5723 M 48 66 R 0 -66 R F
5959 5796 M 153 241 R -153 -314 R F
5959 5723 M 153 314 R -89 -250 R F
5959 5723 M 64 64 R 111 -64 R F
6134 5723 M -111 64 R 113 0 R F
6134 5723 M 2 64 R -2 -153 R F
6134 5634 M 2 153 R 79 -153 R F
6136 5965 M -113 -178 R 89 250 R F
6136 5965 M -24 72 R 103 0 R F
6136 5965 M 79 72 R -79 -250 R F
6410 5634 M -88 0 R 0 87 R F
6410 5634 M -88 87 R 88 0 R F
6679 5634 M -82 0 R 6 381 R F
6679 5634 M -76 381 R 6 16 R F
6679 5634 M -70 397 R 4 18 R F
6679 5634 M -66 415 R 66 0 R F
6597 5918 M -99 0 R 6 58 R F
6597 5918 M -93 58 R 26 1 R F
6597 5918 M -67 59 R 21 3 R F
6597 5918 M -46 62 R 18 5 R F
6597 5918 M -28 67 R 14 8 R F
6597 5918 M -14 75 R 12 10 R F
6597 5918 M -2 85 R 8 12 R F
6597 5918 M 6 97 R -6 -381 R F
6504 5976 M -6 -58 R 0 58 R F
7006 5903 M 5 8 R 1 -120 R F
7012 5791 M -1 120 R 3 10 R F
7012 5791 M 2 130 R 3 -141 R F
7017 5780 M -3 141 R 1 11 R F
7017 5780 M -2 152 R 23 101 R F
7038 6033 M -23 -101 R -1 110 R F
6943 5883 M 13 0 R 1 -65 R F
6957 5818 M -1 65 R 14 0 R F
6957 5818 M 13 65 R 1 -66 R F
6971 5817 M -1 66 R 11 3 R F
6971 5817 M 10 69 R 2 -73 R F
6983 5813 M -2 73 R 10 4 R F
6983 5813 M 8 77 R 3 -82 R F
6994 5808 M -3 82 R 9 6 R F
6994 5808 M 6 88 R 4 -96 R F
7004 5800 M -4 96 R 6 7 R F
7004 5800 M 2 103 R 6 -112 R F
6902 5911 M 4 -8 R 3 -103 R F
6909 5800 M -3 103 R 7 -8 R F
6909 5800 M 4 95 R 6 -87 R F
6919 5808 M -6 87 R 8 -5 R F
6919 5808 M 2 82 R 9 -77 R F
6930 5813 M -9 77 R 10 -4 R F
6930 5813 M 1 73 R 12 -69 R F
6943 5817 M -12 69 R 12 -3 R F
6943 5817 M 0 66 R 14 -65 R F
6901 5791 M -5 -11 R 2 152 R F
6901 5791 M -3 141 R 1 -11 R F
6901 5791 M -2 130 R 3 -10 R F
6901 5791 M 1 120 R 7 -111 R F
7012 5717 M 5 11 R 2 -98 R F
7019 5630 M -2 98 R 3 12 R F
7019 5630 M 1 110 R 24 -99 R F
7044 5641 M -24 99 R 2 14 R F
7044 5641 M -22 113 R 16 279 R F
7038 6033 M -16 -279 R -2 14 R F
7038 6033 M -18 -265 R -3 12 R F
7014 6042 M 1 -110 R -1 11 R F
7014 6042 M 0 -99 R -3 10 R F
7014 6042 M -3 -89 R -5 9 R F
7014 6042 M -8 -80 R -7 7 R F
7014 6042 M -15 -73 R -8 6 R F
7014 6042 M -23 -67 R -4 73 R F
6987 6048 M 4 -73 R -10 4 R F
6987 6048 M -6 -69 R -12 3 R F
6987 6048 M -18 -66 R -13 0 R F
6987 6048 M -31 -66 R 0 68 R F
6956 5982 M -12 0 R 12 68 R F
6956 6050 M -12 -68 R -12 -3 R F
6956 6050 M -24 -71 R -6 69 R F
6926 6048 M 6 -69 R -10 -4 R F
6926 6048 M -4 -73 R -8 -6 R F
6926 6048 M -12 -79 R -7 -8 R F
6926 6048 M -19 -87 R -5 -8 R F
6926 6048 M -24 -95 R -3 -10 R F
6926 6048 M -27 -105 R 0 99 R F
6899 6042 M 0 -99 R -1 -11 R F
6899 6042 M -1 -110 R -2 -152 R F
6899 6042 M -3 -262 R -4 -12 R F
6899 6042 M -7 -274 R -1 -14 R F
6899 6042 M -8 -288 R -16 279 R F
7104 5723 M -8 -26 R 1 102 R F
7104 5723 M -7 76 R 5 -14 R F
7104 5723 M -2 62 R 3 -16 R F
7104 5723 M 1 46 R 1 -18 R F
7071 5835 M 11 -11 R 2 -149 R F
7084 5675 M -2 149 R 9 -12 R F
7084 5675 M 7 137 R 5 -115 R F
7096 5697 M -5 115 R 6 -13 R F
7066 5656 M -22 -15 R 1 211 R F
7066 5656 M -21 196 R 14 -8 R F
7066 5656 M -7 188 R 12 -9 R F
7066 5656 M 5 179 R 13 -160 R F
7092 5961 M 3 -26 R -1 -13 R F
7092 5961 M 2 -39 R -2 -13 R F
7092 5961 M 0 -52 R -4 -12 R F
7092 5961 M -4 -64 R -2 86 R F
7088 5897 M -6 -11 R 4 97 R F
7086 5983 M -4 -97 R -7 -10 R F
7086 5983 M -11 -107 R -1 127 R F
7074 6003 M 1 -127 R -8 -9 R F
7074 6003 M -7 -136 R -9 152 R F
7058 6019 M 9 -152 R -11 -8 R F
7058 6019 M -2 -160 R -11 -7 R F
7045 5852 M -1 -211 R -6 392 R F
7045 5852 M -7 181 R 20 -14 R F
6971 5692 M 13 3 R 5 -71 R F
6989 5624 M -5 71 R 11 5 R F
6989 5624 M 6 76 R 24 -70 R F
7019 5630 M -24 70 R 9 8 R F
7019 5630 M -15 78 R 8 9 R F
6929 5695 M 13 -3 R 14 -70 R F
6956 5622 M -14 70 R 15 -1 R F
6956 5622 M 1 69 R 32 -67 R F
6989 5624 M -32 67 R 14 1 R F
6923 5624 M -30 6 R 3 97 R F
6923 5624 M -27 103 R 5 -11 R F
6923 5624 M -22 92 R 7 -9 R F
6923 5624 M -15 83 R 10 -7 R F
6923 5624 M -5 76 R 11 -5 R F
6923 5624 M 6 71 R 27 -73 R F
6893 5630 M -25 11 R 0 211 R F
6893 5630 M -25 222 R 7 181 R F
6893 5630 M -18 403 R 16 -279 R F
6893 5630 M -2 124 R 1 -14 R F
6893 5630 M -1 110 R 4 -13 R F
6830 5823 M 11 11 R 5 -178 R F
6846 5656 M -5 178 R 12 9 R F
6846 5656 M 7 187 R 15 -202 R F
6868 5641 M -15 202 R 15 9 R F
6811 5784 M 4 14 R 2 -101 R F
6817 5697 M -2 101 R 7 13 R F
6817 5697 M 5 114 R 7 -136 R F
6829 5675 M -7 136 R 8 12 R F
6829 5675 M 1 148 R 16 -167 R F
6810 5722 M -3 29 R 1 18 R F
6810 5722 M -2 47 R 3 15 R F
6810 5722 M 1 62 R 6 -87 R F
6837 5876 M 2 127 R 7 -135 R F
6846 5868 M -7 135 R 16 16 R F
6846 5868 M 9 151 R 1 -160 R F
6856 5859 M -1 160 R 20 14 R F
6856 5859 M 19 174 R -7 -181 R F
6830 5886 M -5 10 R 3 87 R F
6830 5886 M -2 97 R 11 20 R F
6830 5886 M 9 117 R -2 -127 R F
6822 5908 M -3 13 R 2 40 R F
6822 5908 M -1 53 R 7 22 R F
6822 5908 M 6 75 R -3 -87 R F
6821 5961 M -2 -40 R 0 14 R F
7352 5771 M 2 25 R 22 -143 R F
7376 5653 M -22 143 R 26 224 R F
7376 5653 M 4 367 R 19 -341 R F
7399 5679 M -19 341 R 22 -23 R F
7399 5679 M 3 318 R 16 -287 R F
7418 5710 M -16 287 R 18 -29 R F
7418 5710 M 2 258 R 11 -219 R F
7431 5749 M -11 219 R 12 -36 R F
7431 5749 M 1 183 R 7 -139 R F
7439 5793 M -7 139 R 7 -41 R F
7439 5793 M 0 98 R 3 -47 R F
7336 5715 M 7 15 R 5 -95 R F
7348 5635 M -5 95 R 6 19 R F
7348 5635 M 1 114 R 27 -96 R F
7376 5653 M -27 96 R 3 22 R F
7288 5688 M 14 1 R 13 -64 R F
7315 5625 M -13 64 R 13 5 R F
7315 5625 M 0 69 R 33 -59 R F
7348 5635 M -33 59 R 11 9 R F
7348 5635 M -22 68 R 10 12 R F
7278 5621 M -27 2 R 1 74 R F
7278 5621 M -26 76 R 7 -4 R F
7278 5621 M -19 72 R 8 -3 R F
7278 5621 M -11 69 R 10 -2 R F
7278 5621 M -1 67 R 11 0 R F
7278 5621 M 10 67 R 27 -63 R F
7251 5623 M -23 5 R 8 99 R F
7251 5623 M -15 104 R 2 -9 R F
7251 5623 M -13 95 R 3 -8 R F
7251 5623 M -10 87 R 5 -7 R F
7251 5623 M -5 80 R 6 -6 R F
7236 5727 M -8 -99 R -21 9 R F
7236 5727 M -29 -90 R -18 13 R F
7236 5727 M -47 -77 R -15 15 R F
7236 5727 M -62 -62 R -11 18 R F
7236 5727 M -73 -44 R -7 21 R F
7236 5727 M -80 -23 R -4 24 R F
7353 6036 M 27 -16 R -26 -224 R F
7353 6036 M 1 -240 R -1 109 R F
7353 6036 M 0 -131 R -1 17 R F
7353 6036 M -1 -114 R -3 15 R F
7353 6036 M -4 -99 R -6 13 R F
7353 6036 M -10 -86 R -8 11 R F
7353 6036 M -18 -75 R -10 9 R F
7353 6036 M -28 -66 R -3 76 R F
7288 5768 M 1 66 R 10 -65 R F
7299 5769 M -10 65 R 15 2 R F
7299 5769 M 5 67 R 6 -65 R F
7310 5771 M -6 65 R 12 3 R F
7310 5771 M 6 68 R 4 -64 R F
7320 5775 M -4 64 R 11 6 R F
7320 5775 M 7 70 R 3 -66 R F
7330 5779 M -3 66 R 9 8 R F
7330 5779 M 6 74 R 3 -69 R F
7339 5784 M -3 69 R 8 10 R F
7339 5784 M 5 79 R 3 -73 R F
7347 5790 M -3 73 R 5 12 R F
7347 5790 M 2 85 R 5 -79 R F
7354 5796 M -5 79 R 3 14 R F
7354 5796 M -2 93 R 1 16 R F
7276 5767 M -29 3 R 4 75 R F
7276 5767 M -25 78 R 11 -6 R F
7276 5767 M -14 72 R 13 -3 R F
7276 5767 M -1 69 R 14 -2 R F
7276 5767 M 13 67 R -1 -66 R F
7247 5770 M -26 7 R 5 113 R F
7247 5770 M -21 120 R 4 -14 R F
7247 5770 M -17 106 R 5 -12 R F
7247 5770 M -12 94 R 7 -11 R F
7247 5770 M -5 83 R 9 -8 R F
7221 5777 M -23 11 R 5 238 R F
7221 5777 M -18 249 R 24 13 R F
7221 5777 M 6 262 R -2 -133 R F
7221 5777 M 4 129 R 1 -16 R F
7322 6046 M 3 -76 R -11 7 R F
7322 6046 M -8 -69 R -13 4 R F
7322 6046 M -21 -65 R -14 1 R F
7322 6046 M -35 -64 R 0 67 R F
7287 5982 M -14 -1 R 14 68 R F
7287 6049 M -14 -68 R -12 -4 R F
7287 6049 M -26 -72 R -6 70 R F
7255 6047 M 6 -70 R -11 -6 R F
7255 6047 M -5 -76 R -9 -9 R F
7241 5962 M -7 -11 R 21 96 R F
7255 6047 M -21 -96 R -5 -13 R F
7255 6047 M -26 -109 R -2 101 R F
7227 6039 M 2 -101 R -3 -15 R F
7227 6039 M -1 -116 R -1 -17 R F
7203 6026 M -5 -238 R -17 221 R F
7181 6009 M 17 -221 R -20 16 R F
7181 6009 M -3 -205 R -15 183 R F
7163 5987 M 15 -183 R -16 20 R F
7163 5987 M -1 -163 R -11 138 R F
7151 5962 M 11 -138 R -12 23 R F
7151 5962 M -1 -115 R -7 87 R F
7143 5934 M 7 -87 R -7 27 R F
7143 5934 M 0 -60 R -2 29 R F
7689 5764 M 4 132 R 17 -252 R F
7710 5644 M -17 252 R 23 -12 R F
7710 5644 M 6 240 R 17 -222 R F
7733 5662 M -17 222 R 21 -17 R F
7733 5662 M 4 205 R 14 -184 R F
7751 5683 M -14 184 R 17 -20 R F
7751 5683 M 3 164 R 11 -139 R F
7765 5708 M -11 139 R 11 -23 R F
7765 5708 M 0 116 R 7 -87 R F
7772 5737 M -7 87 R 8 -26 R F
7772 5737 M 1 61 R 2 -29 R F
7672 5708 M 7 11 R 5 -87 R F
7684 5632 M -5 87 R 6 13 R F
7684 5632 M 1 100 R 25 -88 R F
7710 5644 M -25 88 R 3 15 R F
7710 5644 M -22 103 R 1 17 R F
7636 5689 M 14 4 R 4 -69 R F
7654 5624 M -4 69 R 12 6 R F
7654 5624 M 8 75 R 22 -67 R F
7684 5632 M -22 67 R 10 9 R F
7620 5622 M -31 2 R 7 68 R F
7620 5622 M -24 70 R 11 -3 R F
7620 5622 M -13 67 R 13 -1 R F
7620 5622 M 0 66 R 16 1 R F
7620 5622 M 16 67 R 18 -65 R F
7589 5624 M -27 6 R 2 91 R F
7589 5624 M -25 97 R 5 -10 R F
7589 5624 M -20 87 R 8 -8 R F
7589 5624 M -12 79 R 8 -6 R F
7589 5624 M -4 73 R 11 -5 R F
7562 5630 M -24 10 R 20 105 R F
7562 5630 M -4 115 R 2 -13 R F
7562 5630 M -2 102 R 4 -11 R F
7558 5745 M -20 -105 R -21 15 R F
7558 5745 M -41 -90 R -16 18 R F
7558 5745 M -57 -72 R -13 21 R F
7558 5745 M -70 -51 R -8 24 R F
7558 5745 M -78 -27 R -3 27 R F
7693 5896 M -4 -132 R -1 17 R F
7693 5896 M -5 -115 R -3 14 R F
7693 5896 M -8 -101 R -6 13 R F
7693 5896 M -14 -88 R -8 11 R F
7693 5896 M -22 -77 R -5 84 R F
7671 5819 M -10 9 R 5 75 R F
7666 5903 M -5 -75 R -12 6 R F
7666 5903 M -17 -69 R -12 71 R F
7637 5905 M 12 -71 R -13 3 R F
7637 5905 M -1 -68 R -10 68 R F
7626 5905 M 10 -68 R -15 2 R F
7626 5905 M -5 -66 R -5 65 R F
7616 5904 M 5 -65 R -9 -1 R F
7616 5904 M -4 -66 R -6 64 R F
7606 5902 M 6 -64 R -8 -1 R F
7606 5902 M -2 -65 R -7 63 R F
7597 5900 M 7 -63 R -8 -2 R F
7597 5900 M -1 -65 R -7 -4 R F
7597 5900 M -8 -69 R 0 66 R F
7589 5897 M 0 -66 R -7 -4 R F
7589 5897 M -7 -70 R -2 66 R F
7580 5893 M 2 -66 R -6 -5 R F
7580 5893 M -4 -71 R -3 67 R F
7573 5889 M 3 -67 R -5 -5 R F
7573 5889 M -2 -72 R -5 -7 R F
7573 5889 M -7 -79 R 0 74 R F
7566 5884 M 0 -74 R -48 227 R F
7566 5884 M -48 153 R 59 -70 R F
7577 5967 M -59 70 R 239 0 R F
7577 5967 M 180 70 R 0 -70 R F
7518 6037 M 48 -227 R -75 4 R F
7930 5712 M 234 0 R 0 -78 R F
7930 5712 M 234 -78 R -321 0 R F
7930 5712 M -87 -78 R 87 353 R F
7930 5712 M 0 275 R 0 -91 R F
7930 5712 M 0 184 R 0 -74 R F
7930 5822 M 0 74 R 204 0 R F
7930 5822 M 204 74 R 0 -74 R F
7930 5987 M -87 -353 R 0 427 R F
7930 5987 M -87 74 R 310 0 R F
7930 5987 M 223 74 R 0 -74 R F
8368 5752 M -163 0 R 0 79 R F
8368 5752 M -163 79 R 163 0 R F
8704 5835 M -2 -50 R 0 100 R F
8702 5885 M 0 -100 R -7 -44 R F
8702 5885 M -7 -144 R 0 188 R F
8695 5929 M 0 -188 R -12 -36 R F
8695 5929 M -12 -224 R 0 260 R F
8683 5965 M 0 -260 R -16 -30 R F
8683 5965 M -16 -290 R 0 321 R F
8667 5996 M 0 -321 R -21 -23 R F
8667 5996 M -21 -344 R -1 367 R F
8645 6019 M 1 -367 R -26 -17 R F
8645 6019 M -25 -384 R 0 401 R F
8620 6036 M 0 -401 R -2 201 R F
8620 6036 M -2 -200 R -1 35 R F
8620 5635 M -31 -9 R 5 85 R F
8620 5635 M -26 76 R 9 15 R F
8620 5635 M -17 91 R 6 20 R F
8620 5635 M -11 111 R 5 25 R F
8620 5635 M -6 136 R 3 30 R F
8620 5635 M -3 166 R 1 35 R F
8538 5693 M 16 -2 R 0 -69 R F
8554 5622 M 0 69 R 15 2 R F
8554 5622 M 15 71 R 20 -67 R F
8589 5626 M -20 67 R 14 7 R F
8589 5626 M -6 74 R 11 11 R F
8505 5726 M 9 -15 R 4 -85 R F
8518 5626 M -4 85 R 11 -11 R F
8518 5626 M 7 74 R 29 -78 R F
8554 5622 M -29 78 R 13 -7 R F
8490 5836 M 1 -36 R -3 -165 R F
8488 5635 M 3 165 R 3 -30 R F
8488 5635 M 6 135 R 24 -144 R F
8518 5626 M -24 144 R 4 -25 R F
8518 5626 M -20 119 R 7 -19 R F
8620 6036 M -3 -165 R -3 30 R F
8620 6036 M -6 -135 R -5 25 R F
8620 6036 M -11 -110 R -6 19 R F
8620 6036 M -17 -91 R -9 15 R F
8620 6036 M -26 -76 R -5 86 R F
8589 6046 M 5 -86 R -11 11 R F
8589 6046 M -6 -75 R -14 6 R F
8589 6046 M -20 -69 R -15 3 R F
8589 6046 M -35 -66 R 0 69 R F
8554 5980 M -16 -3 R 16 72 R F
8554 6049 M -16 -72 R -13 -6 R F
8554 6049 M -29 -78 R -7 75 R F
8518 6046 M 7 -75 R -11 -11 R F
8518 6046 M -4 -86 R -9 -15 R F
8505 5945 M -7 -19 R 20 120 R F
8518 6046 M -20 -120 R -4 -25 R F
8518 6046 M -24 -145 R -6 135 R F
8488 6036 M 6 -135 R -3 -30 R F
8488 6036 M 3 -165 R -1 -35 R F
8404 5836 M 2 50 R 0 -101 R F
8406 5785 M 0 101 R 7 43 R F
8406 5785 M 7 144 R 0 -187 R F
8413 5742 M 0 187 R 12 37 R F
8413 5742 M 12 224 R 0 -261 R F
8425 5705 M 0 261 R 16 30 R F
8425 5705 M 16 291 R 0 -321 R F
8441 5675 M 0 321 R 21 23 R F
8441 5675 M 21 344 R 0 -367 R F
8462 5652 M 0 367 R 26 17 R F
8462 5652 M 26 384 R 0 -401 R F
8488 5635 M 0 401 R 2 -200 R F
8826 5917 M -79 0 R 3 30 R F
8826 5917 M -76 30 R 7 26 R F
8826 5917 M -69 56 R 12 23 R F
8826 5917 M -57 79 R 16 18 R F
8826 5917 M -41 97 R 20 15 R F
8826 5917 M -21 112 R 21 -109 R F
8950 5754 M -1 14 R 17 263 R F
8966 6031 M -17 -263 R -4 13 R F
8966 6031 M -21 -250 R -2 260 R F
8943 6041 M 2 -260 R -6 10 R F
8943 6041 M -4 -250 R -1 139 R F
8938 5930 M 1 -139 R -2 126 R F
8921 5887 M 7 8 R 2 -95 R F
8930 5800 M -2 95 R 6 10 R F
8930 5800 M 4 105 R 5 -114 R F
8939 5791 M -5 114 R 3 12 R F
8871 5816 M 13 58 R 5 -59 R F
8889 5815 M -5 59 R 15 3 R F
8889 5815 M 10 62 R 6 -65 R F
8905 5812 M -6 65 R 12 4 R F
8905 5812 M 6 69 R 8 -74 R F
8919 5807 M -8 74 R 10 6 R F
8919 5807 M 2 80 R 9 -87 R F
8868 5816 M -1 0 R 1 57 R F
8868 5816 M 0 57 R 16 1 R F
8868 5816 M 16 58 R -13 -58 R F
8868 5873 M -1 -57 R -2 0 R F
8868 5873 M -3 -57 R -2 0 R F
8868 5873 M -5 -57 R -2 0 R F
8868 5873 M -7 -57 R -2 0 R F
8868 5873 M -9 -57 R 0 57 R F
9035 5728 M -8 -27 R 1 102 R F
9035 5728 M -7 75 R 5 -14 R F
9035 5728 M -2 61 R 3 -15 R F
9035 5728 M 1 46 R 1 -17 R F
9001 5838 M 11 -11 R 2 -149 R F
9014 5678 M -2 149 R 9 -11 R F
9014 5678 M 7 138 R 6 -115 R F
9027 5701 M -6 115 R 7 -13 R F
8966 6031 M 7 -177 R 1 -212 R F
8974 5642 M -1 212 R 15 -8 R F
8974 5642 M 14 204 R 8 -188 R F
8996 5658 M -8 188 R 13 -8 R F
8996 5658 M 5 180 R 13 -160 R F
8940 5716 M 6 11 R 2 -96 R F
8948 5631 M -2 96 R 3 12 R F
8948 5631 M 1 108 R 25 -97 R F
8974 5642 M -25 97 R 1 15 R F
8974 5642 M -24 112 R 16 277 R F
8899 5691 M 13 3 R 6 -70 R F
8918 5624 M -6 70 R 12 5 R F
8918 5624 M 6 75 R 24 -68 R F
8948 5631 M -24 68 R 9 8 R F
8948 5631 M -15 76 R 7 9 R F
8885 5622 M -33 2 R 4 71 R F
8885 5622 M -29 73 R 13 -4 R F
8885 5622 M -16 69 R 16 -1 R F
8885 5622 M 0 68 R 14 1 R F
8885 5622 M 14 69 R 19 -67 R F
8852 5624 M -29 7 R 0 99 R F
8852 5624 M -29 106 R 5 -12 R F
8852 5624 M -24 94 R 8 -10 R F
8852 5624 M -16 84 R 9 -8 R F
8852 5624 M -7 76 R 11 -5 R F
8823 5631 M -25 11 R 21 118 R F
8823 5631 M -4 129 R 1 -16 R F
8823 5631 M -3 113 R 3 -14 R F
8819 5760 M -21 -118 R -21 15 R F
8819 5760 M -42 -103 R -17 20 R F
8819 5760 M -59 -83 R -12 23 R F
8819 5760 M -71 -60 R -7 27 R F
8819 5760 M -78 -33 R -2 31 R F
8819 5760 M -80 -2 R 0 2 R F
9020 5960 M 2 -24 R 0 -13 R F
9020 5960 M 2 -37 R -3 -13 R F
9020 5960 M -1 -50 R -4 -11 R F
9020 5960 M -5 -61 R -2 83 R F
9015 5899 M -5 -11 R 3 94 R F
9013 5982 M -3 -94 R -7 -10 R F
9013 5982 M -10 -104 R -1 124 R F
9002 6002 M 1 -124 R -9 -9 R F
9002 6002 M -8 -133 R -8 149 R F
8986 6018 M 8 -149 R -10 -8 R F
8986 6018 M -2 -157 R -11 -7 R F
8943 6041 M -5 -111 R -1 12 R F
8943 6041 M -6 -99 R -3 10 R F
8943 6041 M -9 -89 R -4 9 R F
8943 6041 M -13 -80 R -7 7 R F
8943 6041 M -20 -73 R -6 79 R F
8917 6047 M 6 -79 R -8 6 R F
8917 6047 M -2 -73 R -9 5 R F
8917 6047 M -11 -68 R -11 3 R F
8917 6047 M -22 -65 R -8 67 R F
8887 6049 M 8 -67 R -12 0 R F
8887 6049 M -4 -67 R -13 -1 R F
8887 6049 M -17 -68 R -11 -3 R F
8887 6049 M -28 -71 R -3 68 R F
8856 6046 M 3 -68 R -10 -5 R F
8856 6046 M -7 -73 R -8 -7 R F
8856 6046 M -15 -80 R -7 -9 R F
8856 6046 M -22 -89 R -5 -11 R F
8856 6046 M -27 -100 R 0 94 R F
8829 6040 M 0 -94 R -2 -12 R F
8829 6040 M -2 -106 R -1 -14 R F
8829 6040 M -3 -120 R -21 109 R F
8986 6018 M -13 -164 R -7 177 R F
%%PageTrailer
end
restore
showpage
%%PageResources: font Helvetica
%%Trailer
restore
%%Pages: 1
%%DocumentNeededResources: font Helvetica
%%EOF
