%!PS-Adobe-3.0
%%BoundingBox: 91 181 519 609
%%Title: Graphics produced by IDL
%%For: yssu@ArchTest, 
%%      /home/yssu/SURF2015/Thesis/point_source/bbody/moving_pivots/hists/newPSDHists
%%Creator: IDL Version 8.3 (linux x86_64 m64)
%%CreationDate: Thu May  5 00:50:11 2016
%%DocumentData: Clean7bit
%%Requirements: color
%%LanguageLevel: 2
%%PageOrder: Ascend
%%Pages: (atend)
%%DocumentNeededResources: (atend)
%%EndComments
%%BeginProlog
save
%+ prolog.ps -- Prolog for IDL generated PostScript files
%+ Copyright (c) 1988-2013 Exelis Visual Information Solutions, Inc. All Rights Reserved.
%v 5
/$IDL_DICT 40 dict def $IDL_DICT begin /bdef { bind def } bind def /C
{currentpoint newpath moveto} bdef /CP {currentpoint} bdef /D {currentpoint
stroke moveto} bdef /F {closepath fill} bdef /K { setgray } bdef /M {moveto}
bdef /N {rmoveto} bdef /P {lineto} bdef /R {rlineto} bdef /S {gsave show
grestore} bdef /X {currentpoint pop} bdef /Z {gsave currentpoint lineto 20
setlinewidth 1 setlinecap stroke grestore} bdef /L0 {[] 0 setdash} bdef /L1
{[40 100] 0 setdash} bdef /L2 {[200 200] 0 setdash} bdef /L3 {[200 100 50
100] 0 setdash} bdef /L4 {[300 100 50 100 50 100 50 100] 0 setdash} bdef /L5
{[400 200] 0 setdash} bdef /STDFONT { findfont exch scalefont setfont } bdef
/ISOFONT { findfont dup length dict begin { 1 index /FID ne {def} {pop pop}
ifelse } forall /Encoding ISOLatin1Encoding def currentdict end /idltmpfont
exch definefont exch scalefont setfont } bdef /ISOBULLET { gsave /Helvetica
findfont exch scalefont setfont (\267) show currentpoint grestore moveto}
bdef /MITERLIMIT { 2.5 setmiterlimit } bdef end
%%EndProlog
%%Page: 0 1
%%PageRequirements: color
%%PageResources: (atend)
%%PageOrientation: Portrait
%%PageBoundingBox: 91 181 519 609
%%BeginPageSetup
save
$IDL_DICT begin 91 181 translate 0.0283465 dup scale MITERLIMIT
%%IncludeResource: font Helvetica
423.333 /Helvetica STDFONT
%%EndPageSetup
40 setlinewidth L0 0.000 0.000 0.000 setrgbcolor 3330 2112 M 10784 0 R D
3330 2112 M 0 239 R D 3059 1320 M -62 0 R 5 286 R F
3059 1320 M -57 286 R 4 12 R F
3059 1320 M -53 298 R 3 14 R F
3059 1320 M -50 312 R 50 0 R F
2997 1533 M -74 0 R 5 44 R F
2997 1533 M -69 44 R 19 1 R F
2997 1533 M -50 45 R 16 2 R F
2997 1533 M -34 47 R 13 4 R F
2997 1533 M -21 51 R 11 6 R F
2997 1533 M -10 57 R 8 7 R F
2997 1533 M -2 64 R 7 9 R F
2997 1533 M 5 73 R -5 -286 R F
2928 1577 M -5 -44 R 0 44 R F
3236 1320 M -65 0 R 0 66 R F
3236 1320 M -65 66 R 65 0 R F
3410 1435 M 59 188 R 0 -303 R F
3469 1320 M 0 303 R 0 -186 R F
3469 1320 M 0 117 R 0 -50 R F
3469 1387 M 0 50 R 37 0 R F
3469 1387 M 37 50 R 0 -50 R F
3277 1442 M 115 181 R -115 -236 R F
3277 1387 M 115 236 R -67 -188 R F
3277 1387 M 48 48 R 84 -48 R F
3409 1387 M -84 48 R 85 0 R F
3409 1387 M 1 48 R -1 -115 R F
3409 1320 M 1 115 R 59 -115 R F
3410 1569 M -85 -134 R 67 188 R F
3410 1569 M -18 54 R 77 0 R F
3410 1569 M 59 54 R -59 -188 R F
3663 1435 M 59 188 R 0 -303 R F
3722 1320 M 0 303 R 0 -186 R F
3722 1320 M 0 117 R 0 -50 R F
3722 1387 M 0 50 R 36 0 R F
3722 1387 M 36 50 R 0 -50 R F
3530 1442 M 115 181 R -115 -236 R F
3530 1387 M 115 236 R -67 -188 R F
3530 1387 M 48 48 R 83 -48 R F
3661 1387 M -83 48 R 85 0 R F
3661 1387 M 2 48 R -2 -115 R F
3661 1320 M 2 115 R 59 -115 R F
3663 1569 M -85 -134 R 67 188 R F
3663 1569 M -18 54 R 77 0 R F
3663 1569 M 59 54 R -59 -188 R F
5127 2112 M 0 239 R D 4856 1320 M -61 0 R 4 286 R F
4856 1320 M -57 286 R 5 12 R F
4856 1320 M -52 298 R 2 14 R F
4856 1320 M -50 312 R 50 0 R F
4795 1533 M -75 0 R 5 44 R F
4795 1533 M -70 44 R 19 1 R F
4795 1533 M -51 45 R 16 2 R F
4795 1533 M -35 47 R 14 4 R F
4795 1533 M -21 51 R 10 6 R F
4795 1533 M -11 57 R 9 7 R F
4795 1533 M -2 64 R 6 9 R F
4795 1533 M 4 73 R -4 -286 R F
4725 1577 M -5 -44 R 0 44 R F
5033 1320 M -65 0 R 0 66 R F
5033 1320 M -65 66 R 65 0 R F
5207 1435 M 60 188 R 0 -303 R F
5267 1320 M 0 303 R 0 -186 R F
5267 1320 M 0 117 R 0 -50 R F
5267 1387 M 0 50 R 36 0 R F
5267 1387 M 36 50 R 0 -50 R F
5075 1442 M 115 181 R -115 -236 R F
5075 1387 M 115 236 R -67 -188 R F
5075 1387 M 48 48 R 83 -48 R F
5206 1387 M -83 48 R 84 0 R F
5206 1387 M 1 48 R -1 -115 R F
5206 1320 M 1 115 R 60 -115 R F
5207 1569 M -84 -134 R 67 188 R F
5207 1569 M -17 54 R 77 0 R F
5207 1569 M 60 54 R -60 -188 R F
5493 1419 M 4 97 R 13 -188 R F
5510 1328 M -13 188 R 17 -9 R F
5510 1328 M 4 179 R 13 -166 R F
5527 1341 M -13 166 R 15 -12 R F
5527 1341 M 2 154 R 11 -138 R F
5540 1357 M -11 138 R 12 -15 R F
5540 1357 M 1 123 R 8 -104 R F
5549 1376 M -8 104 R 9 -18 R F
5549 1376 M 1 86 R 5 -65 R F
5555 1397 M -5 65 R 5 -20 R F
5555 1397 M 0 45 R 2 -22 R F
5486 1385 M 4 9 R 2 -76 R F
5492 1318 M -2 76 R 2 12 R F
5492 1318 M 0 88 R 18 -78 R F
5510 1328 M -18 78 R 1 13 R F
5457 1362 M 10 3 R 4 -52 R F
5471 1313 M -4 52 R 7 5 R F
5471 1313 M 3 57 R 18 -52 R F
5492 1318 M -18 52 R 7 6 R F
5492 1318 M -11 58 R 5 9 R F
5447 1311 M -26 2 R 6 52 R F
5447 1311 M -20 54 R 9 -3 R F
5447 1311 M -11 51 R 11 -1 R F
5447 1311 M 0 50 R 10 1 R F
5447 1311 M 10 51 R 14 -49 R F
5421 1313 M -24 8 R 4 74 R F
5421 1313 M -20 82 R 4 -10 R F
5421 1313 M -16 72 R 6 -8 R F
5421 1313 M -10 64 R 7 -7 R F
5421 1313 M -3 57 R 9 -5 R F
5397 1321 M -20 12 R 4 275 R F
5397 1321 M -16 287 R 16 -107 R F
5397 1321 M 0 180 R 0 -82 R F
5397 1321 M 0 98 R 1 -13 R F
5397 1321 M 1 85 R 3 -11 R F
5497 1516 M -4 -97 R -1 12 R F
5497 1516 M -5 -85 R -2 10 R F
5497 1516 M -7 -75 R -4 9 R F
5497 1516 M -11 -66 R -5 8 R F
5497 1516 M -16 -58 R -4 63 R F
5477 1521 M 4 -63 R -7 6 R F
5477 1521 M -3 -57 R -9 4 R F
5477 1521 M -12 -53 R -9 3 R F
5477 1521 M -21 -50 R 0 52 R F
5456 1523 M 0 -52 R -9 51 R F
5447 1522 M 9 -51 R -11 1 R F
5447 1522 M -2 -50 R -7 49 R F
5438 1521 M 7 -49 R -10 -1 R F
5438 1521 M -3 -50 R -5 48 R F
5430 1519 M 5 -48 R -10 -3 R F
5430 1519 M -5 -51 R -3 49 R F
5422 1517 M 3 -49 R -8 -4 R F
5422 1517 M -5 -53 R -2 50 R F
5415 1514 M 2 -50 R -7 -6 R F
5415 1514 M -5 -56 R -2 52 R F
5408 1510 M 2 -52 R -5 -8 R F
5408 1510 M -3 -60 R -3 56 R F
5402 1506 M 3 -56 R -4 -9 R F
5402 1506 M -1 -65 R -3 -10 R F
5397 1419 M 0 82 R 5 5 R F
5397 1419 M 5 87 R -4 -75 R F
5381 1608 M -4 -275 R -14 256 R F
5363 1589 M 14 -256 R -16 17 R F
5363 1589 M -2 -239 R -12 215 R F
5349 1565 M 12 -215 R -13 22 R F
5349 1565 M -1 -193 R -9 164 R F
5339 1536 M 9 -164 R -9 26 R F
5339 1536 M 0 -138 R -6 105 R F
5333 1503 M 6 -105 R -6 31 R F
5333 1503 M 0 -74 R -2 36 R F
5549 1552 M -64 0 R 6 74 R F
5549 1552 M -58 74 R 16 -6 R F
5549 1552 M -42 68 R 14 -10 R F
5549 1552 M -28 58 R 11 -11 R F
5549 1552 M -17 47 R 8 -14 R F
5549 1552 M -9 33 R 6 -16 R F
5491 1626 M -6 -74 R -1 7 R F
5491 1626 M -7 -67 R -3 6 R F
5491 1626 M -10 -61 R -3 5 R F
5491 1626 M -13 -56 R -4 60 R F
5474 1630 M 4 -60 R -4 5 R F
5474 1630 M 0 -55 R -6 3 R F
5474 1630 M -6 -52 R -6 2 R F
5474 1630 M -12 -50 R -7 2 R F
5474 1630 M -19 -48 R -1 50 R F
5454 1632 M 1 -50 R -8 0 R F
5454 1632 M -7 -50 R -11 -1 R F
5454 1632 M -18 -51 R -10 -4 R F
5454 1632 M -28 -55 R 0 52 R F
5426 1629 M 0 -52 R -8 -6 R F
5426 1629 M -8 -58 R -7 -9 R F
5426 1629 M -15 -67 R -6 -12 R F
5426 1629 M -21 -79 R -3 71 R F
5402 1621 M 3 -71 R -4 -14 R F
5402 1621 M -1 -85 R -3 -16 R F
5402 1621 M -4 -101 R -1 -19 R F
5402 1621 M -5 -120 R -16 107 R F
6925 2112 M 0 239 R D 6653 1320 M -61 0 R 4 286 R F
6653 1320 M -57 286 R 5 12 R F
6653 1320 M -52 298 R 3 14 R F
6653 1320 M -49 312 R 49 0 R F
6592 1533 M -74 0 R 4 44 R F
6592 1533 M -70 44 R 19 1 R F
6592 1533 M -51 45 R 17 2 R F
6592 1533 M -34 47 R 13 4 R F
6592 1533 M -21 51 R 11 6 R F
6592 1533 M -10 57 R 8 7 R F
6592 1533 M -2 64 R 6 9 R F
6592 1533 M 4 73 R -4 -286 R F
6522 1577 M -4 -44 R 0 44 R F
6831 1320 M -66 0 R 0 66 R F
6831 1320 M -66 66 R 66 0 R F
7005 1435 M 59 188 R 0 -303 R F
7064 1320 M 0 303 R 0 -186 R F
7064 1320 M 0 117 R 0 -50 R F
7064 1387 M 0 50 R 36 0 R F
7064 1387 M 36 50 R 0 -50 R F
6872 1442 M 115 181 R -115 -236 R F
6872 1387 M 115 236 R -67 -188 R F
6872 1387 M 48 48 R 83 -48 R F
7003 1387 M -83 48 R 85 0 R F
7003 1387 M 2 48 R -2 -115 R F
7003 1320 M 2 115 R 59 -115 R F
7005 1569 M -85 -134 R 67 188 R F
7005 1569 M -18 54 R 77 0 R F
7005 1569 M 59 54 R -59 -188 R F
7278 1522 M 4 6 R 0 -90 R F
7282 1438 M 0 90 R 2 8 R F
7282 1438 M 2 98 R 2 -106 R F
7286 1430 M -2 106 R 1 8 R F
7286 1430 M -1 114 R 17 75 R F
7302 1619 M -17 -75 R -1 83 R F
7231 1507 M 10 0 R 0 -49 R F
7241 1458 M 0 49 R 10 0 R F
7241 1458 M 10 49 R 1 -50 R F
7252 1457 M -1 50 R 8 2 R F
7252 1457 M 7 52 R 2 -54 R F
7261 1455 M -2 54 R 8 3 R F
7261 1455 M 6 57 R 2 -61 R F
7269 1451 M -2 61 R 6 5 R F
7269 1451 M 4 66 R 3 -72 R F
7276 1445 M -3 72 R 5 5 R F
7276 1445 M 2 77 R 4 -84 R F
7200 1528 M 3 -6 R 3 -77 R F
7206 1445 M -3 77 R 5 -5 R F
7206 1445 M 2 72 R 5 -66 R F
7213 1451 M -5 66 R 7 -5 R F
7213 1451 M 2 61 R 6 -57 R F
7221 1455 M -6 57 R 7 -3 R F
7221 1455 M 1 54 R 9 -52 R F
7231 1457 M -9 52 R 9 -2 R F
7231 1457 M 0 50 R 10 -49 R F
7200 1438 M -5 -8 R 2 114 R F
7200 1438 M -3 106 R 1 -8 R F
7200 1438 M -2 98 R 2 -8 R F
7200 1438 M 0 90 R 6 -83 R F
7282 1383 M 4 8 R 2 -73 R F
7288 1318 M -2 73 R 3 9 R F
7288 1318 M 1 82 R 18 -74 R F
7307 1326 M -18 74 R 1 11 R F
7307 1326 M -17 85 R 12 208 R F
7302 1619 M -12 -208 R -1 10 R F
7302 1619 M -13 -198 R -3 9 R F
7284 1627 M 1 -83 R -1 9 R F
7284 1627 M 0 -74 R -2 7 R F
7284 1627 M -2 -67 R -4 6 R F
7284 1627 M -6 -61 R -5 6 R F
7284 1627 M -11 -55 R -6 4 R F
7284 1627 M -17 -51 R -3 55 R F
7264 1631 M 3 -55 R -8 3 R F
7264 1631 M -5 -52 R -9 2 R F
7264 1631 M -14 -50 R -9 1 R F
7264 1631 M -23 -49 R 0 50 R F
7241 1582 M -10 -1 R 10 51 R F
7241 1632 M -10 -51 R -8 -2 R F
7241 1632 M -18 -53 R -5 52 R F
7218 1631 M 5 -52 R -8 -3 R F
7218 1631 M -3 -55 R -6 -5 R F
7218 1631 M -9 -60 R -5 -5 R F
7218 1631 M -14 -65 R -4 -6 R F
7218 1631 M -18 -71 R -2 -8 R F
7218 1631 M -20 -79 R 0 75 R F
7198 1627 M 0 -75 R -1 -8 R F
7198 1627 M -1 -83 R -2 -114 R F
7198 1627 M -3 -197 R -2 -9 R F
7198 1627 M -5 -206 R -1 -10 R F
7198 1627 M -6 -216 R -12 208 R F
7351 1387 M -5 -19 R 1 76 R F
7351 1387 M -4 57 R 3 -11 R F
7351 1387 M -1 46 R 2 -12 R F
7351 1387 M 1 34 R 1 -13 R F
7327 1471 M 8 -8 R 1 -112 R F
7336 1351 M -1 112 R 6 -9 R F
7336 1351 M 5 103 R 5 -86 R F
7346 1368 M -5 86 R 6 -10 R F
7323 1337 M -16 -11 R 0 158 R F
7323 1337 M -16 147 R 11 -6 R F
7323 1337 M -5 141 R 9 -7 R F
7323 1337 M 4 134 R 9 -120 R F
7343 1566 M 2 -20 R -1 -10 R F
7343 1566 M 1 -30 R -2 -10 R F
7343 1566 M -1 -40 R -3 -9 R F
7343 1566 M -4 -49 R -1 65 R F
7339 1517 M -4 -8 R 3 73 R F
7338 1582 M -3 -73 R -5 -7 R F
7338 1582 M -8 -80 R -1 95 R F
7329 1597 M 1 -95 R -7 -7 R F
7329 1597 M -6 -102 R -6 114 R F
7317 1609 M 6 -114 R -7 -6 R F
7317 1609 M -1 -120 R -9 -5 R F
7307 1484 M 0 -158 R -5 293 R F
7307 1484 M -5 135 R 15 -10 R F
7252 1364 M 9 2 R 5 -53 R F
7266 1313 M -5 53 R 9 4 R F
7266 1313 M 4 57 R 18 -52 R F
7288 1318 M -18 52 R 7 6 R F
7288 1318 M -11 58 R 5 7 R F
7220 1366 M 10 -2 R 11 -53 R F
7241 1311 M -11 53 R 11 -1 R F
7241 1311 M 0 52 R 25 -50 R F
7266 1313 M -25 50 R 11 1 R F
7216 1313 M -22 5 R 1 72 R F
7216 1313 M -21 77 R 4 -8 R F
7216 1313 M -17 69 R 6 -7 R F
7216 1313 M -11 62 R 7 -5 R F
7216 1313 M -4 57 R 8 -4 R F
7216 1313 M 4 53 R 21 -55 R F
7194 1318 M -20 8 R 1 158 R F
7194 1318 M -19 166 R 5 135 R F
7194 1318 M -14 301 R 12 -208 R F
7194 1318 M -2 93 R 1 -11 R F
7194 1318 M -1 82 R 2 -10 R F
7146 1462 M 8 8 R 4 -133 R F
7158 1337 M -4 133 R 9 7 R F
7158 1337 M 5 140 R 11 -151 R F
7174 1326 M -11 151 R 12 7 R F
7132 1433 M 3 11 R 1 -76 R F
7136 1368 M -1 76 R 5 9 R F
7136 1368 M 4 85 R 5 -102 R F
7145 1351 M -5 102 R 6 9 R F
7145 1351 M 1 111 R 12 -125 R F
7131 1387 M -2 21 R 1 13 R F
7131 1387 M -1 34 R 2 12 R F
7131 1387 M 1 46 R 4 -65 R F
7151 1502 M 2 95 R 5 -101 R F
7158 1496 M -5 101 R 12 12 R F
7158 1496 M 7 113 R 0 -120 R F
7165 1489 M 0 120 R 15 10 R F
7165 1489 M 15 130 R -5 -135 R F
7146 1509 M -4 8 R 2 65 R F
7146 1509 M -2 73 R 9 15 R F
7146 1509 M 7 88 R -2 -95 R F
7140 1526 M -2 10 R 1 29 R F
7140 1526 M -1 39 R 5 17 R F
7140 1526 M 4 56 R -2 -65 R F
7139 1565 M -1 -29 R 0 10 R F
8722 2112 M 0 239 R D 8451 1320 M -62 0 R 5 286 R F
8451 1320 M -57 286 R 4 12 R F
8451 1320 M -53 298 R 3 14 R F
8451 1320 M -50 312 R 50 0 R F
8389 1533 M -74 0 R 5 44 R F
8389 1533 M -69 44 R 19 1 R F
8389 1533 M -50 45 R 16 2 R F
8389 1533 M -34 47 R 13 4 R F
8389 1533 M -21 51 R 11 6 R F
8389 1533 M -10 57 R 8 7 R F
8389 1533 M -2 64 R 7 9 R F
8389 1533 M 5 73 R -5 -286 R F
8320 1577 M -5 -44 R 0 44 R F
8628 1320 M -65 0 R 0 66 R F
8628 1320 M -65 66 R 65 0 R F
8830 1418 M 2 99 R 13 -189 R F
8845 1328 M -13 189 R 18 -9 R F
8845 1328 M 5 180 R 12 -167 R F
8862 1341 M -12 167 R 15 -12 R F
8862 1341 M 3 155 R 11 -139 R F
8876 1357 M -11 139 R 13 -16 R F
8876 1357 M 2 123 R 8 -104 R F
8886 1376 M -8 104 R 9 -17 R F
8886 1376 M 1 87 R 5 -66 R F
8892 1397 M -5 66 R 5 -20 R F
8892 1397 M 0 46 R 2 -22 R F
8816 1376 M 6 8 R 3 -65 R F
8825 1319 M -3 65 R 4 10 R F
8825 1319 M 1 75 R 19 -66 R F
8845 1328 M -19 66 R 3 11 R F
8845 1328 M -16 77 R 1 13 R F
8790 1362 M 10 3 R 3 -52 R F
8803 1313 M -3 52 R 9 4 R F
8803 1313 M 6 56 R 16 -50 R F
8825 1319 M -16 50 R 7 7 R F
8778 1311 M -23 2 R 4 51 R F
8778 1311 M -19 53 R 9 -2 R F
8778 1311 M -10 51 R 10 -1 R F
8778 1311 M 0 50 R 12 1 R F
8778 1311 M 12 51 R 13 -49 R F
8755 1313 M -21 4 R 2 69 R F
8755 1313 M -19 73 R 4 -8 R F
8755 1313 M -15 65 R 5 -6 R F
8755 1313 M -10 59 R 7 -5 R F
8755 1313 M -3 54 R 7 -3 R F
8734 1317 M -18 8 R 15 79 R F
8734 1317 M -3 87 R 2 -10 R F
8734 1317 M -1 77 R 3 -8 R F
8731 1404 M -15 -79 R -15 11 R F
8731 1404 M -30 -68 R -13 13 R F
8731 1404 M -43 -55 R -9 16 R F
8731 1404 M -52 -39 R -6 18 R F
8731 1404 M -58 -21 R -3 21 R F
8832 1517 M -2 -99 R -1 13 R F
8832 1517 M -3 -86 R -3 10 R F
8832 1517 M -6 -76 R -4 10 R F
8832 1517 M -10 -66 R -6 8 R F
8832 1517 M -16 -58 R -4 63 R F
8816 1459 M -8 7 R 4 56 R F
8812 1522 M -4 -56 R -8 4 R F
8812 1522 M -12 -52 R -10 54 R F
8790 1524 M 10 -54 R -10 3 R F
8790 1524 M 0 -51 R -8 51 R F
8782 1524 M 8 -51 R -12 1 R F
8782 1524 M -4 -50 R -3 49 R F
8775 1523 M 3 -49 R -6 0 R F
8775 1523 M -3 -49 R -5 48 R F
8767 1522 M 5 -48 R -7 -1 R F
8767 1522 M -2 -49 R -5 47 R F
8760 1520 M 5 -47 R -5 -2 R F
8760 1520 M 0 -49 R -6 -2 R F
8760 1520 M -6 -51 R 0 49 R F
8754 1518 M 0 -49 R -5 -4 R F
8754 1518 M -5 -53 R -1 50 R F
8748 1515 M 1 -50 R -4 -3 R F
8748 1515 M -3 -53 R -3 49 R F
8742 1511 M 3 -49 R -4 -5 R F
8742 1511 M -1 -54 R -4 -5 R F
8742 1511 M -5 -59 R 0 56 R F
8737 1508 M 0 -56 R -36 171 R F
8737 1508 M -36 115 R 44 -53 R F
8745 1570 M -44 53 R 179 0 R F
8745 1570 M 135 53 R 0 -53 R F
8701 1623 M 36 -171 R -56 4 R F
9151 1471 M -2 -37 R 0 75 R F
9149 1509 M 0 -75 R -5 -33 R F
9149 1509 M -5 -108 R 0 140 R F
9144 1541 M 0 -140 R -9 -27 R F
9144 1541 M -9 -167 R 0 195 R F
9135 1569 M 0 -195 R -12 -23 R F
9135 1569 M -12 -218 R 0 241 R F
9123 1592 M 0 -241 R -16 -17 R F
9123 1592 M -16 -258 R 0 275 R F
9107 1609 M 0 -275 R -19 -13 R F
9107 1609 M -19 -288 R -1 301 R F
9087 1622 M 1 -301 R -2 151 R F
9087 1622 M -1 -150 R -1 26 R F
9088 1321 M -23 -7 R 3 64 R F
9088 1321 M -20 57 R 7 11 R F
9088 1321 M -13 68 R 5 15 R F
9088 1321 M -8 83 R 3 19 R F
9088 1321 M -5 102 R 2 22 R F
9088 1321 M -3 124 R 1 27 R F
9026 1365 M 12 -2 R 0 -51 R F
9038 1312 M 0 51 R 12 2 R F
9038 1312 M 12 53 R 15 -51 R F
9065 1314 M -15 51 R 10 5 R F
9065 1314 M -5 56 R 8 8 R F
9002 1389 M 6 -11 R 4 -64 R F
9012 1314 M -4 64 R 8 -8 R F
9012 1314 M 4 56 R 22 -58 R F
9038 1312 M -22 58 R 10 -5 R F
8990 1472 M 1 -27 R -2 -123 R F
8989 1322 M 2 123 R 2 -22 R F
8989 1322 M 4 101 R 19 -109 R F
9012 1314 M -19 109 R 4 -19 R F
9012 1314 M -15 90 R 5 -15 R F
9087 1622 M -2 -124 R -2 22 R F
9087 1622 M -4 -102 R -3 19 R F
9087 1622 M -7 -83 R -5 15 R F
9087 1622 M -12 -68 R -7 11 R F
9087 1622 M -19 -57 R -4 64 R F
9064 1629 M 4 -64 R -8 8 R F
9064 1629 M -4 -56 R -10 5 R F
9064 1629 M -14 -51 R -12 2 R F
9064 1629 M -26 -49 R 0 52 R F
9038 1580 M -12 -2 R 12 54 R F
9038 1632 M -12 -54 R -10 -5 R F
9038 1632 M -22 -59 R -4 56 R F
9012 1629 M 4 -56 R -8 -8 R F
9012 1629 M -4 -64 R -6 -11 R F
9002 1554 M -5 -15 R 15 90 R F
9012 1629 M -15 -90 R -4 -18 R F
9012 1629 M -19 -108 R -4 101 R F
8989 1622 M 4 -101 R -2 -23 R F
8989 1622 M 2 -124 R -1 -26 R F
8925 1472 M 2 37 R 0 -75 R F
8927 1434 M 0 75 R 5 33 R F
8927 1434 M 5 108 R 0 -141 R F
8932 1401 M 0 141 R 9 27 R F
8932 1401 M 9 168 R 0 -195 R F
8941 1374 M 0 195 R 12 23 R F
8941 1374 M 12 218 R 0 -241 R F
8953 1351 M 0 241 R 16 17 R F
8953 1351 M 16 258 R 0 -275 R F
8969 1334 M 0 275 R 20 13 R F
8969 1334 M 20 288 R 0 -300 R F
8989 1322 M 0 300 R 1 -150 R F
10519 2112 M 0 239 R D 10248 1320 M -61 0 R 4 286 R F
10248 1320 M -57 286 R 5 12 R F
10248 1320 M -52 298 R 2 14 R F
10248 1320 M -50 312 R 50 0 R F
10187 1533 M -75 0 R 5 44 R F
10187 1533 M -70 44 R 19 1 R F
10187 1533 M -51 45 R 16 2 R F
10187 1533 M -35 47 R 14 4 R F
10187 1533 M -21 51 R 10 6 R F
10187 1533 M -11 57 R 9 7 R F
10187 1533 M -2 64 R 6 9 R F
10187 1533 M 4 73 R -4 -286 R F
10117 1577 M -5 -44 R 0 44 R F
10425 1320 M -65 0 R 0 66 R F
10425 1320 M -65 66 R 65 0 R F
10627 1418 M 3 99 R 13 -189 R F
10643 1328 M -13 189 R 17 -9 R F
10643 1328 M 4 180 R 13 -167 R F
10660 1341 M -13 167 R 16 -12 R F
10660 1341 M 3 155 R 11 -139 R F
10674 1357 M -11 139 R 12 -16 R F
10674 1357 M 1 123 R 8 -104 R F
10683 1376 M -8 104 R 9 -17 R F
10683 1376 M 1 87 R 5 -66 R F
10689 1397 M -5 66 R 5 -20 R F
10689 1397 M 0 46 R 2 -22 R F
10614 1376 M 6 8 R 3 -65 R F
10623 1319 M -3 65 R 4 10 R F
10623 1319 M 1 75 R 19 -66 R F
10643 1328 M -19 66 R 2 11 R F
10643 1328 M -17 77 R 1 13 R F
10587 1362 M 10 3 R 3 -52 R F
10600 1313 M -3 52 R 9 4 R F
10600 1313 M 6 56 R 17 -50 R F
10623 1319 M -17 50 R 8 7 R F
10575 1311 M -23 2 R 5 51 R F
10575 1311 M -18 53 R 8 -2 R F
10575 1311 M -10 51 R 10 -1 R F
10575 1311 M 0 50 R 12 1 R F
10575 1311 M 12 51 R 13 -49 R F
10552 1313 M -20 4 R 1 69 R F
10552 1313 M -19 73 R 4 -8 R F
10552 1313 M -15 65 R 5 -6 R F
10552 1313 M -10 59 R 7 -5 R F
10552 1313 M -3 54 R 8 -3 R F
10532 1317 M -18 8 R 15 79 R F
10532 1317 M -3 87 R 1 -10 R F
10532 1317 M -2 77 R 3 -8 R F
10529 1404 M -15 -79 R -16 11 R F
10529 1404 M -31 -68 R -13 13 R F
10529 1404 M -44 -55 R -9 16 R F
10529 1404 M -53 -39 R -6 18 R F
10529 1404 M -59 -21 R -2 21 R F
10630 1517 M -3 -99 R -1 13 R F
10630 1517 M -4 -86 R -2 10 R F
10630 1517 M -6 -76 R -5 10 R F
10630 1517 M -11 -66 R -6 8 R F
10630 1517 M -17 -58 R -3 63 R F
10613 1459 M -7 7 R 4 56 R F
10610 1522 M -4 -56 R -9 4 R F
10610 1522 M -13 -52 R -10 54 R F
10587 1524 M 10 -54 R -10 3 R F
10587 1524 M 0 -51 R -8 51 R F
10579 1524 M 8 -51 R -12 1 R F
10579 1524 M -4 -50 R -3 49 R F
10572 1523 M 3 -49 R -6 0 R F
10572 1523 M -3 -49 R -4 48 R F
10565 1522 M 4 -48 R -6 -1 R F
10565 1522 M -2 -49 R -5 47 R F
10558 1520 M 5 -47 R -6 -2 R F
10558 1520 M -1 -49 R -5 -2 R F
10558 1520 M -6 -51 R -1 49 R F
10551 1518 M 1 -49 R -5 -4 R F
10551 1518 M -4 -53 R -2 50 R F
10545 1515 M 2 -50 R -5 -3 R F
10545 1515 M -3 -53 R -2 49 R F
10540 1511 M 2 -49 R -4 -5 R F
10540 1511 M -2 -54 R -4 -5 R F
10540 1511 M -6 -59 R 0 56 R F
10534 1508 M 0 -56 R -36 171 R F
10534 1508 M -36 115 R 44 -53 R F
10542 1570 M -44 53 R 180 0 R F
10542 1570 M 136 53 R 0 -53 R F
10498 1623 M 36 -171 R -56 4 R F
10782 1520 M -57 0 R 2 26 R F
10782 1520 M -55 26 R 5 22 R F
10782 1520 M -50 48 R 9 19 R F
10782 1520 M -41 67 R 13 16 R F
10782 1520 M -28 83 R 15 13 R F
10782 1520 M -13 96 R 13 -93 R F
10796 1373 M 142 0 R 0 -53 R F
10796 1373 M 142 -53 R -201 71 R F
10796 1373 M -59 18 R 11 15 R F
10796 1373 M -48 33 R 14 14 R F
10796 1373 M -34 47 R 17 15 R F
10796 1373 M -17 62 R 20 15 R F
10796 1373 M 3 77 R 2 -69 R F
10938 1320 M -218 0 R 1 20 R F
10938 1320 M -217 20 R 3 19 R F
10938 1320 M -214 39 R 6 17 R F
10938 1320 M -208 56 R 7 15 R F
10941 1536 M -1 -15 R -1 35 R F
10939 1556 M 1 -35 R -3 -14 R F
10939 1556 M -2 -49 R -3 68 R F
10934 1575 M 3 -68 R -5 -13 R F
10934 1575 M -2 -81 R -6 -12 R F
10934 1575 M -8 -93 R -1 109 R F
10925 1591 M 1 -109 R -9 -12 R F
10925 1591 M -8 -121 R -5 136 R F
10912 1606 M 5 -136 R -13 -13 R F
10912 1606 M -8 -149 R -7 160 R F
10897 1617 M 7 -160 R -16 -13 R F
10897 1617 M -9 -173 R -9 181 R F
10879 1625 M 9 -181 R -10 91 R F
10879 1625 M -1 -90 R -1 10 R F
10878 1535 M 10 -91 R -14 73 R F
10874 1517 M 14 -73 R -20 -14 R F
10874 1517 M -6 -87 R -5 69 R F
10863 1499 M 5 -69 R -5 -4 R F
10863 1499 M 0 -73 R -6 -4 R F
10850 1418 M -7 -5 R 2 68 R F
10850 1418 M -5 63 R 18 18 R F
10850 1418 M 13 81 R -6 -77 R F
10824 1401 M -13 -11 R 2 69 R F
10824 1401 M -11 58 R 6 3 R F
10824 1401 M -5 61 R 26 19 R F
10824 1401 M 21 80 R -2 -68 R F
10811 1390 M -10 -9 R 2 71 R F
10811 1390 M -8 62 R 5 3 R F
10811 1390 M -3 65 R 5 4 R F
10879 1625 M -2 -80 R -2 8 R F
10879 1625 M -4 -72 R -4 8 R F
10879 1625 M -8 -64 R -6 7 R F
10879 1625 M -14 -57 R -7 5 R F
10879 1625 M -21 -52 R 0 57 R F
10858 1573 M -7 4 R 7 53 R F
10858 1630 M -7 -53 R -10 2 R F
10858 1630 M -17 -51 R -6 53 R F
10835 1632 M 6 -53 R -10 1 R F
10835 1632 M -4 -52 R -11 -1 R F
10810 1576 M -8 -5 R 8 59 R F
10810 1576 M 0 54 R 25 2 R F
10810 1576 M 25 56 R -15 -53 R F
10802 1571 M -7 -6 R 15 65 R F
10810 1630 M -15 -65 R -6 -8 R F
10810 1630 M -21 -73 R -1 68 R F
10788 1625 M 1 -68 R -4 -10 R F
10788 1625 M -3 -78 R -2 -11 R F
10782 1523 M -13 93 R 19 9 R F
10782 1523 M 6 102 R -5 -89 R F
10801 1381 M -2 69 R 4 2 R F
12317 2112 M 0 239 R D 12045 1320 M -61 0 R 4 286 R F
12045 1320 M -57 286 R 5 12 R F
12045 1320 M -52 298 R 3 14 R F
12045 1320 M -49 312 R 49 0 R F
11984 1533 M -74 0 R 4 44 R F
11984 1533 M -70 44 R 19 1 R F
11984 1533 M -51 45 R 17 2 R F
11984 1533 M -34 47 R 13 4 R F
11984 1533 M -21 51 R 11 6 R F
11984 1533 M -10 57 R 8 7 R F
11984 1533 M -2 64 R 6 9 R F
11984 1533 M 4 73 R -4 -286 R F
11914 1577 M -4 -44 R 0 44 R F
12223 1320 M -66 0 R 0 66 R F
12223 1320 M -66 66 R 66 0 R F
12424 1418 M 3 99 R 13 -189 R F
12440 1328 M -13 189 R 18 -9 R F
12440 1328 M 5 180 R 12 -167 R F
12457 1341 M -12 167 R 15 -12 R F
12457 1341 M 3 155 R 11 -139 R F
12471 1357 M -11 139 R 12 -16 R F
12471 1357 M 1 123 R 9 -104 R F
12481 1376 M -9 104 R 9 -17 R F
12481 1376 M 0 87 R 6 -66 R F
12487 1397 M -6 66 R 6 -20 R F
12487 1397 M 0 46 R 2 -22 R F
12411 1376 M 6 8 R 3 -65 R F
12420 1319 M -3 65 R 4 10 R F
12420 1319 M 1 75 R 19 -66 R F
12440 1328 M -19 66 R 3 11 R F
12440 1328 M -16 77 R 0 13 R F
12384 1362 M 11 3 R 3 -52 R F
12398 1313 M -3 52 R 9 4 R F
12398 1313 M 6 56 R 16 -50 R F
12420 1319 M -16 50 R 7 7 R F
12372 1311 M -23 2 R 5 51 R F
12372 1311 M -18 53 R 9 -2 R F
12372 1311 M -9 51 R 9 -1 R F
12372 1311 M 0 50 R 12 1 R F
12372 1311 M 12 51 R 14 -49 R F
12349 1313 M -20 4 R 1 69 R F
12349 1313 M -19 73 R 4 -8 R F
12349 1313 M -15 65 R 6 -6 R F
12349 1313 M -9 59 R 6 -5 R F
12349 1313 M -3 54 R 8 -3 R F
12329 1317 M -18 8 R 15 79 R F
12329 1317 M -3 87 R 1 -10 R F
12329 1317 M -2 77 R 3 -8 R F
12326 1404 M -15 -79 R -16 11 R F
12326 1404 M -31 -68 R -12 13 R F
12326 1404 M -43 -55 R -9 16 R F
12326 1404 M -52 -39 R -6 18 R F
12326 1404 M -58 -21 R -3 21 R F
12427 1517 M -3 -99 R 0 13 R F
12427 1517 M -3 -86 R -3 10 R F
12427 1517 M -6 -76 R -4 10 R F
12427 1517 M -10 -66 R -6 8 R F
12427 1517 M -16 -58 R -4 63 R F
12411 1459 M -8 7 R 4 56 R F
12407 1522 M -4 -56 R -9 4 R F
12407 1522 M -13 -52 R -9 54 R F
12385 1524 M 9 -54 R -10 3 R F
12385 1524 M -1 -51 R -7 51 R F
12377 1524 M 7 -51 R -11 1 R F
12377 1524 M -4 -50 R -4 49 R F
12369 1523 M 4 -49 R -7 0 R F
12369 1523 M -3 -49 R -4 48 R F
12362 1522 M 4 -48 R -6 -1 R F
12362 1522 M -2 -49 R -5 47 R F
12355 1520 M 5 -47 R -6 -2 R F
12355 1520 M -1 -49 R -5 -2 R F
12355 1520 M -6 -51 R 0 49 R F
12349 1518 M 0 -49 R -5 -4 R F
12349 1518 M -5 -53 R -1 50 R F
12343 1515 M 1 -50 R -4 -3 R F
12343 1515 M -3 -53 R -3 49 R F
12337 1511 M 3 -49 R -5 -5 R F
12337 1511 M -2 -54 R -3 -5 R F
12337 1511 M -5 -59 R 0 56 R F
12332 1508 M 0 -56 R -36 171 R F
12332 1508 M -36 115 R 44 -53 R F
12340 1570 M -44 53 R 179 0 R F
12340 1570 M 135 53 R 0 -53 R F
12296 1623 M 36 -171 R -57 4 R F
12649 1435 M 60 188 R 0 -303 R F
12709 1320 M 0 303 R 0 -186 R F
12709 1320 M 0 117 R 0 -50 R F
12709 1387 M 0 50 R 36 0 R F
12709 1387 M 36 50 R 0 -50 R F
12517 1442 M 115 181 R -115 -236 R F
12517 1387 M 115 236 R -67 -188 R F
12517 1387 M 48 48 R 83 -48 R F
12648 1387 M -83 48 R 84 0 R F
12648 1387 M 1 48 R -1 -115 R F
12648 1320 M 1 115 R 60 -115 R F
12649 1569 M -84 -134 R 67 188 R F
12649 1569 M -17 54 R 77 0 R F
12649 1569 M 60 54 R -60 -188 R F
14114 2112 M 0 239 R D 13843 1320 M -62 0 R 5 286 R F
13843 1320 M -57 286 R 4 12 R F
13843 1320 M -53 298 R 3 14 R F
13843 1320 M -50 312 R 50 0 R F
13781 1533 M -74 0 R 5 44 R F
13781 1533 M -69 44 R 19 1 R F
13781 1533 M -50 45 R 16 2 R F
13781 1533 M -34 47 R 13 4 R F
13781 1533 M -21 51 R 11 6 R F
13781 1533 M -10 57 R 8 7 R F
13781 1533 M -2 64 R 7 9 R F
13781 1533 M 5 73 R -5 -286 R F
13712 1577 M -5 -44 R 0 44 R F
14020 1320 M -65 0 R 0 66 R F
14020 1320 M -65 66 R 65 0 R F
14222 1418 M 2 99 R 13 -189 R F
14237 1328 M -13 189 R 18 -9 R F
14237 1328 M 5 180 R 12 -167 R F
14254 1341 M -12 167 R 15 -12 R F
14254 1341 M 3 155 R 11 -139 R F
14268 1357 M -11 139 R 13 -16 R F
14268 1357 M 2 123 R 8 -104 R F
14278 1376 M -8 104 R 9 -17 R F
14278 1376 M 1 87 R 5 -66 R F
14284 1397 M -5 66 R 5 -20 R F
14284 1397 M 0 46 R 2 -22 R F
14208 1376 M 6 8 R 3 -65 R F
14217 1319 M -3 65 R 4 10 R F
14217 1319 M 1 75 R 19 -66 R F
14237 1328 M -19 66 R 3 11 R F
14237 1328 M -16 77 R 1 13 R F
14182 1362 M 10 3 R 3 -52 R F
14195 1313 M -3 52 R 9 4 R F
14195 1313 M 6 56 R 16 -50 R F
14217 1319 M -16 50 R 7 7 R F
14170 1311 M -23 2 R 4 51 R F
14170 1311 M -19 53 R 9 -2 R F
14170 1311 M -10 51 R 10 -1 R F
14170 1311 M 0 50 R 12 1 R F
14170 1311 M 12 51 R 13 -49 R F
14147 1313 M -21 4 R 2 69 R F
14147 1313 M -19 73 R 4 -8 R F
14147 1313 M -15 65 R 5 -6 R F
14147 1313 M -10 59 R 7 -5 R F
14147 1313 M -3 54 R 7 -3 R F
14126 1317 M -18 8 R 15 79 R F
14126 1317 M -3 87 R 2 -10 R F
14126 1317 M -1 77 R 3 -8 R F
14123 1404 M -15 -79 R -15 11 R F
14123 1404 M -30 -68 R -13 13 R F
14123 1404 M -43 -55 R -9 16 R F
14123 1404 M -52 -39 R -6 18 R F
14123 1404 M -58 -21 R -3 21 R F
14224 1517 M -2 -99 R -1 13 R F
14224 1517 M -3 -86 R -3 10 R F
14224 1517 M -6 -76 R -4 10 R F
14224 1517 M -10 -66 R -6 8 R F
14224 1517 M -16 -58 R -4 63 R F
14208 1459 M -8 7 R 4 56 R F
14204 1522 M -4 -56 R -8 4 R F
14204 1522 M -12 -52 R -10 54 R F
14182 1524 M 10 -54 R -10 3 R F
14182 1524 M 0 -51 R -8 51 R F
14174 1524 M 8 -51 R -12 1 R F
14174 1524 M -4 -50 R -3 49 R F
14167 1523 M 3 -49 R -6 0 R F
14167 1523 M -3 -49 R -5 48 R F
14159 1522 M 5 -48 R -7 -1 R F
14159 1522 M -2 -49 R -5 47 R F
14152 1520 M 5 -47 R -5 -2 R F
14152 1520 M 0 -49 R -6 -2 R F
14152 1520 M -6 -51 R 0 49 R F
14146 1518 M 0 -49 R -5 -4 R F
14146 1518 M -5 -53 R -1 50 R F
14140 1515 M 1 -50 R -4 -3 R F
14140 1515 M -3 -53 R -3 49 R F
14134 1511 M 3 -49 R -4 -5 R F
14134 1511 M -1 -54 R -4 -5 R F
14134 1511 M -5 -59 R 0 56 R F
14129 1508 M 0 -56 R -36 171 R F
14129 1508 M -36 115 R 44 -53 R F
14137 1570 M -44 53 R 179 0 R F
14137 1570 M 135 53 R 0 -53 R F
14093 1623 M 36 -171 R -56 4 R F
14480 1419 M 4 97 R 13 -188 R F
14497 1328 M -13 188 R 17 -9 R F
14497 1328 M 4 179 R 12 -166 R F
14513 1341 M -12 166 R 15 -12 R F
14513 1341 M 3 154 R 10 -138 R F
14526 1357 M -10 138 R 12 -15 R F
14526 1357 M 2 123 R 8 -104 R F
14536 1376 M -8 104 R 8 -18 R F
14536 1376 M 0 86 R 5 -65 R F
14541 1397 M -5 65 R 6 -20 R F
14541 1397 M 1 45 R 1 -22 R F
14473 1385 M 4 9 R 1 -76 R F
14478 1318 M -1 76 R 2 12 R F
14478 1318 M 1 88 R 18 -78 R F
14497 1328 M -18 78 R 1 13 R F
14444 1362 M 9 3 R 4 -52 R F
14457 1313 M -4 52 R 8 5 R F
14457 1313 M 4 57 R 17 -52 R F
14478 1318 M -17 52 R 7 6 R F
14478 1318 M -10 58 R 5 9 R F
14434 1311 M -27 2 R 6 52 R F
14434 1311 M -21 54 R 10 -3 R F
14434 1311 M -11 51 R 11 -1 R F
14434 1311 M 0 50 R 10 1 R F
14434 1311 M 10 51 R 13 -49 R F
14407 1313 M -23 8 R 3 74 R F
14407 1313 M -20 82 R 5 -10 R F
14407 1313 M -15 72 R 5 -8 R F
14407 1313 M -10 64 R 8 -7 R F
14407 1313 M -2 57 R 8 -5 R F
14384 1321 M -20 12 R 3 275 R F
14384 1321 M -17 287 R 16 -107 R F
14384 1321 M -1 180 R 1 -82 R F
14384 1321 M 0 98 R 1 -13 R F
14384 1321 M 1 85 R 2 -11 R F
14484 1516 M -4 -97 R -1 12 R F
14484 1516 M -5 -85 R -2 10 R F
14484 1516 M -7 -75 R -4 9 R F
14484 1516 M -11 -66 R -6 8 R F
14484 1516 M -17 -58 R -3 63 R F
14464 1521 M 3 -63 R -7 6 R F
14464 1521 M -4 -57 R -8 4 R F
14464 1521 M -12 -53 R -9 3 R F
14464 1521 M -21 -50 R -1 52 R F
14442 1523 M 1 -52 R -10 51 R F
14433 1522 M 10 -51 R -11 1 R F
14433 1522 M -1 -50 R -7 49 R F
14425 1521 M 7 -49 R -11 -1 R F
14425 1521 M -4 -50 R -4 48 R F
14417 1519 M 4 -48 R -9 -3 R F
14417 1519 M -5 -51 R -3 49 R F
14409 1517 M 3 -49 R -8 -4 R F
14409 1517 M -5 -53 R -2 50 R F
14402 1514 M 2 -50 R -7 -6 R F
14402 1514 M -5 -56 R -2 52 R F
14395 1510 M 2 -52 R -6 -8 R F
14395 1510 M -4 -60 R -2 56 R F
14389 1506 M 2 -56 R -4 -9 R F
14389 1506 M -2 -65 R -2 -10 R F
14384 1419 M -1 82 R 6 5 R F
14384 1419 M 5 87 R -4 -75 R F
14367 1608 M -3 -275 R -14 256 R F
14350 1589 M 14 -256 R -16 17 R F
14350 1589 M -2 -239 R -12 215 R F
14336 1565 M 12 -215 R -13 22 R F
14336 1565 M -1 -193 R -9 164 R F
14326 1536 M 9 -164 R -9 26 R F
14326 1536 M 0 -138 R -6 105 R F
14320 1503 M 6 -105 R -6 31 R F
14320 1503 M 0 -74 R -2 36 R F
14535 1552 M -63 0 R 6 74 R F
14535 1552 M -57 74 R 16 -6 R F
14535 1552 M -41 68 R 13 -10 R F
14535 1552 M -28 58 R 12 -11 R F
14535 1552 M -16 47 R 8 -14 R F
14535 1552 M -8 33 R 6 -16 R F
14478 1626 M -6 -74 R -1 7 R F
14478 1626 M -7 -67 R -3 6 R F
14478 1626 M -10 -61 R -3 5 R F
14478 1626 M -13 -56 R -5 60 R F
14460 1630 M 5 -60 R -5 5 R F
14460 1630 M 0 -55 R -5 3 R F
14460 1630 M -5 -52 R -6 2 R F
14460 1630 M -11 -50 R -7 2 R F
14460 1630 M -18 -48 R -1 50 R F
14441 1632 M 1 -50 R -8 0 R F
14441 1632 M -7 -50 R -12 -1 R F
14441 1632 M -19 -51 R -9 -4 R F
14441 1632 M -28 -55 R 0 52 R F
14413 1629 M 0 -52 R -9 -6 R F
14413 1629 M -9 -58 R -7 -9 R F
14413 1629 M -16 -67 R -5 -12 R F
14413 1629 M -21 -79 R -4 71 R F
14388 1621 M 4 -71 R -4 -14 R F
14388 1621 M 0 -85 R -3 -16 R F
14388 1621 M -3 -101 R -2 -19 R F
14388 1621 M -5 -120 R -16 107 R F
3779 2112 M 0 120 R D 4229 2112 M 0 120 R D 4678 2112 M 0 120 R D
5577 2112 M 0 120 R D 6026 2112 M 0 120 R D 6475 2112 M 0 120 R D
7374 2112 M 0 120 R D 7823 2112 M 0 120 R D 8273 2112 M 0 120 R D
9171 2112 M 0 120 R D 9621 2112 M 0 120 R D 10070 2112 M 0 120 R D
10969 2112 M 0 120 R D 11418 2112 M 0 120 R D 11867 2112 M 0 120 R D
12766 2112 M 0 120 R D 13215 2112 M 0 120 R D 13665 2112 M 0 120 R D
3330 14057 M 10784 0 R D 3330 14057 M 0 -239 R D 5127 14057 M 0 -239 R D
6925 14057 M 0 -239 R D 8722 14057 M 0 -239 R D 10519 14057 M 0 -239 R D
12317 14057 M 0 -239 R D 14114 14057 M 0 -239 R D 3779 14057 M 0 -119 R D
4229 14057 M 0 -119 R D 4678 14057 M 0 -119 R D 5577 14057 M 0 -119 R D
6026 14057 M 0 -119 R D 6475 14057 M 0 -119 R D 7374 14057 M 0 -119 R D
7823 14057 M 0 -119 R D 8273 14057 M 0 -119 R D 9171 14057 M 0 -119 R D
9621 14057 M 0 -119 R D 10070 14057 M 0 -119 R D 10969 14057 M 0 -119 R D
11418 14057 M 0 -119 R D 11867 14057 M 0 -119 R D 12766 14057 M 0 -119 R D
13215 14057 M 0 -119 R D 13665 14057 M 0 -119 R D 3330 2112 M 0 11945 R D
3330 2112 M 216 0 R D 2770 2263 M -1 -37 R 0 75 R F
2769 2301 M 0 -75 R -6 -33 R F
2769 2301 M -6 -108 R 0 140 R F
2763 2333 M 0 -140 R -8 -27 R F
2763 2333 M -8 -167 R 0 195 R F
2755 2361 M 0 -195 R -13 -23 R F
2755 2361 M -13 -218 R 0 241 R F
2742 2384 M 0 -241 R -15 -17 R F
2742 2384 M -15 -258 R -1 275 R F
2726 2401 M 1 -275 R -20 -13 R F
2726 2401 M -19 -288 R 0 301 R F
2707 2414 M 0 -301 R -1 151 R F
2707 2414 M -1 -150 R -1 26 R F
2707 2113 M -23 -7 R 4 64 R F
2707 2113 M -19 57 R 6 11 R F
2707 2113 M -13 68 R 5 15 R F
2707 2113 M -8 83 R 4 19 R F
2707 2113 M -4 102 R 2 22 R F
2707 2113 M -2 124 R 1 27 R F
2646 2157 M 12 -2 R 0 -51 R F
2658 2104 M 0 51 R 11 2 R F
2658 2104 M 11 53 R 15 -51 R F
2684 2106 M -15 51 R 10 5 R F
2684 2106 M -5 56 R 9 8 R F
2621 2181 M 7 -11 R 3 -64 R F
2631 2106 M -3 64 R 8 -8 R F
2631 2106 M 5 56 R 22 -58 R F
2658 2104 M -22 58 R 10 -5 R F
2610 2264 M 1 -27 R -3 -123 R F
2608 2114 M 3 123 R 2 -22 R F
2608 2114 M 5 101 R 18 -109 R F
2631 2106 M -18 109 R 3 -19 R F
2631 2106 M -15 90 R 5 -15 R F
2707 2414 M -2 -124 R -2 22 R F
2707 2414 M -4 -102 R -4 19 R F
2707 2414 M -8 -83 R -5 15 R F
2707 2414 M -13 -68 R -6 11 R F
2707 2414 M -19 -57 R -4 64 R F
2684 2421 M 4 -64 R -9 8 R F
2684 2421 M -5 -56 R -10 5 R F
2684 2421 M -15 -51 R -11 2 R F
2684 2421 M -26 -49 R 0 52 R F
2658 2372 M -12 -2 R 12 54 R F
2658 2424 M -12 -54 R -10 -5 R F
2658 2424 M -22 -59 R -5 56 R F
2631 2421 M 5 -56 R -8 -8 R F
2631 2421 M -3 -64 R -7 -11 R F
2621 2346 M -5 -15 R 15 90 R F
2631 2421 M -15 -90 R -3 -18 R F
2631 2421 M -18 -108 R -5 101 R F
2608 2414 M 5 -101 R -2 -23 R F
2608 2414 M 3 -124 R -1 -26 R F
2545 2264 M 2 37 R 0 -75 R F
2547 2226 M 0 75 R 5 33 R F
2547 2226 M 5 108 R 0 -141 R F
2552 2193 M 0 141 R 9 27 R F
2552 2193 M 9 168 R 0 -195 R F
2561 2166 M 0 195 R 12 23 R F
2561 2166 M 12 218 R 0 -241 R F
2573 2143 M 0 241 R 16 17 R F
2573 2143 M 16 258 R 0 -275 R F
2589 2126 M 0 275 R 19 13 R F
2589 2126 M 19 288 R 0 -300 R F
2608 2114 M 0 300 R 2 -150 R F
2880 2112 M -66 0 R 0 66 R F
2880 2112 M -66 66 R 66 0 R F
3082 2112 M -61 0 R 4 286 R F
3082 2112 M -57 286 R 5 12 R F
3082 2112 M -52 298 R 2 14 R F
3082 2112 M -50 312 R 50 0 R F
3021 2325 M -75 0 R 5 44 R F
3021 2325 M -70 44 R 19 1 R F
3021 2325 M -51 45 R 16 2 R F
3021 2325 M -35 47 R 14 4 R F
3021 2325 M -21 51 R 10 6 R F
3021 2325 M -11 57 R 9 7 R F
3021 2325 M -2 64 R 6 9 R F
3021 2325 M 4 73 R -4 -286 R F
2951 2369 M -5 -44 R 0 44 R F
3330 5098 M 216 0 R D 2703 4887 M -62 0 R 5 286 R F
2703 4887 M -57 286 R 4 12 R F
2703 4887 M -53 298 R 3 14 R F
2703 4887 M -50 312 R 50 0 R F
2641 5100 M -74 0 R 4 44 R F
2641 5100 M -70 44 R 19 1 R F
2641 5100 M -51 45 R 17 2 R F
2641 5100 M -34 47 R 13 4 R F
2641 5100 M -21 51 R 11 6 R F
2641 5100 M -10 57 R 8 7 R F
2641 5100 M -2 64 R 7 9 R F
2641 5100 M 5 73 R -5 -286 R F
2571 5144 M -4 -44 R 0 44 R F
2880 4887 M -66 0 R 0 66 R F
2880 4887 M -66 66 R 66 0 R F
3150 5038 M -2 -37 R 0 75 R F
3148 5076 M 0 -75 R -5 -33 R F
3148 5076 M -5 -108 R 0 140 R F
3143 5108 M 0 -140 R -9 -27 R F
3143 5108 M -9 -167 R 0 195 R F
3134 5136 M 0 -195 R -12 -23 R F
3134 5136 M -12 -218 R 0 241 R F
3122 5159 M 0 -241 R -16 -17 R F
3122 5159 M -16 -258 R 0 275 R F
3106 5176 M 0 -275 R -19 -12 R F
3106 5176 M -19 -287 R -1 300 R F
3086 5189 M 1 -300 R -2 150 R F
3086 5189 M -1 -150 R -1 26 R F
3087 4889 M -23 -8 R 3 64 R F
3087 4889 M -20 56 R 7 11 R F
3087 4889 M -13 67 R 5 15 R F
3087 4889 M -8 82 R 3 19 R F
3087 4889 M -5 101 R 2 22 R F
3087 4889 M -3 123 R 1 27 R F
3025 4932 M 12 -2 R 0 -51 R F
3037 4879 M 0 51 R 12 2 R F
3037 4879 M 12 53 R 15 -51 R F
3064 4881 M -15 51 R 10 5 R F
3064 4881 M -5 56 R 8 8 R F
3001 4956 M 6 -11 R 4 -64 R F
3011 4881 M -4 64 R 8 -8 R F
3011 4881 M 4 56 R 22 -58 R F
3037 4879 M -22 58 R 10 -5 R F
2989 5039 M 1 -27 R -2 -123 R F
2988 4889 M 2 123 R 2 -22 R F
2988 4889 M 4 101 R 19 -109 R F
3011 4881 M -19 109 R 4 -19 R F
3011 4881 M -15 90 R 5 -15 R F
3086 5189 M -2 -124 R -2 23 R F
3086 5189 M -4 -101 R -3 18 R F
3086 5189 M -7 -83 R -5 15 R F
3086 5189 M -12 -68 R -7 11 R F
3086 5189 M -19 -57 R -3 64 R F
3064 5196 M 3 -64 R -8 8 R F
3064 5196 M -5 -56 R -10 5 R F
3064 5196 M -15 -51 R -12 2 R F
3064 5196 M -27 -49 R 0 52 R F
3037 5147 M -12 -2 R 12 54 R F
3037 5199 M -12 -54 R -10 -5 R F
3037 5199 M -22 -59 R -4 56 R F
3011 5196 M 4 -56 R -8 -8 R F
3011 5196 M -4 -64 R -6 -11 R F
3001 5121 M -5 -15 R 15 90 R F
3011 5196 M -15 -90 R -4 -18 R F
3011 5196 M -19 -108 R -4 101 R F
2988 5189 M 4 -101 R -2 -23 R F
2988 5189 M 2 -124 R -1 -26 R F
2925 5039 M 1 37 R 0 -75 R F
2926 5001 M 0 75 R 6 33 R F
2926 5001 M 6 108 R 0 -141 R F
2932 4968 M 0 141 R 8 27 R F
2932 4968 M 8 168 R 0 -195 R F
2940 4941 M 0 195 R 13 23 R F
2940 4941 M 13 218 R 0 -241 R F
2953 4918 M 0 241 R 15 17 R F
2953 4918 M 15 258 R 0 -275 R F
2968 4901 M 0 275 R 20 13 R F
2968 4901 M 20 288 R 0 -300 R F
2988 4889 M 0 300 R 1 -150 R F
3330 8085 M 216 0 R D 2450 7873 M -62 0 R 5 287 R F
2450 7873 M -57 287 R 4 11 R F
2450 7873 M -53 298 R 3 14 R F
2450 7873 M -50 312 R 50 0 R F
2388 8086 M -74 0 R 5 44 R F
2388 8086 M -69 44 R 19 1 R F
2388 8086 M -50 45 R 16 2 R F
2388 8086 M -34 47 R 13 4 R F
2388 8086 M -21 51 R 11 6 R F
2388 8086 M -10 57 R 8 7 R F
2388 8086 M -2 64 R 7 10 R F
2388 8086 M 5 74 R -5 -287 R F
2319 8130 M -5 -44 R 0 44 R F
2770 8024 M -1 -37 R 0 75 R F
2769 8062 M 0 -75 R -6 -33 R F
2769 8062 M -6 -108 R 0 141 R F
2763 8095 M 0 -141 R -8 -27 R F
2763 8095 M -8 -168 R 0 195 R F
2755 8122 M 0 -195 R -13 -22 R F
2755 8122 M -13 -217 R 0 240 R F
2742 8145 M 0 -240 R -15 -18 R F
2742 8145 M -15 -258 R -1 276 R F
2726 8163 M 1 -276 R -20 -12 R F
2726 8163 M -19 -288 R 0 300 R F
2707 8175 M 0 -300 R -1 150 R F
2707 8175 M -1 -150 R -1 26 R F
2707 7875 M -23 -8 R 4 64 R F
2707 7875 M -19 56 R 6 12 R F
2707 7875 M -13 68 R 5 14 R F
2707 7875 M -8 82 R 4 19 R F
2707 7875 M -4 101 R 2 23 R F
2707 7875 M -2 124 R 1 26 R F
2646 7918 M 12 -1 R 0 -52 R F
2658 7865 M 0 52 R 11 1 R F
2658 7865 M 11 53 R 15 -51 R F
2684 7867 M -15 51 R 10 5 R F
2684 7867 M -5 56 R 9 8 R F
2621 7942 M 7 -11 R 3 -64 R F
2631 7867 M -3 64 R 8 -8 R F
2631 7867 M 5 56 R 22 -58 R F
2658 7865 M -22 58 R 10 -5 R F
2610 8025 M 1 -27 R -3 -123 R F
2608 7875 M 3 123 R 2 -22 R F
2608 7875 M 5 101 R 18 -109 R F
2631 7867 M -18 109 R 3 -19 R F
2631 7867 M -15 90 R 5 -15 R F
2707 8175 M -2 -124 R -2 23 R F
2707 8175 M -4 -101 R -4 18 R F
2707 8175 M -8 -83 R -5 15 R F
2707 8175 M -13 -68 R -6 11 R F
2707 8175 M -19 -57 R -4 65 R F
2684 8183 M 4 -65 R -9 8 R F
2684 8183 M -5 -57 R -10 5 R F
2684 8183 M -15 -52 R -11 2 R F
2684 8183 M -26 -50 R 0 52 R F
2658 8133 M -12 -2 R 12 54 R F
2658 8185 M -12 -54 R -10 -5 R F
2658 8185 M -22 -59 R -5 57 R F
2631 8183 M 5 -57 R -8 -8 R F
2631 8183 M -3 -65 R -7 -11 R F
2621 8107 M -5 -14 R 15 90 R F
2631 8183 M -15 -90 R -3 -19 R F
2631 8183 M -18 -109 R -5 101 R F
2608 8175 M 5 -101 R -2 -23 R F
2608 8175 M 3 -124 R -1 -26 R F
2545 8025 M 2 38 R 0 -76 R F
2547 7987 M 0 76 R 5 32 R F
2547 7987 M 5 108 R 0 -140 R F
2552 7955 M 0 140 R 9 28 R F
2552 7955 M 9 168 R 0 -196 R F
2561 7927 M 0 196 R 12 22 R F
2561 7927 M 12 218 R 0 -240 R F
2573 7905 M 0 240 R 16 18 R F
2573 7905 M 16 258 R 0 -276 R F
2589 7887 M 0 276 R 19 12 R F
2589 7887 M 19 288 R 0 -300 R F
2608 7875 M 0 300 R 2 -150 R F
2880 7873 M -66 0 R 0 66 R F
2880 7873 M -66 66 R 66 0 R F
3150 8024 M -2 -37 R 0 75 R F
3148 8062 M 0 -75 R -5 -33 R F
3148 8062 M -5 -108 R 0 141 R F
3143 8095 M 0 -141 R -9 -27 R F
3143 8095 M -9 -168 R 0 195 R F
3134 8122 M 0 -195 R -12 -22 R F
3134 8122 M -12 -217 R 0 240 R F
3122 8145 M 0 -240 R -16 -18 R F
3122 8145 M -16 -258 R 0 276 R F
3106 8163 M 0 -276 R -19 -12 R F
3106 8163 M -19 -288 R -1 300 R F
3086 8175 M 1 -300 R -2 150 R F
3086 8175 M -1 -150 R -1 26 R F
3087 7875 M -23 -8 R 3 64 R F
3087 7875 M -20 56 R 7 12 R F
3087 7875 M -13 68 R 5 14 R F
3087 7875 M -8 82 R 3 19 R F
3087 7875 M -5 101 R 2 23 R F
3087 7875 M -3 124 R 1 26 R F
3025 7918 M 12 -1 R 0 -52 R F
3037 7865 M 0 52 R 12 1 R F
3037 7865 M 12 53 R 15 -51 R F
3064 7867 M -15 51 R 10 5 R F
3064 7867 M -5 56 R 8 8 R F
3001 7942 M 6 -11 R 4 -64 R F
3011 7867 M -4 64 R 8 -8 R F
3011 7867 M 4 56 R 22 -58 R F
3037 7865 M -22 58 R 10 -5 R F
2989 8025 M 1 -27 R -2 -123 R F
2988 7875 M 2 123 R 2 -22 R F
2988 7875 M 4 101 R 19 -109 R F
3011 7867 M -19 109 R 4 -19 R F
3011 7867 M -15 90 R 5 -15 R F
3086 8175 M -2 -124 R -2 23 R F
3086 8175 M -4 -101 R -3 18 R F
3086 8175 M -7 -83 R -5 15 R F
3086 8175 M -12 -68 R -7 11 R F
3086 8175 M -19 -57 R -3 65 R F
3064 8183 M 3 -65 R -8 8 R F
3064 8183 M -5 -57 R -10 5 R F
3064 8183 M -15 -52 R -12 2 R F
3064 8183 M -27 -50 R 0 52 R F
3037 8133 M -12 -2 R 12 54 R F
3037 8185 M -12 -54 R -10 -5 R F
3037 8185 M -22 -59 R -4 57 R F
3011 8183 M 4 -57 R -8 -8 R F
3011 8183 M -4 -65 R -6 -11 R F
3001 8107 M -5 -14 R 15 90 R F
3011 8183 M -15 -90 R -4 -19 R F
3011 8183 M -19 -109 R -4 101 R F
2988 8175 M 4 -101 R -2 -23 R F
2988 8175 M 2 -124 R -1 -26 R F
2925 8025 M 1 38 R 0 -76 R F
2926 7987 M 0 76 R 6 32 R F
2926 7987 M 6 108 R 0 -140 R F
2932 7955 M 0 140 R 8 28 R F
2932 7955 M 8 168 R 0 -196 R F
2940 7927 M 0 196 R 13 22 R F
2940 7927 M 13 218 R 0 -240 R F
2953 7905 M 0 240 R 15 18 R F
2953 7905 M 15 258 R 0 -276 R F
2968 7887 M 0 276 R 20 12 R F
2968 7887 M 20 288 R 0 -300 R F
2988 7875 M 0 300 R 1 -150 R F
3330 11071 M 216 0 R D 2197 10860 M -61 0 R 4 286 R F
2197 10860 M -57 286 R 5 12 R F
2197 10860 M -52 298 R 2 13 R F
2197 10860 M -50 311 R 50 0 R F
2136 11073 M -75 0 R 5 43 R F
2136 11073 M -70 43 R 19 1 R F
2136 11073 M -51 44 R 16 3 R F
2136 11073 M -35 47 R 14 4 R F
2136 11073 M -21 51 R 10 5 R F
2136 11073 M -11 56 R 9 7 R F
2136 11073 M -2 63 R 6 10 R F
2136 11073 M 4 73 R -4 -286 R F
2066 11116 M -5 -43 R 0 43 R F
2518 11011 M -2 -38 R 0 75 R F
2516 11048 M 0 -75 R -5 -32 R F
2516 11048 M -5 -107 R 0 140 R F
2511 11081 M 0 -140 R -9 -28 R F
2511 11081 M -9 -168 R 0 196 R F
2502 11109 M 0 -196 R -12 -22 R F
2502 11109 M -12 -218 R 0 240 R F
2490 11131 M 0 -240 R -16 -18 R F
2490 11131 M -16 -258 R 0 276 R F
2474 11149 M 0 -276 R -19 -12 R F
2474 11149 M -19 -288 R -1 300 R F
2454 11161 M 1 -300 R -2 150 R F
2454 11161 M -1 -150 R -1 26 R F
2455 10861 M -23 -7 R 3 64 R F
2455 10861 M -20 57 R 7 11 R F
2455 10861 M -13 68 R 5 15 R F
2455 10861 M -8 83 R 3 18 R F
2455 10861 M -5 101 R 2 23 R F
2455 10861 M -3 124 R 1 26 R F
2393 10905 M 12 -2 R 0 -52 R F
2405 10851 M 0 52 R 12 2 R F
2405 10851 M 12 54 R 15 -51 R F
2432 10854 M -15 51 R 10 4 R F
2432 10854 M -5 55 R 8 9 R F
2368 10929 M 7 -12 R 3 -63 R F
2378 10854 M -3 63 R 8 -8 R F
2378 10854 M 5 55 R 22 -58 R F
2405 10851 M -22 58 R 10 -4 R F
2357 11011 M 1 -26 R -2 -124 R F
2356 10861 M 2 124 R 2 -23 R F
2356 10861 M 4 101 R 18 -108 R F
2378 10854 M -18 108 R 3 -19 R F
2378 10854 M -15 89 R 5 -14 R F
2454 11161 M -2 -124 R -2 23 R F
2454 11161 M -4 -101 R -3 19 R F
2454 11161 M -7 -82 R -5 14 R F
2454 11161 M -12 -68 R -7 12 R F
2454 11161 M -19 -56 R -4 64 R F
2431 11169 M 4 -64 R -8 8 R F
2431 11169 M -4 -56 R -10 4 R F
2431 11169 M -14 -52 R -12 2 R F
2431 11169 M -26 -50 R 0 52 R F
2405 11119 M -12 -1 R 12 53 R F
2405 11171 M -12 -53 R -10 -5 R F
2405 11171 M -22 -58 R -5 56 R F
2378 11169 M 5 -56 R -8 -8 R F
2378 11169 M -3 -64 R -7 -11 R F
2368 11094 M -5 -15 R 15 90 R F
2378 11169 M -15 -90 R -3 -19 R F
2378 11169 M -18 -109 R -4 101 R F
2356 11161 M 4 -101 R -2 -22 R F
2356 11161 M 2 -123 R -1 -27 R F
2292 11011 M 2 38 R 0 -76 R F
2294 10973 M 0 76 R 5 32 R F
2294 10973 M 5 108 R 0 -140 R F
2299 10941 M 0 140 R 9 28 R F
2299 10941 M 9 168 R 0 -196 R F
2308 10913 M 0 196 R 12 22 R F
2308 10913 M 12 218 R 0 -240 R F
2320 10891 M 0 240 R 16 18 R F
2320 10891 M 16 258 R 0 -275 R F
2336 10874 M 0 275 R 20 12 R F
2336 10874 M 20 287 R 0 -300 R F
2356 10861 M 0 300 R 1 -150 R F
2770 11011 M -1 -38 R 0 75 R F
2769 11048 M 0 -75 R -6 -32 R F
2769 11048 M -6 -107 R 0 140 R F
2763 11081 M 0 -140 R -8 -28 R F
2763 11081 M -8 -168 R 0 196 R F
2755 11109 M 0 -196 R -13 -22 R F
2755 11109 M -13 -218 R 0 240 R F
2742 11131 M 0 -240 R -15 -18 R F
2742 11131 M -15 -258 R -1 276 R F
2726 11149 M 1 -276 R -20 -12 R F
2726 11149 M -19 -288 R 0 300 R F
2707 11161 M 0 -300 R -1 150 R F
2707 11161 M -1 -150 R -1 26 R F
2707 10861 M -23 -7 R 4 64 R F
2707 10861 M -19 57 R 6 11 R F
2707 10861 M -13 68 R 5 15 R F
2707 10861 M -8 83 R 4 18 R F
2707 10861 M -4 101 R 2 23 R F
2707 10861 M -2 124 R 1 26 R F
2646 10905 M 12 -2 R 0 -52 R F
2658 10851 M 0 52 R 11 2 R F
2658 10851 M 11 54 R 15 -51 R F
2684 10854 M -15 51 R 10 4 R F
2684 10854 M -5 55 R 9 9 R F
2621 10929 M 7 -12 R 3 -63 R F
2631 10854 M -3 63 R 8 -8 R F
2631 10854 M 5 55 R 22 -58 R F
2658 10851 M -22 58 R 10 -4 R F
2610 11011 M 1 -26 R -3 -124 R F
2608 10861 M 3 124 R 2 -23 R F
2608 10861 M 5 101 R 18 -108 R F
2631 10854 M -18 108 R 3 -19 R F
2631 10854 M -15 89 R 5 -14 R F
2707 11161 M -2 -124 R -2 23 R F
2707 11161 M -4 -101 R -4 19 R F
2707 11161 M -8 -82 R -5 14 R F
2707 11161 M -13 -68 R -6 12 R F
2707 11161 M -19 -56 R -4 64 R F
2684 11169 M 4 -64 R -9 8 R F
2684 11169 M -5 -56 R -10 4 R F
2684 11169 M -15 -52 R -11 2 R F
2684 11169 M -26 -50 R 0 52 R F
2658 11119 M -12 -1 R 12 53 R F
2658 11171 M -12 -53 R -10 -5 R F
2658 11171 M -22 -58 R -5 56 R F
2631 11169 M 5 -56 R -8 -8 R F
2631 11169 M -3 -64 R -7 -11 R F
2621 11094 M -5 -15 R 15 90 R F
2631 11169 M -15 -90 R -3 -19 R F
2631 11169 M -18 -109 R -5 101 R F
2608 11161 M 5 -101 R -2 -22 R F
2608 11161 M 3 -123 R -1 -27 R F
2545 11011 M 2 38 R 0 -76 R F
2547 10973 M 0 76 R 5 32 R F
2547 10973 M 5 108 R 0 -140 R F
2552 10941 M 0 140 R 9 28 R F
2552 10941 M 9 168 R 0 -196 R F
2561 10913 M 0 196 R 12 22 R F
2561 10913 M 12 218 R 0 -240 R F
2573 10891 M 0 240 R 16 18 R F
2573 10891 M 16 258 R 0 -275 R F
2589 10874 M 0 275 R 19 12 R F
2589 10874 M 19 287 R 0 -300 R F
2608 10861 M 0 300 R 2 -150 R F
2880 10860 M -66 0 R 0 65 R F
2880 10860 M -66 65 R 66 0 R F
3150 11011 M -2 -38 R 0 75 R F
3148 11048 M 0 -75 R -5 -32 R F
3148 11048 M -5 -107 R 0 140 R F
3143 11081 M 0 -140 R -9 -28 R F
3143 11081 M -9 -168 R 0 196 R F
3134 11109 M 0 -196 R -12 -22 R F
3134 11109 M -12 -218 R 0 240 R F
3122 11131 M 0 -240 R -16 -18 R F
3122 11131 M -16 -258 R 0 276 R F
3106 11149 M 0 -276 R -19 -12 R F
3106 11149 M -19 -288 R -1 300 R F
3086 11161 M 1 -300 R -2 150 R F
3086 11161 M -1 -150 R -1 26 R F
3087 10861 M -23 -7 R 3 64 R F
3087 10861 M -20 57 R 7 11 R F
3087 10861 M -13 68 R 5 15 R F
3087 10861 M -8 83 R 3 18 R F
3087 10861 M -5 101 R 2 23 R F
3087 10861 M -3 124 R 1 26 R F
3025 10905 M 12 -2 R 0 -52 R F
3037 10851 M 0 52 R 12 2 R F
3037 10851 M 12 54 R 15 -51 R F
3064 10854 M -15 51 R 10 4 R F
3064 10854 M -5 55 R 8 9 R F
3001 10929 M 6 -12 R 4 -63 R F
3011 10854 M -4 63 R 8 -8 R F
3011 10854 M 4 55 R 22 -58 R F
3037 10851 M -22 58 R 10 -4 R F
2989 11011 M 1 -26 R -2 -124 R F
2988 10861 M 2 124 R 2 -23 R F
2988 10861 M 4 101 R 19 -108 R F
3011 10854 M -19 108 R 4 -19 R F
3011 10854 M -15 89 R 5 -14 R F
3086 11161 M -2 -124 R -2 23 R F
3086 11161 M -4 -101 R -3 19 R F
3086 11161 M -7 -82 R -5 14 R F
3086 11161 M -12 -68 R -7 12 R F
3086 11161 M -19 -56 R -3 64 R F
3064 11169 M 3 -64 R -8 8 R F
3064 11169 M -5 -56 R -10 4 R F
3064 11169 M -15 -52 R -12 2 R F
3064 11169 M -27 -50 R 0 52 R F
3037 11119 M -12 -1 R 12 53 R F
3037 11171 M -12 -53 R -10 -5 R F
3037 11171 M -22 -58 R -4 56 R F
3011 11169 M 4 -56 R -8 -8 R F
3011 11169 M -4 -64 R -6 -11 R F
3001 11094 M -5 -15 R 15 90 R F
3011 11169 M -15 -90 R -4 -19 R F
3011 11169 M -19 -109 R -4 101 R F
2988 11161 M 4 -101 R -2 -22 R F
2988 11161 M 2 -123 R -1 -27 R F
2925 11011 M 1 38 R 0 -76 R F
2926 10973 M 0 76 R 6 32 R F
2926 10973 M 6 108 R 0 -140 R F
2932 10941 M 0 140 R 8 28 R F
2932 10941 M 8 168 R 0 -196 R F
2940 10913 M 0 196 R 13 22 R F
2940 10913 M 13 218 R 0 -240 R F
2953 10891 M 0 240 R 15 18 R F
2953 10891 M 15 258 R 0 -275 R F
2968 10874 M 0 275 R 20 12 R F
2968 10874 M 20 287 R 0 -300 R F
2988 10861 M 0 300 R 1 -150 R F
3330 14057 M 216 0 R D 1944 13687 M -61 0 R 4 287 R F
1944 13687 M -57 287 R 5 11 R F
1944 13687 M -52 298 R 3 14 R F
1944 13687 M -49 312 R 49 0 R F
1883 13901 M -74 0 R 4 43 R F
1883 13901 M -70 43 R 19 1 R F
1883 13901 M -51 44 R 16 2 R F
1883 13901 M -35 46 R 14 4 R F
1883 13901 M -21 50 R 11 6 R F
1883 13901 M -10 56 R 8 7 R F
1883 13901 M -2 63 R 6 10 R F
1883 13901 M 4 73 R -4 -287 R F
1813 13944 M -4 -43 R 0 43 R F
2265 13839 M -2 -38 R 0 75 R F
2263 13876 M 0 -75 R -5 -33 R F
2263 13876 M -5 -108 R 0 141 R F
2258 13909 M 0 -141 R -9 -27 R F
2258 13909 M -9 -168 R 0 195 R F
2249 13936 M 0 -195 R -12 -22 R F
2249 13936 M -12 -217 R 0 240 R F
2237 13959 M 0 -240 R -16 -18 R F
2237 13959 M -16 -258 R 0 276 R F
2221 13977 M 0 -276 R -19 -12 R F
2221 13977 M -19 -288 R 0 300 R F
2202 13989 M 0 -300 R -2 150 R F
2202 13989 M -2 -150 R 0 26 R F
2202 13689 M -23 -8 R 3 64 R F
2202 13689 M -20 56 R 7 12 R F
2202 13689 M -13 68 R 5 15 R F
2202 13689 M -8 83 R 3 18 R F
2202 13689 M -5 101 R 3 23 R F
2202 13689 M -2 124 R 0 26 R F
2141 13732 M 11 -1 R 0 -52 R F
2152 13679 M 0 52 R 12 1 R F
2152 13679 M 12 53 R 15 -51 R F
2179 13681 M -15 51 R 10 5 R F
2179 13681 M -5 56 R 8 8 R F
2116 13756 M 6 -11 R 4 -64 R F
2126 13681 M -4 64 R 9 -8 R F
2126 13681 M 5 56 R 21 -58 R F
2152 13679 M -21 58 R 10 -5 R F
2104 13839 M 1 -26 R -2 -124 R F
2103 13689 M 2 124 R 2 -23 R F
2103 13689 M 4 101 R 19 -109 R F
2126 13681 M -19 109 R 4 -19 R F
2126 13681 M -15 90 R 5 -15 R F
2202 13989 M -2 -124 R -3 23 R F
2202 13989 M -5 -101 R -3 18 R F
2202 13989 M -8 -83 R -5 15 R F
2202 13989 M -13 -68 R -7 12 R F
2202 13989 M -20 -56 R -3 64 R F
2179 13997 M 3 -64 R -8 8 R F
2179 13997 M -5 -56 R -10 4 R F
2179 13997 M -15 -52 R -12 2 R F
2179 13997 M -27 -50 R 0 52 R F
2152 13947 M -11 -2 R 11 54 R F
2152 13999 M -11 -54 R -10 -4 R F
2152 13999 M -21 -58 R -5 56 R F
2126 13997 M 5 -56 R -9 -8 R F
2126 13997 M -4 -64 R -6 -12 R F
2116 13921 M -5 -14 R 15 90 R F
2126 13997 M -15 -90 R -4 -19 R F
2126 13997 M -19 -109 R -4 101 R F
2103 13989 M 4 -101 R -2 -23 R F
2103 13989 M 2 -124 R -1 -26 R F
2040 13839 M 1 38 R 0 -76 R F
2041 13801 M 0 76 R 6 32 R F
2041 13801 M 6 108 R 0 -140 R F
2047 13769 M 0 140 R 8 28 R F
2047 13769 M 8 168 R 0 -196 R F
2055 13741 M 0 196 R 13 22 R F
2055 13741 M 13 218 R 0 -240 R F
2068 13719 M 0 240 R 15 18 R F
2068 13719 M 15 258 R 0 -276 R F
2083 13701 M 0 276 R 20 12 R F
2083 13701 M 20 288 R 0 -300 R F
2103 13689 M 0 300 R 1 -150 R F
2518 13839 M -2 -38 R 0 75 R F
2516 13876 M 0 -75 R -5 -33 R F
2516 13876 M -5 -108 R 0 141 R F
2511 13909 M 0 -141 R -9 -27 R F
2511 13909 M -9 -168 R 0 195 R F
2502 13936 M 0 -195 R -12 -22 R F
2502 13936 M -12 -217 R 0 240 R F
2490 13959 M 0 -240 R -16 -18 R F
2490 13959 M -16 -258 R 0 276 R F
2474 13977 M 0 -276 R -19 -12 R F
2474 13977 M -19 -288 R -1 300 R F
2454 13989 M 1 -300 R -2 150 R F
2454 13989 M -1 -150 R -1 26 R F
2455 13689 M -23 -8 R 3 64 R F
2455 13689 M -20 56 R 7 12 R F
2455 13689 M -13 68 R 5 15 R F
2455 13689 M -8 83 R 3 18 R F
2455 13689 M -5 101 R 2 23 R F
2455 13689 M -3 124 R 1 26 R F
2393 13732 M 12 -1 R 0 -52 R F
2405 13679 M 0 52 R 12 1 R F
2405 13679 M 12 53 R 15 -51 R F
2432 13681 M -15 51 R 10 5 R F
2432 13681 M -5 56 R 8 8 R F
2368 13756 M 7 -11 R 3 -64 R F
2378 13681 M -3 64 R 8 -8 R F
2378 13681 M 5 56 R 22 -58 R F
2405 13679 M -22 58 R 10 -5 R F
2357 13839 M 1 -26 R -2 -124 R F
2356 13689 M 2 124 R 2 -23 R F
2356 13689 M 4 101 R 18 -109 R F
2378 13681 M -18 109 R 3 -19 R F
2378 13681 M -15 90 R 5 -15 R F
2454 13989 M -2 -124 R -2 23 R F
2454 13989 M -4 -101 R -3 18 R F
2454 13989 M -7 -83 R -5 15 R F
2454 13989 M -12 -68 R -7 12 R F
2454 13989 M -19 -56 R -4 64 R F
2431 13997 M 4 -64 R -8 8 R F
2431 13997 M -4 -56 R -10 4 R F
2431 13997 M -14 -52 R -12 2 R F
2431 13997 M -26 -50 R 0 52 R F
2405 13947 M -12 -2 R 12 54 R F
2405 13999 M -12 -54 R -10 -4 R F
2405 13999 M -22 -58 R -5 56 R F
2378 13997 M 5 -56 R -8 -8 R F
2378 13997 M -3 -64 R -7 -12 R F
2368 13921 M -5 -14 R 15 90 R F
2378 13997 M -15 -90 R -3 -19 R F
2378 13997 M -18 -109 R -4 101 R F
2356 13989 M 4 -101 R -2 -23 R F
2356 13989 M 2 -124 R -1 -26 R F
2292 13839 M 2 38 R 0 -76 R F
2294 13801 M 0 76 R 5 32 R F
2294 13801 M 5 108 R 0 -140 R F
2299 13769 M 0 140 R 9 28 R F
2299 13769 M 9 168 R 0 -196 R F
2308 13741 M 0 196 R 12 22 R F
2308 13741 M 12 218 R 0 -240 R F
2320 13719 M 0 240 R 16 18 R F
2320 13719 M 16 258 R 0 -276 R F
2336 13701 M 0 276 R 20 12 R F
2336 13701 M 20 288 R 0 -300 R F
2356 13689 M 0 300 R 1 -150 R F
2770 13839 M -1 -38 R 0 75 R F
2769 13876 M 0 -75 R -6 -33 R F
2769 13876 M -6 -108 R 0 141 R F
2763 13909 M 0 -141 R -8 -27 R F
2763 13909 M -8 -168 R 0 195 R F
2755 13936 M 0 -195 R -13 -22 R F
2755 13936 M -13 -217 R 0 240 R F
2742 13959 M 0 -240 R -15 -18 R F
2742 13959 M -15 -258 R -1 276 R F
2726 13977 M 1 -276 R -20 -12 R F
2726 13977 M -19 -288 R 0 300 R F
2707 13989 M 0 -300 R -1 150 R F
2707 13989 M -1 -150 R -1 26 R F
2707 13689 M -23 -8 R 4 64 R F
2707 13689 M -19 56 R 6 12 R F
2707 13689 M -13 68 R 5 15 R F
2707 13689 M -8 83 R 4 18 R F
2707 13689 M -4 101 R 2 23 R F
2707 13689 M -2 124 R 1 26 R F
2646 13732 M 12 -1 R 0 -52 R F
2658 13679 M 0 52 R 11 1 R F
2658 13679 M 11 53 R 15 -51 R F
2684 13681 M -15 51 R 10 5 R F
2684 13681 M -5 56 R 9 8 R F
2621 13756 M 7 -11 R 3 -64 R F
2631 13681 M -3 64 R 8 -8 R F
2631 13681 M 5 56 R 22 -58 R F
2658 13679 M -22 58 R 10 -5 R F
2610 13839 M 1 -26 R -3 -124 R F
2608 13689 M 3 124 R 2 -23 R F
2608 13689 M 5 101 R 18 -109 R F
2631 13681 M -18 109 R 3 -19 R F
2631 13681 M -15 90 R 5 -15 R F
2707 13989 M -2 -124 R -2 23 R F
2707 13989 M -4 -101 R -4 18 R F
2707 13989 M -8 -83 R -5 15 R F
2707 13989 M -13 -68 R -6 12 R F
2707 13989 M -19 -56 R -4 64 R F
2684 13997 M 4 -64 R -9 8 R F
2684 13997 M -5 -56 R -10 4 R F
2684 13997 M -15 -52 R -11 2 R F
2684 13997 M -26 -50 R 0 52 R F
2658 13947 M -12 -2 R 12 54 R F
2658 13999 M -12 -54 R -10 -4 R F
2658 13999 M -22 -58 R -5 56 R F
2631 13997 M 5 -56 R -8 -8 R F
2631 13997 M -3 -64 R -7 -12 R F
2621 13921 M -5 -14 R 15 90 R F
2631 13997 M -15 -90 R -3 -19 R F
2631 13997 M -18 -109 R -5 101 R F
2608 13989 M 5 -101 R -2 -23 R F
2608 13989 M 3 -124 R -1 -26 R F
2545 13839 M 2 38 R 0 -76 R F
2547 13801 M 0 76 R 5 32 R F
2547 13801 M 5 108 R 0 -140 R F
2552 13769 M 0 140 R 9 28 R F
2552 13769 M 9 168 R 0 -196 R F
2561 13741 M 0 196 R 12 22 R F
2561 13741 M 12 218 R 0 -240 R F
2573 13719 M 0 240 R 16 18 R F
2573 13719 M 16 258 R 0 -276 R F
2589 13701 M 0 276 R 19 12 R F
2589 13701 M 19 288 R 0 -300 R F
2608 13689 M 0 300 R 2 -150 R F
2880 13687 M -66 0 R 0 66 R F
2880 13687 M -66 66 R 66 0 R F
3150 13839 M -2 -38 R 0 75 R F
3148 13876 M 0 -75 R -5 -33 R F
3148 13876 M -5 -108 R 0 141 R F
3143 13909 M 0 -141 R -9 -27 R F
3143 13909 M -9 -168 R 0 195 R F
3134 13936 M 0 -195 R -12 -22 R F
3134 13936 M -12 -217 R 0 240 R F
3122 13959 M 0 -240 R -16 -18 R F
3122 13959 M -16 -258 R 0 276 R F
3106 13977 M 0 -276 R -19 -12 R F
3106 13977 M -19 -288 R -1 300 R F
3086 13989 M 1 -300 R -2 150 R F
3086 13989 M -1 -150 R -1 26 R F
3087 13689 M -23 -8 R 3 64 R F
3087 13689 M -20 56 R 7 12 R F
3087 13689 M -13 68 R 5 15 R F
3087 13689 M -8 83 R 3 18 R F
3087 13689 M -5 101 R 2 23 R F
3087 13689 M -3 124 R 1 26 R F
3025 13732 M 12 -1 R 0 -52 R F
3037 13679 M 0 52 R 12 1 R F
3037 13679 M 12 53 R 15 -51 R F
3064 13681 M -15 51 R 10 5 R F
3064 13681 M -5 56 R 8 8 R F
3001 13756 M 6 -11 R 4 -64 R F
3011 13681 M -4 64 R 8 -8 R F
3011 13681 M 4 56 R 22 -58 R F
3037 13679 M -22 58 R 10 -5 R F
2989 13839 M 1 -26 R -2 -124 R F
2988 13689 M 2 124 R 2 -23 R F
2988 13689 M 4 101 R 19 -109 R F
3011 13681 M -19 109 R 4 -19 R F
3011 13681 M -15 90 R 5 -15 R F
3086 13989 M -2 -124 R -2 23 R F
3086 13989 M -4 -101 R -3 18 R F
3086 13989 M -7 -83 R -5 15 R F
3086 13989 M -12 -68 R -7 12 R F
3086 13989 M -19 -56 R -3 64 R F
3064 13997 M 3 -64 R -8 8 R F
3064 13997 M -5 -56 R -10 4 R F
3064 13997 M -15 -52 R -12 2 R F
3064 13997 M -27 -50 R 0 52 R F
3037 13947 M -12 -2 R 12 54 R F
3037 13999 M -12 -54 R -10 -4 R F
3037 13999 M -22 -58 R -4 56 R F
3011 13997 M 4 -56 R -8 -8 R F
3011 13997 M -4 -64 R -6 -12 R F
3001 13921 M -5 -14 R 15 90 R F
3011 13997 M -15 -90 R -4 -19 R F
3011 13997 M -19 -109 R -4 101 R F
2988 13989 M 4 -101 R -2 -23 R F
2988 13989 M 2 -124 R -1 -26 R F
2925 13839 M 1 38 R 0 -76 R F
2926 13801 M 0 76 R 6 32 R F
2926 13801 M 6 108 R 0 -140 R F
2932 13769 M 0 140 R 8 28 R F
2932 13769 M 8 168 R 0 -196 R F
2940 13741 M 0 196 R 13 22 R F
2940 13741 M 13 218 R 0 -240 R F
2953 13719 M 0 240 R 15 18 R F
2953 13719 M 15 258 R 0 -276 R F
2968 13701 M 0 276 R 20 12 R F
2968 13701 M 20 288 R 0 -300 R F
2988 13689 M 0 300 R 1 -150 R F
3330 3011 M 108 0 R D 3330 3537 M 108 0 R D 3330 3910 M 108 0 R D
3330 4199 M 108 0 R D 3330 4436 M 108 0 R D 3330 4636 M 108 0 R D
3330 4809 M 108 0 R D 3330 4962 M 108 0 R D 3330 5997 M 108 0 R D
3330 6523 M 108 0 R D 3330 6896 M 108 0 R D 3330 7186 M 108 0 R D
3330 7422 M 108 0 R D 3330 7622 M 108 0 R D 3330 7795 M 108 0 R D
3330 7948 M 108 0 R D 3330 8984 M 108 0 R D 3330 9509 M 108 0 R D
3330 9882 M 108 0 R D 3330 10172 M 108 0 R D 3330 10408 M 108 0 R D
3330 10608 M 108 0 R D 3330 10781 M 108 0 R D 3330 10934 M 108 0 R D
3330 11970 M 108 0 R D 3330 12496 M 108 0 R D 3330 12869 M 108 0 R D
3330 13158 M 108 0 R D 3330 13395 M 108 0 R D 3330 13594 M 108 0 R D
3330 13768 M 108 0 R D 3330 13920 M 108 0 R D 14114 2112 M 0 11945 R D
14114 2112 M -216 0 R D 14114 5098 M -216 0 R D 14114 8085 M -216 0 R D
14114 11071 M -216 0 R D 14114 14057 M -216 0 R D 14114 3011 M -108 0 R D
14114 3537 M -108 0 R D 14114 3910 M -108 0 R D 14114 4199 M -108 0 R D
14114 4436 M -108 0 R D 14114 4636 M -108 0 R D 14114 4809 M -108 0 R D
14114 4962 M -108 0 R D 14114 5997 M -108 0 R D 14114 6523 M -108 0 R D
14114 6896 M -108 0 R D 14114 7186 M -108 0 R D 14114 7422 M -108 0 R D
14114 7622 M -108 0 R D 14114 7795 M -108 0 R D 14114 7948 M -108 0 R D
14114 8984 M -108 0 R D 14114 9509 M -108 0 R D 14114 9882 M -108 0 R D
14114 10172 M -108 0 R D 14114 10408 M -108 0 R D 14114 10608 M -108 0 R D
14114 10781 M -108 0 R D 14114 10934 M -108 0 R D 14114 11970 M -108 0 R D
14114 12496 M -108 0 R D 14114 12869 M -108 0 R D 14114 13158 M -108 0 R D
14114 13395 M -108 0 R D 14114 13594 M -108 0 R D 14114 13768 M -108 0 R D
14114 13920 M -108 0 R D 4373 5098 M 50 0 R 0 -2986 R 50 0 R 50 0 R 0 3885 R
51 0 R 50 0 R 0 -899 R 50 0 R 50 0 R 0 -2986 R 51 0 R 50 0 R 50 0 R 50 0 R
0 2986 R 51 0 R 50 0 R 50 0 R 50 0 R 50 0 R 51 0 R 0 -2986 R 50 0 R 50 0 R
0 4411 R 50 0 R 51 0 R 0 373 R 50 0 R 50 0 R 50 0 R 51 0 R 0 290 R 50 0 R
50 0 R 0 236 R 50 0 R 50 0 R 0 200 R 51 0 R 50 0 R 0 803 R 50 0 R 50 0 R
0 -477 R 51 0 R 50 0 R 0 260 R 50 0 R 50 0 R 0 639 R 51 0 R 50 0 R 0 -526 R
50 0 R 50 0 R 0 952 R 50 0 R 51 0 R 0 236 R 50 0 R 50 0 R 50 0 R 51 0 R
0 637 R 50 0 R 50 0 R 0 -400 R 50 0 R 50 0 R 0 881 R 51 0 R 50 0 R 0 202 R
50 0 R 50 0 R 0 91 R 51 0 R 50 0 R 0 138 R 50 0 R 50 0 R 0 -27 R 51 0 R
50 0 R 0 91 R 50 0 R 50 0 R 0 328 R 50 0 R 51 0 R 0 48 R 50 0 R 50 0 R
0 141 R 50 0 R 51 0 R 0 244 R 50 0 R 50 0 R 0 -21 R 50 0 R 51 0 R 0 28 R
50 0 R 50 0 R 0 124 R 50 0 R 50 0 R 0 -38 R 51 0 R 50 0 R 0 192 R 50 0 R
50 0 R 0 112 R 51 0 R 50 0 R 0 107 R 50 0 R 50 0 R 0 -82 R 51 0 R 50 0 R
0 -126 R 50 0 R 50 0 R 0 -128 R 50 0 R 51 0 R 0 77 R 50 0 R 50 0 R 0 56 R
50 0 R 51 0 R 0 -50 R 50 0 R 50 0 R 0 17 R 50 0 R 50 0 R 0 -34 R 51 0 R
50 0 R 0 -214 R 50 0 R 50 0 R 0 179 R 51 0 R 50 0 R 0 -112 R 50 0 R 50 0 R
0 -94 R 51 0 R 50 0 R 0 -29 R 50 0 R 50 0 R 0 -135 R 50 0 R 51 0 R 0 -107 R
50 0 R 50 0 R 0 -174 R 50 0 R 51 0 R 0 -50 R 50 0 R 50 0 R 0 -74 R 50 0 R
51 0 R 0 -289 R 50 0 R 50 0 R 0 -41 R 50 0 R 50 0 R 0 -212 R 51 0 R 50 0 R
0 -357 R 50 0 R 50 0 R 0 -161 R 51 0 R 50 0 R 0 -101 R 50 0 R 50 0 R
0 -170 R 51 0 R 50 0 R 0 -652 R 50 0 R 50 0 R 0 -217 R 50 0 R 51 0 R 0 166 R
50 0 R 50 0 R 0 -289 R 50 0 R 51 0 R 0 181 R 50 0 R 50 0 R 0 -740 R 50 0 R
51 0 R 0 -340 R 50 0 R 50 0 R 0 340 R 50 0 R 50 0 R 0 -1239 R 51 0 R 50 0 R
50 0 R 50 0 R 0 -290 R 51 0 R 50 0 R 0 726 R 50 0 R 50 0 R 0 -726 R 50 0 R
51 0 R 0 -1798 R 50 0 R 50 0 R 0 1425 R 50 0 R 51 0 R 0 -4411 R 50 0 R
50 0 R 0 3885 R 50 0 R D 60 setlinewidth 1.000 0.000 0.000 setrgbcolor
4373 2490 M 100 428 R 101 418 R 100 408 R 101 399 R 100 389 R 101 379 R
100 370 R 100 361 R 101 350 R 100 342 R 101 331 R 100 322 R 101 313 R
100 303 R 101 293 R 100 284 R 101 274 R 100 264 R 101 255 R 100 246 R
100 235 R 101 227 R 100 216 R 101 207 R 100 198 R 101 188 R 100 178 R
101 169 R 100 159 R 101 150 R 100 139 R 100 131 R 101 121 R 100 111 R
101 102 R 100 92 R 101 82 R 100 73 R 101 63 R 100 54 R 101 44 R 100 35 R
101 25 R 100 15 R 100 6 R 101 -4 R 100 -13 R 101 -23 R 100 -33 R 101 -42 R
100 -51 R 101 -62 R 100 -70 R 101 -81 R 100 -90 R 100 -99 R 101 -110 R
100 -118 R 101 -129 R 100 -138 R 101 -147 R 100 -157 R 101 -167 R 100 -176 R
101 -186 R 100 -195 R 101 -205 R 100 -215 R 100 -224 R 101 -234 R 100 -243 R
101 -253 R 100 -263 R 101 -272 R 100 -281 R 101 -292 R 100 -300 R 101 -311 R
100 -320 R 100 -329 R 101 -340 R 100 -348 R 101 -359 R 100 -367 R D
0.000 0.000 0.000 setrgbcolor 3993 6553 M -3 -11 R 5 86 R F
3995 6628 M -5 -86 R -1 -14 R F
3995 6628 M -6 -100 R -3 90 R F
3986 6618 M 3 -90 R 0 -190 R F
3986 6618 M 3 -280 R -83 0 R F
3906 6338 M 0 315 R 80 0 R F
3906 6338 M 80 315 R 0 -35 R F
4171 6338 M -82 0 R 13 321 R F
4171 6338 M -69 321 R 12 -3 R F
4171 6338 M -57 318 R 11 -5 R F
4171 6338 M -46 313 R 10 -7 R F
4171 6338 M -36 306 R 10 -8 R F
4171 6338 M -26 298 R 9 -9 R F
4171 6338 M -17 289 R 8 -11 R F
4171 6338 M -9 278 R 8 10 R F
4171 6338 M -1 288 R 1 -97 R F
4089 6540 M -1 11 R 0 110 R F
4089 6540 M -1 121 R 14 -2 R F
4089 6540 M 13 119 R -13 -321 R F
4088 6661 M 0 -110 R -2 10 R F
4088 6661 M -2 -100 R -4 8 R F
4088 6661 M -6 -92 R -5 7 R F
4088 6661 M -11 -85 R -3 86 R F
4077 6576 M -7 6 R 4 80 R F
4074 6662 M -4 -80 R -8 4 R F
4074 6662 M -12 -76 R -1 75 R F
4061 6661 M 1 -75 R -9 2 R F
4061 6661 M -8 -73 R -4 71 R F
4049 6659 M 4 -71 R -10 1 R F
4049 6659 M -6 -70 R -6 67 R F
4037 6656 M 6 -67 R -12 -1 R F
4037 6656 M -6 -68 R -5 63 R F
4026 6651 M 5 -63 R -10 -3 R F
4026 6651 M -5 -66 R -6 60 R F
4015 6645 M 6 -60 R -9 -5 R F
4015 6645 M -3 -65 R -7 57 R F
4005 6637 M 7 -57 R -8 -7 R F
4005 6637 M -1 -64 R -6 -9 R F
3998 6564 M -5 -11 R 2 75 R F
3998 6564 M -3 64 R 10 9 R F
4355 6338 M -83 0 R 2 322 R F
4355 6338 M -81 322 R 20 -5 R F
4355 6338 M -61 317 R 18 -9 R F
4355 6338 M -43 308 R 15 -12 R F
4355 6338 M -28 296 R 12 -15 R F
4355 6338 M -16 281 R 9 -18 R F
4355 6338 M -7 263 R 5 -20 R F
4355 6338 M -2 243 R 2 -23 R F
4274 6660 M -2 -322 R 0 203 R F
4274 6660 M -2 -119 R -1 11 R F
4274 6660 M -3 -108 R -3 9 R F
4274 6660 M -6 -99 R -3 8 R F
4274 6660 M -9 -91 R -6 7 R F
4274 6660 M -15 -84 R -7 6 R F
4274 6660 M -22 -78 R 0 80 R F
4225 6589 M 0 70 R 10 -71 R F
4235 6588 M -10 71 R 13 2 R F
4235 6588 M 3 73 R 6 -75 R F
4244 6586 M -6 75 R 14 1 R F
4244 6586 M 8 76 R 0 -80 R F
4179 6564 M 1 72 R 6 -63 R F
4186 6573 M -6 63 R 10 8 R F
4186 6573 M 4 71 R 4 -64 R F
4194 6580 M -4 64 R 11 6 R F
4194 6580 M 7 70 R 2 -65 R F
4203 6585 M -2 65 R 12 5 R F
4203 6585 M 10 70 R 0 -67 R F
4213 6588 M 0 67 R 12 4 R F
4213 6588 M 12 71 R 0 -70 R F
4171 6529 M -1 97 R 2 -84 R F
4172 6542 M -2 84 R 10 10 R F
4172 6542 M 8 94 R -5 -82 R F
4175 6554 M 5 82 R -1 -72 R F
4706 6433 M -8 -23 R -11 -21 R F
4706 6433 M -19 -44 R -15 -18 R F
4706 6433 M -34 -62 R -17 -16 R F
4706 6433 M -51 -78 R -21 -12 R F
4706 6433 M -72 -90 R -12 90 R F
4600 6407 M 6 5 R 6 -78 R F
4612 6334 M -6 78 R 6 6 R F
4612 6334 M 0 84 R 22 -75 R F
4634 6343 M -22 75 R 5 7 R F
4634 6343 M -17 82 R 5 8 R F
4575 6399 M 9 1 R 3 -71 R F
4587 6329 M -3 71 R 8 3 R F
4587 6329 M 5 74 R 20 -69 R F
4612 6334 M -20 69 R 8 4 R F
4537 6403 M 13 -4 R 10 -72 R F
4560 6327 M -10 72 R 14 -1 R F
4560 6327 M 4 71 R 23 -69 R F
4587 6329 M -23 69 R 11 1 R F
4528 6330 M -29 8 R 2 118 R F
4528 6330 M -27 126 R 3 -15 R F
4528 6330 M -24 111 R 6 -13 R F
4528 6330 M -18 98 R 7 -11 R F
4528 6330 M -11 87 R 9 -8 R F
4528 6330 M -2 79 R 11 -6 R F
4528 6330 M 9 73 R 23 -76 R F
4411 6497 M 3 37 R 0 -74 R F
4414 6460 M 0 74 R 7 33 R F
4414 6460 M 7 107 R 0 -140 R F
4421 6427 M 0 140 R 13 28 R F
4421 6427 M 13 168 R 0 -197 R F
4434 6398 M 0 197 R 17 25 R F
4434 6398 M 17 222 R 0 -247 R F
4451 6373 M 0 247 R 21 19 R F
4451 6373 M 21 266 R 1 -286 R F
4473 6353 M -1 286 R 26 14 R F
4473 6353 M 25 300 R 1 -315 R F
4499 6338 M -1 315 R 1 -124 R F
4499 6338 M 0 191 R 0 -56 R F
4499 6473 M 0 56 R 124 0 R F
4499 6473 M 124 56 R 87 -56 R F
4710 6473 M -87 56 R 0 124 R F
4710 6473 M -87 180 R 26 -13 R F
4710 6495 M 0 -4 R 0 -4 R F
4710 6495 M 0 -8 R 0 -3 R F
4710 6495 M 0 -11 R 0 -2 R F
4710 6495 M 0 -13 R 0 -3 R F
4710 6495 M 0 -16 R 0 -2 R F
4710 6495 M 0 -18 R 0 -2 R F
4710 6495 M 0 -20 R 0 -2 R F
4710 6495 M 0 -22 R -2 60 R F
4710 6473 M -61 167 R 22 -20 R F
4710 6473 M -39 147 R 17 -24 R F
4710 6473 M -22 123 R 13 -29 R F
4710 6473 M -9 94 R 7 -34 R F
4623 6653 M 0 -124 R -1 15 R F
4623 6653 M -1 -109 R -4 13 R F
4623 6653 M -5 -96 R -5 11 R F
4623 6653 M -10 -85 R -7 9 R F
4623 6653 M -17 -76 R -9 7 R F
4623 6653 M -26 -69 R -4 78 R F
4593 6662 M 4 -78 R -10 6 R F
4593 6662 M -6 -72 R -12 3 R F
4593 6662 M -18 -69 R -14 1 R F
4593 6662 M -32 -68 R -2 70 R F
4561 6594 M -13 -1 R 11 71 R F
4559 6664 M -11 -71 R -12 -3 R F
4559 6664 M -23 -74 R -10 72 R F
4526 6662 M 10 -72 R -10 -6 R F
4526 6662 M 0 -78 R -9 -7 R F
4526 6662 M -9 -85 R -7 -9 R F
4526 6662 M -16 -94 R -5 -12 R F
4526 6662 M -21 -106 R -4 -13 R F
4526 6662 M -25 -119 R -3 110 R F
4499 6529 M -1 124 R 3 -110 R F
4501 6456 M -2 -118 R 0 135 R F
4840 6555 M -79 0 R 2 28 R F
4840 6555 M -77 28 R 6 21 R F
4840 6555 M -71 49 R 11 17 R F
4840 6555 M -60 66 R 15 16 R F
4840 6555 M -45 82 R 19 12 R F
4840 6555 M -26 94 R 22 8 R F
4840 6555 M -4 102 R 4 -98 R F
4944 6572 M 4 87 R -4 -96 R F
4944 6563 M 4 96 R -3 -166 R F
4944 6563 M 1 -70 R -4 59 R F
4941 6552 M 4 -59 R -10 -5 R F
4941 6552 M -6 -64 R -4 55 R F
4931 6543 M 4 -55 R -12 -4 R F
4931 6543 M -8 -59 R -9 52 R F
4914 6536 M 9 -52 R -12 -3 R F
4914 6536 M -3 -55 R -13 -4 R F
4914 6536 M -16 -59 R -7 55 R F
4891 6532 M 7 -55 R -12 -2 R F
4891 6532 M -5 -57 R -5 55 R F
4881 6530 M 5 -55 R -8 -2 R F
4881 6530 M -3 -57 R -6 -1 R F
4881 6530 M -9 -58 R -1 57 R F
4871 6529 M 1 -57 R -2 -1 R F
4871 6529 M -1 -58 R -7 57 R F
4863 6528 M 7 -57 R -10 -3 R F
4863 6528 M -3 -60 R -4 59 R F
4856 6527 M 4 -59 R -9 -4 R F
4856 6527 M -5 -63 R -7 -4 R F
4856 6527 M -12 -67 R -5 -5 R F
4856 6527 M -17 -72 R -4 -5 R F
4856 6527 M -21 -77 R -3 -6 R F
4856 6527 M -24 -83 R -2 78 R F
4832 6444 M -1 -7 R -1 85 R F
4830 6522 M 1 -85 R -1 -8 R F
4830 6522 M 0 -93 R -7 -101 R F
4823 6328 M 7 101 R 1 -8 R F
4823 6328 M 8 93 R 14 -95 R F
4845 6326 M -14 95 R 2 -8 R F
4845 6326 M -12 87 R 4 -6 R F
4863 6392 M 9 -1 R 5 -62 R F
4877 6329 M -5 62 R 16 1 R F
4877 6329 M 11 63 R 4 -59 R F
4892 6333 M -4 59 R 15 4 R F
4892 6333 M 11 63 R 2 -57 R F
4905 6339 M -2 57 R 12 6 R F
4905 6339 M 10 63 R 2 -56 R F
4917 6346 M -2 56 R 11 8 R F
4917 6346 M 9 64 R 3 -55 R F
4929 6355 M -3 55 R 8 11 R F
4929 6355 M 5 66 R 4 -56 R F
4938 6365 M -4 56 R 7 12 R F
4938 6365 M 3 68 R 6 -56 R F
4947 6377 M -6 56 R 3 14 R F
4947 6377 M -3 70 R 1 16 R F
4862 6327 M -17 -1 R 3 71 R F
4862 6327 M -14 70 R 7 -3 R F
4862 6327 M -7 67 R 8 -2 R F
4862 6327 M 1 65 R 14 -63 R F
4845 6326 M -8 81 R 5 -6 R F
4845 6326 M -3 75 R 6 -4 R F
4830 6522 M -7 -194 R -16 187 R F
4807 6515 M 16 -187 R -19 5 R F
4807 6515 M -3 -182 R -15 173 R F
4789 6506 M 15 -173 R -16 8 R F
4789 6506 M -1 -165 R -14 11 R F
4750 6427 M 1 21 R 0 -44 R F
4751 6404 M 0 44 R 5 18 R F
4751 6404 M 5 62 R 0 -82 R F
4756 6384 M 0 82 R 8 16 R F
4756 6384 M 8 98 R 0 -115 R F
4764 6367 M 0 115 R 10 13 R F
4764 6367 M 10 128 R 0 -143 R F
4774 6352 M 0 143 R 15 11 R F
5044 6338 M -88 0 R 75 28 R F
5044 6338 M -13 28 R 2 -4 R F
5044 6338 M -11 24 R 3 -4 R F
5044 6338 M -8 20 R 4 -3 R F
5044 6338 M -4 17 R 4 -3 R F
4991 6641 M 16 -12 R 20 -242 R F
5027 6387 M -20 242 R 11 -16 R F
5027 6387 M -9 226 R 8 -217 R F
5026 6396 M -8 217 R 6 -17 R F
5026 6396 M -2 200 R 2 -21 R F
5031 6366 M -75 -28 R 73 34 R F
5029 6372 M -73 -34 R 16 313 R F
5029 6372 M -57 279 R 55 -272 R F
5027 6379 M -55 272 R 19 -10 R F
5027 6379 M -36 262 R 36 -254 R F
4972 6651 M -16 -313 R -2 4 R F
4972 6651 M -18 -309 R -2 4 R F
4972 6651 M -20 -305 R -1 5 R F
4972 6651 M -21 -300 R -1 5 R F
4972 6651 M -22 -295 R -1 5 R F
4972 6651 M -23 -290 R -1 298 R F
4948 6659 M 1 -298 R -1 5 R F
4948 6659 M 0 -293 R -1 5 R F
4948 6659 M -1 -288 R 0 6 R F
4948 6659 M -1 -282 R -2 86 R F
4948 6659 M -3 -196 R 0 30 R F
4948 6659 M -4 -87 R -3 7 R F
4948 6659 M -7 -80 R -3 6 R F
4948 6659 M -10 -74 R -6 5 R F
4948 6659 M -16 -69 R -7 4 R F
4948 6659 M -23 -65 R -4 69 R F
4921 6663 M 4 -69 R -8 2 R F
4921 6663 M -4 -67 R -11 2 R F
4921 6663 M -15 -65 R -13 0 R F
4921 6663 M -28 -65 R -3 66 R F
4893 6598 M -12 0 R 9 66 R F
4890 6664 M -9 -66 R -11 -2 R F
4890 6664 M -20 -68 R -9 67 R F
4861 6663 M 9 -67 R -9 -3 R F
4861 6663 M 0 -70 R -8 -5 R F
4861 6663 M -8 -75 R -5 -5 R F
4861 6663 M -13 -80 R -5 -7 R F
4861 6663 M -18 -87 R -2 -8 R F
4861 6663 M -20 -95 R -5 89 R F
4836 6657 M 5 -89 R -1 -9 R F
4763 6583 M -2 -28 R 0 5 R F
5189 6552 M -3 -13 R 6 87 R F
5192 6626 M -6 -87 R -1 -14 R F
5192 6626 M -7 -101 R -2 91 R F
5183 6616 M 2 -91 R 0 -187 R F
5183 6616 M 2 -278 R -85 0 R F
5100 6338 M 0 315 R 83 0 R F
5100 6338 M 83 315 R 0 -37 R F
5383 6338 M -85 0 R 5 322 R F
5383 6338 M -80 322 R 21 -5 R F
5383 6338 M -59 317 R 18 -9 R F
5383 6338 M -41 308 R 15 -12 R F
5383 6338 M -26 296 R 11 -15 R F
5383 6338 M -15 281 R 8 -19 R F
5383 6338 M -7 262 R 5 -22 R F
5383 6338 M -2 240 R 2 -25 R F
5303 6660 M -5 -322 R 0 190 R F
5303 6660 M -5 -132 R -1 16 R F
5303 6660 M -6 -116 R -2 13 R F
5303 6660 M -8 -103 R -3 11 R F
5303 6660 M -11 -92 R -5 9 R F
5303 6660 M -16 -83 R -7 6 R F
5303 6660 M -23 -77 R -2 78 R F
5202 6573 M 0 63 R 10 -55 R F
5212 6581 M -10 55 R 11 8 R F
5212 6581 M 1 63 R 10 -57 R F
5223 6587 M -10 57 R 12 6 R F
5223 6587 M 2 63 R 10 -60 R F
5235 6590 M -10 60 R 12 5 R F
5235 6590 M 2 65 R 12 -64 R F
5249 6591 M -12 64 R 13 4 R F
5249 6591 M 1 68 R 11 -69 R F
5261 6590 M -11 69 R 14 2 R F
5261 6590 M 3 71 R 8 -73 R F
5272 6588 M -8 73 R 14 0 R F
5272 6588 M 6 73 R 2 -78 R F
5194 6564 M -5 -12 R 3 74 R F
5194 6564 M -2 62 R 10 10 R F
5194 6564 M 8 72 R 0 -63 R F
5661 6424 M 0 57 R 348 0 R F
5661 6424 M 348 57 R 0 -57 R F
5661 6549 M 0 57 R 348 0 R F
5661 6549 M 348 57 R 0 -57 R F
7324 6338 M -82 0 R 6 381 R F
7324 6338 M -76 381 R 6 16 R F
7324 6338 M -70 397 R 4 18 R F
7324 6338 M -66 415 R 66 0 R F
7242 6622 M -99 0 R 6 58 R F
7242 6622 M -93 58 R 26 1 R F
7242 6622 M -67 59 R 21 3 R F
7242 6622 M -46 62 R 18 5 R F
7242 6622 M -28 67 R 14 8 R F
7242 6622 M -14 75 R 11 10 R F
7242 6622 M -3 85 R 9 12 R F
7242 6622 M 6 97 R -6 -381 R F
7149 6680 M -6 -58 R 0 58 R F
7561 6338 M -88 0 R 0 87 R F
7561 6338 M -88 87 R 88 0 R F
7829 6468 M 4 132 R 17 -252 R F
7850 6348 M -17 252 R 23 -12 R F
7850 6348 M 6 240 R 17 -222 R F
7873 6366 M -17 222 R 21 -17 R F
7873 6366 M 4 205 R 14 -184 R F
7891 6387 M -14 184 R 16 -20 R F
7891 6387 M 2 164 R 11 -139 R F
7904 6412 M -11 139 R 12 -23 R F
7904 6412 M 1 116 R 7 -87 R F
7912 6441 M -7 87 R 8 -26 R F
7912 6441 M 1 61 R 2 -29 R F
7811 6412 M 8 11 R 5 -87 R F
7824 6336 M -5 87 R 6 13 R F
7824 6336 M 1 100 R 25 -88 R F
7850 6348 M -25 88 R 3 15 R F
7850 6348 M -22 103 R 1 17 R F
7776 6393 M 14 4 R 4 -69 R F
7794 6328 M -4 69 R 12 6 R F
7794 6328 M 8 75 R 22 -67 R F
7824 6336 M -22 67 R 9 9 R F
7760 6326 M -31 2 R 6 68 R F
7760 6326 M -25 70 R 12 -3 R F
7760 6326 M -13 67 R 13 -1 R F
7760 6326 M 0 66 R 16 1 R F
7760 6326 M 16 67 R 18 -65 R F
7729 6328 M -27 6 R 2 91 R F
7729 6328 M -25 97 R 5 -10 R F
7729 6328 M -20 87 R 7 -8 R F
7729 6328 M -13 79 R 9 -6 R F
7729 6328 M -4 73 R 10 -5 R F
7702 6334 M -24 10 R 20 105 R F
7702 6334 M -4 115 R 2 -13 R F
7702 6334 M -2 102 R 4 -11 R F
7698 6449 M -20 -105 R -21 15 R F
7698 6449 M -41 -90 R -16 18 R F
7698 6449 M -57 -72 R -13 21 R F
7698 6449 M -70 -51 R -8 24 R F
7698 6449 M -78 -27 R -3 27 R F
7833 6600 M -4 -132 R -1 17 R F
7833 6600 M -5 -115 R -3 14 R F
7833 6600 M -8 -101 R -6 13 R F
7833 6600 M -14 -88 R -8 11 R F
7833 6600 M -22 -77 R -5 84 R F
7811 6523 M -10 9 R 5 75 R F
7806 6607 M -5 -75 R -12 6 R F
7806 6607 M -17 -69 R -13 71 R F
7776 6609 M 13 -71 R -13 3 R F
7776 6609 M 0 -68 R -10 68 R F
7766 6609 M 10 -68 R -15 2 R F
7766 6609 M -5 -66 R -5 65 R F
7756 6608 M 5 -65 R -9 -1 R F
7756 6608 M -4 -66 R -6 64 R F
7746 6606 M 6 -64 R -8 -1 R F
7746 6606 M -2 -65 R -7 63 R F
7737 6604 M 7 -63 R -8 -2 R F
7737 6604 M -1 -65 R -7 -4 R F
7737 6604 M -8 -69 R -1 66 R F
7728 6601 M 1 -66 R -7 -4 R F
7728 6601 M -6 -70 R -2 66 R F
7720 6597 M 2 -66 R -6 -5 R F
7720 6597 M -4 -71 R -3 67 R F
7713 6593 M 3 -67 R -5 -5 R F
7713 6593 M -2 -72 R -5 -7 R F
7713 6593 M -7 -79 R 0 74 R F
7706 6588 M 0 -74 R -48 227 R F
7706 6588 M -48 153 R 58 -70 R F
7716 6671 M -58 70 R 239 0 R F
7716 6671 M 181 70 R 0 -70 R F
7658 6741 M 48 -227 R -75 4 R F
3995 5831 M -3 -14 R 1 93 R F
3993 5910 M -1 -93 R -1 -17 R F
3993 5910 M -2 -110 R -6 95 R F
3985 5895 M 6 -95 R 0 -166 R F
3985 5895 M 6 -261 R -85 0 R F
3906 5634 M 0 315 R 79 0 R F
3906 5634 M 79 315 R 0 -54 R F
4088 5872 M -28 0 R 1 85 R F
4088 5872 M -27 85 R 15 1 R F
4088 5872 M -12 86 R 2 0 R F
4088 5872 M -10 86 R 2 0 R F
4088 5872 M -8 86 R 2 0 R F
4088 5872 M -6 86 R 1 0 R F
4088 5872 M -5 86 R 3 0 R F
4088 5872 M -2 86 R 2 -1 R F
4061 5957 M -1 -85 R -13 82 R F
4047 5954 M 13 -82 R -16 -1 R F
4047 5954 M -3 -83 R -9 78 R F
4035 5949 M 9 -78 R -14 -4 R F
4035 5949 M -5 -82 R -7 76 R F
4023 5943 M 7 -76 R -12 -5 R F
4023 5943 M -5 -81 R -6 72 R F
4012 5934 M 6 -72 R -10 -8 R F
4012 5934 M -4 -80 R -6 69 R F
4002 5923 M 6 -69 R -8 -10 R F
4002 5923 M -2 -79 R -5 -13 R F
3995 5831 M -2 79 R 9 13 R F
4221 5849 M -3 -11 R 5 86 R F
4223 5924 M -5 -86 R 0 -14 R F
4223 5924 M -5 -100 R -4 90 R F
4214 5914 M 4 -90 R 0 -190 R F
4214 5914 M 4 -280 R -84 0 R F
4134 5634 M 0 315 R 80 0 R F
4134 5634 M 80 315 R 0 -35 R F
4399 5634 M -82 0 R 13 321 R F
4399 5634 M -69 321 R 12 -3 R F
4399 5634 M -57 318 R 11 -5 R F
4399 5634 M -46 313 R 10 -7 R F
4399 5634 M -36 306 R 10 -8 R F
4399 5634 M -26 298 R 9 -9 R F
4399 5634 M -17 289 R 8 -11 R F
4399 5634 M -9 278 R 9 10 R F
4399 5634 M 0 288 R 0 -97 R F
4317 5836 M -1 11 R 0 110 R F
4317 5836 M -1 121 R 14 -2 R F
4317 5836 M 13 119 R -13 -321 R F
4316 5957 M 0 -110 R -2 10 R F
4316 5957 M -2 -100 R -4 8 R F
4316 5957 M -6 -92 R -5 7 R F
4316 5957 M -11 -85 R -3 86 R F
4305 5872 M -7 6 R 4 80 R F
4302 5958 M -4 -80 R -8 4 R F
4302 5958 M -12 -76 R -1 75 R F
4289 5957 M 1 -75 R -9 2 R F
4289 5957 M -8 -73 R -4 71 R F
4277 5955 M 4 -71 R -10 1 R F
4277 5955 M -6 -70 R -6 67 R F
4265 5952 M 6 -67 R -12 -1 R F
4265 5952 M -6 -68 R -5 63 R F
4254 5947 M 5 -63 R -10 -3 R F
4254 5947 M -5 -66 R -6 60 R F
4243 5941 M 6 -60 R -9 -5 R F
4243 5941 M -3 -65 R -7 57 R F
4233 5933 M 7 -57 R -8 -7 R F
4233 5933 M -1 -64 R -6 -9 R F
4226 5860 M -5 -11 R 2 75 R F
4226 5860 M -3 64 R 10 9 R F
4583 5634 M -83 0 R 2 322 R F
4583 5634 M -81 322 R 20 -5 R F
4583 5634 M -61 317 R 18 -9 R F
4583 5634 M -43 308 R 15 -12 R F
4583 5634 M -28 296 R 12 -15 R F
4583 5634 M -16 281 R 9 -18 R F
4583 5634 M -7 263 R 5 -20 R F
4583 5634 M -2 243 R 2 -23 R F
4502 5956 M -2 -322 R 0 203 R F
4502 5956 M -2 -119 R -1 11 R F
4502 5956 M -3 -108 R -2 9 R F
4502 5956 M -5 -99 R -4 8 R F
4502 5956 M -9 -91 R -6 7 R F
4502 5956 M -15 -84 R -6 6 R F
4502 5956 M -21 -78 R -1 80 R F
4453 5885 M 0 70 R 10 -71 R F
4463 5884 M -10 71 R 13 2 R F
4463 5884 M 3 73 R 7 -75 R F
4473 5882 M -7 75 R 14 1 R F
4473 5882 M 7 76 R 1 -80 R F
4407 5860 M 1 72 R 6 -63 R F
4414 5869 M -6 63 R 10 8 R F
4414 5869 M 4 71 R 4 -64 R F
4422 5876 M -4 64 R 11 6 R F
4422 5876 M 7 70 R 2 -65 R F
4431 5881 M -2 65 R 12 5 R F
4431 5881 M 10 70 R 0 -67 R F
4441 5884 M 0 67 R 12 4 R F
4441 5884 M 12 71 R 0 -70 R F
4399 5825 M 0 97 R 1 -84 R F
4400 5838 M -1 84 R 9 10 R F
4400 5838 M 8 94 R -5 -82 R F
4403 5850 M 5 82 R -1 -72 R F
4839 5713 M 1 7 R 1 -90 R F
4841 5630 M -1 90 R 5 100 R F
4841 5630 M 4 190 R 21 -181 R F
4866 5639 M -21 181 R 24 -9 R F
4866 5639 M 3 172 R 18 -160 R F
4887 5651 M -18 160 R 19 -9 R F
4887 5651 M 1 151 R 16 -135 R F
4904 5667 M -16 135 R 14 -10 R F
4904 5667 M -2 125 R 10 -12 R F
4841 5630 M -30 -5 R 8 68 R F
4841 5630 M -22 63 R 7 4 R F
4841 5630 M -15 67 R 6 5 R F
4841 5630 M -9 72 R 4 5 R F
4841 5630 M -5 77 R 3 6 R F
4811 5625 M -34 -2 R 11 66 R F
4811 5625 M -23 64 R 12 0 R F
4811 5625 M -11 64 R 10 2 R F
4811 5625 M -1 66 R 9 2 R F
4777 5623 M -31 2 R 3 70 R F
4777 5623 M -28 72 R 11 -3 R F
4777 5623 M -17 69 R 13 -3 R F
4777 5623 M -4 66 R 15 0 R F
4746 5625 M -27 5 R 5 95 R F
4746 5625 M -22 100 R 3 -10 R F
4746 5625 M -19 90 R 5 -8 R F
4746 5625 M -14 82 R 7 -7 R F
4746 5625 M -7 75 R 10 -5 R F
4722 5736 M 2 -11 R -5 -95 R F
4722 5736 M -3 -106 R -24 9 R F
4722 5736 M -27 -97 R -20 13 R F
4722 5736 M -47 -84 R -16 16 R F
4722 5736 M -63 -68 R -12 19 R F
4722 5736 M -75 -49 R -7 21 R F
4722 5736 M -82 -28 R -2 25 R F
4722 5736 M -84 -3 R 0 3 R F
4904 5667 M 8 113 R 3 -95 R F
4915 5685 M -3 95 R 7 -13 R F
4915 5685 M 4 82 R 4 -59 R F
4923 5708 M -4 59 R 4 -16 R F
4923 5708 M 0 43 R 2 -18 R F
4806 5830 M 5 -1 R 0 -83 R F
4811 5746 M 0 83 R 5 -2 R F
4811 5746 M 5 81 R 11 -88 R F
4827 5739 M -11 88 R 29 -7 R F
4827 5739 M 18 81 R -8 -90 R F
4837 5730 M 8 90 R -5 -100 R F
4811 5746 M -22 7 R 4 80 R F
4811 5746 M -18 87 R 7 -2 R F
4811 5746 M -11 85 R 6 -1 R F
4789 5753 M -9 2 R 13 78 R F
4793 5833 M -13 -78 R -9 2 R F
4793 5833 M -22 -76 R -6 83 R F
4765 5840 M 6 -83 R -8 1 R F
4765 5840 M -2 -82 R -6 2 R F
4757 5760 M -29 8 R 2 98 R F
4757 5760 M -27 106 R 4 -9 R F
4757 5760 M -23 97 R 12 -9 R F
4757 5760 M -11 88 R 19 -8 R F
4915 5853 M -82 0 R 0 100 R F
4915 5853 M -82 100 R 24 -8 R F
4915 5853 M -58 92 R 19 -13 R F
4915 5853 M -39 79 R 16 -15 R F
4915 5853 M -23 64 R 12 -19 R F
4915 5853 M -11 45 R 7 -21 R F
4833 5953 M 0 -100 R -2 9 R F
4833 5953 M -2 -91 R -3 9 R F
4833 5953 M -5 -82 R -4 7 R F
4833 5953 M -9 -75 R -7 6 R F
4833 5953 M -16 -69 R -8 5 R F
4833 5953 M -24 -64 R -2 70 R F
4807 5959 M 2 -70 R -9 3 R F
4807 5959 M -7 -67 R -10 2 R F
4807 5959 M -17 -65 R -13 1 R F
4807 5959 M -30 -64 R 0 65 R F
4777 5895 M -11 0 R 11 65 R F
4777 5960 M -11 -65 R -10 -2 R F
4777 5960 M -21 -67 R -7 66 R F
4749 5959 M 7 -66 R -8 -2 R F
4749 5959 M -1 -68 R -6 -3 R F
4749 5959 M -7 -71 R -6 -4 R F
4749 5959 M -13 -75 R -3 -5 R F
4749 5959 M -16 -80 R -2 -6 R F
4749 5959 M -18 -86 R -8 80 R F
4723 5953 M 8 -80 R -1 -7 R F
4723 5953 M 7 -87 R -2 -98 R F
4723 5953 M 5 -185 R -24 9 R F
4723 5953 M -19 -176 R -3 167 R F
4649 5838 M 0 40 R 4 -56 R F
4653 5822 M -4 56 R 7 21 R F
4653 5822 M 3 77 R 5 -90 R F
4661 5809 M -5 90 R 11 18 R F
4661 5809 M 6 108 R 4 -120 R F
4671 5797 M -4 120 R 15 15 R F
4671 5797 M 11 135 R 3 -145 R F
4685 5787 M -3 145 R 19 12 R F
4685 5787 M 16 157 R 3 -167 R F
4649 5878 M 0 -40 R -2 17 R F
5186 5720 M 0 57 R 348 0 R F
5186 5720 M 348 57 R 0 -57 R F
5186 5845 M 0 57 R 348 0 R F
5186 5845 M 348 57 R 0 -57 R F
6173 5634 M -82 0 R 6 381 R F
6173 5634 M -76 381 R 6 16 R F
6173 5634 M -70 397 R 4 18 R F
6173 5634 M -66 415 R 66 0 R F
6091 5918 M -99 0 R 6 58 R F
6091 5918 M -93 58 R 26 1 R F
6091 5918 M -67 59 R 21 3 R F
6091 5918 M -46 62 R 18 5 R F
6091 5918 M -28 67 R 15 8 R F
6091 5918 M -13 75 R 11 10 R F
6091 5918 M -2 85 R 8 12 R F
6091 5918 M 6 97 R -6 -381 R F
5998 5976 M -6 -58 R 0 58 R F
6410 5634 M -88 0 R 0 87 R F
6410 5634 M -88 87 R 88 0 R F
6554 5917 M -78 0 R 3 30 R F
6554 5917 M -75 30 R 7 26 R F
6554 5917 M -68 56 R 12 23 R F
6554 5917 M -56 79 R 16 18 R F
6554 5917 M -40 97 R 19 15 R F
6554 5917 M -21 112 R 21 -109 R F
6679 5754 M -2 14 R 18 263 R F
6695 6031 M -18 -263 R -3 13 R F
6695 6031 M -21 -250 R -3 260 R F
6671 6041 M 3 -260 R -7 10 R F
6671 6041 M -4 -250 R 0 139 R F
6667 5930 M 0 -139 R -1 126 R F
6649 5887 M 8 8 R 2 -95 R F
6659 5800 M -2 95 R 5 10 R F
6659 5800 M 3 105 R 5 -114 R F
6667 5791 M -5 114 R 4 12 R F
6600 5816 M 13 58 R 5 -59 R F
6618 5815 M -5 59 R 14 3 R F
6618 5815 M 9 62 R 7 -65 R F
6634 5812 M -7 65 R 13 4 R F
6634 5812 M 6 69 R 7 -74 R F
6647 5807 M -7 74 R 9 6 R F
6647 5807 M 2 80 R 10 -87 R F
6597 5816 M -2 0 R 1 57 R F
6597 5816 M -1 57 R 17 1 R F
6597 5816 M 16 58 R -13 -58 R F
6596 5873 M -1 -57 R -2 0 R F
6596 5873 M -3 -57 R -2 0 R F
6596 5873 M -5 -57 R -1 0 R F
6596 5873 M -6 -57 R -3 0 R F
6596 5873 M -9 -57 R 0 57 R F
6763 5728 M -7 -27 R 1 102 R F
6763 5728 M -6 75 R 5 -14 R F
6763 5728 M -1 61 R 3 -15 R F
6763 5728 M 2 46 R 1 -17 R F
6729 5838 M 11 -11 R 3 -149 R F
6743 5678 M -3 149 R 9 -11 R F
6743 5678 M 6 138 R 7 -115 R F
6756 5701 M -7 115 R 8 -13 R F
6695 6031 M 6 -177 R 2 -212 R F
6703 5642 M -2 212 R 15 -8 R F
6703 5642 M 13 204 R 9 -188 R F
6725 5658 M -9 188 R 13 -8 R F
6725 5658 M 4 180 R 14 -160 R F
6669 5716 M 5 11 R 3 -96 R F
6677 5631 M -3 96 R 3 12 R F
6677 5631 M 0 108 R 26 -97 R F
6703 5642 M -26 97 R 2 15 R F
6703 5642 M -24 112 R 16 277 R F
6628 5691 M 13 3 R 6 -70 R F
6647 5624 M -6 70 R 11 5 R F
6647 5624 M 5 75 R 25 -68 R F
6677 5631 M -25 68 R 10 8 R F
6677 5631 M -15 76 R 7 9 R F
6613 5622 M -33 2 R 5 71 R F
6613 5622 M -28 73 R 13 -4 R F
6613 5622 M -15 69 R 15 -1 R F
6613 5622 M 0 68 R 15 1 R F
6613 5622 M 15 69 R 19 -67 R F
6580 5624 M -29 7 R 1 99 R F
6580 5624 M -28 106 R 5 -12 R F
6580 5624 M -23 94 R 7 -10 R F
6580 5624 M -16 84 R 9 -8 R F
6580 5624 M -7 76 R 12 -5 R F
6551 5631 M -25 11 R 21 118 R F
6551 5631 M -4 129 R 1 -16 R F
6551 5631 M -3 113 R 4 -14 R F
6547 5760 M -21 -118 R -21 15 R F
6547 5760 M -42 -103 R -16 20 R F
6547 5760 M -58 -83 R -12 23 R F
6547 5760 M -70 -60 R -7 27 R F
6547 5760 M -77 -33 R -2 31 R F
6547 5760 M -79 -2 R 0 2 R F
6749 5960 M 2 -24 R -1 -13 R F
6749 5960 M 1 -37 R -2 -13 R F
6749 5960 M -1 -50 R -4 -11 R F
6749 5960 M -5 -61 R -2 83 R F
6744 5899 M -5 -11 R 3 94 R F
6742 5982 M -3 -94 R -7 -10 R F
6742 5982 M -10 -104 R -2 124 R F
6730 6002 M 2 -124 R -9 -9 R F
6730 6002 M -7 -133 R -9 149 R F
6714 6018 M 9 -149 R -10 -8 R F
6714 6018 M -1 -157 R -12 -7 R F
6671 6041 M -4 -111 R -1 12 R F
6671 6041 M -5 -99 R -3 10 R F
6671 6041 M -8 -89 R -5 9 R F
6671 6041 M -13 -80 R -6 7 R F
6671 6041 M -19 -73 R -7 79 R F
6645 6047 M 7 -79 R -8 6 R F
6645 6047 M -1 -73 R -9 5 R F
6645 6047 M -10 -68 R -11 3 R F
6645 6047 M -21 -65 R -8 67 R F
6616 6049 M 8 -67 R -12 0 R F
6616 6049 M -4 -67 R -13 -1 R F
6616 6049 M -17 -68 R -11 -3 R F
6616 6049 M -28 -71 R -4 68 R F
6584 6046 M 4 -68 R -10 -5 R F
6584 6046 M -6 -73 R -9 -7 R F
6584 6046 M -15 -80 R -6 -9 R F
6584 6046 M -21 -89 R -5 -11 R F
6584 6046 M -26 -100 R -1 94 R F
6557 6040 M 1 -94 R -3 -12 R F
6557 6040 M -2 -106 R -1 -14 R F
6557 6040 M -3 -120 R -21 109 R F
6714 6018 M -13 -164 R -6 177 R F
7107 5835 M -3 -50 R 0 100 R F
7104 5885 M 0 -100 R -7 -44 R F
7104 5885 M -7 -144 R 0 188 R F
7097 5929 M 0 -188 R -11 -36 R F
7097 5929 M -11 -224 R -1 260 R F
7085 5965 M 1 -260 R -17 -30 R F
7085 5965 M -16 -290 R 0 321 R F
7069 5996 M 0 -321 R -21 -23 R F
7069 5996 M -21 -344 R 0 367 R F
7048 6019 M 0 -367 R -26 -17 R F
7048 6019 M -26 -384 R 0 401 R F
7022 6036 M 0 -401 R -2 201 R F
7022 6036 M -2 -200 R -1 35 R F
7022 5635 M -30 -9 R 4 85 R F
7022 5635 M -26 76 R 9 15 R F
7022 5635 M -17 91 R 7 20 R F
7022 5635 M -10 111 R 5 25 R F
7022 5635 M -5 136 R 2 30 R F
7022 5635 M -3 166 R 1 35 R F
6941 5693 M 15 -2 R 0 -69 R F
6956 5622 M 0 69 R 16 2 R F
6956 5622 M 16 71 R 20 -67 R F
6992 5626 M -20 67 R 13 7 R F
6992 5626 M -7 74 R 11 11 R F
6908 5726 M 8 -15 R 5 -85 R F
6921 5626 M -5 85 R 11 -11 R F
6921 5626 M 6 74 R 29 -78 R F
6956 5622 M -29 78 R 14 -7 R F
6892 5836 M 1 -36 R -3 -165 R F
6890 5635 M 3 165 R 3 -30 R F
6890 5635 M 6 135 R 25 -144 R F
6921 5626 M -25 144 R 5 -25 R F
6921 5626 M -20 119 R 7 -19 R F
7022 6036 M -3 -165 R -2 30 R F
7022 6036 M -5 -135 R -5 25 R F
7022 6036 M -10 -110 R -7 19 R F
7022 6036 M -17 -91 R -9 15 R F
7022 6036 M -26 -76 R -4 86 R F
6992 6046 M 4 -86 R -11 11 R F
6992 6046 M -7 -75 R -13 6 R F
6992 6046 M -20 -69 R -16 3 R F
6992 6046 M -36 -66 R 0 69 R F
6956 5980 M -15 -3 R 15 72 R F
6956 6049 M -15 -72 R -14 -6 R F
6956 6049 M -29 -78 R -6 75 R F
6921 6046 M 6 -75 R -11 -11 R F
6921 6046 M -5 -86 R -8 -15 R F
6908 5945 M -7 -19 R 20 120 R F
6921 6046 M -20 -120 R -5 -25 R F
6921 6046 M -25 -145 R -6 135 R F
6890 6036 M 6 -135 R -3 -30 R F
6890 6036 M 3 -165 R -1 -35 R F
6806 5836 M 3 50 R 0 -101 R F
6809 5785 M 0 101 R 7 43 R F
6809 5785 M 7 144 R 0 -187 R F
6816 5742 M 0 187 R 11 37 R F
6816 5742 M 11 224 R 0 -261 R F
6827 5705 M 0 261 R 17 30 R F
6827 5705 M 17 291 R 0 -321 R F
6844 5675 M 0 321 R 21 23 R F
6844 5675 M 21 344 R 0 -367 R F
6865 5652 M 0 367 R 25 17 R F
6865 5652 M 25 384 R 0 -401 R F
6890 5635 M 0 401 R 2 -200 R F
7444 5835 M -3 -50 R 0 100 R F
7441 5885 M 0 -100 R -7 -44 R F
7441 5885 M -7 -144 R 0 188 R F
7434 5929 M 0 -188 R -11 -36 R F
7434 5929 M -11 -224 R -1 260 R F
7422 5965 M 1 -260 R -17 -30 R F
7422 5965 M -16 -290 R 0 321 R F
7406 5996 M 0 -321 R -21 -23 R F
7406 5996 M -21 -344 R 0 367 R F
7385 6019 M 0 -367 R -26 -17 R F
7385 6019 M -26 -384 R 0 401 R F
7359 6036 M 0 -401 R -2 201 R F
7359 6036 M -2 -200 R -1 35 R F
7359 5635 M -30 -9 R 4 85 R F
7359 5635 M -26 76 R 9 15 R F
7359 5635 M -17 91 R 7 20 R F
7359 5635 M -10 111 R 5 25 R F
7359 5635 M -5 136 R 2 30 R F
7359 5635 M -3 166 R 1 35 R F
7278 5693 M 15 -2 R 0 -69 R F
7293 5622 M 0 69 R 16 2 R F
7293 5622 M 16 71 R 20 -67 R F
7329 5626 M -20 67 R 13 7 R F
7329 5626 M -7 74 R 11 11 R F
7245 5726 M 8 -15 R 5 -85 R F
7258 5626 M -5 85 R 11 -11 R F
7258 5626 M 6 74 R 29 -78 R F
7293 5622 M -29 78 R 14 -7 R F
7229 5836 M 1 -36 R -3 -165 R F
7227 5635 M 3 165 R 3 -30 R F
7227 5635 M 6 135 R 25 -144 R F
7258 5626 M -25 144 R 5 -25 R F
7258 5626 M -20 119 R 7 -19 R F
7359 6036 M -3 -165 R -2 30 R F
7359 6036 M -5 -135 R -5 25 R F
7359 6036 M -10 -110 R -7 19 R F
7359 6036 M -17 -91 R -9 15 R F
7359 6036 M -26 -76 R -5 86 R F
7328 6046 M 5 -86 R -11 11 R F
7328 6046 M -6 -75 R -13 6 R F
7328 6046 M -19 -69 R -16 3 R F
7328 6046 M -35 -66 R 0 69 R F
7293 5980 M -15 -3 R 15 72 R F
7293 6049 M -15 -72 R -14 -6 R F
7293 6049 M -29 -78 R -6 75 R F
7258 6046 M 6 -75 R -11 -11 R F
7258 6046 M -5 -86 R -8 -15 R F
7245 5945 M -7 -19 R 20 120 R F
7258 6046 M -20 -120 R -5 -25 R F
7258 6046 M -25 -145 R -6 135 R F
7227 6036 M 6 -135 R -3 -30 R F
7227 6036 M 3 -165 R -1 -35 R F
7143 5836 M 3 50 R 0 -101 R F
7146 5785 M 0 101 R 7 43 R F
7146 5785 M 7 144 R 0 -187 R F
7153 5742 M 0 187 R 11 37 R F
7153 5742 M 11 224 R 0 -261 R F
7164 5705 M 0 261 R 16 30 R F
7164 5705 M 16 291 R 0 -321 R F
7180 5675 M 0 321 R 22 23 R F
7180 5675 M 22 344 R 0 -367 R F
7202 5652 M 0 367 R 25 17 R F
7202 5652 M 25 384 R 0 -401 R F
7227 5635 M 0 401 R 2 -200 R F
7689 5764 M 4 132 R 17 -252 R F
7710 5644 M -17 252 R 23 -12 R F
7710 5644 M 6 240 R 17 -222 R F
7733 5662 M -17 222 R 21 -17 R F
7733 5662 M 4 205 R 14 -184 R F
7751 5683 M -14 184 R 17 -20 R F
7751 5683 M 3 164 R 11 -139 R F
7765 5708 M -11 139 R 11 -23 R F
7765 5708 M 0 116 R 7 -87 R F
7772 5737 M -7 87 R 8 -26 R F
7772 5737 M 1 61 R 2 -29 R F
7672 5708 M 7 11 R 5 -87 R F
7684 5632 M -5 87 R 6 13 R F
7684 5632 M 1 100 R 25 -88 R F
7710 5644 M -25 88 R 3 15 R F
7710 5644 M -22 103 R 1 17 R F
7636 5689 M 14 4 R 4 -69 R F
7654 5624 M -4 69 R 12 6 R F
7654 5624 M 8 75 R 22 -67 R F
7684 5632 M -22 67 R 10 9 R F
7620 5622 M -31 2 R 7 68 R F
7620 5622 M -24 70 R 11 -3 R F
7620 5622 M -13 67 R 13 -1 R F
7620 5622 M 0 66 R 16 1 R F
7620 5622 M 16 67 R 18 -65 R F
7589 5624 M -27 6 R 2 91 R F
7589 5624 M -25 97 R 5 -10 R F
7589 5624 M -20 87 R 8 -8 R F
7589 5624 M -12 79 R 8 -6 R F
7589 5624 M -4 73 R 11 -5 R F
7562 5630 M -24 10 R 20 105 R F
7562 5630 M -4 115 R 2 -13 R F
7562 5630 M -2 102 R 4 -11 R F
7558 5745 M -20 -105 R -21 15 R F
7558 5745 M -41 -90 R -16 18 R F
7558 5745 M -57 -72 R -13 21 R F
7558 5745 M -70 -51 R -8 24 R F
7558 5745 M -78 -27 R -3 27 R F
7693 5896 M -4 -132 R -1 17 R F
7693 5896 M -5 -115 R -3 14 R F
7693 5896 M -8 -101 R -6 13 R F
7693 5896 M -14 -88 R -8 11 R F
7693 5896 M -22 -77 R -5 84 R F
7671 5819 M -10 9 R 5 75 R F
7666 5903 M -5 -75 R -12 6 R F
7666 5903 M -17 -69 R -12 71 R F
7637 5905 M 12 -71 R -13 3 R F
7637 5905 M -1 -68 R -10 68 R F
7626 5905 M 10 -68 R -15 2 R F
7626 5905 M -5 -66 R -5 65 R F
7616 5904 M 5 -65 R -9 -1 R F
7616 5904 M -4 -66 R -6 64 R F
7606 5902 M 6 -64 R -8 -1 R F
7606 5902 M -2 -65 R -7 63 R F
7597 5900 M 7 -63 R -8 -2 R F
7597 5900 M -1 -65 R -7 -4 R F
7597 5900 M -8 -69 R 0 66 R F
7589 5897 M 0 -66 R -7 -4 R F
7589 5897 M -7 -70 R -2 66 R F
7580 5893 M 2 -66 R -6 -5 R F
7580 5893 M -4 -71 R -3 67 R F
7573 5889 M 3 -67 R -5 -5 R F
7573 5889 M -2 -72 R -5 -7 R F
7573 5889 M -7 -79 R 0 74 R F
7566 5884 M 0 -74 R -48 227 R F
7566 5884 M -48 153 R 59 -70 R F
7577 5967 M -59 70 R 239 0 R F
7577 5967 M 180 70 R 0 -70 R F
7518 6037 M 48 -227 R -75 4 R F
7930 5712 M 234 0 R 0 -78 R F
7930 5712 M 234 -78 R -321 0 R F
7930 5712 M -87 -78 R 87 353 R F
7930 5712 M 0 275 R 0 -91 R F
7930 5712 M 0 184 R 0 -74 R F
7930 5822 M 0 74 R 204 0 R F
7930 5822 M 204 74 R 0 -74 R F
7930 5987 M -87 -353 R 0 427 R F
7930 5987 M -87 74 R 310 0 R F
7930 5987 M 223 74 R 0 -74 R F
8368 5752 M -163 0 R 0 79 R F
8368 5752 M -163 79 R 163 0 R F
8704 5835 M -2 -50 R 0 100 R F
8702 5885 M 0 -100 R -7 -44 R F
8702 5885 M -7 -144 R 0 188 R F
8695 5929 M 0 -188 R -12 -36 R F
8695 5929 M -12 -224 R 0 260 R F
8683 5965 M 0 -260 R -16 -30 R F
8683 5965 M -16 -290 R 0 321 R F
8667 5996 M 0 -321 R -21 -23 R F
8667 5996 M -21 -344 R -1 367 R F
8645 6019 M 1 -367 R -26 -17 R F
8645 6019 M -25 -384 R 0 401 R F
8620 6036 M 0 -401 R -2 201 R F
8620 6036 M -2 -200 R -1 35 R F
8620 5635 M -31 -9 R 5 85 R F
8620 5635 M -26 76 R 9 15 R F
8620 5635 M -17 91 R 6 20 R F
8620 5635 M -11 111 R 5 25 R F
8620 5635 M -6 136 R 3 30 R F
8620 5635 M -3 166 R 1 35 R F
8538 5693 M 16 -2 R 0 -69 R F
8554 5622 M 0 69 R 15 2 R F
8554 5622 M 15 71 R 20 -67 R F
8589 5626 M -20 67 R 14 7 R F
8589 5626 M -6 74 R 11 11 R F
8505 5726 M 9 -15 R 4 -85 R F
8518 5626 M -4 85 R 11 -11 R F
8518 5626 M 7 74 R 29 -78 R F
8554 5622 M -29 78 R 13 -7 R F
8490 5836 M 1 -36 R -3 -165 R F
8488 5635 M 3 165 R 3 -30 R F
8488 5635 M 6 135 R 24 -144 R F
8518 5626 M -24 144 R 4 -25 R F
8518 5626 M -20 119 R 7 -19 R F
8620 6036 M -3 -165 R -3 30 R F
8620 6036 M -6 -135 R -5 25 R F
8620 6036 M -11 -110 R -6 19 R F
8620 6036 M -17 -91 R -9 15 R F
8620 6036 M -26 -76 R -5 86 R F
8589 6046 M 5 -86 R -11 11 R F
8589 6046 M -6 -75 R -14 6 R F
8589 6046 M -20 -69 R -15 3 R F
8589 6046 M -35 -66 R 0 69 R F
8554 5980 M -16 -3 R 16 72 R F
8554 6049 M -16 -72 R -13 -6 R F
8554 6049 M -29 -78 R -7 75 R F
8518 6046 M 7 -75 R -11 -11 R F
8518 6046 M -4 -86 R -9 -15 R F
8505 5945 M -7 -19 R 20 120 R F
8518 6046 M -20 -120 R -4 -25 R F
8518 6046 M -24 -145 R -6 135 R F
8488 6036 M 6 -135 R -3 -30 R F
8488 6036 M 3 -165 R -1 -35 R F
8404 5836 M 2 50 R 0 -101 R F
8406 5785 M 0 101 R 7 43 R F
8406 5785 M 7 144 R 0 -187 R F
8413 5742 M 0 187 R 12 37 R F
8413 5742 M 12 224 R 0 -261 R F
8425 5705 M 0 261 R 16 30 R F
8425 5705 M 16 291 R 0 -321 R F
8441 5675 M 0 321 R 21 23 R F
8441 5675 M 21 344 R 0 -367 R F
8462 5652 M 0 367 R 26 17 R F
8462 5652 M 26 384 R 0 -401 R F
8488 5635 M 0 401 R 2 -200 R F
8820 5901 M -77 0 R 3 33 R F
8820 5901 M -74 33 R 7 30 R F
8820 5901 M -67 63 R 12 25 R F
8820 5901 M -55 88 R 17 22 R F
8820 5901 M -38 110 R 21 16 R F
8820 5901 M -17 126 R 17 -123 R F
8839 5704 M 188 0 R 0 -70 R F
8839 5704 M 188 -70 R -267 94 R F
8839 5704 M -79 24 R 14 19 R F
8839 5704 M -65 43 R 18 20 R F
8839 5704 M -47 63 R 23 20 R F
8839 5704 M -24 83 R 28 20 R F
8839 5704 M 4 103 R 2 -92 R F
9027 5634 M -291 0 R 2 26 R F
9027 5634 M -289 26 R 5 25 R F
9027 5634 M -284 51 R 7 23 R F
9027 5634 M -277 74 R 10 20 R F
9031 5921 M -1 -20 R -1 48 R F
9029 5949 M 1 -48 R -4 -19 R F
9029 5949 M -3 -67 R -4 91 R F
9022 5973 M 4 -91 R -6 -17 R F
9022 5973 M -2 -108 R -9 -16 R F
9022 5973 M -11 -124 R -1 146 R F
9010 5995 M 1 -146 R -12 -16 R F
9010 5995 M -11 -162 R -6 181 R F
8993 6014 M 6 -181 R -17 -16 R F
8993 6014 M -11 -197 R -10 212 R F
8972 6029 M 10 -212 R -22 -18 R F
8972 6029 M -12 -230 R -12 241 R F
8948 6040 M 12 -241 R -13 121 R F
8948 6040 M -1 -120 R -1 13 R F
8947 5920 M 13 -121 R -18 98 R F
8942 5897 M 18 -98 R -26 -19 R F
8942 5897 M -8 -117 R -7 93 R F
8927 5873 M 7 -93 R -7 -5 R F
8927 5873 M 0 -98 R -8 -5 R F
8910 5764 M -10 -6 R 3 90 R F
8910 5764 M -7 84 R 24 25 R F
8910 5764 M 17 109 R -8 -103 R F
8876 5741 M -18 -14 R 3 91 R F
8876 5741 M -15 77 R 8 5 R F
8876 5741 M -7 82 R 34 25 R F
8876 5741 M 27 107 R -3 -90 R F
8858 5727 M -13 -12 R 3 95 R F
8858 5727 M -10 83 R 6 4 R F
8858 5727 M -4 87 R 7 4 R F
8948 6040 M -2 -107 R -3 12 R F
8948 6040 M -5 -95 R -5 10 R F
8948 6040 M -10 -85 R -8 9 R F
8948 6040 M -18 -76 R -9 7 R F
8948 6040 M -27 -69 R 0 76 R F
8921 5971 M -10 5 R 10 71 R F
8921 6047 M -10 -71 R -12 3 R F
8921 6047 M -22 -68 R -8 70 R F
8891 6049 M 8 -70 R -14 1 R F
8891 6049 M -6 -69 R -15 -2 R F
8857 5975 M -11 -7 R 11 79 R F
8857 5975 M 0 72 R 34 2 R F
8857 5975 M 34 74 R -21 -71 R F
8846 5968 M -9 -8 R 20 87 R F
8857 6047 M -20 -87 R -8 -11 R F
8857 6047 M -28 -98 R -1 91 R F
8828 6040 M 1 -91 R -5 -13 R F
8828 6040 M -4 -104 R -3 -15 R F
8820 5904 M -17 123 R 25 13 R F
8820 5904 M 8 136 R -7 -119 R F
8845 5715 M -2 92 R 5 3 R F
%%PageTrailer
end
restore
showpage
%%PageResources: font Helvetica
%%Trailer
restore
%%Pages: 1
%%DocumentNeededResources: font Helvetica
%%EOF
