%!PS-Adobe-3.0
%%BoundingBox: 91 181 519 609
%%Title: Graphics produced by IDL
%%For: yssu@ArchTest, 
%%      /home/yssu/SURF2015/Thesis/point_source/bbody/moving_pivots/hists/newPSDHists
%%Creator: IDL Version 8.3 (linux x86_64 m64)
%%CreationDate: Thu May  5 00:56:52 2016
%%DocumentData: Clean7bit
%%Requirements: color
%%LanguageLevel: 2
%%PageOrder: Ascend
%%Pages: (atend)
%%DocumentNeededResources: (atend)
%%EndComments
%%BeginProlog
save
%+ prolog.ps -- Prolog for IDL generated PostScript files
%+ Copyright (c) 1988-2013 Exelis Visual Information Solutions, Inc. All Rights Reserved.
%v 5
/$IDL_DICT 40 dict def $IDL_DICT begin /bdef { bind def } bind def /C
{currentpoint newpath moveto} bdef /CP {currentpoint} bdef /D {currentpoint
stroke moveto} bdef /F {closepath fill} bdef /K { setgray } bdef /M {moveto}
bdef /N {rmoveto} bdef /P {lineto} bdef /R {rlineto} bdef /S {gsave show
grestore} bdef /X {currentpoint pop} bdef /Z {gsave currentpoint lineto 20
setlinewidth 1 setlinecap stroke grestore} bdef /L0 {[] 0 setdash} bdef /L1
{[40 100] 0 setdash} bdef /L2 {[200 200] 0 setdash} bdef /L3 {[200 100 50
100] 0 setdash} bdef /L4 {[300 100 50 100 50 100 50 100] 0 setdash} bdef /L5
{[400 200] 0 setdash} bdef /STDFONT { findfont exch scalefont setfont } bdef
/ISOFONT { findfont dup length dict begin { 1 index /FID ne {def} {pop pop}
ifelse } forall /Encoding ISOLatin1Encoding def currentdict end /idltmpfont
exch definefont exch scalefont setfont } bdef /ISOBULLET { gsave /Helvetica
findfont exch scalefont setfont (\267) show currentpoint grestore moveto}
bdef /MITERLIMIT { 2.5 setmiterlimit } bdef end
%%EndProlog
%%Page: 0 1
%%PageRequirements: color
%%PageResources: (atend)
%%PageOrientation: Portrait
%%PageBoundingBox: 91 181 519 609
%%BeginPageSetup
save
$IDL_DICT begin 91 181 translate 0.0283465 dup scale MITERLIMIT
%%IncludeResource: font Helvetica
423.333 /Helvetica STDFONT
%%EndPageSetup
40 setlinewidth L0 0.000 0.000 0.000 setrgbcolor 3330 2112 M 10784 0 R D
3330 2112 M 0 239 R D 3127 1471 M -2 -37 R 0 75 R F
3125 1509 M 0 -75 R -5 -33 R F
3125 1509 M -5 -108 R 0 140 R F
3120 1541 M 0 -140 R -9 -27 R F
3120 1541 M -9 -167 R 0 195 R F
3111 1569 M 0 -195 R -12 -23 R F
3111 1569 M -12 -218 R -1 241 R F
3098 1592 M 1 -241 R -16 -17 R F
3098 1592 M -15 -258 R 0 275 R F
3083 1609 M 0 -275 R -20 -13 R F
3083 1609 M -20 -288 R 0 301 R F
3063 1622 M 0 -301 R -1 151 R F
3063 1622 M -1 -150 R -1 26 R F
3063 1321 M -22 -7 R 3 64 R F
3063 1321 M -19 57 R 6 11 R F
3063 1321 M -13 68 R 6 15 R F
3063 1321 M -7 83 R 3 19 R F
3063 1321 M -4 102 R 2 22 R F
3063 1321 M -2 124 R 1 27 R F
3002 1365 M 12 -2 R 0 -51 R F
3014 1312 M 0 51 R 12 2 R F
3014 1312 M 12 53 R 15 -51 R F
3041 1314 M -15 51 R 10 5 R F
3041 1314 M -5 56 R 8 8 R F
2977 1389 M 7 -11 R 3 -64 R F
2987 1314 M -3 64 R 8 -8 R F
2987 1314 M 5 56 R 22 -58 R F
3014 1312 M -22 58 R 10 -5 R F
2966 1472 M 1 -27 R -3 -123 R F
2964 1322 M 3 123 R 2 -22 R F
2964 1322 M 5 101 R 18 -109 R F
2987 1314 M -18 109 R 3 -19 R F
2987 1314 M -15 90 R 5 -15 R F
3063 1622 M -2 -124 R -2 22 R F
3063 1622 M -4 -102 R -3 19 R F
3063 1622 M -7 -83 R -6 15 R F
3063 1622 M -13 -68 R -6 11 R F
3063 1622 M -19 -57 R -4 64 R F
3040 1629 M 4 -64 R -8 8 R F
3040 1629 M -4 -56 R -10 5 R F
3040 1629 M -14 -51 R -12 2 R F
3040 1629 M -26 -49 R 0 52 R F
3014 1580 M -12 -2 R 12 54 R F
3014 1632 M -12 -54 R -10 -5 R F
3014 1632 M -22 -59 R -5 56 R F
2987 1629 M 5 -56 R -8 -8 R F
2987 1629 M -3 -64 R -7 -11 R F
2977 1554 M -5 -15 R 15 90 R F
2987 1629 M -15 -90 R -3 -18 R F
2987 1629 M -18 -108 R -5 101 R F
2964 1622 M 5 -101 R -2 -23 R F
2964 1622 M 3 -124 R -1 -26 R F
2901 1472 M 2 37 R 0 -75 R F
2903 1434 M 0 75 R 5 33 R F
2903 1434 M 5 108 R 0 -141 R F
2908 1401 M 0 141 R 9 27 R F
2908 1401 M 9 168 R 0 -195 R F
2917 1374 M 0 195 R 12 23 R F
2917 1374 M 12 218 R 0 -241 R F
2929 1351 M 0 241 R 16 17 R F
2929 1351 M 16 258 R 0 -275 R F
2945 1334 M 0 275 R 19 13 R F
2945 1334 M 19 288 R 0 -300 R F
2964 1322 M 0 300 R 2 -150 R F
3236 1320 M -65 0 R 0 66 R F
3236 1320 M -65 66 R 65 0 R F
3438 1320 M -61 0 R 4 286 R F
3438 1320 M -57 286 R 5 12 R F
3438 1320 M -52 298 R 2 14 R F
3438 1320 M -50 312 R 50 0 R F
3377 1533 M -75 0 R 5 44 R F
3377 1533 M -70 44 R 19 1 R F
3377 1533 M -51 45 R 16 2 R F
3377 1533 M -35 47 R 14 4 R F
3377 1533 M -21 51 R 10 6 R F
3377 1533 M -11 57 R 9 7 R F
3377 1533 M -2 64 R 6 9 R F
3377 1533 M 4 73 R -4 -286 R F
3307 1577 M -5 -44 R 0 44 R F
3759 1471 M -2 -37 R 0 75 R F
3757 1509 M 0 -75 R -5 -33 R F
3757 1509 M -5 -108 R 0 140 R F
3752 1541 M 0 -140 R -9 -27 R F
3752 1541 M -9 -167 R 0 195 R F
3743 1569 M 0 -195 R -12 -23 R F
3743 1569 M -12 -218 R 0 241 R F
3731 1592 M 0 -241 R -16 -17 R F
3731 1592 M -16 -258 R 0 275 R F
3715 1609 M 0 -275 R -19 -13 R F
3715 1609 M -19 -288 R -1 301 R F
3695 1622 M 1 -301 R -2 151 R F
3695 1622 M -1 -150 R -1 26 R F
3696 1321 M -23 -7 R 3 64 R F
3696 1321 M -20 57 R 7 11 R F
3696 1321 M -13 68 R 5 15 R F
3696 1321 M -8 83 R 3 19 R F
3696 1321 M -5 102 R 2 22 R F
3696 1321 M -3 124 R 1 27 R F
3634 1365 M 12 -2 R 0 -51 R F
3646 1312 M 0 51 R 12 2 R F
3646 1312 M 12 53 R 15 -51 R F
3673 1314 M -15 51 R 10 5 R F
3673 1314 M -5 56 R 8 8 R F
3610 1389 M 6 -11 R 4 -64 R F
3620 1314 M -4 64 R 8 -8 R F
3620 1314 M 4 56 R 22 -58 R F
3646 1312 M -22 58 R 10 -5 R F
3598 1472 M 1 -27 R -2 -123 R F
3597 1322 M 2 123 R 2 -22 R F
3597 1322 M 4 101 R 19 -109 R F
3620 1314 M -19 109 R 4 -19 R F
3620 1314 M -15 90 R 5 -15 R F
3695 1622 M -2 -124 R -2 22 R F
3695 1622 M -4 -102 R -3 19 R F
3695 1622 M -7 -83 R -5 15 R F
3695 1622 M -12 -68 R -7 11 R F
3695 1622 M -19 -57 R -4 64 R F
3672 1629 M 4 -64 R -8 8 R F
3672 1629 M -4 -56 R -10 5 R F
3672 1629 M -14 -51 R -12 2 R F
3672 1629 M -26 -49 R 0 52 R F
3646 1580 M -12 -2 R 12 54 R F
3646 1632 M -12 -54 R -10 -5 R F
3646 1632 M -22 -59 R -4 56 R F
3620 1629 M 4 -56 R -8 -8 R F
3620 1629 M -4 -64 R -6 -11 R F
3610 1554 M -5 -15 R 15 90 R F
3620 1629 M -15 -90 R -4 -18 R F
3620 1629 M -19 -108 R -4 101 R F
3597 1622 M 4 -101 R -2 -23 R F
3597 1622 M 2 -124 R -1 -26 R F
3533 1472 M 2 37 R 0 -75 R F
3535 1434 M 0 75 R 5 33 R F
3535 1434 M 5 108 R 0 -141 R F
3540 1401 M 0 141 R 9 27 R F
3540 1401 M 9 168 R 0 -195 R F
3549 1374 M 0 195 R 12 23 R F
3549 1374 M 12 218 R 0 -241 R F
3561 1351 M 0 241 R 16 17 R F
3561 1351 M 16 258 R 0 -275 R F
3577 1334 M 0 275 R 20 13 R F
3577 1334 M 20 288 R 0 -300 R F
3597 1322 M 0 300 R 1 -150 R F
5487 2112 M 0 239 R D 5283 1471 M -1 -37 R 0 75 R F
5282 1509 M 0 -75 R -6 -33 R F
5282 1509 M -6 -108 R 0 140 R F
5276 1541 M 0 -140 R -8 -27 R F
5276 1541 M -8 -167 R 0 195 R F
5268 1569 M 0 -195 R -13 -23 R F
5268 1569 M -13 -218 R 0 241 R F
5255 1592 M 0 -241 R -15 -17 R F
5255 1592 M -15 -258 R -1 275 R F
5239 1609 M 1 -275 R -20 -13 R F
5239 1609 M -19 -288 R 0 301 R F
5220 1622 M 0 -301 R -1 151 R F
5220 1622 M -1 -150 R -1 26 R F
5220 1321 M -23 -7 R 4 64 R F
5220 1321 M -19 57 R 6 11 R F
5220 1321 M -13 68 R 5 15 R F
5220 1321 M -8 83 R 4 19 R F
5220 1321 M -4 102 R 2 22 R F
5220 1321 M -2 124 R 1 27 R F
5159 1365 M 12 -2 R 0 -51 R F
5171 1312 M 0 51 R 11 2 R F
5171 1312 M 11 53 R 15 -51 R F
5197 1314 M -15 51 R 10 5 R F
5197 1314 M -5 56 R 9 8 R F
5134 1389 M 7 -11 R 3 -64 R F
5144 1314 M -3 64 R 8 -8 R F
5144 1314 M 5 56 R 22 -58 R F
5171 1312 M -22 58 R 10 -5 R F
5123 1472 M 1 -27 R -3 -123 R F
5121 1322 M 3 123 R 2 -22 R F
5121 1322 M 5 101 R 18 -109 R F
5144 1314 M -18 109 R 3 -19 R F
5144 1314 M -15 90 R 5 -15 R F
5220 1622 M -2 -124 R -2 22 R F
5220 1622 M -4 -102 R -4 19 R F
5220 1622 M -8 -83 R -5 15 R F
5220 1622 M -13 -68 R -6 11 R F
5220 1622 M -19 -57 R -4 64 R F
5197 1629 M 4 -64 R -9 8 R F
5197 1629 M -5 -56 R -10 5 R F
5197 1629 M -15 -51 R -11 2 R F
5197 1629 M -26 -49 R 0 52 R F
5171 1580 M -12 -2 R 12 54 R F
5171 1632 M -12 -54 R -10 -5 R F
5171 1632 M -22 -59 R -5 56 R F
5144 1629 M 5 -56 R -8 -8 R F
5144 1629 M -3 -64 R -7 -11 R F
5134 1554 M -5 -15 R 15 90 R F
5144 1629 M -15 -90 R -3 -18 R F
5144 1629 M -18 -108 R -5 101 R F
5121 1622 M 5 -101 R -2 -23 R F
5121 1622 M 3 -124 R -1 -26 R F
5058 1472 M 2 37 R 0 -75 R F
5060 1434 M 0 75 R 5 33 R F
5060 1434 M 5 108 R 0 -141 R F
5065 1401 M 0 141 R 9 27 R F
5065 1401 M 9 168 R 0 -195 R F
5074 1374 M 0 195 R 12 23 R F
5074 1374 M 12 218 R 0 -241 R F
5086 1351 M 0 241 R 16 17 R F
5086 1351 M 16 258 R 0 -275 R F
5102 1334 M 0 275 R 19 13 R F
5102 1334 M 19 288 R 0 -300 R F
5121 1322 M 0 300 R 2 -150 R F
5393 1320 M -66 0 R 0 66 R F
5393 1320 M -66 66 R 66 0 R F
5595 1320 M -61 0 R 4 286 R F
5595 1320 M -57 286 R 5 12 R F
5595 1320 M -52 298 R 2 14 R F
5595 1320 M -50 312 R 50 0 R F
5534 1533 M -75 0 R 5 44 R F
5534 1533 M -70 44 R 19 1 R F
5534 1533 M -51 45 R 16 2 R F
5534 1533 M -35 47 R 14 4 R F
5534 1533 M -21 51 R 10 6 R F
5534 1533 M -11 57 R 9 7 R F
5534 1533 M -2 64 R 6 9 R F
5534 1533 M 4 73 R -4 -286 R F
5464 1577 M -5 -44 R 0 44 R F
5750 1520 M -58 0 R 2 26 R F
5750 1520 M -56 26 R 5 22 R F
5750 1520 M -51 48 R 9 19 R F
5750 1520 M -42 67 R 13 16 R F
5750 1520 M -29 83 R 16 13 R F
5750 1520 M -13 96 R 13 -93 R F
5764 1373 M 141 0 R 0 -53 R F
5764 1373 M 141 -53 R -200 71 R F
5764 1373 M -59 18 R 10 15 R F
5764 1373 M -49 33 R 14 14 R F
5764 1373 M -35 47 R 17 15 R F
5764 1373 M -18 62 R 21 15 R F
5764 1373 M 3 77 R 2 -69 R F
5905 1320 M -218 0 R 1 20 R F
5905 1320 M -217 20 R 4 19 R F
5905 1320 M -213 39 R 5 17 R F
5905 1320 M -208 56 R 8 15 R F
5908 1536 M -1 -15 R 0 35 R F
5907 1556 M 0 -35 R -2 -14 R F
5907 1556 M -2 -49 R -4 68 R F
5901 1575 M 4 -68 R -5 -13 R F
5901 1575 M -1 -81 R -7 -12 R F
5901 1575 M -8 -93 R -1 109 R F
5892 1591 M 1 -109 R -9 -12 R F
5892 1591 M -8 -121 R -4 136 R F
5880 1606 M 4 -136 R -13 -13 R F
5880 1606 M -9 -149 R -7 160 R F
5864 1617 M 7 -160 R -16 -13 R F
5864 1617 M -9 -173 R -9 181 R F
5846 1625 M 9 -181 R -10 91 R F
5846 1625 M -1 -90 R -1 10 R F
5845 1535 M 10 -91 R -14 73 R F
5841 1517 M 14 -73 R -20 -14 R F
5841 1517 M -6 -87 R -5 69 R F
5830 1499 M 5 -69 R -5 -4 R F
5830 1499 M 0 -73 R -6 -4 R F
5818 1418 M -8 -5 R 2 68 R F
5818 1418 M -6 63 R 18 18 R F
5818 1418 M 12 81 R -6 -77 R F
5792 1401 M -14 -11 R 2 69 R F
5792 1401 M -12 58 R 6 3 R F
5792 1401 M -6 61 R 26 19 R F
5792 1401 M 20 80 R -2 -68 R F
5778 1390 M -9 -9 R 1 71 R F
5778 1390 M -8 62 R 5 3 R F
5778 1390 M -3 65 R 5 4 R F
5846 1625 M -2 -80 R -2 8 R F
5846 1625 M -4 -72 R -4 8 R F
5846 1625 M -8 -64 R -5 7 R F
5846 1625 M -13 -57 R -7 5 R F
5846 1625 M -20 -52 R 0 57 R F
5826 1573 M -8 4 R 8 53 R F
5826 1630 M -8 -53 R -9 2 R F
5826 1630 M -17 -51 R -6 53 R F
5803 1632 M 6 -53 R -10 1 R F
5803 1632 M -4 -52 R -11 -1 R F
5778 1576 M -9 -5 R 9 59 R F
5778 1576 M 0 54 R 25 2 R F
5778 1576 M 25 56 R -15 -53 R F
5769 1571 M -7 -6 R 16 65 R F
5778 1630 M -16 -65 R -5 -8 R F
5778 1630 M -21 -73 R -1 68 R F
5756 1625 M 1 -68 R -4 -10 R F
5756 1625 M -3 -78 R -2 -11 R F
5750 1523 M -13 93 R 19 9 R F
5750 1523 M 6 102 R -5 -89 R F
5769 1381 M -2 69 R 3 2 R F
7644 2112 M 0 239 R D 7440 1471 M -1 -37 R -1 75 R F
7438 1509 M 1 -75 R -6 -33 R F
7438 1509 M -5 -108 R 0 140 R F
7433 1541 M 0 -140 R -8 -27 R F
7433 1541 M -8 -167 R -1 195 R F
7424 1569 M 1 -195 R -13 -23 R F
7424 1569 M -12 -218 R 0 241 R F
7412 1592 M 0 -241 R -16 -17 R F
7412 1592 M -16 -258 R 0 275 R F
7396 1609 M 0 -275 R -19 -13 R F
7396 1609 M -19 -288 R 0 301 R F
7377 1622 M 0 -301 R -1 151 R F
7377 1622 M -1 -150 R -1 26 R F
7377 1321 M -23 -7 R 3 64 R F
7377 1321 M -20 57 R 7 11 R F
7377 1321 M -13 68 R 5 15 R F
7377 1321 M -8 83 R 4 19 R F
7377 1321 M -4 102 R 2 22 R F
7377 1321 M -2 124 R 1 27 R F
7316 1365 M 11 -2 R 0 -51 R F
7327 1312 M 0 51 R 12 2 R F
7327 1312 M 12 53 R 15 -51 R F
7354 1314 M -15 51 R 10 5 R F
7354 1314 M -5 56 R 8 8 R F
7291 1389 M 7 -11 R 3 -64 R F
7301 1314 M -3 64 R 8 -8 R F
7301 1314 M 5 56 R 21 -58 R F
7327 1312 M -21 58 R 10 -5 R F
7280 1472 M 0 -27 R -2 -123 R F
7278 1322 M 2 123 R 2 -22 R F
7278 1322 M 4 101 R 19 -109 R F
7301 1314 M -19 109 R 4 -19 R F
7301 1314 M -15 90 R 5 -15 R F
7377 1622 M -2 -124 R -2 22 R F
7377 1622 M -4 -102 R -4 19 R F
7377 1622 M -8 -83 R -5 15 R F
7377 1622 M -13 -68 R -7 11 R F
7377 1622 M -20 -57 R -3 64 R F
7354 1629 M 3 -64 R -8 8 R F
7354 1629 M -5 -56 R -10 5 R F
7354 1629 M -15 -51 R -12 2 R F
7354 1629 M -27 -49 R 0 52 R F
7327 1580 M -11 -2 R 11 54 R F
7327 1632 M -11 -54 R -10 -5 R F
7327 1632 M -21 -59 R -5 56 R F
7301 1629 M 5 -56 R -8 -8 R F
7301 1629 M -3 -64 R -7 -11 R F
7291 1554 M -5 -15 R 15 90 R F
7301 1629 M -15 -90 R -4 -18 R F
7301 1629 M -19 -108 R -4 101 R F
7278 1622 M 4 -101 R -2 -23 R F
7278 1622 M 2 -124 R 0 -26 R F
7215 1472 M 2 37 R 0 -75 R F
7217 1434 M 0 75 R 5 33 R F
7217 1434 M 5 108 R 0 -141 R F
7222 1401 M 0 141 R 9 27 R F
7222 1401 M 9 168 R 0 -195 R F
7231 1374 M 0 195 R 12 23 R F
7231 1374 M 12 218 R 0 -241 R F
7243 1351 M 0 241 R 16 17 R F
7243 1351 M 16 258 R 0 -275 R F
7259 1334 M 0 275 R 19 13 R F
7259 1334 M 19 288 R 0 -300 R F
7278 1322 M 0 300 R 2 -150 R F
7550 1320 M -66 0 R 0 66 R F
7550 1320 M -66 66 R 66 0 R F
7752 1320 M -62 0 R 5 286 R F
7752 1320 M -57 286 R 4 12 R F
7752 1320 M -53 298 R 3 14 R F
7752 1320 M -50 312 R 50 0 R F
7690 1533 M -74 0 R 5 44 R F
7690 1533 M -69 44 R 19 1 R F
7690 1533 M -50 45 R 16 2 R F
7690 1533 M -34 47 R 13 4 R F
7690 1533 M -21 51 R 11 6 R F
7690 1533 M -10 57 R 8 7 R F
7690 1533 M -2 64 R 7 9 R F
7690 1533 M 5 73 R -5 -286 R F
7621 1577 M -5 -44 R 0 44 R F
7976 1435 M 60 188 R 0 -303 R F
8036 1320 M 0 303 R 0 -186 R F
8036 1320 M 0 117 R 0 -50 R F
8036 1387 M 0 50 R 36 0 R F
8036 1387 M 36 50 R 0 -50 R F
7844 1442 M 115 181 R -115 -236 R F
7844 1387 M 115 236 R -67 -188 R F
7844 1387 M 48 48 R 83 -48 R F
7975 1387 M -83 48 R 84 0 R F
7975 1387 M 1 48 R -1 -115 R F
7975 1320 M 1 115 R 60 -115 R F
7976 1569 M -84 -134 R 67 188 R F
7976 1569 M -17 54 R 77 0 R F
7976 1569 M 60 54 R -60 -188 R F
9800 2112 M 0 239 R D 9597 1471 M -2 -37 R 0 75 R F
9595 1509 M 0 -75 R -5 -33 R F
9595 1509 M -5 -108 R 0 140 R F
9590 1541 M 0 -140 R -9 -27 R F
9590 1541 M -9 -167 R 0 195 R F
9581 1569 M 0 -195 R -12 -23 R F
9581 1569 M -12 -218 R 0 241 R F
9569 1592 M 0 -241 R -16 -17 R F
9569 1592 M -16 -258 R 0 275 R F
9553 1609 M 0 -275 R -19 -13 R F
9553 1609 M -19 -288 R 0 301 R F
9534 1622 M 0 -301 R -2 151 R F
9534 1622 M -2 -150 R 0 26 R F
9534 1321 M -23 -7 R 3 64 R F
9534 1321 M -20 57 R 7 11 R F
9534 1321 M -13 68 R 5 15 R F
9534 1321 M -8 83 R 4 19 R F
9534 1321 M -4 102 R 2 22 R F
9534 1321 M -2 124 R 0 27 R F
9473 1365 M 11 -2 R 0 -51 R F
9484 1312 M 0 51 R 12 2 R F
9484 1312 M 12 53 R 15 -51 R F
9511 1314 M -15 51 R 10 5 R F
9511 1314 M -5 56 R 8 8 R F
9448 1389 M 6 -11 R 4 -64 R F
9458 1314 M -4 64 R 9 -8 R F
9458 1314 M 5 56 R 21 -58 R F
9484 1312 M -21 58 R 10 -5 R F
9436 1472 M 1 -27 R -2 -123 R F
9435 1322 M 2 123 R 2 -22 R F
9435 1322 M 4 101 R 19 -109 R F
9458 1314 M -19 109 R 4 -19 R F
9458 1314 M -15 90 R 5 -15 R F
9534 1622 M -2 -124 R -2 22 R F
9534 1622 M -4 -102 R -4 19 R F
9534 1622 M -8 -83 R -5 15 R F
9534 1622 M -13 -68 R -7 11 R F
9534 1622 M -20 -57 R -3 64 R F
9511 1629 M 3 -64 R -8 8 R F
9511 1629 M -5 -56 R -10 5 R F
9511 1629 M -15 -51 R -12 2 R F
9511 1629 M -27 -49 R 0 52 R F
9484 1580 M -11 -2 R 11 54 R F
9484 1632 M -11 -54 R -10 -5 R F
9484 1632 M -21 -59 R -5 56 R F
9458 1629 M 5 -56 R -9 -8 R F
9458 1629 M -4 -64 R -6 -11 R F
9448 1554 M -5 -15 R 15 90 R F
9458 1629 M -15 -90 R -4 -18 R F
9458 1629 M -19 -108 R -4 101 R F
9435 1622 M 4 -101 R -2 -23 R F
9435 1622 M 2 -124 R -1 -26 R F
9372 1472 M 2 37 R 0 -75 R F
9374 1434 M 0 75 R 5 33 R F
9374 1434 M 5 108 R 0 -141 R F
9379 1401 M 0 141 R 8 27 R F
9379 1401 M 8 168 R 0 -195 R F
9387 1374 M 0 195 R 13 23 R F
9387 1374 M 13 218 R 0 -241 R F
9400 1351 M 0 241 R 16 17 R F
9400 1351 M 16 258 R 0 -275 R F
9416 1334 M 0 275 R 19 13 R F
9416 1334 M 19 288 R 0 -300 R F
9435 1322 M 0 300 R 1 -150 R F
9707 1320 M -66 0 R 0 66 R F
9707 1320 M -66 66 R 66 0 R F
9909 1320 M -62 0 R 5 286 R F
9909 1320 M -57 286 R 4 12 R F
9909 1320 M -53 298 R 3 14 R F
9909 1320 M -50 312 R 50 0 R F
9847 1533 M -74 0 R 5 44 R F
9847 1533 M -69 44 R 18 1 R F
9847 1533 M -51 45 R 17 2 R F
9847 1533 M -34 47 R 13 4 R F
9847 1533 M -21 51 R 11 6 R F
9847 1533 M -10 57 R 8 7 R F
9847 1533 M -2 64 R 7 9 R F
9847 1533 M 5 73 R -5 -286 R F
9778 1577 M -5 -44 R 0 44 R F
10166 1419 M 4 97 R 13 -188 R F
10183 1328 M -13 188 R 17 -9 R F
10183 1328 M 4 179 R 13 -166 R F
10200 1341 M -13 166 R 15 -12 R F
10200 1341 M 2 154 R 11 -138 R F
10213 1357 M -11 138 R 12 -15 R F
10213 1357 M 1 123 R 8 -104 R F
10222 1376 M -8 104 R 9 -18 R F
10222 1376 M 1 86 R 5 -65 R F
10228 1397 M -5 65 R 5 -20 R F
10228 1397 M 0 45 R 2 -22 R F
10159 1385 M 4 9 R 2 -76 R F
10165 1318 M -2 76 R 3 12 R F
10165 1318 M 1 88 R 17 -78 R F
10183 1328 M -17 78 R 0 13 R F
10131 1362 M 9 3 R 4 -52 R F
10144 1313 M -4 52 R 7 5 R F
10144 1313 M 3 57 R 18 -52 R F
10165 1318 M -18 52 R 7 6 R F
10165 1318 M -11 58 R 5 9 R F
10120 1311 M -26 2 R 6 52 R F
10120 1311 M -20 54 R 9 -3 R F
10120 1311 M -11 51 R 11 -1 R F
10120 1311 M 0 50 R 11 1 R F
10120 1311 M 11 51 R 13 -49 R F
10094 1313 M -24 8 R 4 74 R F
10094 1313 M -20 82 R 4 -10 R F
10094 1313 M -16 72 R 6 -8 R F
10094 1313 M -10 64 R 7 -7 R F
10094 1313 M -3 57 R 9 -5 R F
10070 1321 M -19 12 R 3 275 R F
10070 1321 M -16 287 R 16 -107 R F
10070 1321 M 0 180 R 1 -82 R F
10070 1321 M 1 98 R 0 -13 R F
10070 1321 M 1 85 R 3 -11 R F
10170 1516 M -4 -97 R -1 12 R F
10170 1516 M -5 -85 R -2 10 R F
10170 1516 M -7 -75 R -4 9 R F
10170 1516 M -11 -66 R -5 8 R F
10170 1516 M -16 -58 R -3 63 R F
10151 1521 M 3 -63 R -7 6 R F
10151 1521 M -4 -57 R -9 4 R F
10151 1521 M -13 -53 R -9 3 R F
10151 1521 M -22 -50 R 0 52 R F
10129 1523 M 0 -52 R -9 51 R F
10120 1522 M 9 -51 R -11 1 R F
10120 1522 M -2 -50 R -7 49 R F
10111 1521 M 7 -49 R -10 -1 R F
10111 1521 M -3 -50 R -5 48 R F
10103 1519 M 5 -48 R -10 -3 R F
10103 1519 M -5 -51 R -3 49 R F
10095 1517 M 3 -49 R -8 -4 R F
10095 1517 M -5 -53 R -2 50 R F
10088 1514 M 2 -50 R -7 -6 R F
10088 1514 M -5 -56 R -2 52 R F
10081 1510 M 2 -52 R -5 -8 R F
10081 1510 M -3 -60 R -3 56 R F
10075 1506 M 3 -56 R -4 -9 R F
10075 1506 M -1 -65 R -3 -10 R F
10071 1419 M -1 82 R 5 5 R F
10071 1419 M 4 87 R -4 -75 R F
10054 1608 M -3 -275 R -15 256 R F
10036 1589 M 15 -256 R -17 17 R F
10036 1589 M -2 -239 R -12 215 R F
10022 1565 M 12 -215 R -13 22 R F
10022 1565 M -1 -193 R -9 164 R F
10012 1536 M 9 -164 R -9 26 R F
10012 1536 M 0 -138 R -5 105 R F
10007 1503 M 5 -105 R -6 31 R F
10007 1503 M -1 -74 R -1 36 R F
10222 1552 M -64 0 R 6 74 R F
10222 1552 M -58 74 R 16 -6 R F
10222 1552 M -42 68 R 14 -10 R F
10222 1552 M -28 58 R 11 -11 R F
10222 1552 M -17 47 R 8 -14 R F
10222 1552 M -9 33 R 6 -16 R F
10164 1626 M -6 -74 R -1 7 R F
10164 1626 M -7 -67 R -3 6 R F
10164 1626 M -10 -61 R -3 5 R F
10164 1626 M -13 -56 R -4 60 R F
10147 1630 M 4 -60 R -4 5 R F
10147 1630 M 0 -55 R -6 3 R F
10147 1630 M -6 -52 R -6 2 R F
10147 1630 M -12 -50 R -7 2 R F
10147 1630 M -19 -48 R -1 50 R F
10127 1632 M 1 -50 R -8 0 R F
10127 1632 M -7 -50 R -11 -1 R F
10127 1632 M -18 -51 R -10 -4 R F
10127 1632 M -28 -55 R 0 52 R F
10099 1629 M 0 -52 R -8 -6 R F
10099 1629 M -8 -58 R -7 -9 R F
10099 1629 M -15 -67 R -6 -12 R F
10099 1629 M -21 -79 R -3 71 R F
10075 1621 M 3 -71 R -4 -14 R F
10075 1621 M -1 -85 R -3 -16 R F
10075 1621 M -4 -101 R -1 -19 R F
10075 1621 M -5 -120 R -16 107 R F
11957 2112 M 0 239 R D 11754 1471 M -2 -37 R 0 75 R F
11752 1509 M 0 -75 R -5 -33 R F
11752 1509 M -5 -108 R 0 140 R F
11747 1541 M 0 -140 R -9 -27 R F
11747 1541 M -9 -167 R 0 195 R F
11738 1569 M 0 -195 R -12 -23 R F
11738 1569 M -12 -218 R 0 241 R F
11726 1592 M 0 -241 R -16 -17 R F
11726 1592 M -16 -258 R 0 275 R F
11710 1609 M 0 -275 R -19 -13 R F
11710 1609 M -19 -288 R -1 301 R F
11690 1622 M 1 -301 R -2 151 R F
11690 1622 M -1 -150 R -1 26 R F
11691 1321 M -23 -7 R 3 64 R F
11691 1321 M -20 57 R 7 11 R F
11691 1321 M -13 68 R 5 15 R F
11691 1321 M -8 83 R 3 19 R F
11691 1321 M -5 102 R 2 22 R F
11691 1321 M -3 124 R 1 27 R F
11629 1365 M 12 -2 R 0 -51 R F
11641 1312 M 0 51 R 12 2 R F
11641 1312 M 12 53 R 15 -51 R F
11668 1314 M -15 51 R 10 5 R F
11668 1314 M -5 56 R 8 8 R F
11605 1389 M 6 -11 R 4 -64 R F
11615 1314 M -4 64 R 8 -8 R F
11615 1314 M 4 56 R 22 -58 R F
11641 1312 M -22 58 R 10 -5 R F
11593 1472 M 1 -27 R -2 -123 R F
11592 1322 M 2 123 R 2 -22 R F
11592 1322 M 4 101 R 19 -109 R F
11615 1314 M -19 109 R 4 -19 R F
11615 1314 M -15 90 R 5 -15 R F
11690 1622 M -2 -124 R -2 22 R F
11690 1622 M -4 -102 R -3 19 R F
11690 1622 M -7 -83 R -5 15 R F
11690 1622 M -12 -68 R -7 11 R F
11690 1622 M -19 -57 R -3 64 R F
11668 1629 M 3 -64 R -8 8 R F
11668 1629 M -5 -56 R -10 5 R F
11668 1629 M -15 -51 R -12 2 R F
11668 1629 M -27 -49 R 0 52 R F
11641 1580 M -12 -2 R 12 54 R F
11641 1632 M -12 -54 R -10 -5 R F
11641 1632 M -22 -59 R -4 56 R F
11615 1629 M 4 -56 R -8 -8 R F
11615 1629 M -4 -64 R -6 -11 R F
11605 1554 M -5 -15 R 15 90 R F
11615 1629 M -15 -90 R -4 -18 R F
11615 1629 M -19 -108 R -4 101 R F
11592 1622 M 4 -101 R -2 -23 R F
11592 1622 M 2 -124 R -1 -26 R F
11529 1472 M 1 37 R 0 -75 R F
11530 1434 M 0 75 R 6 33 R F
11530 1434 M 6 108 R 0 -141 R F
11536 1401 M 0 141 R 8 27 R F
11536 1401 M 8 168 R 0 -195 R F
11544 1374 M 0 195 R 13 23 R F
11544 1374 M 13 218 R 0 -241 R F
11557 1351 M 0 241 R 15 17 R F
11557 1351 M 15 258 R 0 -275 R F
11572 1334 M 0 275 R 20 13 R F
11572 1334 M 20 288 R 0 -300 R F
11592 1322 M 0 300 R 1 -150 R F
11863 1320 M -65 0 R 0 66 R F
11863 1320 M -65 66 R 65 0 R F
12065 1320 M -61 0 R 4 286 R F
12065 1320 M -57 286 R 5 12 R F
12065 1320 M -52 298 R 3 14 R F
12065 1320 M -49 312 R 49 0 R F
12004 1533 M -74 0 R 4 44 R F
12004 1533 M -70 44 R 19 1 R F
12004 1533 M -51 45 R 16 2 R F
12004 1533 M -35 47 R 14 4 R F
12004 1533 M -21 51 R 11 6 R F
12004 1533 M -10 57 R 8 7 R F
12004 1533 M -2 64 R 6 9 R F
12004 1533 M 4 73 R -4 -286 R F
11934 1577 M -4 -44 R 0 44 R F
12311 1522 M 3 6 R 1 -90 R F
12315 1438 M -1 90 R 2 8 R F
12315 1438 M 1 98 R 3 -106 R F
12319 1430 M -3 106 R 1 8 R F
12319 1430 M -2 114 R 17 75 R F
12334 1619 M -17 -75 R 0 83 R F
12263 1507 M 10 0 R 1 -49 R F
12274 1458 M -1 49 R 10 0 R F
12274 1458 M 9 49 R 1 -50 R F
12284 1457 M -1 50 R 9 2 R F
12284 1457 M 8 52 R 1 -54 R F
12293 1455 M -1 54 R 7 3 R F
12293 1455 M 6 57 R 3 -61 R F
12302 1451 M -3 61 R 7 5 R F
12302 1451 M 4 66 R 3 -72 R F
12309 1445 M -3 72 R 5 5 R F
12309 1445 M 2 77 R 4 -84 R F
12232 1528 M 4 -6 R 2 -77 R F
12238 1445 M -2 77 R 5 -5 R F
12238 1445 M 3 72 R 4 -66 R F
12245 1451 M -4 66 R 6 -5 R F
12245 1451 M 2 61 R 7 -57 R F
12254 1455 M -7 57 R 8 -3 R F
12254 1455 M 1 54 R 8 -52 R F
12263 1457 M -8 52 R 8 -2 R F
12263 1457 M 0 50 R 11 -49 R F
12232 1438 M -4 -8 R 1 114 R F
12232 1438 M -3 106 R 1 -8 R F
12232 1438 M -2 98 R 2 -8 R F
12232 1438 M 0 90 R 6 -83 R F
12315 1383 M 4 8 R 1 -73 R F
12320 1318 M -1 73 R 2 9 R F
12320 1318 M 1 82 R 18 -74 R F
12339 1326 M -18 74 R 1 11 R F
12339 1326 M -17 85 R 12 208 R F
12334 1619 M -12 -208 R -1 10 R F
12334 1619 M -13 -198 R -2 9 R F
12317 1627 M 0 -83 R -1 9 R F
12317 1627 M -1 -74 R -2 7 R F
12317 1627 M -3 -67 R -3 6 R F
12317 1627 M -6 -61 R -6 6 R F
12317 1627 M -12 -55 R -6 4 R F
12317 1627 M -18 -51 R -3 55 R F
12296 1631 M 3 -55 R -7 3 R F
12296 1631 M -4 -52 R -9 2 R F
12296 1631 M -13 -50 R -10 1 R F
12296 1631 M -23 -49 R 0 50 R F
12273 1582 M -9 -1 R 9 51 R F
12273 1632 M -9 -51 R -9 -2 R F
12273 1632 M -18 -53 R -5 52 R F
12250 1631 M 5 -52 R -7 -3 R F
12250 1631 M -2 -55 R -7 -5 R F
12250 1631 M -9 -60 R -5 -5 R F
12250 1631 M -14 -65 R -4 -6 R F
12250 1631 M -18 -71 R -2 -8 R F
12250 1631 M -20 -79 R 0 75 R F
12230 1627 M 0 -75 R -1 -8 R F
12230 1627 M -1 -83 R -1 -114 R F
12230 1627 M -2 -197 R -3 -9 R F
12230 1627 M -5 -206 R -1 -10 R F
12230 1627 M -6 -216 R -11 208 R F
12384 1387 M -6 -19 R 1 76 R F
12384 1387 M -5 57 R 4 -11 R F
12384 1387 M -1 46 R 2 -12 R F
12384 1387 M 1 34 R 1 -13 R F
12360 1471 M 8 -8 R 1 -112 R F
12369 1351 M -1 112 R 6 -9 R F
12369 1351 M 5 103 R 4 -86 R F
12378 1368 M -4 86 R 5 -10 R F
12356 1337 M -17 -11 R 1 158 R F
12356 1337 M -16 147 R 10 -6 R F
12356 1337 M -6 141 R 10 -7 R F
12356 1337 M 4 134 R 9 -120 R F
12375 1566 M 2 -20 R -1 -10 R F
12375 1566 M 1 -30 R -1 -10 R F
12375 1566 M 0 -40 R -3 -9 R F
12375 1566 M -3 -49 R -2 65 R F
12372 1517 M -4 -8 R 2 73 R F
12370 1582 M -2 -73 R -6 -7 R F
12370 1582 M -8 -80 R 0 95 R F
12362 1597 M 0 -95 R -6 -7 R F
12362 1597 M -6 -102 R -6 114 R F
12350 1609 M 6 -114 R -8 -6 R F
12350 1609 M -2 -120 R -8 -5 R F
12340 1484 M -1 -158 R -5 293 R F
12340 1484 M -6 135 R 16 -10 R F
12284 1364 M 10 2 R 4 -53 R F
12298 1313 M -4 53 R 8 4 R F
12298 1313 M 4 57 R 18 -52 R F
12320 1318 M -18 52 R 7 6 R F
12320 1318 M -11 58 R 6 7 R F
12253 1366 M 9 -2 R 11 -53 R F
12273 1311 M -11 53 R 12 -1 R F
12273 1311 M 1 52 R 24 -50 R F
12298 1313 M -24 50 R 10 1 R F
12248 1313 M -22 5 R 2 72 R F
12248 1313 M -20 77 R 4 -8 R F
12248 1313 M -16 69 R 5 -7 R F
12248 1313 M -11 62 R 7 -5 R F
12248 1313 M -4 57 R 9 -4 R F
12248 1313 M 5 53 R 20 -55 R F
12226 1318 M -19 8 R 0 158 R F
12226 1318 M -19 166 R 6 135 R F
12226 1318 M -13 301 R 11 -208 R F
12226 1318 M -2 93 R 1 -11 R F
12226 1318 M -1 82 R 3 -10 R F
12179 1462 M 8 8 R 4 -133 R F
12191 1337 M -4 133 R 9 7 R F
12191 1337 M 5 140 R 11 -151 R F
12207 1326 M -11 151 R 11 7 R F
12164 1433 M 4 11 R 1 -76 R F
12169 1368 M -1 76 R 4 9 R F
12169 1368 M 3 85 R 6 -102 R F
12178 1351 M -6 102 R 7 9 R F
12178 1351 M 1 111 R 12 -125 R F
12163 1387 M -2 21 R 1 13 R F
12163 1387 M -1 34 R 2 12 R F
12163 1387 M 1 46 R 5 -65 R F
12184 1502 M 1 95 R 5 -101 R F
12190 1496 M -5 101 R 12 12 R F
12190 1496 M 7 113 R 1 -120 R F
12198 1489 M -1 120 R 16 10 R F
12198 1489 M 15 130 R -6 -135 R F
12179 1509 M -4 8 R 2 65 R F
12179 1509 M -2 73 R 8 15 R F
12179 1509 M 6 88 R -1 -95 R F
12172 1526 M -1 10 R 1 29 R F
12172 1526 M 0 39 R 5 17 R F
12172 1526 M 5 56 R -2 -65 R F
12172 1565 M -1 -29 R -1 10 R F
14114 2112 M 0 239 R D 13911 1471 M -2 -37 R 0 75 R F
13909 1509 M 0 -75 R -5 -33 R F
13909 1509 M -5 -108 R 0 140 R F
13904 1541 M 0 -140 R -9 -27 R F
13904 1541 M -9 -167 R 0 195 R F
13895 1569 M 0 -195 R -12 -23 R F
13895 1569 M -12 -218 R -1 241 R F
13882 1592 M 1 -241 R -16 -17 R F
13882 1592 M -15 -258 R 0 275 R F
13867 1609 M 0 -275 R -19 -13 R F
13867 1609 M -19 -288 R -1 301 R F
13847 1622 M 1 -301 R -2 151 R F
13847 1622 M -1 -150 R -1 26 R F
13848 1321 M -23 -7 R 3 64 R F
13848 1321 M -20 57 R 6 11 R F
13848 1321 M -14 68 R 6 15 R F
13848 1321 M -8 83 R 3 19 R F
13848 1321 M -5 102 R 2 22 R F
13848 1321 M -3 124 R 1 27 R F
13786 1365 M 12 -2 R 0 -51 R F
13798 1312 M 0 51 R 12 2 R F
13798 1312 M 12 53 R 15 -51 R F
13825 1314 M -15 51 R 10 5 R F
13825 1314 M -5 56 R 8 8 R F
13761 1389 M 7 -11 R 3 -64 R F
13771 1314 M -3 64 R 8 -8 R F
13771 1314 M 5 56 R 22 -58 R F
13798 1312 M -22 58 R 10 -5 R F
13750 1472 M 1 -27 R -3 -123 R F
13748 1322 M 3 123 R 2 -22 R F
13748 1322 M 5 101 R 18 -109 R F
13771 1314 M -18 109 R 3 -19 R F
13771 1314 M -15 90 R 5 -15 R F
13847 1622 M -2 -124 R -2 22 R F
13847 1622 M -4 -102 R -3 19 R F
13847 1622 M -7 -83 R -6 15 R F
13847 1622 M -13 -68 R -6 11 R F
13847 1622 M -19 -57 R -4 64 R F
13824 1629 M 4 -64 R -8 8 R F
13824 1629 M -4 -56 R -10 5 R F
13824 1629 M -14 -51 R -12 2 R F
13824 1629 M -26 -49 R 0 52 R F
13798 1580 M -12 -2 R 12 54 R F
13798 1632 M -12 -54 R -10 -5 R F
13798 1632 M -22 -59 R -5 56 R F
13771 1629 M 5 -56 R -8 -8 R F
13771 1629 M -3 -64 R -7 -11 R F
13761 1554 M -5 -15 R 15 90 R F
13771 1629 M -15 -90 R -3 -18 R F
13771 1629 M -18 -108 R -5 101 R F
13748 1622 M 5 -101 R -2 -23 R F
13748 1622 M 3 -124 R -1 -26 R F
13685 1472 M 2 37 R 0 -75 R F
13687 1434 M 0 75 R 5 33 R F
13687 1434 M 5 108 R 0 -141 R F
13692 1401 M 0 141 R 9 27 R F
13692 1401 M 9 168 R 0 -195 R F
13701 1374 M 0 195 R 12 23 R F
13701 1374 M 12 218 R 0 -241 R F
13713 1351 M 0 241 R 16 17 R F
13713 1351 M 16 258 R 0 -275 R F
13729 1334 M 0 275 R 19 13 R F
13729 1334 M 19 288 R 0 -300 R F
13748 1322 M 0 300 R 2 -150 R F
14020 1320 M -65 0 R 0 66 R F
14020 1320 M -65 66 R 65 0 R F
14124 1520 M -57 0 R 2 26 R F
14124 1520 M -55 26 R 5 22 R F
14124 1520 M -50 48 R 9 19 R F
14124 1520 M -41 67 R 12 16 R F
14124 1520 M -29 83 R 16 13 R F
14124 1520 M -13 96 R 13 -93 R F
14138 1373 M 142 0 R 0 -53 R F
14138 1373 M 142 -53 R -201 71 R F
14138 1373 M -59 18 R 11 15 R F
14138 1373 M -48 33 R 14 14 R F
14138 1373 M -34 47 R 17 15 R F
14138 1373 M -17 62 R 20 15 R F
14138 1373 M 3 77 R 2 -69 R F
14280 1320 M -218 0 R 1 20 R F
14280 1320 M -217 20 R 3 19 R F
14280 1320 M -214 39 R 6 17 R F
14280 1320 M -208 56 R 7 15 R F
14283 1536 M -1 -15 R -1 35 R F
14281 1556 M 1 -35 R -3 -14 R F
14281 1556 M -2 -49 R -3 68 R F
14276 1575 M 3 -68 R -5 -13 R F
14276 1575 M -2 -81 R -6 -12 R F
14276 1575 M -8 -93 R -1 109 R F
14267 1591 M 1 -109 R -9 -12 R F
14267 1591 M -8 -121 R -5 136 R F
14254 1606 M 5 -136 R -13 -13 R F
14254 1606 M -8 -149 R -7 160 R F
14239 1617 M 7 -160 R -16 -13 R F
14239 1617 M -9 -173 R -9 181 R F
14221 1625 M 9 -181 R -10 91 R F
14221 1625 M -1 -90 R -1 10 R F
14220 1535 M 10 -91 R -14 73 R F
14216 1517 M 14 -73 R -20 -14 R F
14216 1517 M -6 -87 R -5 69 R F
14205 1499 M 5 -69 R -5 -4 R F
14205 1499 M 0 -73 R -6 -4 R F
14192 1418 M -8 -5 R 2 68 R F
14192 1418 M -6 63 R 19 18 R F
14192 1418 M 13 81 R -6 -77 R F
14166 1401 M -14 -11 R 3 69 R F
14166 1401 M -11 58 R 6 3 R F
14166 1401 M -5 61 R 25 19 R F
14166 1401 M 20 80 R -2 -68 R F
14152 1390 M -9 -9 R 2 71 R F
14152 1390 M -7 62 R 4 3 R F
14152 1390 M -3 65 R 6 4 R F
14221 1625 M -2 -80 R -3 8 R F
14221 1625 M -5 -72 R -3 8 R F
14221 1625 M -8 -64 R -6 7 R F
14221 1625 M -14 -57 R -7 5 R F
14221 1625 M -21 -52 R 0 57 R F
14200 1573 M -8 4 R 8 53 R F
14200 1630 M -8 -53 R -9 2 R F
14200 1630 M -17 -51 R -6 53 R F
14177 1632 M 6 -53 R -10 1 R F
14177 1632 M -4 -52 R -11 -1 R F
14152 1576 M -8 -5 R 8 59 R F
14152 1576 M 0 54 R 25 2 R F
14152 1576 M 25 56 R -15 -53 R F
14144 1571 M -7 -6 R 15 65 R F
14152 1630 M -15 -65 R -6 -8 R F
14152 1630 M -21 -73 R -1 68 R F
14130 1625 M 1 -68 R -4 -10 R F
14130 1625 M -3 -78 R -2 -11 R F
14124 1523 M -13 93 R 19 9 R F
14124 1523 M 6 102 R -5 -89 R F
14143 1381 M -2 69 R 4 2 R F
14543 1471 M -2 -37 R 0 75 R F
14541 1509 M 0 -75 R -5 -33 R F
14541 1509 M -5 -108 R 0 140 R F
14536 1541 M 0 -140 R -9 -27 R F
14536 1541 M -9 -167 R 0 195 R F
14527 1569 M 0 -195 R -12 -23 R F
14527 1569 M -12 -218 R 0 241 R F
14515 1592 M 0 -241 R -16 -17 R F
14515 1592 M -16 -258 R 0 275 R F
14499 1609 M 0 -275 R -19 -13 R F
14499 1609 M -19 -288 R -1 301 R F
14479 1622 M 1 -301 R -2 151 R F
14479 1622 M -1 -150 R -1 26 R F
14480 1321 M -23 -7 R 3 64 R F
14480 1321 M -20 57 R 7 11 R F
14480 1321 M -13 68 R 5 15 R F
14480 1321 M -8 83 R 3 19 R F
14480 1321 M -5 102 R 2 22 R F
14480 1321 M -3 124 R 1 27 R F
14418 1365 M 12 -2 R 0 -51 R F
14430 1312 M 0 51 R 12 2 R F
14430 1312 M 12 53 R 15 -51 R F
14457 1314 M -15 51 R 10 5 R F
14457 1314 M -5 56 R 8 8 R F
14394 1389 M 6 -11 R 4 -64 R F
14404 1314 M -4 64 R 8 -8 R F
14404 1314 M 4 56 R 22 -58 R F
14430 1312 M -22 58 R 10 -5 R F
14382 1472 M 1 -27 R -2 -123 R F
14381 1322 M 2 123 R 2 -22 R F
14381 1322 M 4 101 R 19 -109 R F
14404 1314 M -19 109 R 4 -19 R F
14404 1314 M -15 90 R 5 -15 R F
14479 1622 M -2 -124 R -2 22 R F
14479 1622 M -4 -102 R -3 19 R F
14479 1622 M -7 -83 R -5 15 R F
14479 1622 M -12 -68 R -7 11 R F
14479 1622 M -19 -57 R -4 64 R F
14456 1629 M 4 -64 R -8 8 R F
14456 1629 M -4 -56 R -10 5 R F
14456 1629 M -14 -51 R -12 2 R F
14456 1629 M -26 -49 R 0 52 R F
14430 1580 M -12 -2 R 12 54 R F
14430 1632 M -12 -54 R -10 -5 R F
14430 1632 M -22 -59 R -4 56 R F
14404 1629 M 4 -56 R -8 -8 R F
14404 1629 M -4 -64 R -6 -11 R F
14394 1554 M -5 -15 R 15 90 R F
14404 1629 M -15 -90 R -4 -18 R F
14404 1629 M -19 -108 R -4 101 R F
14381 1622 M 4 -101 R -2 -23 R F
14381 1622 M 2 -124 R -1 -26 R F
14317 1472 M 2 37 R 0 -75 R F
14319 1434 M 0 75 R 5 33 R F
14319 1434 M 5 108 R 0 -141 R F
14324 1401 M 0 141 R 9 27 R F
14324 1401 M 9 168 R 0 -195 R F
14333 1374 M 0 195 R 12 23 R F
14333 1374 M 12 218 R 0 -241 R F
14345 1351 M 0 241 R 16 17 R F
14345 1351 M 16 258 R 0 -275 R F
14361 1334 M 0 275 R 20 13 R F
14361 1334 M 20 288 R 0 -300 R F
14381 1322 M 0 300 R 1 -150 R F
3869 2112 M 0 120 R D 4408 2112 M 0 120 R D 4948 2112 M 0 120 R D
6026 2112 M 0 120 R D 6565 2112 M 0 120 R D 7104 2112 M 0 120 R D
8183 2112 M 0 120 R D 8722 2112 M 0 120 R D 9261 2112 M 0 120 R D
10340 2112 M 0 120 R D 10879 2112 M 0 120 R D 11418 2112 M 0 120 R D
12496 2112 M 0 120 R D 13036 2112 M 0 120 R D 13575 2112 M 0 120 R D
3330 14057 M 10784 0 R D 3330 14057 M 0 -239 R D 5487 14057 M 0 -239 R D
7644 14057 M 0 -239 R D 9800 14057 M 0 -239 R D 11957 14057 M 0 -239 R D
14114 14057 M 0 -239 R D 3869 14057 M 0 -119 R D 4408 14057 M 0 -119 R D
4948 14057 M 0 -119 R D 6026 14057 M 0 -119 R D 6565 14057 M 0 -119 R D
7104 14057 M 0 -119 R D 8183 14057 M 0 -119 R D 8722 14057 M 0 -119 R D
9261 14057 M 0 -119 R D 10340 14057 M 0 -119 R D 10879 14057 M 0 -119 R D
11418 14057 M 0 -119 R D 12496 14057 M 0 -119 R D 13036 14057 M 0 -119 R D
13575 14057 M 0 -119 R D 3330 2112 M 0 11945 R D 3330 2112 M 216 0 R D
2770 2263 M -1 -37 R 0 75 R F
2769 2301 M 0 -75 R -6 -33 R F
2769 2301 M -6 -108 R 0 140 R F
2763 2333 M 0 -140 R -8 -27 R F
2763 2333 M -8 -167 R 0 195 R F
2755 2361 M 0 -195 R -13 -23 R F
2755 2361 M -13 -218 R 0 241 R F
2742 2384 M 0 -241 R -15 -17 R F
2742 2384 M -15 -258 R -1 275 R F
2726 2401 M 1 -275 R -20 -13 R F
2726 2401 M -19 -288 R 0 301 R F
2707 2414 M 0 -301 R -1 151 R F
2707 2414 M -1 -150 R -1 26 R F
2707 2113 M -23 -7 R 4 64 R F
2707 2113 M -19 57 R 6 11 R F
2707 2113 M -13 68 R 5 15 R F
2707 2113 M -8 83 R 4 19 R F
2707 2113 M -4 102 R 2 22 R F
2707 2113 M -2 124 R 1 27 R F
2646 2157 M 12 -2 R 0 -51 R F
2658 2104 M 0 51 R 11 2 R F
2658 2104 M 11 53 R 15 -51 R F
2684 2106 M -15 51 R 10 5 R F
2684 2106 M -5 56 R 9 8 R F
2621 2181 M 7 -11 R 3 -64 R F
2631 2106 M -3 64 R 8 -8 R F
2631 2106 M 5 56 R 22 -58 R F
2658 2104 M -22 58 R 10 -5 R F
2610 2264 M 1 -27 R -3 -123 R F
2608 2114 M 3 123 R 2 -22 R F
2608 2114 M 5 101 R 18 -109 R F
2631 2106 M -18 109 R 3 -19 R F
2631 2106 M -15 90 R 5 -15 R F
2707 2414 M -2 -124 R -2 22 R F
2707 2414 M -4 -102 R -4 19 R F
2707 2414 M -8 -83 R -5 15 R F
2707 2414 M -13 -68 R -6 11 R F
2707 2414 M -19 -57 R -4 64 R F
2684 2421 M 4 -64 R -9 8 R F
2684 2421 M -5 -56 R -10 5 R F
2684 2421 M -15 -51 R -11 2 R F
2684 2421 M -26 -49 R 0 52 R F
2658 2372 M -12 -2 R 12 54 R F
2658 2424 M -12 -54 R -10 -5 R F
2658 2424 M -22 -59 R -5 56 R F
2631 2421 M 5 -56 R -8 -8 R F
2631 2421 M -3 -64 R -7 -11 R F
2621 2346 M -5 -15 R 15 90 R F
2631 2421 M -15 -90 R -3 -18 R F
2631 2421 M -18 -108 R -5 101 R F
2608 2414 M 5 -101 R -2 -23 R F
2608 2414 M 3 -124 R -1 -26 R F
2545 2264 M 2 37 R 0 -75 R F
2547 2226 M 0 75 R 5 33 R F
2547 2226 M 5 108 R 0 -141 R F
2552 2193 M 0 141 R 9 27 R F
2552 2193 M 9 168 R 0 -195 R F
2561 2166 M 0 195 R 12 23 R F
2561 2166 M 12 218 R 0 -241 R F
2573 2143 M 0 241 R 16 17 R F
2573 2143 M 16 258 R 0 -275 R F
2589 2126 M 0 275 R 19 13 R F
2589 2126 M 19 288 R 0 -300 R F
2608 2114 M 0 300 R 2 -150 R F
2880 2112 M -66 0 R 0 66 R F
2880 2112 M -66 66 R 66 0 R F
3082 2112 M -61 0 R 4 286 R F
3082 2112 M -57 286 R 5 12 R F
3082 2112 M -52 298 R 2 14 R F
3082 2112 M -50 312 R 50 0 R F
3021 2325 M -75 0 R 5 44 R F
3021 2325 M -70 44 R 19 1 R F
3021 2325 M -51 45 R 16 2 R F
3021 2325 M -35 47 R 14 4 R F
3021 2325 M -21 51 R 10 6 R F
3021 2325 M -11 57 R 9 7 R F
3021 2325 M -2 64 R 6 9 R F
3021 2325 M 4 73 R -4 -286 R F
2951 2369 M -5 -44 R 0 44 R F
3330 5098 M 216 0 R D 2703 4887 M -62 0 R 5 286 R F
2703 4887 M -57 286 R 4 12 R F
2703 4887 M -53 298 R 3 14 R F
2703 4887 M -50 312 R 50 0 R F
2641 5100 M -74 0 R 4 44 R F
2641 5100 M -70 44 R 19 1 R F
2641 5100 M -51 45 R 17 2 R F
2641 5100 M -34 47 R 13 4 R F
2641 5100 M -21 51 R 11 6 R F
2641 5100 M -10 57 R 8 7 R F
2641 5100 M -2 64 R 7 9 R F
2641 5100 M 5 73 R -5 -286 R F
2571 5144 M -4 -44 R 0 44 R F
2880 4887 M -66 0 R 0 66 R F
2880 4887 M -66 66 R 66 0 R F
3150 5038 M -2 -37 R 0 75 R F
3148 5076 M 0 -75 R -5 -33 R F
3148 5076 M -5 -108 R 0 140 R F
3143 5108 M 0 -140 R -9 -27 R F
3143 5108 M -9 -167 R 0 195 R F
3134 5136 M 0 -195 R -12 -23 R F
3134 5136 M -12 -218 R 0 241 R F
3122 5159 M 0 -241 R -16 -17 R F
3122 5159 M -16 -258 R 0 275 R F
3106 5176 M 0 -275 R -19 -12 R F
3106 5176 M -19 -287 R -1 300 R F
3086 5189 M 1 -300 R -2 150 R F
3086 5189 M -1 -150 R -1 26 R F
3087 4889 M -23 -8 R 3 64 R F
3087 4889 M -20 56 R 7 11 R F
3087 4889 M -13 67 R 5 15 R F
3087 4889 M -8 82 R 3 19 R F
3087 4889 M -5 101 R 2 22 R F
3087 4889 M -3 123 R 1 27 R F
3025 4932 M 12 -2 R 0 -51 R F
3037 4879 M 0 51 R 12 2 R F
3037 4879 M 12 53 R 15 -51 R F
3064 4881 M -15 51 R 10 5 R F
3064 4881 M -5 56 R 8 8 R F
3001 4956 M 6 -11 R 4 -64 R F
3011 4881 M -4 64 R 8 -8 R F
3011 4881 M 4 56 R 22 -58 R F
3037 4879 M -22 58 R 10 -5 R F
2989 5039 M 1 -27 R -2 -123 R F
2988 4889 M 2 123 R 2 -22 R F
2988 4889 M 4 101 R 19 -109 R F
3011 4881 M -19 109 R 4 -19 R F
3011 4881 M -15 90 R 5 -15 R F
3086 5189 M -2 -124 R -2 23 R F
3086 5189 M -4 -101 R -3 18 R F
3086 5189 M -7 -83 R -5 15 R F
3086 5189 M -12 -68 R -7 11 R F
3086 5189 M -19 -57 R -3 64 R F
3064 5196 M 3 -64 R -8 8 R F
3064 5196 M -5 -56 R -10 5 R F
3064 5196 M -15 -51 R -12 2 R F
3064 5196 M -27 -49 R 0 52 R F
3037 5147 M -12 -2 R 12 54 R F
3037 5199 M -12 -54 R -10 -5 R F
3037 5199 M -22 -59 R -4 56 R F
3011 5196 M 4 -56 R -8 -8 R F
3011 5196 M -4 -64 R -6 -11 R F
3001 5121 M -5 -15 R 15 90 R F
3011 5196 M -15 -90 R -4 -18 R F
3011 5196 M -19 -108 R -4 101 R F
2988 5189 M 4 -101 R -2 -23 R F
2988 5189 M 2 -124 R -1 -26 R F
2925 5039 M 1 37 R 0 -75 R F
2926 5001 M 0 75 R 6 33 R F
2926 5001 M 6 108 R 0 -141 R F
2932 4968 M 0 141 R 8 27 R F
2932 4968 M 8 168 R 0 -195 R F
2940 4941 M 0 195 R 13 23 R F
2940 4941 M 13 218 R 0 -241 R F
2953 4918 M 0 241 R 15 17 R F
2953 4918 M 15 258 R 0 -275 R F
2968 4901 M 0 275 R 20 13 R F
2968 4901 M 20 288 R 0 -300 R F
2988 4889 M 0 300 R 1 -150 R F
3330 8085 M 216 0 R D 2450 7873 M -62 0 R 5 287 R F
2450 7873 M -57 287 R 4 11 R F
2450 7873 M -53 298 R 3 14 R F
2450 7873 M -50 312 R 50 0 R F
2388 8086 M -74 0 R 5 44 R F
2388 8086 M -69 44 R 19 1 R F
2388 8086 M -50 45 R 16 2 R F
2388 8086 M -34 47 R 13 4 R F
2388 8086 M -21 51 R 11 6 R F
2388 8086 M -10 57 R 8 7 R F
2388 8086 M -2 64 R 7 10 R F
2388 8086 M 5 74 R -5 -287 R F
2319 8130 M -5 -44 R 0 44 R F
2770 8024 M -1 -37 R 0 75 R F
2769 8062 M 0 -75 R -6 -33 R F
2769 8062 M -6 -108 R 0 141 R F
2763 8095 M 0 -141 R -8 -27 R F
2763 8095 M -8 -168 R 0 195 R F
2755 8122 M 0 -195 R -13 -22 R F
2755 8122 M -13 -217 R 0 240 R F
2742 8145 M 0 -240 R -15 -18 R F
2742 8145 M -15 -258 R -1 276 R F
2726 8163 M 1 -276 R -20 -12 R F
2726 8163 M -19 -288 R 0 300 R F
2707 8175 M 0 -300 R -1 150 R F
2707 8175 M -1 -150 R -1 26 R F
2707 7875 M -23 -8 R 4 64 R F
2707 7875 M -19 56 R 6 12 R F
2707 7875 M -13 68 R 5 14 R F
2707 7875 M -8 82 R 4 19 R F
2707 7875 M -4 101 R 2 23 R F
2707 7875 M -2 124 R 1 26 R F
2646 7918 M 12 -1 R 0 -52 R F
2658 7865 M 0 52 R 11 1 R F
2658 7865 M 11 53 R 15 -51 R F
2684 7867 M -15 51 R 10 5 R F
2684 7867 M -5 56 R 9 8 R F
2621 7942 M 7 -11 R 3 -64 R F
2631 7867 M -3 64 R 8 -8 R F
2631 7867 M 5 56 R 22 -58 R F
2658 7865 M -22 58 R 10 -5 R F
2610 8025 M 1 -27 R -3 -123 R F
2608 7875 M 3 123 R 2 -22 R F
2608 7875 M 5 101 R 18 -109 R F
2631 7867 M -18 109 R 3 -19 R F
2631 7867 M -15 90 R 5 -15 R F
2707 8175 M -2 -124 R -2 23 R F
2707 8175 M -4 -101 R -4 18 R F
2707 8175 M -8 -83 R -5 15 R F
2707 8175 M -13 -68 R -6 11 R F
2707 8175 M -19 -57 R -4 65 R F
2684 8183 M 4 -65 R -9 8 R F
2684 8183 M -5 -57 R -10 5 R F
2684 8183 M -15 -52 R -11 2 R F
2684 8183 M -26 -50 R 0 52 R F
2658 8133 M -12 -2 R 12 54 R F
2658 8185 M -12 -54 R -10 -5 R F
2658 8185 M -22 -59 R -5 57 R F
2631 8183 M 5 -57 R -8 -8 R F
2631 8183 M -3 -65 R -7 -11 R F
2621 8107 M -5 -14 R 15 90 R F
2631 8183 M -15 -90 R -3 -19 R F
2631 8183 M -18 -109 R -5 101 R F
2608 8175 M 5 -101 R -2 -23 R F
2608 8175 M 3 -124 R -1 -26 R F
2545 8025 M 2 38 R 0 -76 R F
2547 7987 M 0 76 R 5 32 R F
2547 7987 M 5 108 R 0 -140 R F
2552 7955 M 0 140 R 9 28 R F
2552 7955 M 9 168 R 0 -196 R F
2561 7927 M 0 196 R 12 22 R F
2561 7927 M 12 218 R 0 -240 R F
2573 7905 M 0 240 R 16 18 R F
2573 7905 M 16 258 R 0 -276 R F
2589 7887 M 0 276 R 19 12 R F
2589 7887 M 19 288 R 0 -300 R F
2608 7875 M 0 300 R 2 -150 R F
2880 7873 M -66 0 R 0 66 R F
2880 7873 M -66 66 R 66 0 R F
3150 8024 M -2 -37 R 0 75 R F
3148 8062 M 0 -75 R -5 -33 R F
3148 8062 M -5 -108 R 0 141 R F
3143 8095 M 0 -141 R -9 -27 R F
3143 8095 M -9 -168 R 0 195 R F
3134 8122 M 0 -195 R -12 -22 R F
3134 8122 M -12 -217 R 0 240 R F
3122 8145 M 0 -240 R -16 -18 R F
3122 8145 M -16 -258 R 0 276 R F
3106 8163 M 0 -276 R -19 -12 R F
3106 8163 M -19 -288 R -1 300 R F
3086 8175 M 1 -300 R -2 150 R F
3086 8175 M -1 -150 R -1 26 R F
3087 7875 M -23 -8 R 3 64 R F
3087 7875 M -20 56 R 7 12 R F
3087 7875 M -13 68 R 5 14 R F
3087 7875 M -8 82 R 3 19 R F
3087 7875 M -5 101 R 2 23 R F
3087 7875 M -3 124 R 1 26 R F
3025 7918 M 12 -1 R 0 -52 R F
3037 7865 M 0 52 R 12 1 R F
3037 7865 M 12 53 R 15 -51 R F
3064 7867 M -15 51 R 10 5 R F
3064 7867 M -5 56 R 8 8 R F
3001 7942 M 6 -11 R 4 -64 R F
3011 7867 M -4 64 R 8 -8 R F
3011 7867 M 4 56 R 22 -58 R F
3037 7865 M -22 58 R 10 -5 R F
2989 8025 M 1 -27 R -2 -123 R F
2988 7875 M 2 123 R 2 -22 R F
2988 7875 M 4 101 R 19 -109 R F
3011 7867 M -19 109 R 4 -19 R F
3011 7867 M -15 90 R 5 -15 R F
3086 8175 M -2 -124 R -2 23 R F
3086 8175 M -4 -101 R -3 18 R F
3086 8175 M -7 -83 R -5 15 R F
3086 8175 M -12 -68 R -7 11 R F
3086 8175 M -19 -57 R -3 65 R F
3064 8183 M 3 -65 R -8 8 R F
3064 8183 M -5 -57 R -10 5 R F
3064 8183 M -15 -52 R -12 2 R F
3064 8183 M -27 -50 R 0 52 R F
3037 8133 M -12 -2 R 12 54 R F
3037 8185 M -12 -54 R -10 -5 R F
3037 8185 M -22 -59 R -4 57 R F
3011 8183 M 4 -57 R -8 -8 R F
3011 8183 M -4 -65 R -6 -11 R F
3001 8107 M -5 -14 R 15 90 R F
3011 8183 M -15 -90 R -4 -19 R F
3011 8183 M -19 -109 R -4 101 R F
2988 8175 M 4 -101 R -2 -23 R F
2988 8175 M 2 -124 R -1 -26 R F
2925 8025 M 1 38 R 0 -76 R F
2926 7987 M 0 76 R 6 32 R F
2926 7987 M 6 108 R 0 -140 R F
2932 7955 M 0 140 R 8 28 R F
2932 7955 M 8 168 R 0 -196 R F
2940 7927 M 0 196 R 13 22 R F
2940 7927 M 13 218 R 0 -240 R F
2953 7905 M 0 240 R 15 18 R F
2953 7905 M 15 258 R 0 -276 R F
2968 7887 M 0 276 R 20 12 R F
2968 7887 M 20 288 R 0 -300 R F
2988 7875 M 0 300 R 1 -150 R F
3330 11071 M 216 0 R D 2197 10860 M -61 0 R 4 286 R F
2197 10860 M -57 286 R 5 12 R F
2197 10860 M -52 298 R 2 13 R F
2197 10860 M -50 311 R 50 0 R F
2136 11073 M -75 0 R 5 43 R F
2136 11073 M -70 43 R 19 1 R F
2136 11073 M -51 44 R 16 3 R F
2136 11073 M -35 47 R 14 4 R F
2136 11073 M -21 51 R 10 5 R F
2136 11073 M -11 56 R 9 7 R F
2136 11073 M -2 63 R 6 10 R F
2136 11073 M 4 73 R -4 -286 R F
2066 11116 M -5 -43 R 0 43 R F
2518 11011 M -2 -38 R 0 75 R F
2516 11048 M 0 -75 R -5 -32 R F
2516 11048 M -5 -107 R 0 140 R F
2511 11081 M 0 -140 R -9 -28 R F
2511 11081 M -9 -168 R 0 196 R F
2502 11109 M 0 -196 R -12 -22 R F
2502 11109 M -12 -218 R 0 240 R F
2490 11131 M 0 -240 R -16 -18 R F
2490 11131 M -16 -258 R 0 276 R F
2474 11149 M 0 -276 R -19 -12 R F
2474 11149 M -19 -288 R -1 300 R F
2454 11161 M 1 -300 R -2 150 R F
2454 11161 M -1 -150 R -1 26 R F
2455 10861 M -23 -7 R 3 64 R F
2455 10861 M -20 57 R 7 11 R F
2455 10861 M -13 68 R 5 15 R F
2455 10861 M -8 83 R 3 18 R F
2455 10861 M -5 101 R 2 23 R F
2455 10861 M -3 124 R 1 26 R F
2393 10905 M 12 -2 R 0 -52 R F
2405 10851 M 0 52 R 12 2 R F
2405 10851 M 12 54 R 15 -51 R F
2432 10854 M -15 51 R 10 4 R F
2432 10854 M -5 55 R 8 9 R F
2368 10929 M 7 -12 R 3 -63 R F
2378 10854 M -3 63 R 8 -8 R F
2378 10854 M 5 55 R 22 -58 R F
2405 10851 M -22 58 R 10 -4 R F
2357 11011 M 1 -26 R -2 -124 R F
2356 10861 M 2 124 R 2 -23 R F
2356 10861 M 4 101 R 18 -108 R F
2378 10854 M -18 108 R 3 -19 R F
2378 10854 M -15 89 R 5 -14 R F
2454 11161 M -2 -124 R -2 23 R F
2454 11161 M -4 -101 R -3 19 R F
2454 11161 M -7 -82 R -5 14 R F
2454 11161 M -12 -68 R -7 12 R F
2454 11161 M -19 -56 R -4 64 R F
2431 11169 M 4 -64 R -8 8 R F
2431 11169 M -4 -56 R -10 4 R F
2431 11169 M -14 -52 R -12 2 R F
2431 11169 M -26 -50 R 0 52 R F
2405 11119 M -12 -1 R 12 53 R F
2405 11171 M -12 -53 R -10 -5 R F
2405 11171 M -22 -58 R -5 56 R F
2378 11169 M 5 -56 R -8 -8 R F
2378 11169 M -3 -64 R -7 -11 R F
2368 11094 M -5 -15 R 15 90 R F
2378 11169 M -15 -90 R -3 -19 R F
2378 11169 M -18 -109 R -4 101 R F
2356 11161 M 4 -101 R -2 -22 R F
2356 11161 M 2 -123 R -1 -27 R F
2292 11011 M 2 38 R 0 -76 R F
2294 10973 M 0 76 R 5 32 R F
2294 10973 M 5 108 R 0 -140 R F
2299 10941 M 0 140 R 9 28 R F
2299 10941 M 9 168 R 0 -196 R F
2308 10913 M 0 196 R 12 22 R F
2308 10913 M 12 218 R 0 -240 R F
2320 10891 M 0 240 R 16 18 R F
2320 10891 M 16 258 R 0 -275 R F
2336 10874 M 0 275 R 20 12 R F
2336 10874 M 20 287 R 0 -300 R F
2356 10861 M 0 300 R 1 -150 R F
2770 11011 M -1 -38 R 0 75 R F
2769 11048 M 0 -75 R -6 -32 R F
2769 11048 M -6 -107 R 0 140 R F
2763 11081 M 0 -140 R -8 -28 R F
2763 11081 M -8 -168 R 0 196 R F
2755 11109 M 0 -196 R -13 -22 R F
2755 11109 M -13 -218 R 0 240 R F
2742 11131 M 0 -240 R -15 -18 R F
2742 11131 M -15 -258 R -1 276 R F
2726 11149 M 1 -276 R -20 -12 R F
2726 11149 M -19 -288 R 0 300 R F
2707 11161 M 0 -300 R -1 150 R F
2707 11161 M -1 -150 R -1 26 R F
2707 10861 M -23 -7 R 4 64 R F
2707 10861 M -19 57 R 6 11 R F
2707 10861 M -13 68 R 5 15 R F
2707 10861 M -8 83 R 4 18 R F
2707 10861 M -4 101 R 2 23 R F
2707 10861 M -2 124 R 1 26 R F
2646 10905 M 12 -2 R 0 -52 R F
2658 10851 M 0 52 R 11 2 R F
2658 10851 M 11 54 R 15 -51 R F
2684 10854 M -15 51 R 10 4 R F
2684 10854 M -5 55 R 9 9 R F
2621 10929 M 7 -12 R 3 -63 R F
2631 10854 M -3 63 R 8 -8 R F
2631 10854 M 5 55 R 22 -58 R F
2658 10851 M -22 58 R 10 -4 R F
2610 11011 M 1 -26 R -3 -124 R F
2608 10861 M 3 124 R 2 -23 R F
2608 10861 M 5 101 R 18 -108 R F
2631 10854 M -18 108 R 3 -19 R F
2631 10854 M -15 89 R 5 -14 R F
2707 11161 M -2 -124 R -2 23 R F
2707 11161 M -4 -101 R -4 19 R F
2707 11161 M -8 -82 R -5 14 R F
2707 11161 M -13 -68 R -6 12 R F
2707 11161 M -19 -56 R -4 64 R F
2684 11169 M 4 -64 R -9 8 R F
2684 11169 M -5 -56 R -10 4 R F
2684 11169 M -15 -52 R -11 2 R F
2684 11169 M -26 -50 R 0 52 R F
2658 11119 M -12 -1 R 12 53 R F
2658 11171 M -12 -53 R -10 -5 R F
2658 11171 M -22 -58 R -5 56 R F
2631 11169 M 5 -56 R -8 -8 R F
2631 11169 M -3 -64 R -7 -11 R F
2621 11094 M -5 -15 R 15 90 R F
2631 11169 M -15 -90 R -3 -19 R F
2631 11169 M -18 -109 R -5 101 R F
2608 11161 M 5 -101 R -2 -22 R F
2608 11161 M 3 -123 R -1 -27 R F
2545 11011 M 2 38 R 0 -76 R F
2547 10973 M 0 76 R 5 32 R F
2547 10973 M 5 108 R 0 -140 R F
2552 10941 M 0 140 R 9 28 R F
2552 10941 M 9 168 R 0 -196 R F
2561 10913 M 0 196 R 12 22 R F
2561 10913 M 12 218 R 0 -240 R F
2573 10891 M 0 240 R 16 18 R F
2573 10891 M 16 258 R 0 -275 R F
2589 10874 M 0 275 R 19 12 R F
2589 10874 M 19 287 R 0 -300 R F
2608 10861 M 0 300 R 2 -150 R F
2880 10860 M -66 0 R 0 65 R F
2880 10860 M -66 65 R 66 0 R F
3150 11011 M -2 -38 R 0 75 R F
3148 11048 M 0 -75 R -5 -32 R F
3148 11048 M -5 -107 R 0 140 R F
3143 11081 M 0 -140 R -9 -28 R F
3143 11081 M -9 -168 R 0 196 R F
3134 11109 M 0 -196 R -12 -22 R F
3134 11109 M -12 -218 R 0 240 R F
3122 11131 M 0 -240 R -16 -18 R F
3122 11131 M -16 -258 R 0 276 R F
3106 11149 M 0 -276 R -19 -12 R F
3106 11149 M -19 -288 R -1 300 R F
3086 11161 M 1 -300 R -2 150 R F
3086 11161 M -1 -150 R -1 26 R F
3087 10861 M -23 -7 R 3 64 R F
3087 10861 M -20 57 R 7 11 R F
3087 10861 M -13 68 R 5 15 R F
3087 10861 M -8 83 R 3 18 R F
3087 10861 M -5 101 R 2 23 R F
3087 10861 M -3 124 R 1 26 R F
3025 10905 M 12 -2 R 0 -52 R F
3037 10851 M 0 52 R 12 2 R F
3037 10851 M 12 54 R 15 -51 R F
3064 10854 M -15 51 R 10 4 R F
3064 10854 M -5 55 R 8 9 R F
3001 10929 M 6 -12 R 4 -63 R F
3011 10854 M -4 63 R 8 -8 R F
3011 10854 M 4 55 R 22 -58 R F
3037 10851 M -22 58 R 10 -4 R F
2989 11011 M 1 -26 R -2 -124 R F
2988 10861 M 2 124 R 2 -23 R F
2988 10861 M 4 101 R 19 -108 R F
3011 10854 M -19 108 R 4 -19 R F
3011 10854 M -15 89 R 5 -14 R F
3086 11161 M -2 -124 R -2 23 R F
3086 11161 M -4 -101 R -3 19 R F
3086 11161 M -7 -82 R -5 14 R F
3086 11161 M -12 -68 R -7 12 R F
3086 11161 M -19 -56 R -3 64 R F
3064 11169 M 3 -64 R -8 8 R F
3064 11169 M -5 -56 R -10 4 R F
3064 11169 M -15 -52 R -12 2 R F
3064 11169 M -27 -50 R 0 52 R F
3037 11119 M -12 -1 R 12 53 R F
3037 11171 M -12 -53 R -10 -5 R F
3037 11171 M -22 -58 R -4 56 R F
3011 11169 M 4 -56 R -8 -8 R F
3011 11169 M -4 -64 R -6 -11 R F
3001 11094 M -5 -15 R 15 90 R F
3011 11169 M -15 -90 R -4 -19 R F
3011 11169 M -19 -109 R -4 101 R F
2988 11161 M 4 -101 R -2 -22 R F
2988 11161 M 2 -123 R -1 -27 R F
2925 11011 M 1 38 R 0 -76 R F
2926 10973 M 0 76 R 6 32 R F
2926 10973 M 6 108 R 0 -140 R F
2932 10941 M 0 140 R 8 28 R F
2932 10941 M 8 168 R 0 -196 R F
2940 10913 M 0 196 R 13 22 R F
2940 10913 M 13 218 R 0 -240 R F
2953 10891 M 0 240 R 15 18 R F
2953 10891 M 15 258 R 0 -275 R F
2968 10874 M 0 275 R 20 12 R F
2968 10874 M 20 287 R 0 -300 R F
2988 10861 M 0 300 R 1 -150 R F
3330 14057 M 216 0 R D 1944 13687 M -61 0 R 4 287 R F
1944 13687 M -57 287 R 5 11 R F
1944 13687 M -52 298 R 3 14 R F
1944 13687 M -49 312 R 49 0 R F
1883 13901 M -74 0 R 4 43 R F
1883 13901 M -70 43 R 19 1 R F
1883 13901 M -51 44 R 16 2 R F
1883 13901 M -35 46 R 14 4 R F
1883 13901 M -21 50 R 11 6 R F
1883 13901 M -10 56 R 8 7 R F
1883 13901 M -2 63 R 6 10 R F
1883 13901 M 4 73 R -4 -287 R F
1813 13944 M -4 -43 R 0 43 R F
2265 13839 M -2 -38 R 0 75 R F
2263 13876 M 0 -75 R -5 -33 R F
2263 13876 M -5 -108 R 0 141 R F
2258 13909 M 0 -141 R -9 -27 R F
2258 13909 M -9 -168 R 0 195 R F
2249 13936 M 0 -195 R -12 -22 R F
2249 13936 M -12 -217 R 0 240 R F
2237 13959 M 0 -240 R -16 -18 R F
2237 13959 M -16 -258 R 0 276 R F
2221 13977 M 0 -276 R -19 -12 R F
2221 13977 M -19 -288 R 0 300 R F
2202 13989 M 0 -300 R -2 150 R F
2202 13989 M -2 -150 R 0 26 R F
2202 13689 M -23 -8 R 3 64 R F
2202 13689 M -20 56 R 7 12 R F
2202 13689 M -13 68 R 5 15 R F
2202 13689 M -8 83 R 3 18 R F
2202 13689 M -5 101 R 3 23 R F
2202 13689 M -2 124 R 0 26 R F
2141 13732 M 11 -1 R 0 -52 R F
2152 13679 M 0 52 R 12 1 R F
2152 13679 M 12 53 R 15 -51 R F
2179 13681 M -15 51 R 10 5 R F
2179 13681 M -5 56 R 8 8 R F
2116 13756 M 6 -11 R 4 -64 R F
2126 13681 M -4 64 R 9 -8 R F
2126 13681 M 5 56 R 21 -58 R F
2152 13679 M -21 58 R 10 -5 R F
2104 13839 M 1 -26 R -2 -124 R F
2103 13689 M 2 124 R 2 -23 R F
2103 13689 M 4 101 R 19 -109 R F
2126 13681 M -19 109 R 4 -19 R F
2126 13681 M -15 90 R 5 -15 R F
2202 13989 M -2 -124 R -3 23 R F
2202 13989 M -5 -101 R -3 18 R F
2202 13989 M -8 -83 R -5 15 R F
2202 13989 M -13 -68 R -7 12 R F
2202 13989 M -20 -56 R -3 64 R F
2179 13997 M 3 -64 R -8 8 R F
2179 13997 M -5 -56 R -10 4 R F
2179 13997 M -15 -52 R -12 2 R F
2179 13997 M -27 -50 R 0 52 R F
2152 13947 M -11 -2 R 11 54 R F
2152 13999 M -11 -54 R -10 -4 R F
2152 13999 M -21 -58 R -5 56 R F
2126 13997 M 5 -56 R -9 -8 R F
2126 13997 M -4 -64 R -6 -12 R F
2116 13921 M -5 -14 R 15 90 R F
2126 13997 M -15 -90 R -4 -19 R F
2126 13997 M -19 -109 R -4 101 R F
2103 13989 M 4 -101 R -2 -23 R F
2103 13989 M 2 -124 R -1 -26 R F
2040 13839 M 1 38 R 0 -76 R F
2041 13801 M 0 76 R 6 32 R F
2041 13801 M 6 108 R 0 -140 R F
2047 13769 M 0 140 R 8 28 R F
2047 13769 M 8 168 R 0 -196 R F
2055 13741 M 0 196 R 13 22 R F
2055 13741 M 13 218 R 0 -240 R F
2068 13719 M 0 240 R 15 18 R F
2068 13719 M 15 258 R 0 -276 R F
2083 13701 M 0 276 R 20 12 R F
2083 13701 M 20 288 R 0 -300 R F
2103 13689 M 0 300 R 1 -150 R F
2518 13839 M -2 -38 R 0 75 R F
2516 13876 M 0 -75 R -5 -33 R F
2516 13876 M -5 -108 R 0 141 R F
2511 13909 M 0 -141 R -9 -27 R F
2511 13909 M -9 -168 R 0 195 R F
2502 13936 M 0 -195 R -12 -22 R F
2502 13936 M -12 -217 R 0 240 R F
2490 13959 M 0 -240 R -16 -18 R F
2490 13959 M -16 -258 R 0 276 R F
2474 13977 M 0 -276 R -19 -12 R F
2474 13977 M -19 -288 R -1 300 R F
2454 13989 M 1 -300 R -2 150 R F
2454 13989 M -1 -150 R -1 26 R F
2455 13689 M -23 -8 R 3 64 R F
2455 13689 M -20 56 R 7 12 R F
2455 13689 M -13 68 R 5 15 R F
2455 13689 M -8 83 R 3 18 R F
2455 13689 M -5 101 R 2 23 R F
2455 13689 M -3 124 R 1 26 R F
2393 13732 M 12 -1 R 0 -52 R F
2405 13679 M 0 52 R 12 1 R F
2405 13679 M 12 53 R 15 -51 R F
2432 13681 M -15 51 R 10 5 R F
2432 13681 M -5 56 R 8 8 R F
2368 13756 M 7 -11 R 3 -64 R F
2378 13681 M -3 64 R 8 -8 R F
2378 13681 M 5 56 R 22 -58 R F
2405 13679 M -22 58 R 10 -5 R F
2357 13839 M 1 -26 R -2 -124 R F
2356 13689 M 2 124 R 2 -23 R F
2356 13689 M 4 101 R 18 -109 R F
2378 13681 M -18 109 R 3 -19 R F
2378 13681 M -15 90 R 5 -15 R F
2454 13989 M -2 -124 R -2 23 R F
2454 13989 M -4 -101 R -3 18 R F
2454 13989 M -7 -83 R -5 15 R F
2454 13989 M -12 -68 R -7 12 R F
2454 13989 M -19 -56 R -4 64 R F
2431 13997 M 4 -64 R -8 8 R F
2431 13997 M -4 -56 R -10 4 R F
2431 13997 M -14 -52 R -12 2 R F
2431 13997 M -26 -50 R 0 52 R F
2405 13947 M -12 -2 R 12 54 R F
2405 13999 M -12 -54 R -10 -4 R F
2405 13999 M -22 -58 R -5 56 R F
2378 13997 M 5 -56 R -8 -8 R F
2378 13997 M -3 -64 R -7 -12 R F
2368 13921 M -5 -14 R 15 90 R F
2378 13997 M -15 -90 R -3 -19 R F
2378 13997 M -18 -109 R -4 101 R F
2356 13989 M 4 -101 R -2 -23 R F
2356 13989 M 2 -124 R -1 -26 R F
2292 13839 M 2 38 R 0 -76 R F
2294 13801 M 0 76 R 5 32 R F
2294 13801 M 5 108 R 0 -140 R F
2299 13769 M 0 140 R 9 28 R F
2299 13769 M 9 168 R 0 -196 R F
2308 13741 M 0 196 R 12 22 R F
2308 13741 M 12 218 R 0 -240 R F
2320 13719 M 0 240 R 16 18 R F
2320 13719 M 16 258 R 0 -276 R F
2336 13701 M 0 276 R 20 12 R F
2336 13701 M 20 288 R 0 -300 R F
2356 13689 M 0 300 R 1 -150 R F
2770 13839 M -1 -38 R 0 75 R F
2769 13876 M 0 -75 R -6 -33 R F
2769 13876 M -6 -108 R 0 141 R F
2763 13909 M 0 -141 R -8 -27 R F
2763 13909 M -8 -168 R 0 195 R F
2755 13936 M 0 -195 R -13 -22 R F
2755 13936 M -13 -217 R 0 240 R F
2742 13959 M 0 -240 R -15 -18 R F
2742 13959 M -15 -258 R -1 276 R F
2726 13977 M 1 -276 R -20 -12 R F
2726 13977 M -19 -288 R 0 300 R F
2707 13989 M 0 -300 R -1 150 R F
2707 13989 M -1 -150 R -1 26 R F
2707 13689 M -23 -8 R 4 64 R F
2707 13689 M -19 56 R 6 12 R F
2707 13689 M -13 68 R 5 15 R F
2707 13689 M -8 83 R 4 18 R F
2707 13689 M -4 101 R 2 23 R F
2707 13689 M -2 124 R 1 26 R F
2646 13732 M 12 -1 R 0 -52 R F
2658 13679 M 0 52 R 11 1 R F
2658 13679 M 11 53 R 15 -51 R F
2684 13681 M -15 51 R 10 5 R F
2684 13681 M -5 56 R 9 8 R F
2621 13756 M 7 -11 R 3 -64 R F
2631 13681 M -3 64 R 8 -8 R F
2631 13681 M 5 56 R 22 -58 R F
2658 13679 M -22 58 R 10 -5 R F
2610 13839 M 1 -26 R -3 -124 R F
2608 13689 M 3 124 R 2 -23 R F
2608 13689 M 5 101 R 18 -109 R F
2631 13681 M -18 109 R 3 -19 R F
2631 13681 M -15 90 R 5 -15 R F
2707 13989 M -2 -124 R -2 23 R F
2707 13989 M -4 -101 R -4 18 R F
2707 13989 M -8 -83 R -5 15 R F
2707 13989 M -13 -68 R -6 12 R F
2707 13989 M -19 -56 R -4 64 R F
2684 13997 M 4 -64 R -9 8 R F
2684 13997 M -5 -56 R -10 4 R F
2684 13997 M -15 -52 R -11 2 R F
2684 13997 M -26 -50 R 0 52 R F
2658 13947 M -12 -2 R 12 54 R F
2658 13999 M -12 -54 R -10 -4 R F
2658 13999 M -22 -58 R -5 56 R F
2631 13997 M 5 -56 R -8 -8 R F
2631 13997 M -3 -64 R -7 -12 R F
2621 13921 M -5 -14 R 15 90 R F
2631 13997 M -15 -90 R -3 -19 R F
2631 13997 M -18 -109 R -5 101 R F
2608 13989 M 5 -101 R -2 -23 R F
2608 13989 M 3 -124 R -1 -26 R F
2545 13839 M 2 38 R 0 -76 R F
2547 13801 M 0 76 R 5 32 R F
2547 13801 M 5 108 R 0 -140 R F
2552 13769 M 0 140 R 9 28 R F
2552 13769 M 9 168 R 0 -196 R F
2561 13741 M 0 196 R 12 22 R F
2561 13741 M 12 218 R 0 -240 R F
2573 13719 M 0 240 R 16 18 R F
2573 13719 M 16 258 R 0 -276 R F
2589 13701 M 0 276 R 19 12 R F
2589 13701 M 19 288 R 0 -300 R F
2608 13689 M 0 300 R 2 -150 R F
2880 13687 M -66 0 R 0 66 R F
2880 13687 M -66 66 R 66 0 R F
3150 13839 M -2 -38 R 0 75 R F
3148 13876 M 0 -75 R -5 -33 R F
3148 13876 M -5 -108 R 0 141 R F
3143 13909 M 0 -141 R -9 -27 R F
3143 13909 M -9 -168 R 0 195 R F
3134 13936 M 0 -195 R -12 -22 R F
3134 13936 M -12 -217 R 0 240 R F
3122 13959 M 0 -240 R -16 -18 R F
3122 13959 M -16 -258 R 0 276 R F
3106 13977 M 0 -276 R -19 -12 R F
3106 13977 M -19 -288 R -1 300 R F
3086 13989 M 1 -300 R -2 150 R F
3086 13989 M -1 -150 R -1 26 R F
3087 13689 M -23 -8 R 3 64 R F
3087 13689 M -20 56 R 7 12 R F
3087 13689 M -13 68 R 5 15 R F
3087 13689 M -8 83 R 3 18 R F
3087 13689 M -5 101 R 2 23 R F
3087 13689 M -3 124 R 1 26 R F
3025 13732 M 12 -1 R 0 -52 R F
3037 13679 M 0 52 R 12 1 R F
3037 13679 M 12 53 R 15 -51 R F
3064 13681 M -15 51 R 10 5 R F
3064 13681 M -5 56 R 8 8 R F
3001 13756 M 6 -11 R 4 -64 R F
3011 13681 M -4 64 R 8 -8 R F
3011 13681 M 4 56 R 22 -58 R F
3037 13679 M -22 58 R 10 -5 R F
2989 13839 M 1 -26 R -2 -124 R F
2988 13689 M 2 124 R 2 -23 R F
2988 13689 M 4 101 R 19 -109 R F
3011 13681 M -19 109 R 4 -19 R F
3011 13681 M -15 90 R 5 -15 R F
3086 13989 M -2 -124 R -2 23 R F
3086 13989 M -4 -101 R -3 18 R F
3086 13989 M -7 -83 R -5 15 R F
3086 13989 M -12 -68 R -7 12 R F
3086 13989 M -19 -56 R -3 64 R F
3064 13997 M 3 -64 R -8 8 R F
3064 13997 M -5 -56 R -10 4 R F
3064 13997 M -15 -52 R -12 2 R F
3064 13997 M -27 -50 R 0 52 R F
3037 13947 M -12 -2 R 12 54 R F
3037 13999 M -12 -54 R -10 -4 R F
3037 13999 M -22 -58 R -4 56 R F
3011 13997 M 4 -56 R -8 -8 R F
3011 13997 M -4 -64 R -6 -12 R F
3001 13921 M -5 -14 R 15 90 R F
3011 13997 M -15 -90 R -4 -19 R F
3011 13997 M -19 -109 R -4 101 R F
2988 13989 M 4 -101 R -2 -23 R F
2988 13989 M 2 -124 R -1 -26 R F
2925 13839 M 1 38 R 0 -76 R F
2926 13801 M 0 76 R 6 32 R F
2926 13801 M 6 108 R 0 -140 R F
2932 13769 M 0 140 R 8 28 R F
2932 13769 M 8 168 R 0 -196 R F
2940 13741 M 0 196 R 13 22 R F
2940 13741 M 13 218 R 0 -240 R F
2953 13719 M 0 240 R 15 18 R F
2953 13719 M 15 258 R 0 -276 R F
2968 13701 M 0 276 R 20 12 R F
2968 13701 M 20 288 R 0 -300 R F
2988 13689 M 0 300 R 1 -150 R F
3330 3011 M 108 0 R D 3330 3537 M 108 0 R D 3330 3910 M 108 0 R D
3330 4199 M 108 0 R D 3330 4436 M 108 0 R D 3330 4636 M 108 0 R D
3330 4809 M 108 0 R D 3330 4962 M 108 0 R D 3330 5997 M 108 0 R D
3330 6523 M 108 0 R D 3330 6896 M 108 0 R D 3330 7186 M 108 0 R D
3330 7422 M 108 0 R D 3330 7622 M 108 0 R D 3330 7795 M 108 0 R D
3330 7948 M 108 0 R D 3330 8984 M 108 0 R D 3330 9509 M 108 0 R D
3330 9882 M 108 0 R D 3330 10172 M 108 0 R D 3330 10408 M 108 0 R D
3330 10608 M 108 0 R D 3330 10781 M 108 0 R D 3330 10934 M 108 0 R D
3330 11970 M 108 0 R D 3330 12496 M 108 0 R D 3330 12869 M 108 0 R D
3330 13158 M 108 0 R D 3330 13395 M 108 0 R D 3330 13594 M 108 0 R D
3330 13768 M 108 0 R D 3330 13920 M 108 0 R D 14114 2112 M 0 11945 R D
14114 2112 M -216 0 R D 14114 5098 M -216 0 R D 14114 8085 M -216 0 R D
14114 11071 M -216 0 R D 14114 14057 M -216 0 R D 14114 3011 M -108 0 R D
14114 3537 M -108 0 R D 14114 3910 M -108 0 R D 14114 4199 M -108 0 R D
14114 4436 M -108 0 R D 14114 4636 M -108 0 R D 14114 4809 M -108 0 R D
14114 4962 M -108 0 R D 14114 5997 M -108 0 R D 14114 6523 M -108 0 R D
14114 6896 M -108 0 R D 14114 7186 M -108 0 R D 14114 7422 M -108 0 R D
14114 7622 M -108 0 R D 14114 7795 M -108 0 R D 14114 7948 M -108 0 R D
14114 8984 M -108 0 R D 14114 9509 M -108 0 R D 14114 9882 M -108 0 R D
14114 10172 M -108 0 R D 14114 10408 M -108 0 R D 14114 10608 M -108 0 R D
14114 10781 M -108 0 R D 14114 10934 M -108 0 R D 14114 11970 M -108 0 R D
14114 12496 M -108 0 R D 14114 12869 M -108 0 R D 14114 13158 M -108 0 R D
14114 13395 M -108 0 R D 14114 13594 M -108 0 R D 14114 13768 M -108 0 R D
14114 13920 M -108 0 R D 4491 5997 M 55 0 R 55 0 R 55 0 R 0 -899 R 55 0 R
55 0 R 0 899 R 56 0 R 55 0 R 0 1189 R 55 0 R 55 0 R 0 -5074 R 55 0 R 55 0 R
0 2986 R 56 0 R 55 0 R 0 1425 R 55 0 R 55 0 R 0 373 R 55 0 R 55 0 R 0 526 R
55 0 R 56 0 R 0 200 R 55 0 R 55 0 R 0 -436 R 55 0 R 55 0 R 0 236 R 55 0 R
56 0 R 0 786 R 55 0 R 55 0 R 0 -413 R 55 0 R 55 0 R 0 630 R 55 0 R 56 0 R
0 185 R 55 0 R 55 0 R 0 237 R 55 0 R 55 0 R 0 200 R 55 0 R 56 0 R 0 462 R
55 0 R 55 0 R 0 -136 R 55 0 R 55 0 R 0 336 R 55 0 R 55 0 R 0 -200 R 56 0 R
55 0 R 0 272 R 55 0 R 55 0 R 55 0 R 55 0 R 0 391 R 56 0 R 55 0 R 0 -53 R
55 0 R 55 0 R 0 79 R 55 0 R 55 0 R 0 353 R 56 0 R 55 0 R 0 112 R 55 0 R
55 0 R 0 69 R 55 0 R 55 0 R 0 128 R 55 0 R 56 0 R 0 -47 R 55 0 R 55 0 R
0 -15 R 55 0 R 55 0 R 0 431 R 55 0 R 56 0 R 0 -198 R 55 0 R 55 0 R 0 66 R
55 0 R 55 0 R 0 -222 R 55 0 R 56 0 R 0 222 R 55 0 R 55 0 R 0 -93 R 55 0 R
55 0 R 0 -41 R 55 0 R 56 0 R 0 -214 R 55 0 R 55 0 R 0 -141 R 55 0 R 55 0 R
0 173 R 55 0 R 55 0 R 0 316 R 56 0 R 55 0 R 0 -192 R 55 0 R 55 0 R 0 -207 R
55 0 R 55 0 R 0 -356 R 56 0 R 55 0 R 0 170 R 55 0 R 55 0 R 0 20 R 55 0 R
55 0 R 0 -60 R 56 0 R 55 0 R 0 -326 R 55 0 R 55 0 R 0 -170 R 55 0 R 55 0 R
0 -126 R 56 0 R 55 0 R 55 0 R 55 0 R 0 -526 R 55 0 R 55 0 R 0 269 R 55 0 R
56 0 R 0 -220 R 55 0 R 55 0 R 0 -49 R 55 0 R 55 0 R 0 -551 R 55 0 R 56 0 R
0 -452 R 55 0 R 55 0 R 55 0 R 55 0 R 0 -113 R 55 0 R 56 0 R 0 -123 R 55 0 R
55 0 R 0 -463 R 55 0 R 55 0 R 0 -1099 R 55 0 R 56 0 R 0 373 R 55 0 R 55 0 R
0 -899 R 55 0 R 55 0 R 0 -899 R 55 0 R 55 0 R 0 899 R 56 0 R 55 0 R 0 1189 R
55 0 R 55 0 R 0 -5074 R 55 0 R 55 0 R 0 2986 R 56 0 R 55 0 R 55 0 R 55 0 R
0 -2986 R 55 0 R 55 0 R 56 0 R 55 0 R 0 2986 R 55 0 R 55 0 R 55 0 R D
60 setlinewidth 1.000 0.000 0.000 setrgbcolor 4491 3790 M 110 375 R
110 365 R 111 355 R 110 345 R 110 335 R 111 325 R 110 315 R 110 306 R
110 295 R 111 285 R 110 275 R 110 265 R 111 255 R 110 245 R 110 235 R
111 225 R 110 215 R 110 205 R 111 195 R 110 186 R 110 175 R 111 165 R
110 155 R 110 145 R 111 135 R 110 125 R 110 116 R 111 105 R 110 95 R
110 85 R 110 75 R 111 65 R 110 56 R 110 45 R 111 35 R 110 25 R 110 16 R
111 5 R 110 -5 R 110 -15 R 111 -25 R 110 -34 R 110 -45 R 111 -55 R 110 -65 R
110 -74 R 111 -85 R 110 -95 R 110 -104 R 111 -115 R 110 -125 R 110 -135 R
111 -144 R 110 -155 R 110 -165 R 110 -174 R 111 -185 R 110 -195 R 110 -204 R
111 -215 R 110 -225 R 110 -234 R 111 -245 R 110 -254 R 110 -265 R 111 -275 R
110 -284 R 110 -295 R 111 -305 R 110 -314 R 110 -325 R 111 -334 R 110 -345 R
110 -354 R 111 -365 R 110 -375 R 110 -384 R D 0.000 0.000 0.000 setrgbcolor
3993 6553 M -3 -11 R 5 86 R F
3995 6628 M -5 -86 R -1 -14 R F
3995 6628 M -6 -100 R -3 90 R F
3986 6618 M 3 -90 R 0 -190 R F
3986 6618 M 3 -280 R -83 0 R F
3906 6338 M 0 315 R 80 0 R F
3906 6338 M 80 315 R 0 -35 R F
4171 6338 M -82 0 R 13 321 R F
4171 6338 M -69 321 R 12 -3 R F
4171 6338 M -57 318 R 11 -5 R F
4171 6338 M -46 313 R 10 -7 R F
4171 6338 M -36 306 R 10 -8 R F
4171 6338 M -26 298 R 9 -9 R F
4171 6338 M -17 289 R 8 -11 R F
4171 6338 M -9 278 R 8 10 R F
4171 6338 M -1 288 R 1 -97 R F
4089 6540 M -1 11 R 0 110 R F
4089 6540 M -1 121 R 14 -2 R F
4089 6540 M 13 119 R -13 -321 R F
4088 6661 M 0 -110 R -2 10 R F
4088 6661 M -2 -100 R -4 8 R F
4088 6661 M -6 -92 R -5 7 R F
4088 6661 M -11 -85 R -3 86 R F
4077 6576 M -7 6 R 4 80 R F
4074 6662 M -4 -80 R -8 4 R F
4074 6662 M -12 -76 R -1 75 R F
4061 6661 M 1 -75 R -9 2 R F
4061 6661 M -8 -73 R -4 71 R F
4049 6659 M 4 -71 R -10 1 R F
4049 6659 M -6 -70 R -6 67 R F
4037 6656 M 6 -67 R -12 -1 R F
4037 6656 M -6 -68 R -5 63 R F
4026 6651 M 5 -63 R -10 -3 R F
4026 6651 M -5 -66 R -6 60 R F
4015 6645 M 6 -60 R -9 -5 R F
4015 6645 M -3 -65 R -7 57 R F
4005 6637 M 7 -57 R -8 -7 R F
4005 6637 M -1 -64 R -6 -9 R F
3998 6564 M -5 -11 R 2 75 R F
3998 6564 M -3 64 R 10 9 R F
4355 6338 M -83 0 R 2 322 R F
4355 6338 M -81 322 R 20 -5 R F
4355 6338 M -61 317 R 18 -9 R F
4355 6338 M -43 308 R 15 -12 R F
4355 6338 M -28 296 R 12 -15 R F
4355 6338 M -16 281 R 9 -18 R F
4355 6338 M -7 263 R 5 -20 R F
4355 6338 M -2 243 R 2 -23 R F
4274 6660 M -2 -322 R 0 203 R F
4274 6660 M -2 -119 R -1 11 R F
4274 6660 M -3 -108 R -3 9 R F
4274 6660 M -6 -99 R -3 8 R F
4274 6660 M -9 -91 R -6 7 R F
4274 6660 M -15 -84 R -7 6 R F
4274 6660 M -22 -78 R 0 80 R F
4225 6589 M 0 70 R 10 -71 R F
4235 6588 M -10 71 R 13 2 R F
4235 6588 M 3 73 R 6 -75 R F
4244 6586 M -6 75 R 14 1 R F
4244 6586 M 8 76 R 0 -80 R F
4179 6564 M 1 72 R 6 -63 R F
4186 6573 M -6 63 R 10 8 R F
4186 6573 M 4 71 R 4 -64 R F
4194 6580 M -4 64 R 11 6 R F
4194 6580 M 7 70 R 2 -65 R F
4203 6585 M -2 65 R 12 5 R F
4203 6585 M 10 70 R 0 -67 R F
4213 6588 M 0 67 R 12 4 R F
4213 6588 M 12 71 R 0 -70 R F
4171 6529 M -1 97 R 2 -84 R F
4172 6542 M -2 84 R 10 10 R F
4172 6542 M 8 94 R -5 -82 R F
4175 6554 M 5 82 R -1 -72 R F
4706 6433 M -8 -23 R -11 -21 R F
4706 6433 M -19 -44 R -15 -18 R F
4706 6433 M -34 -62 R -17 -16 R F
4706 6433 M -51 -78 R -21 -12 R F
4706 6433 M -72 -90 R -12 90 R F
4600 6407 M 6 5 R 6 -78 R F
4612 6334 M -6 78 R 6 6 R F
4612 6334 M 0 84 R 22 -75 R F
4634 6343 M -22 75 R 5 7 R F
4634 6343 M -17 82 R 5 8 R F
4575 6399 M 9 1 R 3 -71 R F
4587 6329 M -3 71 R 8 3 R F
4587 6329 M 5 74 R 20 -69 R F
4612 6334 M -20 69 R 8 4 R F
4537 6403 M 13 -4 R 10 -72 R F
4560 6327 M -10 72 R 14 -1 R F
4560 6327 M 4 71 R 23 -69 R F
4587 6329 M -23 69 R 11 1 R F
4528 6330 M -29 8 R 2 118 R F
4528 6330 M -27 126 R 3 -15 R F
4528 6330 M -24 111 R 6 -13 R F
4528 6330 M -18 98 R 7 -11 R F
4528 6330 M -11 87 R 9 -8 R F
4528 6330 M -2 79 R 11 -6 R F
4528 6330 M 9 73 R 23 -76 R F
4411 6497 M 3 37 R 0 -74 R F
4414 6460 M 0 74 R 7 33 R F
4414 6460 M 7 107 R 0 -140 R F
4421 6427 M 0 140 R 13 28 R F
4421 6427 M 13 168 R 0 -197 R F
4434 6398 M 0 197 R 17 25 R F
4434 6398 M 17 222 R 0 -247 R F
4451 6373 M 0 247 R 21 19 R F
4451 6373 M 21 266 R 1 -286 R F
4473 6353 M -1 286 R 26 14 R F
4473 6353 M 25 300 R 1 -315 R F
4499 6338 M -1 315 R 1 -124 R F
4499 6338 M 0 191 R 0 -56 R F
4499 6473 M 0 56 R 124 0 R F
4499 6473 M 124 56 R 87 -56 R F
4710 6473 M -87 56 R 0 124 R F
4710 6473 M -87 180 R 26 -13 R F
4710 6495 M 0 -4 R 0 -4 R F
4710 6495 M 0 -8 R 0 -3 R F
4710 6495 M 0 -11 R 0 -2 R F
4710 6495 M 0 -13 R 0 -3 R F
4710 6495 M 0 -16 R 0 -2 R F
4710 6495 M 0 -18 R 0 -2 R F
4710 6495 M 0 -20 R 0 -2 R F
4710 6495 M 0 -22 R -2 60 R F
4710 6473 M -61 167 R 22 -20 R F
4710 6473 M -39 147 R 17 -24 R F
4710 6473 M -22 123 R 13 -29 R F
4710 6473 M -9 94 R 7 -34 R F
4623 6653 M 0 -124 R -1 15 R F
4623 6653 M -1 -109 R -4 13 R F
4623 6653 M -5 -96 R -5 11 R F
4623 6653 M -10 -85 R -7 9 R F
4623 6653 M -17 -76 R -9 7 R F
4623 6653 M -26 -69 R -4 78 R F
4593 6662 M 4 -78 R -10 6 R F
4593 6662 M -6 -72 R -12 3 R F
4593 6662 M -18 -69 R -14 1 R F
4593 6662 M -32 -68 R -2 70 R F
4561 6594 M -13 -1 R 11 71 R F
4559 6664 M -11 -71 R -12 -3 R F
4559 6664 M -23 -74 R -10 72 R F
4526 6662 M 10 -72 R -10 -6 R F
4526 6662 M 0 -78 R -9 -7 R F
4526 6662 M -9 -85 R -7 -9 R F
4526 6662 M -16 -94 R -5 -12 R F
4526 6662 M -21 -106 R -4 -13 R F
4526 6662 M -25 -119 R -3 110 R F
4499 6529 M -1 124 R 3 -110 R F
4501 6456 M -2 -118 R 0 135 R F
4840 6555 M -79 0 R 2 28 R F
4840 6555 M -77 28 R 6 21 R F
4840 6555 M -71 49 R 11 17 R F
4840 6555 M -60 66 R 15 16 R F
4840 6555 M -45 82 R 19 12 R F
4840 6555 M -26 94 R 22 8 R F
4840 6555 M -4 102 R 4 -98 R F
4944 6572 M 4 87 R -4 -96 R F
4944 6563 M 4 96 R -3 -166 R F
4944 6563 M 1 -70 R -4 59 R F
4941 6552 M 4 -59 R -10 -5 R F
4941 6552 M -6 -64 R -4 55 R F
4931 6543 M 4 -55 R -12 -4 R F
4931 6543 M -8 -59 R -9 52 R F
4914 6536 M 9 -52 R -12 -3 R F
4914 6536 M -3 -55 R -13 -4 R F
4914 6536 M -16 -59 R -7 55 R F
4891 6532 M 7 -55 R -12 -2 R F
4891 6532 M -5 -57 R -5 55 R F
4881 6530 M 5 -55 R -8 -2 R F
4881 6530 M -3 -57 R -6 -1 R F
4881 6530 M -9 -58 R -1 57 R F
4871 6529 M 1 -57 R -2 -1 R F
4871 6529 M -1 -58 R -7 57 R F
4863 6528 M 7 -57 R -10 -3 R F
4863 6528 M -3 -60 R -4 59 R F
4856 6527 M 4 -59 R -9 -4 R F
4856 6527 M -5 -63 R -7 -4 R F
4856 6527 M -12 -67 R -5 -5 R F
4856 6527 M -17 -72 R -4 -5 R F
4856 6527 M -21 -77 R -3 -6 R F
4856 6527 M -24 -83 R -2 78 R F
4832 6444 M -1 -7 R -1 85 R F
4830 6522 M 1 -85 R -1 -8 R F
4830 6522 M 0 -93 R -7 -101 R F
4823 6328 M 7 101 R 1 -8 R F
4823 6328 M 8 93 R 14 -95 R F
4845 6326 M -14 95 R 2 -8 R F
4845 6326 M -12 87 R 4 -6 R F
4863 6392 M 9 -1 R 5 -62 R F
4877 6329 M -5 62 R 16 1 R F
4877 6329 M 11 63 R 4 -59 R F
4892 6333 M -4 59 R 15 4 R F
4892 6333 M 11 63 R 2 -57 R F
4905 6339 M -2 57 R 12 6 R F
4905 6339 M 10 63 R 2 -56 R F
4917 6346 M -2 56 R 11 8 R F
4917 6346 M 9 64 R 3 -55 R F
4929 6355 M -3 55 R 8 11 R F
4929 6355 M 5 66 R 4 -56 R F
4938 6365 M -4 56 R 7 12 R F
4938 6365 M 3 68 R 6 -56 R F
4947 6377 M -6 56 R 3 14 R F
4947 6377 M -3 70 R 1 16 R F
4862 6327 M -17 -1 R 3 71 R F
4862 6327 M -14 70 R 7 -3 R F
4862 6327 M -7 67 R 8 -2 R F
4862 6327 M 1 65 R 14 -63 R F
4845 6326 M -8 81 R 5 -6 R F
4845 6326 M -3 75 R 6 -4 R F
4830 6522 M -7 -194 R -16 187 R F
4807 6515 M 16 -187 R -19 5 R F
4807 6515 M -3 -182 R -15 173 R F
4789 6506 M 15 -173 R -16 8 R F
4789 6506 M -1 -165 R -14 11 R F
4750 6427 M 1 21 R 0 -44 R F
4751 6404 M 0 44 R 5 18 R F
4751 6404 M 5 62 R 0 -82 R F
4756 6384 M 0 82 R 8 16 R F
4756 6384 M 8 98 R 0 -115 R F
4764 6367 M 0 115 R 10 13 R F
4764 6367 M 10 128 R 0 -143 R F
4774 6352 M 0 143 R 15 11 R F
5044 6338 M -88 0 R 75 28 R F
5044 6338 M -13 28 R 2 -4 R F
5044 6338 M -11 24 R 3 -4 R F
5044 6338 M -8 20 R 4 -3 R F
5044 6338 M -4 17 R 4 -3 R F
4991 6641 M 16 -12 R 20 -242 R F
5027 6387 M -20 242 R 11 -16 R F
5027 6387 M -9 226 R 8 -217 R F
5026 6396 M -8 217 R 6 -17 R F
5026 6396 M -2 200 R 2 -21 R F
5031 6366 M -75 -28 R 73 34 R F
5029 6372 M -73 -34 R 16 313 R F
5029 6372 M -57 279 R 55 -272 R F
5027 6379 M -55 272 R 19 -10 R F
5027 6379 M -36 262 R 36 -254 R F
4972 6651 M -16 -313 R -2 4 R F
4972 6651 M -18 -309 R -2 4 R F
4972 6651 M -20 -305 R -1 5 R F
4972 6651 M -21 -300 R -1 5 R F
4972 6651 M -22 -295 R -1 5 R F
4972 6651 M -23 -290 R -1 298 R F
4948 6659 M 1 -298 R -1 5 R F
4948 6659 M 0 -293 R -1 5 R F
4948 6659 M -1 -288 R 0 6 R F
4948 6659 M -1 -282 R -2 86 R F
4948 6659 M -3 -196 R 0 30 R F
4948 6659 M -4 -87 R -3 7 R F
4948 6659 M -7 -80 R -3 6 R F
4948 6659 M -10 -74 R -6 5 R F
4948 6659 M -16 -69 R -7 4 R F
4948 6659 M -23 -65 R -4 69 R F
4921 6663 M 4 -69 R -8 2 R F
4921 6663 M -4 -67 R -11 2 R F
4921 6663 M -15 -65 R -13 0 R F
4921 6663 M -28 -65 R -3 66 R F
4893 6598 M -12 0 R 9 66 R F
4890 6664 M -9 -66 R -11 -2 R F
4890 6664 M -20 -68 R -9 67 R F
4861 6663 M 9 -67 R -9 -3 R F
4861 6663 M 0 -70 R -8 -5 R F
4861 6663 M -8 -75 R -5 -5 R F
4861 6663 M -13 -80 R -5 -7 R F
4861 6663 M -18 -87 R -2 -8 R F
4861 6663 M -20 -95 R -5 89 R F
4836 6657 M 5 -89 R -1 -9 R F
4763 6583 M -2 -28 R 0 5 R F
5189 6552 M -3 -13 R 6 87 R F
5192 6626 M -6 -87 R -1 -14 R F
5192 6626 M -7 -101 R -2 91 R F
5183 6616 M 2 -91 R 0 -187 R F
5183 6616 M 2 -278 R -85 0 R F
5100 6338 M 0 315 R 83 0 R F
5100 6338 M 83 315 R 0 -37 R F
5383 6338 M -85 0 R 5 322 R F
5383 6338 M -80 322 R 21 -5 R F
5383 6338 M -59 317 R 18 -9 R F
5383 6338 M -41 308 R 15 -12 R F
5383 6338 M -26 296 R 11 -15 R F
5383 6338 M -15 281 R 8 -19 R F
5383 6338 M -7 262 R 5 -22 R F
5383 6338 M -2 240 R 2 -25 R F
5303 6660 M -5 -322 R 0 190 R F
5303 6660 M -5 -132 R -1 16 R F
5303 6660 M -6 -116 R -2 13 R F
5303 6660 M -8 -103 R -3 11 R F
5303 6660 M -11 -92 R -5 9 R F
5303 6660 M -16 -83 R -7 6 R F
5303 6660 M -23 -77 R -2 78 R F
5202 6573 M 0 63 R 10 -55 R F
5212 6581 M -10 55 R 11 8 R F
5212 6581 M 1 63 R 10 -57 R F
5223 6587 M -10 57 R 12 6 R F
5223 6587 M 2 63 R 10 -60 R F
5235 6590 M -10 60 R 12 5 R F
5235 6590 M 2 65 R 12 -64 R F
5249 6591 M -12 64 R 13 4 R F
5249 6591 M 1 68 R 11 -69 R F
5261 6590 M -11 69 R 14 2 R F
5261 6590 M 3 71 R 8 -73 R F
5272 6588 M -8 73 R 14 0 R F
5272 6588 M 6 73 R 2 -78 R F
5194 6564 M -5 -12 R 3 74 R F
5194 6564 M -2 62 R 10 10 R F
5194 6564 M 8 72 R 0 -63 R F
5661 6424 M 0 57 R 348 0 R F
5661 6424 M 348 57 R 0 -57 R F
5661 6549 M 0 57 R 348 0 R F
5661 6549 M 348 57 R 0 -57 R F
7246 6539 M -3 -50 R 0 100 R F
7243 6589 M 0 -100 R -7 -44 R F
7243 6589 M -7 -144 R 0 188 R F
7236 6633 M 0 -188 R -11 -36 R F
7236 6633 M -11 -224 R -1 260 R F
7224 6669 M 1 -260 R -17 -30 R F
7224 6669 M -16 -290 R 0 321 R F
7208 6700 M 0 -321 R -21 -23 R F
7208 6700 M -21 -344 R 0 367 R F
7187 6723 M 0 -367 R -26 -17 R F
7187 6723 M -26 -384 R 0 401 R F
7161 6740 M 0 -401 R -2 201 R F
7161 6740 M -2 -200 R -1 35 R F
7161 6339 M -30 -9 R 4 85 R F
7161 6339 M -26 76 R 9 15 R F
7161 6339 M -17 91 R 7 20 R F
7161 6339 M -10 111 R 5 25 R F
7161 6339 M -5 136 R 2 30 R F
7161 6339 M -3 166 R 1 35 R F
7080 6397 M 15 -2 R 0 -69 R F
7095 6326 M 0 69 R 16 2 R F
7095 6326 M 16 71 R 20 -67 R F
7131 6330 M -20 67 R 13 7 R F
7131 6330 M -7 74 R 11 11 R F
7047 6430 M 8 -15 R 5 -85 R F
7060 6330 M -5 85 R 11 -11 R F
7060 6330 M 6 74 R 29 -78 R F
7095 6326 M -29 78 R 14 -7 R F
7031 6540 M 1 -36 R -3 -165 R F
7029 6339 M 3 165 R 3 -30 R F
7029 6339 M 6 135 R 25 -144 R F
7060 6330 M -25 144 R 5 -25 R F
7060 6330 M -20 119 R 7 -19 R F
7161 6740 M -3 -165 R -2 30 R F
7161 6740 M -5 -135 R -5 25 R F
7161 6740 M -10 -110 R -7 19 R F
7161 6740 M -17 -91 R -9 15 R F
7161 6740 M -26 -76 R -4 86 R F
7131 6750 M 4 -86 R -11 11 R F
7131 6750 M -7 -75 R -13 6 R F
7131 6750 M -20 -69 R -16 3 R F
7131 6750 M -36 -66 R 0 69 R F
7095 6684 M -15 -3 R 15 72 R F
7095 6753 M -15 -72 R -14 -6 R F
7095 6753 M -29 -78 R -6 75 R F
7060 6750 M 6 -75 R -11 -11 R F
7060 6750 M -5 -86 R -8 -15 R F
7047 6649 M -7 -19 R 20 120 R F
7060 6750 M -20 -120 R -5 -25 R F
7060 6750 M -25 -145 R -6 135 R F
7029 6740 M 6 -135 R -3 -30 R F
7029 6740 M 3 -165 R -1 -35 R F
6945 6540 M 3 50 R 0 -101 R F
6948 6489 M 0 101 R 7 43 R F
6948 6489 M 7 144 R 0 -187 R F
6955 6446 M 0 187 R 11 37 R F
6955 6446 M 11 224 R 0 -261 R F
6966 6409 M 0 261 R 17 30 R F
6966 6409 M 17 291 R 0 -321 R F
6983 6379 M 0 321 R 21 23 R F
6983 6379 M 21 344 R 0 -367 R F
7004 6356 M 0 367 R 25 17 R F
7004 6356 M 25 384 R 0 -401 R F
7029 6339 M 0 401 R 2 -200 R F
7392 6338 M -88 0 R 0 87 R F
7392 6338 M -88 87 R 88 0 R F
7661 6338 M -82 0 R 6 381 R F
7661 6338 M -76 381 R 6 16 R F
7661 6338 M -70 397 R 4 18 R F
7661 6338 M -66 415 R 66 0 R F
7579 6622 M -99 0 R 6 58 R F
7579 6622 M -93 58 R 26 1 R F
7579 6622 M -67 59 R 21 3 R F
7579 6622 M -46 62 R 18 5 R F
7579 6622 M -28 67 R 14 8 R F
7579 6622 M -14 75 R 11 10 R F
7579 6622 M -3 85 R 9 12 R F
7579 6622 M 6 97 R -6 -381 R F
7486 6680 M -6 -58 R 0 58 R F
7997 6468 M 4 132 R 17 -252 R F
8018 6348 M -17 252 R 23 -12 R F
8018 6348 M 6 240 R 17 -222 R F
8041 6366 M -17 222 R 21 -17 R F
8041 6366 M 4 205 R 14 -184 R F
8059 6387 M -14 184 R 17 -20 R F
8059 6387 M 3 164 R 10 -139 R F
8072 6412 M -10 139 R 11 -23 R F
8072 6412 M 1 116 R 7 -87 R F
8080 6441 M -7 87 R 8 -26 R F
8080 6441 M 1 61 R 2 -29 R F
7980 6412 M 7 11 R 5 -87 R F
7992 6336 M -5 87 R 6 13 R F
7992 6336 M 1 100 R 25 -88 R F
8018 6348 M -25 88 R 3 15 R F
8018 6348 M -22 103 R 1 17 R F
7944 6393 M 14 4 R 4 -69 R F
7962 6328 M -4 69 R 12 6 R F
7962 6328 M 8 75 R 22 -67 R F
7992 6336 M -22 67 R 10 9 R F
7928 6326 M -31 2 R 6 68 R F
7928 6326 M -25 70 R 12 -3 R F
7928 6326 M -13 67 R 13 -1 R F
7928 6326 M 0 66 R 16 1 R F
7928 6326 M 16 67 R 18 -65 R F
7897 6328 M -27 6 R 2 91 R F
7897 6328 M -25 97 R 5 -10 R F
7897 6328 M -20 87 R 7 -8 R F
7897 6328 M -13 79 R 9 -6 R F
7897 6328 M -4 73 R 10 -5 R F
7870 6334 M -24 10 R 20 105 R F
7870 6334 M -4 115 R 2 -13 R F
7870 6334 M -2 102 R 4 -11 R F
7866 6449 M -20 -105 R -21 15 R F
7866 6449 M -41 -90 R -16 18 R F
7866 6449 M -57 -72 R -13 21 R F
7866 6449 M -70 -51 R -8 24 R F
7866 6449 M -78 -27 R -3 27 R F
8001 6600 M -4 -132 R -1 17 R F
8001 6600 M -5 -115 R -3 14 R F
8001 6600 M -8 -101 R -6 13 R F
8001 6600 M -14 -88 R -8 11 R F
8001 6600 M -22 -77 R -5 84 R F
7979 6523 M -10 9 R 5 75 R F
7974 6607 M -5 -75 R -12 6 R F
7974 6607 M -17 -69 R -12 71 R F
7945 6609 M 12 -71 R -13 3 R F
7945 6609 M -1 -68 R -10 68 R F
7934 6609 M 10 -68 R -15 2 R F
7934 6609 M -5 -66 R -5 65 R F
7924 6608 M 5 -65 R -9 -1 R F
7924 6608 M -4 -66 R -6 64 R F
7914 6606 M 6 -64 R -8 -1 R F
7914 6606 M -2 -65 R -7 63 R F
7905 6604 M 7 -63 R -8 -2 R F
7905 6604 M -1 -65 R -7 -4 R F
7905 6604 M -8 -69 R -1 66 R F
7896 6601 M 1 -66 R -7 -4 R F
7896 6601 M -6 -70 R -2 66 R F
7888 6597 M 2 -66 R -6 -5 R F
7888 6597 M -4 -71 R -3 67 R F
7881 6593 M 3 -67 R -5 -5 R F
7881 6593 M -2 -72 R -5 -7 R F
7881 6593 M -7 -79 R 0 74 R F
7874 6588 M 0 -74 R -48 227 R F
7874 6588 M -48 153 R 58 -70 R F
7884 6671 M -58 70 R 239 0 R F
7884 6671 M 181 70 R 0 -70 R F
7826 6741 M 48 -227 R -75 4 R F
3995 5831 M -3 -14 R 1 93 R F
3993 5910 M -1 -93 R -1 -17 R F
3993 5910 M -2 -110 R -6 95 R F
3985 5895 M 6 -95 R 0 -166 R F
3985 5895 M 6 -261 R -85 0 R F
3906 5634 M 0 315 R 79 0 R F
3906 5634 M 79 315 R 0 -54 R F
4088 5872 M -28 0 R 1 85 R F
4088 5872 M -27 85 R 15 1 R F
4088 5872 M -12 86 R 2 0 R F
4088 5872 M -10 86 R 2 0 R F
4088 5872 M -8 86 R 2 0 R F
4088 5872 M -6 86 R 1 0 R F
4088 5872 M -5 86 R 3 0 R F
4088 5872 M -2 86 R 2 -1 R F
4061 5957 M -1 -85 R -13 82 R F
4047 5954 M 13 -82 R -16 -1 R F
4047 5954 M -3 -83 R -9 78 R F
4035 5949 M 9 -78 R -14 -4 R F
4035 5949 M -5 -82 R -7 76 R F
4023 5943 M 7 -76 R -12 -5 R F
4023 5943 M -5 -81 R -6 72 R F
4012 5934 M 6 -72 R -10 -8 R F
4012 5934 M -4 -80 R -6 69 R F
4002 5923 M 6 -69 R -8 -10 R F
4002 5923 M -2 -79 R -5 -13 R F
3995 5831 M -2 79 R 9 13 R F
4221 5849 M -3 -11 R 5 86 R F
4223 5924 M -5 -86 R 0 -14 R F
4223 5924 M -5 -100 R -4 90 R F
4214 5914 M 4 -90 R 0 -190 R F
4214 5914 M 4 -280 R -84 0 R F
4134 5634 M 0 315 R 80 0 R F
4134 5634 M 80 315 R 0 -35 R F
4399 5634 M -82 0 R 13 321 R F
4399 5634 M -69 321 R 12 -3 R F
4399 5634 M -57 318 R 11 -5 R F
4399 5634 M -46 313 R 10 -7 R F
4399 5634 M -36 306 R 10 -8 R F
4399 5634 M -26 298 R 9 -9 R F
4399 5634 M -17 289 R 8 -11 R F
4399 5634 M -9 278 R 9 10 R F
4399 5634 M 0 288 R 0 -97 R F
4317 5836 M -1 11 R 0 110 R F
4317 5836 M -1 121 R 14 -2 R F
4317 5836 M 13 119 R -13 -321 R F
4316 5957 M 0 -110 R -2 10 R F
4316 5957 M -2 -100 R -4 8 R F
4316 5957 M -6 -92 R -5 7 R F
4316 5957 M -11 -85 R -3 86 R F
4305 5872 M -7 6 R 4 80 R F
4302 5958 M -4 -80 R -8 4 R F
4302 5958 M -12 -76 R -1 75 R F
4289 5957 M 1 -75 R -9 2 R F
4289 5957 M -8 -73 R -4 71 R F
4277 5955 M 4 -71 R -10 1 R F
4277 5955 M -6 -70 R -6 67 R F
4265 5952 M 6 -67 R -12 -1 R F
4265 5952 M -6 -68 R -5 63 R F
4254 5947 M 5 -63 R -10 -3 R F
4254 5947 M -5 -66 R -6 60 R F
4243 5941 M 6 -60 R -9 -5 R F
4243 5941 M -3 -65 R -7 57 R F
4233 5933 M 7 -57 R -8 -7 R F
4233 5933 M -1 -64 R -6 -9 R F
4226 5860 M -5 -11 R 2 75 R F
4226 5860 M -3 64 R 10 9 R F
4583 5634 M -83 0 R 2 322 R F
4583 5634 M -81 322 R 20 -5 R F
4583 5634 M -61 317 R 18 -9 R F
4583 5634 M -43 308 R 15 -12 R F
4583 5634 M -28 296 R 12 -15 R F
4583 5634 M -16 281 R 9 -18 R F
4583 5634 M -7 263 R 5 -20 R F
4583 5634 M -2 243 R 2 -23 R F
4502 5956 M -2 -322 R 0 203 R F
4502 5956 M -2 -119 R -1 11 R F
4502 5956 M -3 -108 R -2 9 R F
4502 5956 M -5 -99 R -4 8 R F
4502 5956 M -9 -91 R -6 7 R F
4502 5956 M -15 -84 R -6 6 R F
4502 5956 M -21 -78 R -1 80 R F
4453 5885 M 0 70 R 10 -71 R F
4463 5884 M -10 71 R 13 2 R F
4463 5884 M 3 73 R 7 -75 R F
4473 5882 M -7 75 R 14 1 R F
4473 5882 M 7 76 R 1 -80 R F
4407 5860 M 1 72 R 6 -63 R F
4414 5869 M -6 63 R 10 8 R F
4414 5869 M 4 71 R 4 -64 R F
4422 5876 M -4 64 R 11 6 R F
4422 5876 M 7 70 R 2 -65 R F
4431 5881 M -2 65 R 12 5 R F
4431 5881 M 10 70 R 0 -67 R F
4441 5884 M 0 67 R 12 4 R F
4441 5884 M 12 71 R 0 -70 R F
4399 5825 M 0 97 R 1 -84 R F
4400 5838 M -1 84 R 9 10 R F
4400 5838 M 8 94 R -5 -82 R F
4403 5850 M 5 82 R -1 -72 R F
4839 5713 M 1 7 R 1 -90 R F
4841 5630 M -1 90 R 5 100 R F
4841 5630 M 4 190 R 21 -181 R F
4866 5639 M -21 181 R 24 -9 R F
4866 5639 M 3 172 R 18 -160 R F
4887 5651 M -18 160 R 19 -9 R F
4887 5651 M 1 151 R 16 -135 R F
4904 5667 M -16 135 R 14 -10 R F
4904 5667 M -2 125 R 10 -12 R F
4841 5630 M -30 -5 R 8 68 R F
4841 5630 M -22 63 R 7 4 R F
4841 5630 M -15 67 R 6 5 R F
4841 5630 M -9 72 R 4 5 R F
4841 5630 M -5 77 R 3 6 R F
4811 5625 M -34 -2 R 11 66 R F
4811 5625 M -23 64 R 12 0 R F
4811 5625 M -11 64 R 10 2 R F
4811 5625 M -1 66 R 9 2 R F
4777 5623 M -31 2 R 3 70 R F
4777 5623 M -28 72 R 11 -3 R F
4777 5623 M -17 69 R 13 -3 R F
4777 5623 M -4 66 R 15 0 R F
4746 5625 M -27 5 R 5 95 R F
4746 5625 M -22 100 R 3 -10 R F
4746 5625 M -19 90 R 5 -8 R F
4746 5625 M -14 82 R 7 -7 R F
4746 5625 M -7 75 R 10 -5 R F
4722 5736 M 2 -11 R -5 -95 R F
4722 5736 M -3 -106 R -24 9 R F
4722 5736 M -27 -97 R -20 13 R F
4722 5736 M -47 -84 R -16 16 R F
4722 5736 M -63 -68 R -12 19 R F
4722 5736 M -75 -49 R -7 21 R F
4722 5736 M -82 -28 R -2 25 R F
4722 5736 M -84 -3 R 0 3 R F
4904 5667 M 8 113 R 3 -95 R F
4915 5685 M -3 95 R 7 -13 R F
4915 5685 M 4 82 R 4 -59 R F
4923 5708 M -4 59 R 4 -16 R F
4923 5708 M 0 43 R 2 -18 R F
4806 5830 M 5 -1 R 0 -83 R F
4811 5746 M 0 83 R 5 -2 R F
4811 5746 M 5 81 R 11 -88 R F
4827 5739 M -11 88 R 29 -7 R F
4827 5739 M 18 81 R -8 -90 R F
4837 5730 M 8 90 R -5 -100 R F
4811 5746 M -22 7 R 4 80 R F
4811 5746 M -18 87 R 7 -2 R F
4811 5746 M -11 85 R 6 -1 R F
4789 5753 M -9 2 R 13 78 R F
4793 5833 M -13 -78 R -9 2 R F
4793 5833 M -22 -76 R -6 83 R F
4765 5840 M 6 -83 R -8 1 R F
4765 5840 M -2 -82 R -6 2 R F
4757 5760 M -29 8 R 2 98 R F
4757 5760 M -27 106 R 4 -9 R F
4757 5760 M -23 97 R 12 -9 R F
4757 5760 M -11 88 R 19 -8 R F
4915 5853 M -82 0 R 0 100 R F
4915 5853 M -82 100 R 24 -8 R F
4915 5853 M -58 92 R 19 -13 R F
4915 5853 M -39 79 R 16 -15 R F
4915 5853 M -23 64 R 12 -19 R F
4915 5853 M -11 45 R 7 -21 R F
4833 5953 M 0 -100 R -2 9 R F
4833 5953 M -2 -91 R -3 9 R F
4833 5953 M -5 -82 R -4 7 R F
4833 5953 M -9 -75 R -7 6 R F
4833 5953 M -16 -69 R -8 5 R F
4833 5953 M -24 -64 R -2 70 R F
4807 5959 M 2 -70 R -9 3 R F
4807 5959 M -7 -67 R -10 2 R F
4807 5959 M -17 -65 R -13 1 R F
4807 5959 M -30 -64 R 0 65 R F
4777 5895 M -11 0 R 11 65 R F
4777 5960 M -11 -65 R -10 -2 R F
4777 5960 M -21 -67 R -7 66 R F
4749 5959 M 7 -66 R -8 -2 R F
4749 5959 M -1 -68 R -6 -3 R F
4749 5959 M -7 -71 R -6 -4 R F
4749 5959 M -13 -75 R -3 -5 R F
4749 5959 M -16 -80 R -2 -6 R F
4749 5959 M -18 -86 R -8 80 R F
4723 5953 M 8 -80 R -1 -7 R F
4723 5953 M 7 -87 R -2 -98 R F
4723 5953 M 5 -185 R -24 9 R F
4723 5953 M -19 -176 R -3 167 R F
4649 5838 M 0 40 R 4 -56 R F
4653 5822 M -4 56 R 7 21 R F
4653 5822 M 3 77 R 5 -90 R F
4661 5809 M -5 90 R 11 18 R F
4661 5809 M 6 108 R 4 -120 R F
4671 5797 M -4 120 R 15 15 R F
4671 5797 M 11 135 R 3 -145 R F
4685 5787 M -3 145 R 19 12 R F
4685 5787 M 16 157 R 3 -167 R F
4649 5878 M 0 -40 R -2 17 R F
5186 5720 M 0 57 R 348 0 R F
5186 5720 M 348 57 R 0 -57 R F
5186 5845 M 0 57 R 348 0 R F
5186 5845 M 348 57 R 0 -57 R F
6173 5634 M -82 0 R 6 381 R F
6173 5634 M -76 381 R 6 16 R F
6173 5634 M -70 397 R 4 18 R F
6173 5634 M -66 415 R 66 0 R F
6091 5918 M -99 0 R 6 58 R F
6091 5918 M -93 58 R 26 1 R F
6091 5918 M -67 59 R 21 3 R F
6091 5918 M -46 62 R 18 5 R F
6091 5918 M -28 67 R 15 8 R F
6091 5918 M -13 75 R 11 10 R F
6091 5918 M -2 85 R 8 12 R F
6091 5918 M 6 97 R -6 -381 R F
5998 5976 M -6 -58 R 0 58 R F
6410 5634 M -88 0 R 0 87 R F
6410 5634 M -88 87 R 88 0 R F
6679 5634 M -82 0 R 6 381 R F
6679 5634 M -76 381 R 6 16 R F
6679 5634 M -70 397 R 4 18 R F
6679 5634 M -66 415 R 66 0 R F
6597 5918 M -99 0 R 6 58 R F
6597 5918 M -93 58 R 26 1 R F
6597 5918 M -67 59 R 21 3 R F
6597 5918 M -46 62 R 18 5 R F
6597 5918 M -28 67 R 14 8 R F
6597 5918 M -14 75 R 12 10 R F
6597 5918 M -2 85 R 8 12 R F
6597 5918 M 6 97 R -6 -381 R F
6504 5976 M -6 -58 R 0 58 R F
7023 5765 M 5 129 R 18 -250 R F
7046 5644 M -18 250 R 23 -11 R F
7046 5644 M 5 239 R 16 -222 R F
7067 5661 M -16 222 R 19 -17 R F
7067 5661 M 3 205 R 15 -183 R F
7085 5683 M -15 183 R 17 -20 R F
7085 5683 M 2 163 R 10 -138 R F
7097 5708 M -10 138 R 11 -23 R F
7097 5708 M 1 115 R 7 -87 R F
7105 5736 M -7 87 R 7 -26 R F
7105 5736 M 0 61 R 2 -30 R F
7014 5720 M 5 13 R 2 -102 R F
7021 5631 M -2 102 R 3 15 R F
7021 5631 M 1 117 R 24 -104 R F
7046 5644 M -24 104 R 1 17 R F
6975 5689 M 12 4 R 6 -69 R F
6993 5624 M -6 69 R 11 7 R F
6993 5624 M 5 76 R 23 -69 R F
7021 5631 M -23 69 R 8 8 R F
7021 5631 M -15 77 R 8 12 R F
6961 5621 M -35 3 R 8 69 R F
6961 5621 M -27 72 R 13 -4 R F
6961 5621 M -14 68 R 14 -1 R F
6961 5621 M 0 67 R 14 1 R F
6961 5621 M 14 68 R 18 -65 R F
6926 5624 M -31 10 R 4 100 R F
6926 5624 M -27 110 R 6 -14 R F
6926 5624 M -21 96 R 8 -11 R F
6926 5624 M -13 85 R 10 -9 R F
6926 5624 M -3 76 R 11 -7 R F
6895 5634 M -27 16 R 5 367 R F
6895 5634 M -22 383 R 21 -143 R F
6895 5634 M -1 240 R 1 -108 R F
6895 5634 M 0 132 R 1 -17 R F
6895 5634 M 1 115 R 3 -15 R F
7028 5894 M -5 -129 R -1 16 R F
7028 5894 M -6 -113 R -3 14 R F
7028 5894 M -9 -99 R -6 12 R F
7028 5894 M -15 -87 R -7 10 R F
7028 5894 M -22 -77 R -4 84 R F
7002 5901 M 4 -84 R -9 8 R F
7002 5901 M -5 -76 R -11 6 R F
7002 5901 M -16 -70 R -13 3 R F
7002 5901 M -29 -67 R 0 69 R F
6973 5903 M 0 -69 R -12 69 R F
6961 5903 M 12 -69 R -14 2 R F
6961 5903 M -2 -67 R -10 66 R F
6949 5902 M 10 -66 R -15 -2 R F
6949 5902 M -5 -68 R -6 65 R F
6938 5899 M 6 -65 R -12 -3 R F
6938 5899 M -6 -68 R -4 65 R F
6928 5896 M 4 -65 R -11 -6 R F
6928 5896 M -7 -71 R -3 67 R F
6918 5892 M 3 -67 R -9 -8 R F
6918 5892 M -6 -75 R -2 70 R F
6910 5887 M 2 -70 R -8 -10 R F
6910 5887 M -6 -80 R -3 74 R F
6901 5881 M 3 -74 R -5 -12 R F
6901 5881 M -2 -86 R -3 -14 R F
6895 5766 M -1 108 R 7 7 R F
6895 5766 M 6 115 R -5 -100 R F
6873 6017 M -5 -367 R -19 342 R F
6849 5992 M 19 -342 R -22 23 R F
6849 5992 M -3 -319 R -15 287 R F
6831 5960 M 15 -287 R -17 29 R F
6831 5960 M -2 -258 R -11 220 R F
6818 5922 M 11 -220 R -12 36 R F
6818 5922 M -1 -184 R -7 139 R F
6810 5877 M 7 -139 R -7 41 R F
6810 5877 M 0 -98 R -3 47 R F
7096 5943 M -84 0 R 8 99 R F
7096 5943 M -76 99 R 21 -9 R F
7096 5943 M -55 90 R 18 -13 R F
7096 5943 M -37 77 R 15 -15 R F
7096 5943 M -22 62 R 12 -18 R F
7096 5943 M -10 44 R 7 -21 R F
7020 6042 M -8 -99 R -2 9 R F
7020 6042 M -10 -90 R -3 8 R F
7020 6042 M -13 -82 R -5 7 R F
7020 6042 M -18 -75 R -5 80 R F
6997 6047 M 5 -80 R -5 6 R F
6997 6047 M 0 -74 R -7 4 R F
6997 6047 M -7 -70 R -9 3 R F
6997 6047 M -16 -67 R -9 2 R F
6997 6047 M -25 -65 R -2 67 R F
6970 6049 M 2 -67 R -11 1 R F
6970 6049 M -9 -66 R -15 -2 R F
6970 6049 M -24 -68 R -13 -5 R F
6970 6049 M -37 -73 R 0 70 R F
6933 6046 M 0 -70 R -11 -8 R F
6933 6046 M -11 -78 R -9 -12 R F
6933 6046 M -20 -90 R -8 -15 R F
6933 6046 M -28 -105 R -4 94 R F
6901 6035 M 4 -94 R -5 -19 R F
6901 6035 M -1 -113 R -4 -22 R F
6901 6035 M -5 -135 R -2 -26 R F
6901 6035 M -7 -161 R -21 143 R F
7352 5764 M 4 132 R 17 -252 R F
7373 5644 M -17 252 R 23 -12 R F
7373 5644 M 6 240 R 17 -222 R F
7396 5662 M -17 222 R 21 -17 R F
7396 5662 M 4 205 R 14 -184 R F
7414 5683 M -14 184 R 17 -20 R F
7414 5683 M 3 164 R 11 -139 R F
7428 5708 M -11 139 R 12 -23 R F
7428 5708 M 1 116 R 6 -87 R F
7435 5737 M -6 87 R 7 -26 R F
7435 5737 M 1 61 R 2 -29 R F
7335 5708 M 7 11 R 5 -87 R F
7347 5632 M -5 87 R 6 13 R F
7347 5632 M 1 100 R 25 -88 R F
7373 5644 M -25 88 R 3 15 R F
7373 5644 M -22 103 R 1 17 R F
7299 5689 M 14 4 R 4 -69 R F
7317 5624 M -4 69 R 12 6 R F
7317 5624 M 8 75 R 22 -67 R F
7347 5632 M -22 67 R 10 9 R F
7283 5622 M -30 2 R 6 68 R F
7283 5622 M -24 70 R 11 -3 R F
7283 5622 M -13 67 R 13 -1 R F
7283 5622 M 0 66 R 16 1 R F
7283 5622 M 16 67 R 18 -65 R F
7253 5624 M -28 6 R 2 91 R F
7253 5624 M -26 97 R 5 -10 R F
7253 5624 M -21 87 R 8 -8 R F
7253 5624 M -13 79 R 8 -6 R F
7253 5624 M -5 73 R 11 -5 R F
7225 5630 M -24 10 R 20 105 R F
7225 5630 M -4 115 R 2 -13 R F
7225 5630 M -2 102 R 4 -11 R F
7221 5745 M -20 -105 R -21 15 R F
7221 5745 M -41 -90 R -16 18 R F
7221 5745 M -57 -72 R -13 21 R F
7221 5745 M -70 -51 R -8 24 R F
7221 5745 M -78 -27 R -3 27 R F
7356 5896 M -4 -132 R -1 17 R F
7356 5896 M -5 -115 R -3 14 R F
7356 5896 M -8 -101 R -6 13 R F
7356 5896 M -14 -88 R -8 11 R F
7356 5896 M -22 -77 R -5 84 R F
7334 5819 M -10 9 R 5 75 R F
7329 5903 M -5 -75 R -12 6 R F
7329 5903 M -17 -69 R -12 71 R F
7300 5905 M 12 -71 R -13 3 R F
7300 5905 M -1 -68 R -10 68 R F
7289 5905 M 10 -68 R -15 2 R F
7289 5905 M -5 -66 R -5 65 R F
7279 5904 M 5 -65 R -9 -1 R F
7279 5904 M -4 -66 R -6 64 R F
7269 5902 M 6 -64 R -8 -1 R F
7269 5902 M -2 -65 R -7 63 R F
7260 5900 M 7 -63 R -8 -2 R F
7260 5900 M -1 -65 R -7 -4 R F
7260 5900 M -8 -69 R 0 66 R F
7252 5897 M 0 -66 R -7 -4 R F
7252 5897 M -7 -70 R -2 66 R F
7243 5893 M 2 -66 R -6 -5 R F
7243 5893 M -4 -71 R -3 67 R F
7236 5889 M 3 -67 R -5 -5 R F
7236 5889 M -2 -72 R -5 -7 R F
7236 5889 M -7 -79 R 0 74 R F
7229 5884 M 0 -74 R -48 227 R F
7229 5884 M -48 153 R 59 -70 R F
7240 5967 M -59 70 R 239 0 R F
7240 5967 M 180 70 R 0 -70 R F
7181 6037 M 48 -227 R -75 4 R F
7565 5917 M -78 0 R 3 30 R F
7565 5917 M -75 30 R 7 26 R F
7565 5917 M -68 56 R 12 23 R F
7565 5917 M -56 79 R 15 18 R F
7565 5917 M -41 97 R 20 15 R F
7565 5917 M -21 112 R 21 -109 R F
7689 5754 M -1 14 R 18 263 R F
7706 6031 M -18 -263 R -4 13 R F
7706 6031 M -22 -250 R -2 260 R F
7682 6041 M 2 -260 R -6 10 R F
7682 6041 M -4 -250 R 0 139 R F
7678 5930 M 0 -139 R -2 126 R F
7660 5887 M 8 8 R 2 -95 R F
7670 5800 M -2 95 R 5 10 R F
7670 5800 M 3 105 R 5 -114 R F
7678 5791 M -5 114 R 3 12 R F
7610 5816 M 14 58 R 5 -59 R F
7629 5815 M -5 59 R 14 3 R F
7629 5815 M 9 62 R 7 -65 R F
7645 5812 M -7 65 R 12 4 R F
7645 5812 M 5 69 R 8 -74 R F
7658 5807 M -8 74 R 10 6 R F
7658 5807 M 2 80 R 10 -87 R F
7608 5816 M -2 0 R 1 57 R F
7608 5816 M -1 57 R 17 1 R F
7608 5816 M 16 58 R -14 -58 R F
7607 5873 M -1 -57 R -2 0 R F
7607 5873 M -3 -57 R -2 0 R F
7607 5873 M -5 -57 R -1 0 R F
7607 5873 M -6 -57 R -3 0 R F
7607 5873 M -9 -57 R 0 57 R F
7774 5728 M -7 -27 R 1 102 R F
7774 5728 M -6 75 R 5 -14 R F
7774 5728 M -1 61 R 3 -15 R F
7774 5728 M 2 46 R 1 -17 R F
7740 5838 M 11 -11 R 3 -149 R F
7754 5678 M -3 149 R 9 -11 R F
7754 5678 M 6 138 R 7 -115 R F
7767 5701 M -7 115 R 8 -13 R F
7706 6031 M 6 -177 R 2 -212 R F
7714 5642 M -2 212 R 15 -8 R F
7714 5642 M 13 204 R 9 -188 R F
7736 5658 M -9 188 R 13 -8 R F
7736 5658 M 4 180 R 14 -160 R F
7680 5716 M 5 11 R 2 -96 R F
7687 5631 M -2 96 R 3 12 R F
7687 5631 M 1 108 R 26 -97 R F
7714 5642 M -26 97 R 1 15 R F
7714 5642 M -25 112 R 17 277 R F
7639 5691 M 13 3 R 6 -70 R F
7658 5624 M -6 70 R 11 5 R F
7658 5624 M 5 75 R 24 -68 R F
7687 5631 M -24 68 R 9 8 R F
7687 5631 M -15 76 R 8 9 R F
7624 5622 M -33 2 R 5 71 R F
7624 5622 M -28 73 R 13 -4 R F
7624 5622 M -15 69 R 15 -1 R F
7624 5622 M 0 68 R 15 1 R F
7624 5622 M 15 69 R 19 -67 R F
7591 5624 M -29 7 R 1 99 R F
7591 5624 M -28 106 R 5 -12 R F
7591 5624 M -23 94 R 7 -10 R F
7591 5624 M -16 84 R 9 -8 R F
7591 5624 M -7 76 R 12 -5 R F
7562 5631 M -25 11 R 21 118 R F
7562 5631 M -4 129 R 1 -16 R F
7562 5631 M -3 113 R 4 -14 R F
7558 5760 M -21 -118 R -21 15 R F
7558 5760 M -42 -103 R -16 20 R F
7558 5760 M -58 -83 R -12 23 R F
7558 5760 M -70 -60 R -7 27 R F
7558 5760 M -77 -33 R -3 31 R F
7558 5760 M -80 -2 R 0 2 R F
7760 5960 M 2 -24 R -1 -13 R F
7760 5960 M 1 -37 R -2 -13 R F
7760 5960 M -1 -50 R -4 -11 R F
7760 5960 M -5 -61 R -2 83 R F
7755 5899 M -6 -11 R 4 94 R F
7753 5982 M -4 -94 R -7 -10 R F
7753 5982 M -11 -104 R -1 124 R F
7741 6002 M 1 -124 R -8 -9 R F
7741 6002 M -7 -133 R -9 149 R F
7725 6018 M 9 -149 R -10 -8 R F
7725 6018 M -1 -157 R -12 -7 R F
7682 6041 M -4 -111 R -1 12 R F
7682 6041 M -5 -99 R -3 10 R F
7682 6041 M -8 -89 R -5 9 R F
7682 6041 M -13 -80 R -6 7 R F
7682 6041 M -19 -73 R -7 79 R F
7656 6047 M 7 -79 R -8 6 R F
7656 6047 M -1 -73 R -9 5 R F
7656 6047 M -10 -68 R -11 3 R F
7656 6047 M -21 -65 R -9 67 R F
7626 6049 M 9 -67 R -12 0 R F
7626 6049 M -3 -67 R -13 -1 R F
7626 6049 M -16 -68 R -12 -3 R F
7626 6049 M -28 -71 R -3 68 R F
7595 6046 M 3 -68 R -9 -5 R F
7595 6046 M -6 -73 R -9 -7 R F
7595 6046 M -15 -80 R -6 -9 R F
7595 6046 M -21 -89 R -5 -11 R F
7595 6046 M -26 -100 R -1 94 R F
7568 6040 M 1 -94 R -3 -12 R F
7568 6040 M -2 -106 R -1 -14 R F
7568 6040 M -3 -120 R -21 109 R F
7725 6018 M -13 -164 R -6 177 R F
7930 5712 M 234 0 R 0 -78 R F
7930 5712 M 234 -78 R -321 0 R F
7930 5712 M -87 -78 R 87 353 R F
7930 5712 M 0 275 R 0 -91 R F
7930 5712 M 0 184 R 0 -74 R F
7930 5822 M 0 74 R 204 0 R F
7930 5822 M 204 74 R 0 -74 R F
7930 5987 M -87 -353 R 0 427 R F
7930 5987 M -87 74 R 310 0 R F
7930 5987 M 223 74 R 0 -74 R F
8368 5752 M -163 0 R 0 79 R F
8368 5752 M -163 79 R 163 0 R F
8704 5835 M -2 -50 R 0 100 R F
8702 5885 M 0 -100 R -7 -44 R F
8702 5885 M -7 -144 R 0 188 R F
8695 5929 M 0 -188 R -12 -36 R F
8695 5929 M -12 -224 R 0 260 R F
8683 5965 M 0 -260 R -16 -30 R F
8683 5965 M -16 -290 R 0 321 R F
8667 5996 M 0 -321 R -21 -23 R F
8667 5996 M -21 -344 R -1 367 R F
8645 6019 M 1 -367 R -26 -17 R F
8645 6019 M -25 -384 R 0 401 R F
8620 6036 M 0 -401 R -2 201 R F
8620 6036 M -2 -200 R -1 35 R F
8620 5635 M -31 -9 R 5 85 R F
8620 5635 M -26 76 R 9 15 R F
8620 5635 M -17 91 R 6 20 R F
8620 5635 M -11 111 R 5 25 R F
8620 5635 M -6 136 R 3 30 R F
8620 5635 M -3 166 R 1 35 R F
8538 5693 M 16 -2 R 0 -69 R F
8554 5622 M 0 69 R 15 2 R F
8554 5622 M 15 71 R 20 -67 R F
8589 5626 M -20 67 R 14 7 R F
8589 5626 M -6 74 R 11 11 R F
8505 5726 M 9 -15 R 4 -85 R F
8518 5626 M -4 85 R 11 -11 R F
8518 5626 M 7 74 R 29 -78 R F
8554 5622 M -29 78 R 13 -7 R F
8490 5836 M 1 -36 R -3 -165 R F
8488 5635 M 3 165 R 3 -30 R F
8488 5635 M 6 135 R 24 -144 R F
8518 5626 M -24 144 R 4 -25 R F
8518 5626 M -20 119 R 7 -19 R F
8620 6036 M -3 -165 R -3 30 R F
8620 6036 M -6 -135 R -5 25 R F
8620 6036 M -11 -110 R -6 19 R F
8620 6036 M -17 -91 R -9 15 R F
8620 6036 M -26 -76 R -5 86 R F
8589 6046 M 5 -86 R -11 11 R F
8589 6046 M -6 -75 R -14 6 R F
8589 6046 M -20 -69 R -15 3 R F
8589 6046 M -35 -66 R 0 69 R F
8554 5980 M -16 -3 R 16 72 R F
8554 6049 M -16 -72 R -13 -6 R F
8554 6049 M -29 -78 R -7 75 R F
8518 6046 M 7 -75 R -11 -11 R F
8518 6046 M -4 -86 R -9 -15 R F
8505 5945 M -7 -19 R 20 120 R F
8518 6046 M -20 -120 R -4 -25 R F
8518 6046 M -24 -145 R -6 135 R F
8488 6036 M 6 -135 R -3 -30 R F
8488 6036 M 3 -165 R -1 -35 R F
8404 5836 M 2 50 R 0 -101 R F
8406 5785 M 0 101 R 7 43 R F
8406 5785 M 7 144 R 0 -187 R F
8413 5742 M 0 187 R 12 37 R F
8413 5742 M 12 224 R 0 -261 R F
8425 5705 M 0 261 R 16 30 R F
8425 5705 M 16 291 R 0 -321 R F
8441 5675 M 0 321 R 21 23 R F
8441 5675 M 21 344 R 0 -367 R F
8462 5652 M 0 367 R 26 17 R F
8462 5652 M 26 384 R 0 -401 R F
8488 5635 M 0 401 R 2 -200 R F
8820 5901 M -77 0 R 3 33 R F
8820 5901 M -74 33 R 7 30 R F
8820 5901 M -67 63 R 12 25 R F
8820 5901 M -55 88 R 17 22 R F
8820 5901 M -38 110 R 21 16 R F
8820 5901 M -17 126 R 17 -123 R F
8839 5704 M 188 0 R 0 -70 R F
8839 5704 M 188 -70 R -267 94 R F
8839 5704 M -79 24 R 14 19 R F
8839 5704 M -65 43 R 18 20 R F
8839 5704 M -47 63 R 23 20 R F
8839 5704 M -24 83 R 28 20 R F
8839 5704 M 4 103 R 2 -92 R F
9027 5634 M -291 0 R 2 26 R F
9027 5634 M -289 26 R 5 25 R F
9027 5634 M -284 51 R 7 23 R F
9027 5634 M -277 74 R 10 20 R F
9031 5921 M -1 -20 R -1 48 R F
9029 5949 M 1 -48 R -4 -19 R F
9029 5949 M -3 -67 R -4 91 R F
9022 5973 M 4 -91 R -6 -17 R F
9022 5973 M -2 -108 R -9 -16 R F
9022 5973 M -11 -124 R -1 146 R F
9010 5995 M 1 -146 R -12 -16 R F
9010 5995 M -11 -162 R -6 181 R F
8993 6014 M 6 -181 R -17 -16 R F
8993 6014 M -11 -197 R -10 212 R F
8972 6029 M 10 -212 R -22 -18 R F
8972 6029 M -12 -230 R -12 241 R F
8948 6040 M 12 -241 R -13 121 R F
8948 6040 M -1 -120 R -1 13 R F
8947 5920 M 13 -121 R -18 98 R F
8942 5897 M 18 -98 R -26 -19 R F
8942 5897 M -8 -117 R -7 93 R F
8927 5873 M 7 -93 R -7 -5 R F
8927 5873 M 0 -98 R -8 -5 R F
8910 5764 M -10 -6 R 3 90 R F
8910 5764 M -7 84 R 24 25 R F
8910 5764 M 17 109 R -8 -103 R F
8876 5741 M -18 -14 R 3 91 R F
8876 5741 M -15 77 R 8 5 R F
8876 5741 M -7 82 R 34 25 R F
8876 5741 M 27 107 R -3 -90 R F
8858 5727 M -13 -12 R 3 95 R F
8858 5727 M -10 83 R 6 4 R F
8858 5727 M -4 87 R 7 4 R F
8948 6040 M -2 -107 R -3 12 R F
8948 6040 M -5 -95 R -5 10 R F
8948 6040 M -10 -85 R -8 9 R F
8948 6040 M -18 -76 R -9 7 R F
8948 6040 M -27 -69 R 0 76 R F
8921 5971 M -10 5 R 10 71 R F
8921 6047 M -10 -71 R -12 3 R F
8921 6047 M -22 -68 R -8 70 R F
8891 6049 M 8 -70 R -14 1 R F
8891 6049 M -6 -69 R -15 -2 R F
8857 5975 M -11 -7 R 11 79 R F
8857 5975 M 0 72 R 34 2 R F
8857 5975 M 34 74 R -21 -71 R F
8846 5968 M -9 -8 R 20 87 R F
8857 6047 M -20 -87 R -8 -11 R F
8857 6047 M -28 -98 R -1 91 R F
8828 6040 M 1 -91 R -5 -13 R F
8828 6040 M -4 -104 R -3 -15 R F
8820 5904 M -17 123 R 25 13 R F
8820 5904 M 8 136 R -7 -119 R F
8845 5715 M -2 92 R 5 3 R F
%%PageTrailer
end
restore
showpage
%%PageResources: font Helvetica
%%Trailer
restore
%%Pages: 1
%%DocumentNeededResources: font Helvetica
%%EOF
