%!PS-Adobe-3.0
%%BoundingBox: 91 264 519 527
%%Title: Graphics produced by IDL
%%For: yssu@ArchTest, 
%%      /home/yssu/SURF2015/Thesis/point_source/bbody/moving_pivots/hists/newPSDHists
%%Creator: IDL Version 8.3 (linux x86_64 m64)
%%CreationDate: Thu May 12 14:43:48 2016
%%DocumentData: Clean7bit
%%Requirements: color
%%LanguageLevel: 2
%%PageOrder: Ascend
%%Pages: (atend)
%%DocumentNeededResources: (atend)
%%EndComments
%%BeginProlog
save
%+ prolog.ps -- Prolog for IDL generated PostScript files
%+ Copyright (c) 1988-2013 Exelis Visual Information Solutions, Inc. All Rights Reserved.
%v 5
/$IDL_DICT 40 dict def $IDL_DICT begin /bdef { bind def } bind def /C
{currentpoint newpath moveto} bdef /CP {currentpoint} bdef /D {currentpoint
stroke moveto} bdef /F {closepath fill} bdef /K { setgray } bdef /M {moveto}
bdef /N {rmoveto} bdef /P {lineto} bdef /R {rlineto} bdef /S {gsave show
grestore} bdef /X {currentpoint pop} bdef /Z {gsave currentpoint lineto 20
setlinewidth 1 setlinecap stroke grestore} bdef /L0 {[] 0 setdash} bdef /L1
{[40 100] 0 setdash} bdef /L2 {[200 200] 0 setdash} bdef /L3 {[200 100 50
100] 0 setdash} bdef /L4 {[300 100 50 100 50 100 50 100] 0 setdash} bdef /L5
{[400 200] 0 setdash} bdef /STDFONT { findfont exch scalefont setfont } bdef
/ISOFONT { findfont dup length dict begin { 1 index /FID ne {def} {pop pop}
ifelse } forall /Encoding ISOLatin1Encoding def currentdict end /idltmpfont
exch definefont exch scalefont setfont } bdef /ISOBULLET { gsave /Helvetica
findfont exch scalefont setfont (\267) show currentpoint grestore moveto}
bdef /MITERLIMIT { 2.5 setmiterlimit } bdef end
%%EndProlog
%%Page: 0 1
%%PageRequirements: color
%%PageResources: (atend)
%%PageOrientation: Portrait
%%PageBoundingBox: 91 264 519 527
%%BeginPageSetup
save
$IDL_DICT begin 91 264 translate 0.0283465 dup scale MITERLIMIT
%%IncludeResource: font Helvetica
423.333 /Helvetica STDFONT
%%EndPageSetup
40 setlinewidth L0 0.000 0.000 0.000 setrgbcolor 3330 2112 M 10784 0 R D
3330 2112 M 0 123 R D 3122 1320 M -61 0 R 4 286 R F
3122 1320 M -57 286 R 5 12 R F
3122 1320 M -52 298 R 2 14 R F
3122 1320 M -50 312 R 50 0 R F
3061 1533 M -75 0 R 5 44 R F
3061 1533 M -70 44 R 19 1 R F
3061 1533 M -51 45 R 16 2 R F
3061 1533 M -35 47 R 14 4 R F
3061 1533 M -21 51 R 10 6 R F
3061 1533 M -11 57 R 9 7 R F
3061 1533 M -2 64 R 6 9 R F
3061 1533 M 4 73 R -4 -286 R F
2991 1577 M -5 -44 R 0 44 R F
3443 1471 M -2 -38 R 0 76 R F
3441 1509 M 0 -76 R -5 -32 R F
3441 1509 M -5 -108 R 0 140 R F
3436 1541 M 0 -140 R -9 -27 R F
3436 1541 M -9 -167 R 0 195 R F
3427 1569 M 0 -195 R -12 -23 R F
3427 1569 M -12 -218 R 0 241 R F
3415 1592 M 0 -241 R -16 -17 R F
3415 1592 M -16 -258 R 0 275 R F
3399 1609 M 0 -275 R -19 -13 R F
3399 1609 M -19 -288 R -1 301 R F
3379 1622 M 1 -301 R -2 151 R F
3379 1622 M -1 -150 R -1 26 R F
3380 1321 M -23 -7 R 3 64 R F
3380 1321 M -20 57 R 7 11 R F
3380 1321 M -13 68 R 5 15 R F
3380 1321 M -8 83 R 3 19 R F
3380 1321 M -5 102 R 2 22 R F
3380 1321 M -3 124 R 1 27 R F
3318 1365 M 12 -2 R 0 -51 R F
3330 1312 M 0 51 R 12 2 R F
3330 1312 M 12 53 R 15 -51 R F
3357 1314 M -15 51 R 10 5 R F
3357 1314 M -5 56 R 8 8 R F
3294 1389 M 6 -11 R 3 -64 R F
3303 1314 M -3 64 R 8 -8 R F
3303 1314 M 5 56 R 22 -58 R F
3330 1312 M -22 58 R 10 -5 R F
3282 1472 M 1 -27 R -2 -123 R F
3281 1322 M 2 123 R 2 -22 R F
3281 1322 M 4 101 R 18 -109 R F
3303 1314 M -18 109 R 4 -19 R F
3303 1314 M -14 90 R 5 -15 R F
3379 1622 M -2 -124 R -2 22 R F
3379 1622 M -4 -102 R -3 19 R F
3379 1622 M -7 -83 R -5 15 R F
3379 1622 M -12 -68 R -7 11 R F
3379 1622 M -19 -57 R -4 64 R F
3356 1629 M 4 -64 R -8 8 R F
3356 1629 M -4 -56 R -10 5 R F
3356 1629 M -14 -51 R -12 2 R F
3356 1629 M -26 -49 R 0 52 R F
3330 1580 M -12 -2 R 12 54 R F
3330 1632 M -12 -54 R -10 -5 R F
3330 1632 M -22 -59 R -5 56 R F
3303 1629 M 5 -56 R -8 -8 R F
3303 1629 M -3 -64 R -6 -11 R F
3294 1554 M -5 -15 R 14 90 R F
3303 1629 M -14 -90 R -4 -18 R F
3303 1629 M -18 -108 R -4 101 R F
3281 1622 M 4 -101 R -2 -23 R F
3281 1622 M 2 -124 R -1 -26 R F
3217 1472 M 2 37 R 0 -75 R F
3219 1434 M 0 75 R 5 33 R F
3219 1434 M 5 108 R 0 -141 R F
3224 1401 M 0 141 R 9 27 R F
3224 1401 M 9 168 R 0 -195 R F
3233 1374 M 0 195 R 12 23 R F
3233 1374 M 12 218 R 0 -241 R F
3245 1351 M 0 241 R 16 17 R F
3245 1351 M 16 258 R 0 -275 R F
3261 1334 M 0 275 R 20 13 R F
3261 1334 M 20 288 R 0 -300 R F
3281 1322 M 0 300 R 1 -150 R F
3695 1471 M -1 -38 R 0 76 R F
3694 1509 M 0 -76 R -6 -32 R F
3694 1509 M -6 -108 R 0 140 R F
3688 1541 M 0 -140 R -8 -27 R F
3688 1541 M -8 -167 R 0 195 R F
3680 1569 M 0 -195 R -13 -23 R F
3680 1569 M -13 -218 R 0 241 R F
3667 1592 M 0 -241 R -15 -17 R F
3667 1592 M -15 -258 R -1 275 R F
3651 1609 M 1 -275 R -20 -13 R F
3651 1609 M -19 -288 R 0 301 R F
3632 1622 M 0 -301 R -1 151 R F
3632 1622 M -1 -150 R -1 26 R F
3632 1321 M -23 -7 R 4 64 R F
3632 1321 M -19 57 R 6 11 R F
3632 1321 M -13 68 R 5 15 R F
3632 1321 M -8 83 R 4 19 R F
3632 1321 M -4 102 R 2 22 R F
3632 1321 M -2 124 R 1 27 R F
3571 1365 M 12 -2 R 0 -51 R F
3583 1312 M 0 51 R 11 2 R F
3583 1312 M 11 53 R 15 -51 R F
3609 1314 M -15 51 R 10 5 R F
3609 1314 M -5 56 R 9 8 R F
3546 1389 M 7 -11 R 3 -64 R F
3556 1314 M -3 64 R 8 -8 R F
3556 1314 M 5 56 R 22 -58 R F
3583 1312 M -22 58 R 10 -5 R F
3535 1472 M 1 -27 R -3 -123 R F
3533 1322 M 3 123 R 2 -22 R F
3533 1322 M 5 101 R 18 -109 R F
3556 1314 M -18 109 R 3 -19 R F
3556 1314 M -15 90 R 5 -15 R F
3632 1622 M -2 -124 R -2 22 R F
3632 1622 M -4 -102 R -4 19 R F
3632 1622 M -8 -83 R -5 15 R F
3632 1622 M -13 -68 R -6 11 R F
3632 1622 M -19 -57 R -4 64 R F
3609 1629 M 4 -64 R -9 8 R F
3609 1629 M -5 -56 R -10 5 R F
3609 1629 M -15 -51 R -11 2 R F
3609 1629 M -26 -49 R 0 52 R F
3583 1580 M -12 -2 R 12 54 R F
3583 1632 M -12 -54 R -10 -5 R F
3583 1632 M -22 -59 R -5 56 R F
3556 1629 M 5 -56 R -8 -8 R F
3556 1629 M -3 -64 R -7 -11 R F
3546 1554 M -5 -15 R 15 90 R F
3556 1629 M -15 -90 R -3 -18 R F
3556 1629 M -18 -108 R -5 101 R F
3533 1622 M 5 -101 R -2 -23 R F
3533 1622 M 3 -124 R -1 -26 R F
3470 1472 M 2 37 R 0 -75 R F
3472 1434 M 0 75 R 5 33 R F
3472 1434 M 5 108 R 0 -141 R F
3477 1401 M 0 141 R 9 27 R F
3477 1401 M 9 168 R 0 -195 R F
3486 1374 M 0 195 R 12 23 R F
3486 1374 M 12 218 R 0 -241 R F
3498 1351 M 0 241 R 16 17 R F
3498 1351 M 16 258 R 0 -275 R F
3514 1334 M 0 275 R 19 13 R F
3514 1334 M 19 288 R 0 -300 R F
3533 1322 M 0 300 R 2 -150 R F
6026 2112 M 0 123 R D 5944 1418 M 2 99 R 14 -189 R F
5960 1328 M -14 189 R 18 -9 R F
5960 1328 M 4 180 R 13 -167 R F
5977 1341 M -13 167 R 16 -13 R F
5977 1341 M 3 154 R 10 -138 R F
5990 1357 M -10 138 R 12 -15 R F
5990 1357 M 2 123 R 8 -104 R F
6000 1376 M -8 104 R 9 -17 R F
6000 1376 M 1 87 R 5 -66 R F
6006 1397 M -5 66 R 5 -20 R F
6006 1397 M 0 46 R 2 -22 R F
5931 1376 M 5 8 R 4 -65 R F
5940 1319 M -4 65 R 5 10 R F
5940 1319 M 1 75 R 19 -66 R F
5960 1328 M -19 66 R 2 11 R F
5960 1328 M -17 77 R 1 13 R F
5904 1362 M 10 3 R 3 -52 R F
5917 1313 M -3 52 R 9 4 R F
5917 1313 M 6 56 R 17 -50 R F
5940 1319 M -17 50 R 8 7 R F
5892 1311 M -23 2 R 5 51 R F
5892 1311 M -18 53 R 8 -2 R F
5892 1311 M -10 51 R 10 -1 R F
5892 1311 M 0 50 R 12 1 R F
5892 1311 M 12 51 R 13 -49 R F
5869 1313 M -20 4 R 1 69 R F
5869 1313 M -19 73 R 4 -8 R F
5869 1313 M -15 65 R 5 -6 R F
5869 1313 M -10 59 R 7 -5 R F
5869 1313 M -3 54 R 8 -3 R F
5849 1317 M -18 8 R 15 79 R F
5849 1317 M -3 87 R 1 -10 R F
5849 1317 M -2 77 R 3 -8 R F
5846 1404 M -15 -79 R -16 11 R F
5846 1404 M -31 -68 R -13 13 R F
5846 1404 M -44 -55 R -9 16 R F
5846 1404 M -53 -39 R -6 18 R F
5846 1404 M -59 -21 R -2 21 R F
5946 1517 M -2 -99 R -1 12 R F
5946 1517 M -3 -87 R -2 11 R F
5946 1517 M -5 -76 R -5 10 R F
5946 1517 M -10 -66 R -6 8 R F
5946 1517 M -16 -58 R -3 63 R F
5930 1459 M -7 7 R 4 56 R F
5927 1522 M -4 -56 R -9 4 R F
5927 1522 M -13 -52 R -10 54 R F
5904 1524 M 10 -54 R -10 3 R F
5904 1524 M 0 -51 R -8 51 R F
5896 1524 M 8 -51 R -12 1 R F
5896 1524 M -4 -50 R -3 49 R F
5889 1523 M 3 -49 R -6 0 R F
5889 1523 M -3 -49 R -4 48 R F
5882 1522 M 4 -48 R -6 -1 R F
5882 1522 M -2 -49 R -5 47 R F
5875 1520 M 5 -47 R -6 -2 R F
5875 1520 M -1 -49 R -5 -2 R F
5875 1520 M -6 -51 R -1 49 R F
5868 1518 M 1 -49 R -5 -4 R F
5868 1518 M -4 -53 R -2 50 R F
5862 1515 M 2 -50 R -5 -3 R F
5862 1515 M -3 -53 R -2 49 R F
5857 1511 M 2 -49 R -4 -5 R F
5857 1511 M -2 -54 R -4 -5 R F
5857 1511 M -6 -59 R 0 56 R F
5851 1508 M 0 -56 R -36 171 R F
5851 1508 M -36 115 R 44 -53 R F
5859 1570 M -44 53 R 180 0 R F
5859 1570 M 136 53 R 0 -53 R F
5815 1623 M 36 -171 R -56 4 R F
6265 1471 M -2 -38 R 0 76 R F
6263 1509 M 0 -76 R -5 -32 R F
6263 1509 M -5 -108 R 0 140 R F
6258 1541 M 0 -140 R -9 -27 R F
6258 1541 M -9 -167 R 0 195 R F
6249 1569 M 0 -195 R -12 -23 R F
6249 1569 M -12 -218 R 0 241 R F
6237 1592 M 0 -241 R -16 -17 R F
6237 1592 M -16 -258 R 0 275 R F
6221 1609 M 0 -275 R -19 -13 R F
6221 1609 M -19 -288 R 0 301 R F
6202 1622 M 0 -301 R -2 151 R F
6202 1622 M -2 -150 R 0 26 R F
6202 1321 M -23 -7 R 3 64 R F
6202 1321 M -20 57 R 7 11 R F
6202 1321 M -13 68 R 5 15 R F
6202 1321 M -8 83 R 4 19 R F
6202 1321 M -4 102 R 2 22 R F
6202 1321 M -2 124 R 0 27 R F
6141 1365 M 11 -2 R 0 -51 R F
6152 1312 M 0 51 R 12 2 R F
6152 1312 M 12 53 R 15 -51 R F
6179 1314 M -15 51 R 10 5 R F
6179 1314 M -5 56 R 8 8 R F
6116 1389 M 6 -11 R 4 -64 R F
6126 1314 M -4 64 R 9 -8 R F
6126 1314 M 5 56 R 21 -58 R F
6152 1312 M -21 58 R 10 -5 R F
6104 1472 M 1 -27 R -2 -123 R F
6103 1322 M 2 123 R 2 -22 R F
6103 1322 M 4 101 R 19 -109 R F
6126 1314 M -19 109 R 4 -19 R F
6126 1314 M -15 90 R 5 -15 R F
6202 1622 M -2 -124 R -2 22 R F
6202 1622 M -4 -102 R -4 19 R F
6202 1622 M -8 -83 R -5 15 R F
6202 1622 M -13 -68 R -7 11 R F
6202 1622 M -20 -57 R -3 64 R F
6179 1629 M 3 -64 R -8 8 R F
6179 1629 M -5 -56 R -10 5 R F
6179 1629 M -15 -51 R -12 2 R F
6179 1629 M -27 -49 R 0 52 R F
6152 1580 M -11 -2 R 11 54 R F
6152 1632 M -11 -54 R -10 -5 R F
6152 1632 M -21 -59 R -5 56 R F
6126 1629 M 5 -56 R -9 -8 R F
6126 1629 M -4 -64 R -6 -11 R F
6116 1554 M -5 -15 R 15 90 R F
6126 1629 M -15 -90 R -4 -18 R F
6126 1629 M -19 -108 R -4 101 R F
6103 1622 M 4 -101 R -2 -23 R F
6103 1622 M 2 -124 R -1 -26 R F
6040 1472 M 2 37 R 0 -75 R F
6042 1434 M 0 75 R 5 33 R F
6042 1434 M 5 108 R 0 -141 R F
6047 1401 M 0 141 R 9 27 R F
6047 1401 M 9 168 R 0 -195 R F
6056 1374 M 0 195 R 12 23 R F
6056 1374 M 12 218 R 0 -241 R F
6068 1351 M 0 241 R 16 17 R F
6068 1351 M 16 258 R 0 -275 R F
6084 1334 M 0 275 R 19 13 R F
6084 1334 M 19 288 R 0 -300 R F
6103 1322 M 0 300 R 1 -150 R F
8722 2112 M 0 123 R D 8835 1471 M -2 -38 R 0 76 R F
8833 1509 M 0 -76 R -5 -32 R F
8833 1509 M -5 -108 R 0 140 R F
8828 1541 M 0 -140 R -9 -27 R F
8828 1541 M -9 -167 R 0 195 R F
8819 1569 M 0 -195 R -12 -23 R F
8819 1569 M -12 -218 R 0 241 R F
8807 1592 M 0 -241 R -16 -17 R F
8807 1592 M -16 -258 R 0 275 R F
8791 1609 M 0 -275 R -19 -13 R F
8791 1609 M -19 -288 R -1 301 R F
8771 1622 M 1 -301 R -2 151 R F
8771 1622 M -1 -150 R -1 26 R F
8772 1321 M -23 -7 R 3 64 R F
8772 1321 M -20 57 R 7 11 R F
8772 1321 M -13 68 R 5 15 R F
8772 1321 M -8 83 R 3 19 R F
8772 1321 M -5 102 R 2 22 R F
8772 1321 M -3 124 R 1 27 R F
8710 1365 M 12 -2 R 0 -51 R F
8722 1312 M 0 51 R 12 2 R F
8722 1312 M 12 53 R 15 -51 R F
8749 1314 M -15 51 R 10 5 R F
8749 1314 M -5 56 R 8 8 R F
8686 1389 M 6 -11 R 3 -64 R F
8695 1314 M -3 64 R 8 -8 R F
8695 1314 M 5 56 R 22 -58 R F
8722 1312 M -22 58 R 10 -5 R F
8674 1472 M 1 -27 R -2 -123 R F
8673 1322 M 2 123 R 2 -22 R F
8673 1322 M 4 101 R 18 -109 R F
8695 1314 M -18 109 R 4 -19 R F
8695 1314 M -14 90 R 5 -15 R F
8771 1622 M -2 -124 R -2 22 R F
8771 1622 M -4 -102 R -3 19 R F
8771 1622 M -7 -83 R -5 15 R F
8771 1622 M -12 -68 R -7 11 R F
8771 1622 M -19 -57 R -4 64 R F
8748 1629 M 4 -64 R -8 8 R F
8748 1629 M -4 -56 R -10 5 R F
8748 1629 M -14 -51 R -12 2 R F
8748 1629 M -26 -49 R 0 52 R F
8722 1580 M -12 -2 R 12 54 R F
8722 1632 M -12 -54 R -10 -5 R F
8722 1632 M -22 -59 R -5 56 R F
8695 1629 M 5 -56 R -8 -8 R F
8695 1629 M -3 -64 R -6 -11 R F
8686 1554 M -5 -15 R 14 90 R F
8695 1629 M -14 -90 R -4 -18 R F
8695 1629 M -18 -108 R -4 101 R F
8673 1622 M 4 -101 R -2 -23 R F
8673 1622 M 2 -124 R -1 -26 R F
8609 1472 M 2 37 R 0 -75 R F
8611 1434 M 0 75 R 5 33 R F
8611 1434 M 5 108 R 0 -141 R F
8616 1401 M 0 141 R 9 27 R F
8616 1401 M 9 168 R 0 -195 R F
8625 1374 M 0 195 R 12 23 R F
8625 1374 M 12 218 R 0 -241 R F
8637 1351 M 0 241 R 16 17 R F
8637 1351 M 16 258 R 0 -275 R F
8653 1334 M 0 275 R 20 13 R F
8653 1334 M 20 288 R 0 -300 R F
8673 1322 M 0 300 R 1 -150 R F
11418 2112 M 0 123 R D 11227 1409 M -123 0 R 0 60 R F
11227 1409 M -123 60 R 123 0 R F
11410 1418 M 3 99 R 13 -189 R F
11426 1328 M -13 189 R 18 -9 R F
11426 1328 M 5 180 R 12 -167 R F
11443 1341 M -12 167 R 15 -13 R F
11443 1341 M 3 154 R 11 -138 R F
11457 1357 M -11 138 R 13 -15 R F
11457 1357 M 2 123 R 8 -104 R F
11467 1376 M -8 104 R 9 -17 R F
11467 1376 M 1 87 R 5 -66 R F
11473 1397 M -5 66 R 5 -20 R F
11473 1397 M 0 46 R 2 -22 R F
11397 1376 M 6 8 R 3 -65 R F
11406 1319 M -3 65 R 4 10 R F
11406 1319 M 1 75 R 19 -66 R F
11426 1328 M -19 66 R 3 11 R F
11426 1328 M -16 77 R 0 13 R F
11370 1362 M 11 3 R 3 -52 R F
11384 1313 M -3 52 R 9 4 R F
11384 1313 M 6 56 R 16 -50 R F
11406 1319 M -16 50 R 7 7 R F
11358 1311 M -23 2 R 5 51 R F
11358 1311 M -18 53 R 9 -2 R F
11358 1311 M -9 51 R 9 -1 R F
11358 1311 M 0 50 R 12 1 R F
11358 1311 M 12 51 R 14 -49 R F
11335 1313 M -20 4 R 1 69 R F
11335 1313 M -19 73 R 4 -8 R F
11335 1313 M -15 65 R 6 -6 R F
11335 1313 M -9 59 R 6 -5 R F
11335 1313 M -3 54 R 8 -3 R F
11315 1317 M -18 8 R 15 79 R F
11315 1317 M -3 87 R 1 -10 R F
11315 1317 M -2 77 R 3 -8 R F
11312 1404 M -15 -79 R -16 11 R F
11312 1404 M -31 -68 R -12 13 R F
11312 1404 M -43 -55 R -9 16 R F
11312 1404 M -52 -39 R -6 18 R F
11312 1404 M -58 -21 R -3 21 R F
11413 1517 M -3 -99 R 0 12 R F
11413 1517 M -3 -87 R -3 11 R F
11413 1517 M -6 -76 R -4 10 R F
11413 1517 M -10 -66 R -6 8 R F
11413 1517 M -16 -58 R -4 63 R F
11397 1459 M -8 7 R 4 56 R F
11393 1522 M -4 -56 R -9 4 R F
11393 1522 M -13 -52 R -9 54 R F
11371 1524 M 9 -54 R -10 3 R F
11371 1524 M -1 -51 R -7 51 R F
11363 1524 M 7 -51 R -11 1 R F
11363 1524 M -4 -50 R -4 49 R F
11355 1523 M 4 -49 R -7 0 R F
11355 1523 M -3 -49 R -4 48 R F
11348 1522 M 4 -48 R -6 -1 R F
11348 1522 M -2 -49 R -5 47 R F
11341 1520 M 5 -47 R -6 -2 R F
11341 1520 M -1 -49 R -5 -2 R F
11341 1520 M -6 -51 R 0 49 R F
11335 1518 M 0 -49 R -5 -4 R F
11335 1518 M -5 -53 R -1 50 R F
11329 1515 M 1 -50 R -4 -3 R F
11329 1515 M -3 -53 R -3 49 R F
11323 1511 M 3 -49 R -4 -5 R F
11323 1511 M -1 -54 R -4 -5 R F
11323 1511 M -5 -59 R 0 56 R F
11318 1508 M 0 -56 R -36 171 R F
11318 1508 M -36 115 R 44 -53 R F
11326 1570 M -44 53 R 179 0 R F
11326 1570 M 135 53 R 0 -53 R F
11282 1623 M 36 -171 R -56 4 R F
11732 1471 M -2 -38 R 0 76 R F
11730 1509 M 0 -76 R -5 -32 R F
11730 1509 M -5 -108 R -1 140 R F
11724 1541 M 1 -140 R -9 -27 R F
11724 1541 M -8 -167 R 0 195 R F
11716 1569 M 0 -195 R -12 -23 R F
11716 1569 M -12 -218 R -1 241 R F
11703 1592 M 1 -241 R -16 -17 R F
11703 1592 M -15 -258 R -1 275 R F
11687 1609 M 1 -275 R -20 -13 R F
11687 1609 M -19 -288 R 0 301 R F
11668 1622 M 0 -301 R -1 151 R F
11668 1622 M -1 -150 R -1 26 R F
11668 1321 M -23 -7 R 4 64 R F
11668 1321 M -19 57 R 6 11 R F
11668 1321 M -13 68 R 5 15 R F
11668 1321 M -8 83 R 4 19 R F
11668 1321 M -4 102 R 2 22 R F
11668 1321 M -2 124 R 1 27 R F
11607 1365 M 12 -2 R 0 -51 R F
11619 1312 M 0 51 R 11 2 R F
11619 1312 M 11 53 R 15 -51 R F
11645 1314 M -15 51 R 10 5 R F
11645 1314 M -5 56 R 9 8 R F
11582 1389 M 7 -11 R 3 -64 R F
11592 1314 M -3 64 R 8 -8 R F
11592 1314 M 5 56 R 22 -58 R F
11619 1312 M -22 58 R 10 -5 R F
11571 1472 M 1 -27 R -3 -123 R F
11569 1322 M 3 123 R 2 -22 R F
11569 1322 M 5 101 R 18 -109 R F
11592 1314 M -18 109 R 3 -19 R F
11592 1314 M -15 90 R 5 -15 R F
11668 1622 M -2 -124 R -2 22 R F
11668 1622 M -4 -102 R -4 19 R F
11668 1622 M -8 -83 R -5 15 R F
11668 1622 M -13 -68 R -6 11 R F
11668 1622 M -19 -57 R -4 64 R F
11645 1629 M 4 -64 R -9 8 R F
11645 1629 M -5 -56 R -10 5 R F
11645 1629 M -15 -51 R -11 2 R F
11645 1629 M -26 -49 R 0 52 R F
11619 1580 M -12 -2 R 12 54 R F
11619 1632 M -12 -54 R -10 -5 R F
11619 1632 M -22 -59 R -5 56 R F
11592 1629 M 5 -56 R -8 -8 R F
11592 1629 M -3 -64 R -7 -11 R F
11582 1554 M -5 -15 R 15 90 R F
11592 1629 M -15 -90 R -3 -18 R F
11592 1629 M -18 -108 R -5 101 R F
11569 1622 M 5 -101 R -2 -23 R F
11569 1622 M 3 -124 R -1 -26 R F
11506 1472 M 2 37 R 0 -75 R F
11508 1434 M 0 75 R 5 33 R F
11508 1434 M 5 108 R 0 -141 R F
11513 1401 M 0 141 R 9 27 R F
11513 1401 M 9 168 R 0 -195 R F
11522 1374 M 0 195 R 12 23 R F
11522 1374 M 12 218 R 0 -241 R F
11534 1351 M 0 241 R 16 17 R F
11534 1351 M 16 258 R 0 -275 R F
11550 1334 M 0 275 R 19 13 R F
11550 1334 M 19 288 R 0 -300 R F
11569 1322 M 0 300 R 2 -150 R F
14114 2112 M 0 123 R D 13796 1409 M -122 0 R 0 60 R F
13796 1409 M -122 60 R 122 0 R F
13981 1320 M -62 0 R 5 286 R F
13981 1320 M -57 286 R 4 12 R F
13981 1320 M -53 298 R 3 14 R F
13981 1320 M -50 312 R 50 0 R F
13919 1533 M -74 0 R 4 44 R F
13919 1533 M -70 44 R 19 1 R F
13919 1533 M -51 45 R 17 2 R F
13919 1533 M -34 47 R 13 4 R F
13919 1533 M -21 51 R 11 6 R F
13919 1533 M -10 57 R 8 7 R F
13919 1533 M -2 64 R 7 9 R F
13919 1533 M 5 73 R -5 -286 R F
13849 1577 M -4 -44 R 0 44 R F
14301 1471 M -2 -38 R 0 76 R F
14299 1509 M 0 -76 R -5 -32 R F
14299 1509 M -5 -108 R 0 140 R F
14294 1541 M 0 -140 R -9 -27 R F
14294 1541 M -9 -167 R 0 195 R F
14285 1569 M 0 -195 R -12 -23 R F
14285 1569 M -12 -218 R 0 241 R F
14273 1592 M 0 -241 R -16 -17 R F
14273 1592 M -16 -258 R 0 275 R F
14257 1609 M 0 -275 R -19 -13 R F
14257 1609 M -19 -288 R 0 301 R F
14238 1622 M 0 -301 R -1 151 R F
14238 1622 M -1 -150 R -1 26 R F
14238 1321 M -23 -7 R 3 64 R F
14238 1321 M -20 57 R 7 11 R F
14238 1321 M -13 68 R 5 15 R F
14238 1321 M -8 83 R 4 19 R F
14238 1321 M -4 102 R 2 22 R F
14238 1321 M -2 124 R 1 27 R F
14177 1365 M 11 -2 R 0 -51 R F
14188 1312 M 0 51 R 12 2 R F
14188 1312 M 12 53 R 15 -51 R F
14215 1314 M -15 51 R 10 5 R F
14215 1314 M -5 56 R 8 8 R F
14152 1389 M 7 -11 R 3 -64 R F
14162 1314 M -3 64 R 8 -8 R F
14162 1314 M 5 56 R 21 -58 R F
14188 1312 M -21 58 R 10 -5 R F
14141 1472 M 0 -27 R -2 -123 R F
14139 1322 M 2 123 R 2 -22 R F
14139 1322 M 4 101 R 19 -109 R F
14162 1314 M -19 109 R 4 -19 R F
14162 1314 M -15 90 R 5 -15 R F
14238 1622 M -2 -124 R -2 22 R F
14238 1622 M -4 -102 R -4 19 R F
14238 1622 M -8 -83 R -5 15 R F
14238 1622 M -13 -68 R -7 11 R F
14238 1622 M -20 -57 R -3 64 R F
14215 1629 M 3 -64 R -8 8 R F
14215 1629 M -5 -56 R -10 5 R F
14215 1629 M -15 -51 R -12 2 R F
14215 1629 M -27 -49 R 0 52 R F
14188 1580 M -11 -2 R 11 54 R F
14188 1632 M -11 -54 R -10 -5 R F
14188 1632 M -21 -59 R -5 56 R F
14162 1629 M 5 -56 R -8 -8 R F
14162 1629 M -3 -64 R -7 -11 R F
14152 1554 M -5 -15 R 15 90 R F
14162 1629 M -15 -90 R -4 -18 R F
14162 1629 M -19 -108 R -4 101 R F
14139 1622 M 4 -101 R -2 -23 R F
14139 1622 M 2 -124 R 0 -26 R F
14076 1472 M 2 37 R 0 -75 R F
14078 1434 M 0 75 R 5 33 R F
14078 1434 M 5 108 R 0 -141 R F
14083 1401 M 0 141 R 9 27 R F
14083 1401 M 9 168 R 0 -195 R F
14092 1374 M 0 195 R 12 23 R F
14092 1374 M 12 218 R 0 -241 R F
14104 1351 M 0 241 R 16 17 R F
14104 1351 M 16 258 R 0 -275 R F
14120 1334 M 0 275 R 19 13 R F
14120 1334 M 19 288 R 0 -300 R F
14139 1322 M 0 300 R 2 -150 R F
14554 1471 M -2 -38 R 0 76 R F
14552 1509 M 0 -76 R -5 -32 R F
14552 1509 M -5 -108 R 0 140 R F
14547 1541 M 0 -140 R -9 -27 R F
14547 1541 M -9 -167 R 0 195 R F
14538 1569 M 0 -195 R -12 -23 R F
14538 1569 M -12 -218 R 0 241 R F
14526 1592 M 0 -241 R -16 -17 R F
14526 1592 M -16 -258 R 0 275 R F
14510 1609 M 0 -275 R -19 -13 R F
14510 1609 M -19 -288 R -1 301 R F
14490 1622 M 1 -301 R -2 151 R F
14490 1622 M -1 -150 R 0 26 R F
14491 1321 M -23 -7 R 3 64 R F
14491 1321 M -20 57 R 7 11 R F
14491 1321 M -13 68 R 5 15 R F
14491 1321 M -8 83 R 3 19 R F
14491 1321 M -5 102 R 3 22 R F
14491 1321 M -2 124 R 0 27 R F
14429 1365 M 12 -2 R 0 -51 R F
14441 1312 M 0 51 R 12 2 R F
14441 1312 M 12 53 R 15 -51 R F
14468 1314 M -15 51 R 10 5 R F
14468 1314 M -5 56 R 8 8 R F
14405 1389 M 6 -11 R 4 -64 R F
14415 1314 M -4 64 R 9 -8 R F
14415 1314 M 5 56 R 21 -58 R F
14441 1312 M -21 58 R 9 -5 R F
14393 1472 M 1 -27 R -2 -123 R F
14392 1322 M 2 123 R 2 -22 R F
14392 1322 M 4 101 R 19 -109 R F
14415 1314 M -19 109 R 4 -19 R F
14415 1314 M -15 90 R 5 -15 R F
14490 1622 M -1 -124 R -3 22 R F
14490 1622 M -4 -102 R -3 19 R F
14490 1622 M -7 -83 R -5 15 R F
14490 1622 M -12 -68 R -7 11 R F
14490 1622 M -19 -57 R -3 64 R F
14468 1629 M 3 -64 R -8 8 R F
14468 1629 M -5 -56 R -10 5 R F
14468 1629 M -15 -51 R -12 2 R F
14468 1629 M -27 -49 R 0 52 R F
14441 1580 M -12 -2 R 12 54 R F
14441 1632 M -12 -54 R -9 -5 R F
14441 1632 M -21 -59 R -5 56 R F
14415 1629 M 5 -56 R -9 -8 R F
14415 1629 M -4 -64 R -6 -11 R F
14405 1554 M -5 -15 R 15 90 R F
14415 1629 M -15 -90 R -4 -18 R F
14415 1629 M -19 -108 R -4 101 R F
14392 1622 M 4 -101 R -2 -23 R F
14392 1622 M 2 -124 R -1 -26 R F
14329 1472 M 1 37 R 0 -75 R F
14330 1434 M 0 75 R 6 33 R F
14330 1434 M 6 108 R 0 -141 R F
14336 1401 M 0 141 R 8 27 R F
14336 1401 M 8 168 R 0 -195 R F
14344 1374 M 0 195 R 13 23 R F
14344 1374 M 13 218 R 0 -241 R F
14357 1351 M 0 241 R 15 17 R F
14357 1351 M 15 258 R 0 -275 R F
14372 1334 M 0 275 R 20 13 R F
14372 1334 M 20 288 R 0 -300 R F
14392 1322 M 0 300 R 1 -150 R F
3869 2112 M 0 61 R D 4408 2112 M 0 61 R D 4948 2112 M 0 61 R D 5487 2112 M
0 61 R D 6565 2112 M 0 61 R D 7104 2112 M 0 61 R D 7644 2112 M 0 61 R D
8183 2112 M 0 61 R D 9261 2112 M 0 61 R D 9800 2112 M 0 61 R D 10340 2112 M
0 61 R D 10879 2112 M 0 61 R D 11957 2112 M 0 61 R D 12496 2112 M 0 61 R D
13036 2112 M 0 61 R D 13575 2112 M 0 61 R D 3330 8244 M 10784 0 R D
3330 8244 M 0 -123 R D 6026 8244 M 0 -123 R D 8722 8244 M 0 -123 R D
11418 8244 M 0 -123 R D 14114 8244 M 0 -123 R D 3869 8244 M 0 -61 R D
4408 8244 M 0 -61 R D 4948 8244 M 0 -61 R D 5487 8244 M 0 -61 R D
6565 8244 M 0 -61 R D 7104 8244 M 0 -61 R D 7644 8244 M 0 -61 R D
8183 8244 M 0 -61 R D 9261 8244 M 0 -61 R D 9800 8244 M 0 -61 R D
10340 8244 M 0 -61 R D 10879 8244 M 0 -61 R D 11957 8244 M 0 -61 R D
12496 8244 M 0 -61 R D 13036 8244 M 0 -61 R D 13575 8244 M 0 -61 R D
3330 2112 M 0 6132 R D 3330 2112 M 216 0 R D 3150 2263 M -2 -38 R 0 76 R F
3148 2301 M 0 -76 R -5 -32 R F
3148 2301 M -5 -108 R 0 140 R F
3143 2333 M 0 -140 R -9 -27 R F
3143 2333 M -9 -167 R 0 195 R F
3134 2361 M 0 -195 R -12 -23 R F
3134 2361 M -12 -218 R 0 241 R F
3122 2384 M 0 -241 R -16 -17 R F
3122 2384 M -16 -258 R 0 275 R F
3106 2401 M 0 -275 R -19 -13 R F
3106 2401 M -19 -288 R -1 301 R F
3086 2414 M 1 -301 R -2 151 R F
3086 2414 M -1 -150 R -1 26 R F
3087 2113 M -23 -7 R 3 64 R F
3087 2113 M -20 57 R 7 11 R F
3087 2113 M -13 68 R 5 15 R F
3087 2113 M -8 83 R 3 19 R F
3087 2113 M -5 102 R 2 22 R F
3087 2113 M -3 124 R 1 27 R F
3025 2157 M 12 -2 R 0 -51 R F
3037 2104 M 0 51 R 12 2 R F
3037 2104 M 12 53 R 15 -51 R F
3064 2106 M -15 51 R 10 5 R F
3064 2106 M -5 56 R 8 8 R F
3001 2181 M 6 -11 R 4 -64 R F
3011 2106 M -4 64 R 8 -8 R F
3011 2106 M 4 56 R 22 -58 R F
3037 2104 M -22 58 R 10 -5 R F
2989 2264 M 1 -27 R -2 -123 R F
2988 2114 M 2 123 R 2 -22 R F
2988 2114 M 4 101 R 19 -109 R F
3011 2106 M -19 109 R 4 -19 R F
3011 2106 M -15 90 R 5 -15 R F
3086 2414 M -2 -124 R -2 22 R F
3086 2414 M -4 -102 R -3 19 R F
3086 2414 M -7 -83 R -5 15 R F
3086 2414 M -12 -68 R -7 11 R F
3086 2414 M -19 -57 R -3 64 R F
3064 2421 M 3 -64 R -8 8 R F
3064 2421 M -5 -56 R -10 5 R F
3064 2421 M -15 -51 R -12 2 R F
3064 2421 M -27 -49 R 0 52 R F
3037 2372 M -12 -2 R 12 54 R F
3037 2424 M -12 -54 R -10 -5 R F
3037 2424 M -22 -59 R -4 56 R F
3011 2421 M 4 -56 R -8 -8 R F
3011 2421 M -4 -64 R -6 -11 R F
3001 2346 M -5 -15 R 15 90 R F
3011 2421 M -15 -90 R -4 -18 R F
3011 2421 M -19 -108 R -4 101 R F
2988 2414 M 4 -101 R -2 -23 R F
2988 2414 M 2 -124 R -1 -26 R F
2925 2264 M 1 37 R 0 -75 R F
2926 2226 M 0 75 R 6 33 R F
2926 2226 M 6 108 R 0 -141 R F
2932 2193 M 0 141 R 8 27 R F
2932 2193 M 8 168 R 0 -195 R F
2940 2166 M 0 195 R 13 23 R F
2940 2166 M 13 218 R 0 -241 R F
2953 2143 M 0 241 R 15 17 R F
2953 2143 M 15 258 R 0 -275 R F
2968 2126 M 0 275 R 20 13 R F
2968 2126 M 20 288 R 0 -300 R F
2988 2114 M 0 300 R 1 -150 R F
3330 4156 M 216 0 R D 2576 4043 M 3 99 R 13 -189 R F
2592 3953 M -13 189 R 17 -9 R F
2592 3953 M 4 180 R 13 -167 R F
2609 3966 M -13 167 R 16 -13 R F
2609 3966 M 3 154 R 11 -138 R F
2623 3982 M -11 138 R 12 -15 R F
2623 3982 M 1 123 R 8 -104 R F
2632 4001 M -8 104 R 9 -17 R F
2632 4001 M 1 87 R 5 -66 R F
2638 4022 M -5 66 R 5 -20 R F
2638 4022 M 0 46 R 2 -22 R F
2563 4001 M 6 8 R 3 -66 R F
2572 3943 M -3 66 R 4 10 R F
2572 3943 M 1 76 R 19 -66 R F
2592 3953 M -19 66 R 2 11 R F
2592 3953 M -17 77 R 1 13 R F
2536 3987 M 10 2 R 3 -51 R F
2549 3938 M -3 51 R 9 5 R F
2549 3938 M 6 56 R 17 -51 R F
2572 3943 M -17 51 R 8 7 R F
2524 3936 M -23 1 R 5 52 R F
2524 3936 M -18 53 R 8 -3 R F
2524 3936 M -10 50 R 10 0 R F
2524 3936 M 0 50 R 12 1 R F
2524 3936 M 12 51 R 13 -49 R F
2501 3937 M -20 5 R 1 69 R F
2501 3937 M -19 74 R 4 -8 R F
2501 3937 M -15 66 R 5 -6 R F
2501 3937 M -10 60 R 7 -5 R F
2501 3937 M -3 55 R 8 -3 R F
2481 3942 M -18 8 R 15 79 R F
2481 3942 M -3 87 R 1 -10 R F
2481 3942 M -2 77 R 3 -8 R F
2478 4029 M -15 -79 R -16 11 R F
2478 4029 M -31 -68 R -13 13 R F
2478 4029 M -44 -55 R -9 16 R F
2478 4029 M -53 -39 R -6 18 R F
2478 4029 M -59 -21 R -2 21 R F
2579 4142 M -3 -99 R -1 12 R F
2579 4142 M -4 -87 R -2 11 R F
2579 4142 M -6 -76 R -5 10 R F
2579 4142 M -11 -66 R -6 8 R F
2579 4142 M -17 -58 R -3 63 R F
2562 4084 M -7 6 R 4 57 R F
2559 4147 M -4 -57 R -9 5 R F
2559 4147 M -13 -52 R -10 54 R F
2536 4149 M 10 -54 R -10 3 R F
2536 4149 M 0 -51 R -8 50 R F
2528 4148 M 8 -50 R -12 1 R F
2528 4148 M -4 -49 R -3 49 R F
2521 4148 M 3 -49 R -6 -1 R F
2521 4148 M -3 -50 R -4 48 R F
2514 4146 M 4 -48 R -6 -1 R F
2514 4146 M -2 -49 R -5 48 R F
2507 4145 M 5 -48 R -6 -1 R F
2507 4145 M -1 -49 R -5 -3 R F
2507 4145 M -6 -52 R -1 49 R F
2500 4142 M 1 -49 R -5 -3 R F
2500 4142 M -4 -52 R -2 50 R F
2494 4140 M 2 -50 R -5 -3 R F
2494 4140 M -3 -53 R -2 49 R F
2489 4136 M 2 -49 R -4 -5 R F
2489 4136 M -2 -54 R -4 -5 R F
2489 4136 M -6 -59 R 0 55 R F
2483 4132 M 0 -55 R -36 171 R F
2483 4132 M -36 116 R 44 -53 R F
2491 4195 M -44 53 R 180 0 R F
2491 4195 M 136 53 R 0 -53 R F
2447 4248 M 36 -171 R -56 3 R F
2897 4096 M -2 -38 R 0 76 R F
2895 4134 M 0 -76 R -5 -32 R F
2895 4134 M -5 -108 R 0 140 R F
2890 4166 M 0 -140 R -9 -28 R F
2890 4166 M -9 -168 R 0 196 R F
2881 4194 M 0 -196 R -12 -22 R F
2881 4194 M -12 -218 R 0 240 R F
2869 4216 M 0 -240 R -16 -17 R F
2869 4216 M -16 -257 R 0 275 R F
2853 4234 M 0 -275 R -19 -13 R F
2853 4234 M -19 -288 R 0 301 R F
2834 4247 M 0 -301 R -2 150 R F
2834 4247 M -2 -151 R 0 27 R F
2834 3946 M -23 -7 R 3 64 R F
2834 3946 M -20 57 R 7 11 R F
2834 3946 M -13 68 R 5 15 R F
2834 3946 M -8 83 R 4 19 R F
2834 3946 M -4 102 R 2 22 R F
2834 3946 M -2 124 R 0 26 R F
2773 3990 M 11 -2 R 0 -52 R F
2784 3936 M 0 52 R 12 2 R F
2784 3936 M 12 54 R 15 -51 R F
2811 3939 M -15 51 R 10 5 R F
2811 3939 M -5 56 R 8 8 R F
2748 4014 M 6 -11 R 4 -64 R F
2758 3939 M -4 64 R 9 -8 R F
2758 3939 M 5 56 R 21 -59 R F
2784 3936 M -21 59 R 10 -5 R F
2736 4096 M 1 -26 R -2 -124 R F
2735 3946 M 2 124 R 2 -23 R F
2735 3946 M 4 101 R 19 -108 R F
2758 3939 M -19 108 R 4 -18 R F
2758 3939 M -15 90 R 5 -15 R F
2834 4247 M -2 -124 R -2 22 R F
2834 4247 M -4 -102 R -4 19 R F
2834 4247 M -8 -83 R -5 15 R F
2834 4247 M -13 -68 R -7 11 R F
2834 4247 M -20 -57 R -3 64 R F
2811 4254 M 3 -64 R -8 8 R F
2811 4254 M -5 -56 R -10 5 R F
2811 4254 M -15 -51 R -12 1 R F
2811 4254 M -27 -50 R 0 53 R F
2784 4204 M -11 -1 R 11 54 R F
2784 4257 M -11 -54 R -10 -5 R F
2784 4257 M -21 -59 R -5 56 R F
2758 4254 M 5 -56 R -9 -8 R F
2758 4254 M -4 -64 R -6 -11 R F
2748 4179 M -5 -15 R 15 90 R F
2758 4254 M -15 -90 R -4 -19 R F
2758 4254 M -19 -109 R -4 102 R F
2735 4247 M 4 -102 R -2 -22 R F
2735 4247 M 2 -124 R -1 -27 R F
2672 4096 M 2 38 R 0 -75 R F
2674 4059 M 0 75 R 5 33 R F
2674 4059 M 5 108 R 0 -141 R F
2679 4026 M 0 141 R 9 27 R F
2679 4026 M 9 168 R 0 -195 R F
2688 3999 M 0 195 R 12 23 R F
2688 3999 M 12 218 R 0 -241 R F
2700 3976 M 0 241 R 16 17 R F
2700 3976 M 16 258 R 0 -275 R F
2716 3959 M 0 275 R 19 13 R F
2716 3959 M 19 288 R 0 -301 R F
2735 3946 M 0 301 R 1 -151 R F
3150 4096 M -2 -38 R 0 76 R F
3148 4134 M 0 -76 R -5 -32 R F
3148 4134 M -5 -108 R 0 140 R F
3143 4166 M 0 -140 R -9 -28 R F
3143 4166 M -9 -168 R 0 196 R F
3134 4194 M 0 -196 R -12 -22 R F
3134 4194 M -12 -218 R 0 240 R F
3122 4216 M 0 -240 R -16 -17 R F
3122 4216 M -16 -257 R 0 275 R F
3106 4234 M 0 -275 R -19 -13 R F
3106 4234 M -19 -288 R -1 301 R F
3086 4247 M 1 -301 R -2 150 R F
3086 4247 M -1 -151 R -1 27 R F
3087 3946 M -23 -7 R 3 64 R F
3087 3946 M -20 57 R 7 11 R F
3087 3946 M -13 68 R 5 15 R F
3087 3946 M -8 83 R 3 19 R F
3087 3946 M -5 102 R 2 22 R F
3087 3946 M -3 124 R 1 26 R F
3025 3990 M 12 -2 R 0 -52 R F
3037 3936 M 0 52 R 12 2 R F
3037 3936 M 12 54 R 15 -51 R F
3064 3939 M -15 51 R 10 5 R F
3064 3939 M -5 56 R 8 8 R F
3001 4014 M 6 -11 R 4 -64 R F
3011 3939 M -4 64 R 8 -8 R F
3011 3939 M 4 56 R 22 -59 R F
3037 3936 M -22 59 R 10 -5 R F
2989 4096 M 1 -26 R -2 -124 R F
2988 3946 M 2 124 R 2 -23 R F
2988 3946 M 4 101 R 19 -108 R F
3011 3939 M -19 108 R 4 -18 R F
3011 3939 M -15 90 R 5 -15 R F
3086 4247 M -2 -124 R -2 22 R F
3086 4247 M -4 -102 R -3 19 R F
3086 4247 M -7 -83 R -5 15 R F
3086 4247 M -12 -68 R -7 11 R F
3086 4247 M -19 -57 R -3 64 R F
3064 4254 M 3 -64 R -8 8 R F
3064 4254 M -5 -56 R -10 5 R F
3064 4254 M -15 -51 R -12 1 R F
3064 4254 M -27 -50 R 0 53 R F
3037 4204 M -12 -1 R 12 54 R F
3037 4257 M -12 -54 R -10 -5 R F
3037 4257 M -22 -59 R -4 56 R F
3011 4254 M 4 -56 R -8 -8 R F
3011 4254 M -4 -64 R -6 -11 R F
3001 4179 M -5 -15 R 15 90 R F
3011 4254 M -15 -90 R -4 -19 R F
3011 4254 M -19 -109 R -4 102 R F
2988 4247 M 4 -102 R -2 -22 R F
2988 4247 M 2 -124 R -1 -27 R F
2925 4096 M 1 38 R 0 -75 R F
2926 4059 M 0 75 R 6 33 R F
2926 4059 M 6 108 R 0 -141 R F
2932 4026 M 0 141 R 8 27 R F
2932 4026 M 8 168 R 0 -195 R F
2940 3999 M 0 195 R 13 23 R F
2940 3999 M 13 218 R 0 -241 R F
2953 3976 M 0 241 R 15 17 R F
2953 3976 M 15 258 R 0 -275 R F
2968 3959 M 0 275 R 20 13 R F
2968 3959 M 20 288 R 0 -301 R F
2988 3946 M 0 301 R 1 -151 R F
3330 6200 M 216 0 R D 2324 5989 M -62 0 R 5 286 R F
2324 5989 M -57 286 R 4 12 R F
2324 5989 M -53 298 R 3 14 R F
2324 5989 M -50 312 R 50 0 R F
2262 6202 M -74 0 R 5 44 R F
2262 6202 M -69 44 R 19 0 R F
2262 6202 M -50 44 R 16 3 R F
2262 6202 M -34 47 R 13 4 R F
2262 6202 M -21 51 R 11 5 R F
2262 6202 M -10 56 R 8 8 R F
2262 6202 M -2 64 R 7 9 R F
2262 6202 M 5 73 R -5 -286 R F
2193 6246 M -5 -44 R 0 44 R F
2644 6140 M -1 -38 R 0 76 R F
2643 6178 M 0 -76 R -6 -32 R F
2643 6178 M -6 -108 R 0 140 R F
2637 6210 M 0 -140 R -8 -28 R F
2637 6210 M -8 -168 R 0 196 R F
2629 6238 M 0 -196 R -13 -22 R F
2629 6238 M -13 -218 R 0 240 R F
2616 6260 M 0 -240 R -15 -17 R F
2616 6260 M -15 -257 R -1 275 R F
2600 6278 M 1 -275 R -20 -13 R F
2600 6278 M -19 -288 R 0 301 R F
2581 6291 M 0 -301 R -1 150 R F
2581 6291 M -1 -151 R -1 27 R F
2581 5990 M -23 -7 R 4 64 R F
2581 5990 M -19 57 R 6 11 R F
2581 5990 M -13 68 R 5 15 R F
2581 5990 M -8 83 R 4 19 R F
2581 5990 M -4 102 R 2 22 R F
2581 5990 M -2 124 R 1 26 R F
2520 6034 M 12 -2 R 0 -52 R F
2532 5980 M 0 52 R 11 2 R F
2532 5980 M 11 54 R 15 -51 R F
2558 5983 M -15 51 R 10 5 R F
2558 5983 M -5 56 R 9 8 R F
2495 6058 M 7 -11 R 3 -64 R F
2505 5983 M -3 64 R 8 -8 R F
2505 5983 M 5 56 R 22 -59 R F
2532 5980 M -22 59 R 10 -5 R F
2484 6140 M 0 -26 R -2 -124 R F
2482 5990 M 2 124 R 3 -23 R F
2482 5990 M 5 101 R 18 -108 R F
2505 5983 M -18 108 R 3 -18 R F
2505 5983 M -15 90 R 5 -15 R F
2581 6291 M -2 -124 R -2 22 R F
2581 6291 M -4 -102 R -4 19 R F
2581 6291 M -8 -83 R -5 15 R F
2581 6291 M -13 -68 R -6 11 R F
2581 6291 M -19 -57 R -4 64 R F
2558 6298 M 4 -64 R -9 8 R F
2558 6298 M -5 -56 R -10 5 R F
2558 6298 M -15 -51 R -11 1 R F
2558 6298 M -26 -50 R 0 53 R F
2532 6248 M -12 -1 R 12 54 R F
2532 6301 M -12 -54 R -10 -5 R F
2532 6301 M -22 -59 R -5 56 R F
2505 6298 M 5 -56 R -8 -8 R F
2505 6298 M -3 -64 R -7 -11 R F
2495 6223 M -5 -15 R 15 90 R F
2505 6298 M -15 -90 R -3 -19 R F
2505 6298 M -18 -109 R -5 102 R F
2482 6291 M 5 -102 R -3 -22 R F
2482 6291 M 2 -124 R 0 -27 R F
2419 6140 M 2 38 R 0 -75 R F
2421 6103 M 0 75 R 5 33 R F
2421 6103 M 5 108 R 0 -141 R F
2426 6070 M 0 141 R 9 27 R F
2426 6070 M 9 168 R 0 -195 R F
2435 6043 M 0 195 R 12 23 R F
2435 6043 M 12 218 R 0 -241 R F
2447 6020 M 0 241 R 16 17 R F
2447 6020 M 16 258 R 0 -275 R F
2463 6003 M 0 275 R 19 13 R F
2463 6003 M 19 288 R 0 -301 R F
2482 5990 M 0 301 R 2 -151 R F
2897 6140 M -2 -38 R 0 76 R F
2895 6178 M 0 -76 R -5 -32 R F
2895 6178 M -5 -108 R 0 140 R F
2890 6210 M 0 -140 R -9 -28 R F
2890 6210 M -9 -168 R 0 196 R F
2881 6238 M 0 -196 R -12 -22 R F
2881 6238 M -12 -218 R 0 240 R F
2869 6260 M 0 -240 R -16 -17 R F
2869 6260 M -16 -257 R 0 275 R F
2853 6278 M 0 -275 R -19 -13 R F
2853 6278 M -19 -288 R 0 301 R F
2834 6291 M 0 -301 R -2 150 R F
2834 6291 M -2 -151 R 0 27 R F
2834 5990 M -23 -7 R 3 64 R F
2834 5990 M -20 57 R 7 11 R F
2834 5990 M -13 68 R 5 15 R F
2834 5990 M -8 83 R 4 19 R F
2834 5990 M -4 102 R 2 22 R F
2834 5990 M -2 124 R 0 26 R F
2773 6034 M 11 -2 R 0 -52 R F
2784 5980 M 0 52 R 12 2 R F
2784 5980 M 12 54 R 15 -51 R F
2811 5983 M -15 51 R 10 5 R F
2811 5983 M -5 56 R 8 8 R F
2748 6058 M 6 -11 R 4 -64 R F
2758 5983 M -4 64 R 9 -8 R F
2758 5983 M 5 56 R 21 -59 R F
2784 5980 M -21 59 R 10 -5 R F
2736 6140 M 1 -26 R -2 -124 R F
2735 5990 M 2 124 R 2 -23 R F
2735 5990 M 4 101 R 19 -108 R F
2758 5983 M -19 108 R 4 -18 R F
2758 5983 M -15 90 R 5 -15 R F
2834 6291 M -2 -124 R -2 22 R F
2834 6291 M -4 -102 R -4 19 R F
2834 6291 M -8 -83 R -5 15 R F
2834 6291 M -13 -68 R -7 11 R F
2834 6291 M -20 -57 R -3 64 R F
2811 6298 M 3 -64 R -8 8 R F
2811 6298 M -5 -56 R -10 5 R F
2811 6298 M -15 -51 R -12 1 R F
2811 6298 M -27 -50 R 0 53 R F
2784 6248 M -11 -1 R 11 54 R F
2784 6301 M -11 -54 R -10 -5 R F
2784 6301 M -21 -59 R -5 56 R F
2758 6298 M 5 -56 R -9 -8 R F
2758 6298 M -4 -64 R -6 -11 R F
2748 6223 M -5 -15 R 15 90 R F
2758 6298 M -15 -90 R -4 -19 R F
2758 6298 M -19 -109 R -4 102 R F
2735 6291 M 4 -102 R -2 -22 R F
2735 6291 M 2 -124 R -1 -27 R F
2672 6140 M 2 38 R 0 -75 R F
2674 6103 M 0 75 R 5 33 R F
2674 6103 M 5 108 R 0 -141 R F
2679 6070 M 0 141 R 9 27 R F
2679 6070 M 9 168 R 0 -195 R F
2688 6043 M 0 195 R 12 23 R F
2688 6043 M 12 218 R 0 -241 R F
2700 6020 M 0 241 R 16 17 R F
2700 6020 M 16 258 R 0 -275 R F
2716 6003 M 0 275 R 19 13 R F
2716 6003 M 19 288 R 0 -301 R F
2735 5990 M 0 301 R 1 -151 R F
3150 6140 M -2 -38 R 0 76 R F
3148 6178 M 0 -76 R -5 -32 R F
3148 6178 M -5 -108 R 0 140 R F
3143 6210 M 0 -140 R -9 -28 R F
3143 6210 M -9 -168 R 0 196 R F
3134 6238 M 0 -196 R -12 -22 R F
3134 6238 M -12 -218 R 0 240 R F
3122 6260 M 0 -240 R -16 -17 R F
3122 6260 M -16 -257 R 0 275 R F
3106 6278 M 0 -275 R -19 -13 R F
3106 6278 M -19 -288 R -1 301 R F
3086 6291 M 1 -301 R -2 150 R F
3086 6291 M -1 -151 R -1 27 R F
3087 5990 M -23 -7 R 3 64 R F
3087 5990 M -20 57 R 7 11 R F
3087 5990 M -13 68 R 5 15 R F
3087 5990 M -8 83 R 3 19 R F
3087 5990 M -5 102 R 2 22 R F
3087 5990 M -3 124 R 1 26 R F
3025 6034 M 12 -2 R 0 -52 R F
3037 5980 M 0 52 R 12 2 R F
3037 5980 M 12 54 R 15 -51 R F
3064 5983 M -15 51 R 10 5 R F
3064 5983 M -5 56 R 8 8 R F
3001 6058 M 6 -11 R 4 -64 R F
3011 5983 M -4 64 R 8 -8 R F
3011 5983 M 4 56 R 22 -59 R F
3037 5980 M -22 59 R 10 -5 R F
2989 6140 M 1 -26 R -2 -124 R F
2988 5990 M 2 124 R 2 -23 R F
2988 5990 M 4 101 R 19 -108 R F
3011 5983 M -19 108 R 4 -18 R F
3011 5983 M -15 90 R 5 -15 R F
3086 6291 M -2 -124 R -2 22 R F
3086 6291 M -4 -102 R -3 19 R F
3086 6291 M -7 -83 R -5 15 R F
3086 6291 M -12 -68 R -7 11 R F
3086 6291 M -19 -57 R -3 64 R F
3064 6298 M 3 -64 R -8 8 R F
3064 6298 M -5 -56 R -10 5 R F
3064 6298 M -15 -51 R -12 1 R F
3064 6298 M -27 -50 R 0 53 R F
3037 6248 M -12 -1 R 12 54 R F
3037 6301 M -12 -54 R -10 -5 R F
3037 6301 M -22 -59 R -4 56 R F
3011 6298 M 4 -56 R -8 -8 R F
3011 6298 M -4 -64 R -6 -11 R F
3001 6223 M -5 -15 R 15 90 R F
3011 6298 M -15 -90 R -4 -19 R F
3011 6298 M -19 -109 R -4 102 R F
2988 6291 M 4 -102 R -2 -22 R F
2988 6291 M 2 -124 R -1 -27 R F
2925 6140 M 1 38 R 0 -75 R F
2926 6103 M 0 75 R 6 33 R F
2926 6103 M 6 108 R 0 -141 R F
2932 6070 M 0 141 R 8 27 R F
2932 6070 M 8 168 R 0 -195 R F
2940 6043 M 0 195 R 13 23 R F
2940 6043 M 13 218 R 0 -241 R F
2953 6020 M 0 241 R 15 17 R F
2953 6020 M 15 258 R 0 -275 R F
2968 6003 M 0 275 R 20 13 R F
2968 6003 M 20 288 R 0 -301 R F
2988 5990 M 0 301 R 1 -151 R F
3330 8244 M 216 0 R D 2324 7874 M -62 0 R 5 287 R F
2324 7874 M -57 287 R 4 11 R F
2324 7874 M -53 298 R 3 14 R F
2324 7874 M -50 312 R 50 0 R F
2262 8088 M -74 0 R 5 43 R F
2262 8088 M -69 43 R 19 1 R F
2262 8088 M -50 44 R 16 2 R F
2262 8088 M -34 46 R 13 4 R F
2262 8088 M -21 50 R 11 6 R F
2262 8088 M -10 56 R 8 7 R F
2262 8088 M -2 63 R 7 10 R F
2262 8088 M 5 73 R -5 -287 R F
2193 8131 M -5 -43 R 0 43 R F
2576 7973 M 3 98 R 13 -189 R F
2592 7882 M -13 189 R 17 -9 R F
2592 7882 M 4 180 R 13 -167 R F
2609 7895 M -13 167 R 16 -12 R F
2609 7895 M 3 155 R 11 -138 R F
2623 7912 M -11 138 R 12 -15 R F
2623 7912 M 1 123 R 8 -105 R F
2632 7930 M -8 105 R 9 -18 R F
2632 7930 M 1 87 R 5 -65 R F
2638 7952 M -5 65 R 5 -19 R F
2638 7952 M 0 46 R 2 -22 R F
2563 7930 M 6 8 R 3 -65 R F
2572 7873 M -3 65 R 4 10 R F
2572 7873 M 1 75 R 19 -66 R F
2592 7882 M -19 66 R 2 12 R F
2592 7882 M -17 78 R 1 13 R F
2536 7916 M 10 3 R 3 -52 R F
2549 7867 M -3 52 R 9 5 R F
2549 7867 M 6 57 R 17 -51 R F
2572 7873 M -17 51 R 8 6 R F
2524 7866 M -23 1 R 5 51 R F
2524 7866 M -18 52 R 8 -2 R F
2524 7866 M -10 50 R 10 -1 R F
2524 7866 M 0 49 R 12 1 R F
2524 7866 M 12 50 R 13 -49 R F
2501 7867 M -20 5 R 1 68 R F
2501 7867 M -19 73 R 4 -7 R F
2501 7867 M -15 66 R 5 -6 R F
2501 7867 M -10 60 R 7 -5 R F
2501 7867 M -3 55 R 8 -4 R F
2481 7872 M -18 7 R 15 79 R F
2481 7872 M -3 86 R 1 -9 R F
2481 7872 M -2 77 R 3 -9 R F
2478 7958 M -15 -79 R -16 11 R F
2478 7958 M -31 -68 R -13 14 R F
2478 7958 M -44 -54 R -9 16 R F
2478 7958 M -53 -38 R -6 18 R F
2478 7958 M -59 -20 R -2 20 R F
2579 8071 M -3 -98 R -1 12 R F
2579 8071 M -4 -86 R -2 11 R F
2579 8071 M -6 -75 R -5 9 R F
2579 8071 M -11 -66 R -6 8 R F
2579 8071 M -17 -58 R -3 63 R F
2562 8013 M -7 7 R 4 56 R F
2559 8076 M -4 -56 R -9 5 R F
2559 8076 M -13 -51 R -10 53 R F
2536 8078 M 10 -53 R -10 2 R F
2536 8078 M 0 -51 R -8 51 R F
2528 8078 M 8 -51 R -12 1 R F
2528 8078 M -4 -50 R -3 49 R F
2521 8077 M 3 -49 R -6 0 R F
2521 8077 M -3 -49 R -4 48 R F
2514 8076 M 4 -48 R -6 -1 R F
2514 8076 M -2 -49 R -5 47 R F
2507 8074 M 5 -47 R -6 -2 R F
2507 8074 M -1 -49 R -5 -2 R F
2507 8074 M -6 -51 R -1 49 R F
2500 8072 M 1 -49 R -5 -3 R F
2500 8072 M -4 -52 R -2 49 R F
2494 8069 M 2 -49 R -5 -4 R F
2494 8069 M -3 -53 R -2 50 R F
2489 8066 M 2 -50 R -4 -4 R F
2489 8066 M -2 -54 R -4 -5 R F
2489 8066 M -6 -59 R 0 55 R F
2483 8062 M 0 -55 R -36 170 R F
2483 8062 M -36 115 R 44 -52 R F
2491 8125 M -44 52 R 180 0 R F
2491 8125 M 136 52 R 0 -52 R F
2447 8177 M 36 -170 R -56 3 R F
2897 8026 M -2 -38 R 0 75 R F
2895 8063 M 0 -75 R -5 -33 R F
2895 8063 M -5 -108 R 0 141 R F
2890 8096 M 0 -141 R -9 -27 R F
2890 8096 M -9 -168 R 0 195 R F
2881 8123 M 0 -195 R -12 -22 R F
2881 8123 M -12 -217 R 0 240 R F
2869 8146 M 0 -240 R -16 -18 R F
2869 8146 M -16 -258 R 0 276 R F
2853 8164 M 0 -276 R -19 -12 R F
2853 8164 M -19 -288 R 0 300 R F
2834 8176 M 0 -300 R -2 150 R F
2834 8176 M -2 -150 R 0 26 R F
2834 7876 M -23 -8 R 3 64 R F
2834 7876 M -20 56 R 7 12 R F
2834 7876 M -13 68 R 5 15 R F
2834 7876 M -8 83 R 4 18 R F
2834 7876 M -4 101 R 2 23 R F
2834 7876 M -2 124 R 0 26 R F
2773 7919 M 11 -1 R 0 -52 R F
2784 7866 M 0 52 R 12 1 R F
2784 7866 M 12 53 R 15 -51 R F
2811 7868 M -15 51 R 10 5 R F
2811 7868 M -5 56 R 8 8 R F
2748 7943 M 6 -11 R 4 -64 R F
2758 7868 M -4 64 R 9 -8 R F
2758 7868 M 5 56 R 21 -58 R F
2784 7866 M -21 58 R 10 -5 R F
2736 8026 M 1 -27 R -2 -123 R F
2735 7876 M 2 123 R 2 -22 R F
2735 7876 M 4 101 R 19 -109 R F
2758 7868 M -19 109 R 4 -19 R F
2758 7868 M -15 90 R 5 -15 R F
2834 8176 M -2 -124 R -2 23 R F
2834 8176 M -4 -101 R -4 18 R F
2834 8176 M -8 -83 R -5 15 R F
2834 8176 M -13 -68 R -7 11 R F
2834 8176 M -20 -57 R -3 65 R F
2811 8184 M 3 -65 R -8 8 R F
2811 8184 M -5 -57 R -10 5 R F
2811 8184 M -15 -52 R -12 2 R F
2811 8184 M -27 -50 R 0 52 R F
2784 8134 M -11 -2 R 11 54 R F
2784 8186 M -11 -54 R -10 -4 R F
2784 8186 M -21 -58 R -5 56 R F
2758 8184 M 5 -56 R -9 -8 R F
2758 8184 M -4 -64 R -6 -12 R F
2748 8108 M -5 -14 R 15 90 R F
2758 8184 M -15 -90 R -4 -19 R F
2758 8184 M -19 -109 R -4 101 R F
2735 8176 M 4 -101 R -2 -23 R F
2735 8176 M 2 -124 R -1 -26 R F
2672 8026 M 2 38 R 0 -76 R F
2674 7988 M 0 76 R 5 32 R F
2674 7988 M 5 108 R 0 -140 R F
2679 7956 M 0 140 R 9 28 R F
2679 7956 M 9 168 R 0 -196 R F
2688 7928 M 0 196 R 12 22 R F
2688 7928 M 12 218 R 0 -240 R F
2700 7906 M 0 240 R 16 18 R F
2700 7906 M 16 258 R 0 -276 R F
2716 7888 M 0 276 R 19 12 R F
2716 7888 M 19 288 R 0 -300 R F
2735 7876 M 0 300 R 1 -150 R F
3150 8026 M -2 -38 R 0 75 R F
3148 8063 M 0 -75 R -5 -33 R F
3148 8063 M -5 -108 R 0 141 R F
3143 8096 M 0 -141 R -9 -27 R F
3143 8096 M -9 -168 R 0 195 R F
3134 8123 M 0 -195 R -12 -22 R F
3134 8123 M -12 -217 R 0 240 R F
3122 8146 M 0 -240 R -16 -18 R F
3122 8146 M -16 -258 R 0 276 R F
3106 8164 M 0 -276 R -19 -12 R F
3106 8164 M -19 -288 R -1 300 R F
3086 8176 M 1 -300 R -2 150 R F
3086 8176 M -1 -150 R -1 26 R F
3087 7876 M -23 -8 R 3 64 R F
3087 7876 M -20 56 R 7 12 R F
3087 7876 M -13 68 R 5 15 R F
3087 7876 M -8 83 R 3 18 R F
3087 7876 M -5 101 R 2 23 R F
3087 7876 M -3 124 R 1 26 R F
3025 7919 M 12 -1 R 0 -52 R F
3037 7866 M 0 52 R 12 1 R F
3037 7866 M 12 53 R 15 -51 R F
3064 7868 M -15 51 R 10 5 R F
3064 7868 M -5 56 R 8 8 R F
3001 7943 M 6 -11 R 4 -64 R F
3011 7868 M -4 64 R 8 -8 R F
3011 7868 M 4 56 R 22 -58 R F
3037 7866 M -22 58 R 10 -5 R F
2989 8026 M 1 -27 R -2 -123 R F
2988 7876 M 2 123 R 2 -22 R F
2988 7876 M 4 101 R 19 -109 R F
3011 7868 M -19 109 R 4 -19 R F
3011 7868 M -15 90 R 5 -15 R F
3086 8176 M -2 -124 R -2 23 R F
3086 8176 M -4 -101 R -3 18 R F
3086 8176 M -7 -83 R -5 15 R F
3086 8176 M -12 -68 R -7 11 R F
3086 8176 M -19 -57 R -3 65 R F
3064 8184 M 3 -65 R -8 8 R F
3064 8184 M -5 -57 R -10 5 R F
3064 8184 M -15 -52 R -12 2 R F
3064 8184 M -27 -50 R 0 52 R F
3037 8134 M -12 -2 R 12 54 R F
3037 8186 M -12 -54 R -10 -4 R F
3037 8186 M -22 -58 R -4 56 R F
3011 8184 M 4 -56 R -8 -8 R F
3011 8184 M -4 -64 R -6 -12 R F
3001 8108 M -5 -14 R 15 90 R F
3011 8184 M -15 -90 R -4 -19 R F
3011 8184 M -19 -109 R -4 101 R F
2988 8176 M 4 -101 R -2 -23 R F
2988 8176 M 2 -124 R -1 -26 R F
2925 8026 M 1 38 R 0 -76 R F
2926 7988 M 0 76 R 6 32 R F
2926 7988 M 6 108 R 0 -140 R F
2932 7956 M 0 140 R 8 28 R F
2932 7956 M 8 168 R 0 -196 R F
2940 7928 M 0 196 R 13 22 R F
2940 7928 M 13 218 R 0 -240 R F
2953 7906 M 0 240 R 15 18 R F
2953 7906 M 15 258 R 0 -276 R F
2968 7888 M 0 276 R 20 12 R F
2968 7888 M 20 288 R 0 -300 R F
2988 7876 M 0 300 R 1 -150 R F
3330 2521 M 108 0 R D 3330 2930 M 108 0 R D 3330 3338 M 108 0 R D
3330 3747 M 108 0 R D 3330 4565 M 108 0 R D 3330 4974 M 108 0 R D
3330 5382 M 108 0 R D 3330 5791 M 108 0 R D 3330 6609 M 108 0 R D
3330 7018 M 108 0 R D 3330 7426 M 108 0 R D 3330 7835 M 108 0 R D
14114 2112 M 0 6132 R D 14114 2112 M -216 0 R D 14114 4156 M -216 0 R D
14114 6200 M -216 0 R D 14114 8244 M -216 0 R D 14114 2521 M -108 0 R D
14114 2930 M -108 0 R D 14114 3338 M -108 0 R D 14114 3747 M -108 0 R D
14114 4565 M -108 0 R D 14114 4974 M -108 0 R D 14114 5382 M -108 0 R D
14114 5791 M -108 0 R D 14114 6609 M -108 0 R D 14114 7018 M -108 0 R D
14114 7426 M -108 0 R D 14114 7835 M -108 0 R D 8722 2116 M 0 -4 R 0 4 R
0 -4 R 0 4 R 0 -4 R 0 4 R 0 -4 R 0 8 R 0 -4 R 0 -4 R 0 4 R 0 -4 R 0 4 R
0 4 R 0 -8 R 0 4 R 0 -4 R 0 8 R 0 -8 R 0 4 R 0 4 R 0 -4 R 0 -4 R 0 4 R
0 21 R 0 -17 R 0 12 R 0 4514 R 0 -2976 R 0 -1525 R 0 49 R 0 28 R 0 119 R
0 123 R 0 151 R 0 123 R 0 384 R 0 -12 R 0 94 R 0 73 R 0 209 R 0 -217 R
0 102 R 0 86 R 0 -90 R 0 139 R 0 -65 R 0 -156 R 0 70 R 0 94 R 0 -37 R 0 98 R
0 -118 R 0 53 R 0 -17 R 0 -8 R 0 74 R 0 -45 R 0 82 R 0 -119 R 0 4 R 0 37 R
0 53 R 0 41 R 0 196 R 0 -151 R 0 -172 R 0 66 R 0 102 R 0 -106 R 0 -131 R
0 143 R 0 -82 R 0 -49 R 0 53 R 0 -41 R 0 -171 R 0 163 R 0 -102 R 0 172 R
0 -184 R 0 -94 R 0 -66 R 0 -90 R 0 -32 R 0 -33 R 0 -139 R 0 78 R 0 32 R
0 -57 R 0 16 R 0 -81 R 0 -41 R 0 -90 R 0 -25 R 0 -45 R 0 90 R 0 -102 R
0 -98 R 0 49 R 0 -25 R 0 -12 R 0 -16 R 0 4 R 0 -131 R 0 29 R 0 -33 R 0 -37 R
0 62 R 0 -41 R 0 -25 R 0 -12 R 0 -37 R 0 -16 R 0 8 R 0 4 R 0 -16 R 0 36 R
0 -49 R 0 -12 R 0 -24 R 0 4 R 0 -13 R 0 4 R 0 -16 R 0 8 R 0 -32 R 0 40 R
0 -32 R 0 -17 R 0 25 R 0 -29 R 0 8 R 0 9 R 0 -4 R 0 -5 R 0 5 R 0 -17 R 0 8 R
0 -12 R 0 8 R 0 -12 R 0 8 R 0 4 R 0 -12 R 0 8 R 0 -8 R 0 4 R 0 -4 R 0 4 R
0 -4 R 0 4 R 0 -4 R 0 4 R 0 -4 R 0 4 R 0 -4 R 0 4 R 0 -4 R 0 4 R 0 -4 R
0 4 R 0 -4 R 0 4 R D 60 setlinewidth 1.000 0.000 0.000 setrgbcolor
8722 3083 M Z 0.000 0.000 0.000 setrgbcolor 3962 7793 M -2 -9 R 4 65 R F
3964 7849 M -4 -65 R -1 -10 R F
3964 7849 M -5 -75 R -2 67 R F
3957 7841 M 2 -67 R 0 -143 R F
3957 7841 M 2 -210 R -62 0 R F
3897 7631 M 0 236 R 60 0 R F
3897 7631 M 60 236 R 0 -26 R F
4096 7631 M -62 0 R 10 241 R F
4096 7631 M -52 241 R 9 -3 R F
4096 7631 M -43 238 R 8 -3 R F
4096 7631 M -35 235 R 8 -5 R F
4096 7631 M -27 230 R 7 -6 R F
4096 7631 M -20 224 R 7 -7 R F
4096 7631 M -13 217 R 6 -9 R F
4096 7631 M -7 208 R 6 9 R F
4096 7631 M -1 217 R 1 -74 R F
4034 7783 M -1 8 R 1 83 R F
4034 7783 M 0 91 R 10 -2 R F
4034 7783 M 10 89 R -10 -241 R F
4034 7874 M -1 -83 R -1 7 R F
4034 7874 M -2 -76 R -3 7 R F
4034 7874 M -5 -69 R -4 5 R F
4034 7874 M -9 -64 R -2 64 R F
4025 7810 M -5 4 R 3 60 R F
4023 7874 M -3 -60 R -6 3 R F
4023 7874 M -9 -57 R -1 57 R F
4013 7874 M 1 -57 R -7 2 R F
4013 7874 M -6 -55 R -3 53 R F
4004 7872 M 3 -53 R -8 0 R F
4004 7872 M -5 -53 R -4 51 R F
3995 7870 M 4 -51 R -8 0 R F
3995 7870 M -4 -51 R -4 47 R F
3987 7866 M 4 -47 R -8 -3 R F
3987 7866 M -4 -50 R -4 45 R F
3979 7861 M 4 -45 R -7 -3 R F
3979 7861 M -3 -48 R -5 43 R F
3971 7856 M 5 -43 R -6 -6 R F
3971 7856 M -1 -49 R -5 -6 R F
3965 7801 M -3 -8 R 2 56 R F
3965 7801 M -1 48 R 7 7 R F
4233 7631 M -62 0 R 2 242 R F
4233 7631 M -60 242 R 15 -4 R F
4233 7631 M -45 238 R 13 -7 R F
4233 7631 M -32 231 R 12 -9 R F
4233 7631 M -20 222 R 9 -11 R F
4233 7631 M -11 211 R 6 -13 R F
4233 7631 M -5 198 R 4 -16 R F
4233 7631 M -1 182 R 1 -17 R F
4173 7873 M -2 -242 R 0 152 R F
4173 7873 M -2 -90 R -1 8 R F
4173 7873 M -3 -82 R -1 7 R F
4173 7873 M -4 -75 R -3 7 R F
4173 7873 M -7 -68 R -4 5 R F
4173 7873 M -11 -63 R -5 4 R F
4173 7873 M -16 -59 R -1 60 R F
4136 7819 M 0 53 R 8 -53 R F
4144 7819 M -8 53 R 10 2 R F
4144 7819 M 2 55 R 5 -57 R F
4151 7817 M -5 57 R 10 0 R F
4151 7817 M 5 57 R 1 -60 R F
4102 7801 M 0 54 R 5 -48 R F
4107 7807 M -5 48 R 8 6 R F
4107 7807 M 3 54 R 2 -48 R F
4112 7813 M -2 48 R 8 5 R F
4112 7813 M 6 53 R 1 -50 R F
4119 7816 M -1 50 R 9 3 R F
4119 7816 M 8 53 R 0 -50 R F
4127 7819 M 0 50 R 9 3 R F
4127 7819 M 9 53 R 0 -53 R F
4096 7774 M -1 74 R 1 -64 R F
4096 7784 M -1 64 R 7 7 R F
4096 7784 M 6 71 R -4 -62 R F
4098 7793 M 4 62 R 0 -54 R F
4497 7703 M -6 -18 R -9 -16 R F
4497 7703 M -15 -34 R -10 -13 R F
4497 7703 M -25 -47 R -14 -12 R F
4497 7703 M -39 -59 R -15 -9 R F
4497 7703 M -54 -68 R -9 68 R F
4417 7683 M 5 3 R 4 -58 R F
4426 7628 M -4 58 R 5 5 R F
4426 7628 M 1 63 R 16 -56 R F
4443 7635 M -16 56 R 3 5 R F
4443 7635 M -13 61 R 4 7 R F
4398 7677 M 7 1 R 2 -54 R F
4407 7624 M -2 54 R 7 2 R F
4407 7624 M 5 56 R 14 -52 R F
4426 7628 M -14 52 R 5 3 R F
4370 7680 M 10 -3 R 7 -54 R F
4387 7623 M -7 54 R 10 -1 R F
4387 7623 M 3 53 R 17 -52 R F
4407 7624 M -17 52 R 8 1 R F
4363 7625 M -22 6 R 2 88 R F
4363 7625 M -20 94 R 2 -11 R F
4363 7625 M -18 83 R 5 -10 R F
4363 7625 M -13 73 R 5 -8 R F
4363 7625 M -8 65 R 7 -6 R F
4363 7625 M -1 59 R 8 -4 R F
4363 7625 M 7 55 R 17 -57 R F
4276 7751 M 2 27 R 0 -55 R F
4278 7723 M 0 55 R 5 25 R F
4278 7723 M 5 80 R 0 -105 R F
4283 7698 M 0 105 R 10 21 R F
4283 7698 M 10 126 R 0 -148 R F
4293 7676 M 0 148 R 13 18 R F
4293 7676 M 13 166 R 0 -185 R F
4306 7657 M 0 185 R 16 15 R F
4306 7657 M 16 200 R 0 -215 R F
4322 7642 M 0 215 R 19 11 R F
4322 7642 M 19 226 R 0 -237 R F
4341 7631 M 0 237 R 0 -94 R F
4341 7631 M 0 143 R 0 -41 R F
4341 7733 M 0 41 R 94 0 R F
4341 7733 M 94 41 R 64 -41 R F
4499 7733 M -64 41 R 0 94 R F
4499 7733 M -64 135 R 19 -11 R F
4500 7749 M 0 -3 R 0 -3 R F
4500 7749 M 0 -6 R 0 -2 R F
4500 7749 M 0 -8 R 0 -2 R F
4500 7749 M 0 -10 R 0 -2 R F
4500 7749 M 0 -12 R 0 -1 R F
4500 7749 M 0 -13 R 0 -2 R F
4500 7749 M 0 -15 R -1 -1 R F
4500 7749 M -1 -16 R -1 45 R F
4499 7733 M -45 124 R 17 -14 R F
4499 7733 M -28 110 R 12 -18 R F
4499 7733 M -16 92 R 10 -22 R F
4499 7733 M -6 70 R 5 -25 R F
4435 7868 M 0 -94 R -2 11 R F
4435 7868 M -2 -83 R -2 10 R F
4435 7868 M -4 -73 R -4 9 R F
4435 7868 M -8 -64 R -5 7 R F
4435 7868 M -13 -57 R -7 5 R F
4435 7868 M -20 -52 R -3 58 R F
4412 7874 M 3 -58 R -8 4 R F
4412 7874 M -5 -54 R -9 2 R F
4412 7874 M -14 -52 R -10 1 R F
4412 7874 M -24 -51 R -2 53 R F
4388 7823 M -10 -1 R 8 54 R F
4386 7876 M -8 -54 R -9 -2 R F
4386 7876 M -17 -56 R -7 54 R F
4362 7874 M 7 -54 R -7 -4 R F
4362 7874 M 0 -58 R -7 -6 R F
4362 7874 M -7 -64 R -5 -7 R F
4362 7874 M -12 -71 R -4 -8 R F
4362 7874 M -16 -79 R -3 -10 R F
4362 7874 M -19 -89 R -2 83 R F
4341 7774 M 0 94 R 2 -83 R F
4343 7719 M -2 -88 R 0 102 R F
4597 7794 M -59 0 R 2 21 R F
4597 7794 M -57 21 R 4 15 R F
4597 7794 M -53 36 R 8 14 R F
4597 7794 M -45 50 R 12 11 R F
4597 7794 M -33 61 R 14 9 R F
4597 7794 M -19 70 R 16 7 R F
4597 7794 M -3 77 R 3 -74 R F
4675 7806 M 3 66 R -2 -72 R F
4676 7800 M 2 72 R -2 -125 R F
4676 7800 M 0 -53 R -3 45 R F
4673 7792 M 3 -45 R -8 -3 R F
4673 7792 M -5 -48 R -3 41 R F
4665 7785 M 3 -41 R -8 -3 R F
4665 7785 M -5 -44 R -7 39 R F
4653 7780 M 7 -39 R -9 -3 R F
4653 7780 M -2 -42 R -10 -2 R F
4653 7780 M -12 -44 R -6 40 R F
4635 7776 M 6 -40 R -9 -2 R F
4635 7776 M -3 -42 R -4 42 R F
4628 7776 M 4 -42 R -6 -2 R F
4628 7776 M -2 -44 R -4 0 R F
4628 7776 M -6 -44 R -1 43 R F
4621 7775 M 1 -43 R -2 -1 R F
4621 7775 M -1 -44 R -5 43 R F
4615 7774 M 5 -43 R -8 -2 R F
4615 7774 M -3 -45 R -2 44 R F
4610 7773 M 2 -44 R -6 -3 R F
4610 7773 M -4 -47 R -5 -3 R F
4610 7773 M -9 -50 R -4 -4 R F
4610 7773 M -13 -54 R -3 -4 R F
4610 7773 M -16 -58 R -2 -4 R F
4610 7773 M -18 -62 R -2 58 R F
4592 7711 M -2 -6 R 0 64 R F
4590 7769 M 0 -64 R 0 -6 R F
4590 7769 M 0 -70 R -5 -75 R F
4585 7624 M 5 75 R 1 -6 R F
4585 7624 M 6 69 R 10 -71 R F
4601 7622 M -10 71 R 1 -5 R F
4601 7622 M -9 66 R 3 -5 R F
4615 7671 M 6 0 R 4 -46 R F
4625 7625 M -4 46 R 13 1 R F
4625 7625 M 9 47 R 2 -44 R F
4636 7628 M -2 44 R 10 3 R F
4636 7628 M 8 47 R 2 -43 R F
4646 7632 M -2 43 R 10 4 R F
4646 7632 M 8 47 R 1 -42 R F
4655 7637 M -1 42 R 8 6 R F
4655 7637 M 7 48 R 2 -41 R F
4664 7644 M -2 41 R 6 8 R F
4664 7644 M 4 49 R 3 -41 R F
4671 7652 M -3 41 R 5 9 R F
4671 7652 M 2 50 R 5 -42 R F
4678 7660 M -5 42 R 3 11 R F
4678 7660 M -2 53 R 0 12 R F
4614 7623 M -13 -1 R 2 53 R F
4614 7623 M -11 52 R 5 -2 R F
4614 7623 M -6 50 R 7 -2 R F
4614 7623 M 1 48 R 10 -46 R F
4601 7622 M -6 61 R 4 -4 R F
4601 7622 M -2 57 R 4 -4 R F
4590 7769 M -5 -145 R -12 140 R F
4573 7764 M 12 -140 R -14 3 R F
4573 7764 M -2 -137 R -12 130 R F
4559 7757 M 12 -130 R -13 6 R F
4559 7757 M -1 -124 R -10 9 R F
4529 7698 M 2 15 R 0 -32 R F
4531 7681 M 0 32 R 3 14 R F
4531 7681 M 3 46 R 0 -61 R F
4534 7666 M 0 61 R 6 12 R F
4534 7666 M 6 73 R 0 -86 R F
4540 7653 M 0 86 R 8 10 R F
4540 7653 M 8 96 R 0 -107 R F
4548 7642 M 0 107 R 11 8 R F
4750 7631 M -66 0 R 56 22 R F
4750 7631 M -10 22 R 2 -4 R F
4750 7631 M -8 18 R 2 -3 R F
4750 7631 M -6 15 R 3 -2 R F
4750 7631 M -3 13 R 3 -2 R F
4711 7859 M 11 -10 R 15 -181 R F
4737 7668 M -15 181 R 9 -11 R F
4737 7668 M -6 170 R 6 -163 R F
4737 7675 M -6 163 R 5 -14 R F
4737 7675 M -1 149 R 1 -15 R F
4740 7653 M -56 -22 R 55 26 R F
4739 7657 M -55 -26 R 12 235 R F
4739 7657 M -43 209 R 42 -204 R F
4738 7662 M -42 204 R 15 -7 R F
4738 7662 M -27 197 R 26 -191 R F
4696 7866 M -12 -235 R -1 3 R F
4696 7866 M -13 -232 R -1 3 R F
4696 7866 M -14 -229 R -2 4 R F
4696 7866 M -16 -225 R -1 3 R F
4696 7866 M -17 -222 R 0 4 R F
4696 7866 M -17 -218 R -1 224 R F
4678 7872 M 1 -224 R -1 4 R F
4678 7872 M 0 -220 R 0 4 R F
4678 7872 M 0 -216 R 0 4 R F
4678 7872 M 0 -212 R -2 65 R F
4678 7872 M -2 -147 R 0 22 R F
4678 7872 M -3 -66 R -2 6 R F
4678 7872 M -5 -60 R -2 5 R F
4678 7872 M -7 -55 R -4 3 R F
4678 7872 M -11 -52 R -6 3 R F
4678 7872 M -17 -49 R -3 52 R F
4658 7875 M 3 -52 R -6 2 R F
4658 7875 M -3 -50 R -8 1 R F
4658 7875 M -11 -49 R -10 1 R F
4658 7875 M -21 -48 R -2 49 R F
4637 7827 M -9 -1 R 7 50 R F
4635 7876 M -7 -50 R -8 -1 R F
4635 7876 M -15 -51 R -7 50 R F
4613 7875 M 7 -50 R -7 -3 R F
4613 7875 M 0 -53 R -6 -3 R F
4613 7875 M -6 -56 R -4 -4 R F
4613 7875 M -10 -60 R -3 -5 R F
4613 7875 M -13 -65 R -2 -6 R F
4613 7875 M -15 -71 R -4 67 R F
4594 7871 M 4 -67 R -1 -7 R F
4540 7815 M -2 -21 R 0 4 R F
4859 7792 M -2 -10 R 4 65 R F
4861 7847 M -4 -65 R -1 -11 R F
4861 7847 M -5 -76 R -2 68 R F
4854 7839 M 2 -68 R 0 -140 R F
4854 7839 M 2 -208 R -64 0 R F
4792 7631 M 0 236 R 62 0 R F
4792 7631 M 62 236 R 0 -28 R F
5004 7631 M -63 0 R 3 242 R F
5004 7631 M -60 242 R 16 -4 R F
5004 7631 M -44 238 R 14 -7 R F
5004 7631 M -30 231 R 11 -9 R F
5004 7631 M -19 222 R 8 -11 R F
5004 7631 M -11 211 R 6 -14 R F
5004 7631 M -5 197 R 4 -17 R F
5004 7631 M -1 180 R 1 -19 R F
4944 7873 M -3 -242 R 0 143 R F
4944 7873 M -3 -99 R -1 12 R F
4944 7873 M -4 -87 R -1 10 R F
4944 7873 M -5 -77 R -3 8 R F
4944 7873 M -8 -69 R -4 6 R F
4944 7873 M -12 -63 R -5 5 R F
4944 7873 M -17 -58 R -1 59 R F
4869 7808 M 0 46 R 7 -40 R F
4876 7814 M -7 40 R 8 6 R F
4876 7814 M 1 46 R 7 -42 R F
4884 7818 M -7 42 R 9 5 R F
4884 7818 M 2 47 R 8 -45 R F
4894 7820 M -8 45 R 9 4 R F
4894 7820 M 1 49 R 9 -48 R F
4904 7821 M -9 48 R 10 3 R F
4904 7821 M 1 51 R 8 -52 R F
4913 7820 M -8 52 R 10 1 R F
4913 7820 M 2 53 R 6 -55 R F
4921 7818 M -6 55 R 11 1 R F
4921 7818 M 5 56 R 1 -59 R F
4863 7800 M -4 -8 R 2 55 R F
4863 7800 M -2 47 R 8 7 R F
4863 7800 M 6 54 R 0 -46 R F
5213 7695 M 0 44 R 261 0 R F
5213 7695 M 261 44 R 0 -44 R F
5213 7789 M 0 43 R 261 0 R F
5213 7789 M 261 43 R 0 -43 R F
6362 7831 M -57 0 R 2 25 R F
6362 7831 M -55 25 R 5 23 R F
6362 7831 M -50 48 R 9 19 R F
6362 7831 M -41 67 R 13 16 R F
6362 7831 M -28 83 R 16 12 R F
6362 7831 M -12 95 R 12 -92 R F
6377 7684 M 141 0 R 0 -53 R F
6377 7684 M 141 -53 R -200 71 R F
6377 7684 M -59 18 R 10 14 R F
6377 7684 M -49 32 R 14 15 R F
6377 7684 M -35 47 R 17 15 R F
6377 7684 M -18 62 R 20 15 R F
6377 7684 M 2 77 R 2 -69 R F
6518 7631 M -218 0 R 1 20 R F
6518 7631 M -217 20 R 3 18 R F
6518 7631 M -214 38 R 6 17 R F
6518 7631 M -208 55 R 8 16 R F
6521 7847 M -1 -15 R -1 35 R F
6519 7867 M 1 -35 R -3 -14 R F
6519 7867 M -2 -49 R -3 68 R F
6514 7886 M 3 -68 R -4 -13 R F
6514 7886 M -1 -81 R -7 -12 R F
6514 7886 M -8 -93 R -1 109 R F
6505 7902 M 1 -109 R -9 -12 R F
6505 7902 M -8 -121 R -5 135 R F
6492 7916 M 5 -135 R -13 -13 R F
6492 7916 M -8 -148 R -7 160 R F
6477 7928 M 7 -160 R -16 -13 R F
6477 7928 M -9 -173 R -9 181 R F
6459 7936 M 9 -181 R -10 91 R F
6459 7936 M -1 -90 R -1 9 R F
6458 7846 M 10 -91 R -14 73 R F
6454 7828 M 14 -73 R -20 -14 R F
6454 7828 M -6 -87 R -5 69 R F
6443 7810 M 5 -69 R -5 -4 R F
6443 7810 M 0 -73 R -6 -4 R F
6430 7729 M -7 -5 R 2 68 R F
6430 7729 M -5 63 R 18 18 R F
6430 7729 M 13 81 R -6 -77 R F
6404 7712 M -13 -11 R 2 68 R F
6404 7712 M -11 57 R 6 4 R F
6404 7712 M -5 61 R 26 19 R F
6404 7712 M 21 80 R -2 -68 R F
6391 7701 M -10 -9 R 2 71 R F
6391 7701 M -8 62 R 5 3 R F
6391 7701 M -3 65 R 5 3 R F
6459 7936 M -2 -81 R -2 9 R F
6459 7936 M -4 -72 R -4 8 R F
6459 7936 M -8 -64 R -6 6 R F
6459 7936 M -14 -58 R -6 6 R F
6459 7936 M -20 -52 R -1 57 R F
6439 7884 M -8 3 R 7 54 R F
6438 7941 M -7 -54 R -9 3 R F
6438 7941 M -16 -51 R -7 53 R F
6415 7943 M 7 -53 R -11 0 R F
6415 7943 M -4 -53 R -11 -1 R F
6391 7887 M -9 -5 R 8 59 R F
6391 7887 M -1 54 R 25 2 R F
6391 7887 M 24 56 R -15 -54 R F
6382 7882 M -7 -6 R 15 65 R F
6390 7941 M -15 -65 R -5 -9 R F
6390 7941 M -20 -74 R -2 68 R F
6368 7935 M 2 -68 R -4 -9 R F
6368 7935 M -2 -77 R -3 -11 R F
6362 7834 M -12 92 R 18 9 R F
6362 7834 M 6 101 R -5 -88 R F
6381 7692 M -2 69 R 4 2 R F
6638 7631 M -66 0 R 0 65 R F
6638 7631 M -66 65 R 66 0 R F
6845 7729 M 3 97 R 14 -187 R F
6862 7639 M -14 187 R 18 -8 R F
6862 7639 M 4 179 R 12 -166 R F
6878 7652 M -12 166 R 15 -13 R F
6878 7652 M 3 153 R 10 -137 R F
6891 7668 M -10 137 R 12 -15 R F
6891 7668 M 2 122 R 8 -103 R F
6901 7687 M -8 103 R 8 -17 R F
6901 7687 M 0 86 R 5 -65 R F
6906 7708 M -5 65 R 5 -20 R F
6906 7708 M 0 45 R 2 -22 R F
6838 7695 M 4 10 R 1 -76 R F
6843 7629 M -1 76 R 2 12 R F
6843 7629 M 1 88 R 18 -78 R F
6862 7639 M -18 78 R 1 12 R F
6809 7673 M 9 3 R 4 -53 R F
6822 7623 M -4 53 R 8 4 R F
6822 7623 M 4 57 R 17 -51 R F
6843 7629 M -17 51 R 7 7 R F
6843 7629 M -10 58 R 5 8 R F
6799 7621 M -27 3 R 6 52 R F
6799 7621 M -21 55 R 10 -3 R F
6799 7621 M -11 52 R 11 -1 R F
6799 7621 M 0 51 R 10 1 R F
6799 7621 M 10 52 R 13 -50 R F
6772 7624 M -23 7 R 3 75 R F
6772 7624 M -20 82 R 4 -10 R F
6772 7624 M -16 72 R 6 -9 R F
6772 7624 M -10 63 R 8 -6 R F
6772 7624 M -2 57 R 8 -5 R F
6749 7631 M -20 13 R 3 274 R F
6749 7631 M -17 287 R 16 -107 R F
6749 7631 M -1 180 R 1 -81 R F
6749 7631 M 0 99 R 1 -13 R F
6749 7631 M 1 86 R 2 -11 R F
6848 7826 M -3 -97 R -1 12 R F
6848 7826 M -4 -85 R -2 11 R F
6848 7826 M -6 -74 R -4 9 R F
6848 7826 M -10 -65 R -6 7 R F
6848 7826 M -16 -58 R -3 64 R F
6829 7832 M 3 -64 R -7 7 R F
6829 7832 M -4 -57 R -8 4 R F
6829 7832 M -12 -53 R -10 2 R F
6829 7832 M -22 -51 R 0 52 R F
6807 7833 M 0 -52 R -9 52 R F
6798 7833 M 9 -52 R -10 1 R F
6798 7833 M -1 -51 R -7 50 R F
6790 7832 M 7 -50 R -11 -1 R F
6790 7832 M -4 -51 R -4 49 R F
6782 7830 M 4 -49 R -9 -2 R F
6782 7830 M -5 -51 R -3 49 R F
6774 7828 M 3 -49 R -8 -4 R F
6774 7828 M -5 -53 R -2 50 R F
6767 7825 M 2 -50 R -7 -7 R F
6767 7825 M -5 -57 R -2 53 R F
6760 7821 M 2 -53 R -6 -7 R F
6760 7821 M -4 -60 R -2 55 R F
6754 7816 M 2 -55 R -4 -9 R F
6754 7816 M -2 -64 R -2 -10 R F
6749 7730 M -1 81 R 6 5 R F
6749 7730 M 5 86 R -4 -74 R F
6732 7918 M -3 -274 R -14 256 R F
6715 7900 M 14 -256 R -16 17 R F
6715 7900 M -2 -239 R -12 215 R F
6701 7876 M 12 -215 R -13 22 R F
6701 7876 M -1 -193 R -9 164 R F
6691 7847 M 9 -164 R -10 26 R F
6691 7847 M -1 -138 R -5 105 R F
6685 7814 M 5 -105 R -5 31 R F
6685 7814 M 0 -74 R -2 35 R F
6900 7863 M -63 0 R 6 74 R F
6900 7863 M -57 74 R 16 -7 R F
6900 7863 M -41 67 R 13 -9 R F
6900 7863 M -28 58 R 12 -12 R F
6900 7863 M -16 46 R 8 -13 R F
6900 7863 M -8 33 R 5 -16 R F
6843 7937 M -6 -74 R -2 7 R F
6843 7937 M -8 -67 R -2 6 R F
6843 7937 M -10 -61 R -4 5 R F
6843 7937 M -14 -56 R -4 60 R F
6825 7941 M 4 -60 R -4 4 R F
6825 7941 M 0 -56 R -5 4 R F
6825 7941 M -5 -52 R -6 2 R F
6825 7941 M -11 -50 R -7 1 R F
6825 7941 M -18 -49 R -1 51 R F
6806 7943 M 1 -51 R -9 1 R F
6806 7943 M -8 -50 R -11 -1 R F
6806 7943 M -19 -51 R -9 -4 R F
6806 7943 M -28 -55 R 0 52 R F
6778 7940 M 0 -52 R -9 -7 R F
6778 7940 M -9 -59 R -7 -8 R F
6778 7940 M -16 -67 R -5 -12 R F
6778 7940 M -21 -79 R -4 71 R F
6753 7932 M 4 -71 R -5 -14 R F
6753 7932 M -1 -85 R -2 -17 R F
6753 7932 M -3 -102 R -2 -19 R F
6753 7932 M -5 -121 R -16 107 R F
3964 7251 M -3 -11 R 1 70 R F
3962 7310 M -1 -70 R -1 -12 R F
3962 7310 M -2 -82 R -4 71 R F
3956 7299 M 4 -71 R 0 -125 R F
3956 7299 M 4 -196 R -63 0 R F
3897 7103 M 0 236 R 59 0 R F
3897 7103 M 59 236 R 0 -40 R F
4033 7282 M -21 0 R 1 63 R F
4033 7282 M -20 63 R 11 1 R F
4033 7282 M -9 64 R 2 0 R F
4033 7282 M -7 64 R 1 0 R F
4033 7282 M -6 64 R 2 0 R F
4033 7282 M -4 64 R 1 0 R F
4033 7282 M -3 64 R 2 0 R F
4033 7282 M -1 64 R 1 0 R F
4013 7345 M -1 -63 R -9 61 R F
4003 7343 M 9 -61 R -12 -1 R F
4003 7343 M -3 -62 R -7 59 R F
3993 7340 M 7 -59 R -10 -3 R F
3993 7340 M -3 -62 R -5 57 R F
3985 7335 M 5 -57 R -9 -4 R F
3985 7335 M -4 -61 R -4 54 R F
3977 7328 M 4 -54 R -8 -6 R F
3977 7328 M -4 -60 R -4 52 R F
3969 7320 M 4 -52 R -5 -7 R F
3969 7320 M -1 -59 R -4 -10 R F
3964 7251 M -2 59 R 7 10 R F
4133 7265 M -2 -9 R 4 65 R F
4135 7321 M -4 -65 R -1 -10 R F
4135 7321 M -5 -75 R -2 67 R F
4128 7313 M 2 -67 R 0 -143 R F
4128 7313 M 2 -210 R -62 0 R F
4068 7103 M 0 236 R 60 0 R F
4068 7103 M 60 236 R 0 -26 R F
4267 7103 M -62 0 R 10 241 R F
4267 7103 M -52 241 R 9 -3 R F
4267 7103 M -43 238 R 8 -3 R F
4267 7103 M -35 235 R 8 -5 R F
4267 7103 M -27 230 R 7 -6 R F
4267 7103 M -20 224 R 7 -7 R F
4267 7103 M -13 217 R 6 -9 R F
4267 7103 M -7 208 R 6 9 R F
4267 7103 M -1 217 R 1 -74 R F
4205 7255 M -1 8 R 1 83 R F
4205 7255 M 0 91 R 10 -2 R F
4205 7255 M 10 89 R -10 -241 R F
4205 7346 M -1 -83 R -1 7 R F
4205 7346 M -2 -76 R -3 7 R F
4205 7346 M -5 -69 R -4 5 R F
4205 7346 M -9 -64 R -2 64 R F
4196 7282 M -5 4 R 3 60 R F
4194 7346 M -3 -60 R -6 3 R F
4194 7346 M -9 -57 R -1 57 R F
4184 7346 M 1 -57 R -7 2 R F
4184 7346 M -6 -55 R -3 53 R F
4175 7344 M 3 -53 R -7 0 R F
4175 7344 M -4 -53 R -5 51 R F
4166 7342 M 5 -51 R -9 0 R F
4166 7342 M -4 -51 R -4 47 R F
4158 7338 M 4 -47 R -8 -3 R F
4158 7338 M -4 -50 R -4 45 R F
4150 7333 M 4 -45 R -7 -3 R F
4150 7333 M -3 -48 R -5 43 R F
4142 7328 M 5 -43 R -6 -6 R F
4142 7328 M -1 -49 R -4 -6 R F
4137 7273 M -4 -8 R 2 56 R F
4137 7273 M -2 48 R 7 7 R F
4405 7103 M -63 0 R 2 242 R F
4405 7103 M -61 242 R 15 -4 R F
4405 7103 M -46 238 R 13 -7 R F
4405 7103 M -33 231 R 12 -9 R F
4405 7103 M -21 222 R 9 -11 R F
4405 7103 M -12 211 R 6 -13 R F
4405 7103 M -6 198 R 4 -16 R F
4405 7103 M -2 182 R 2 -17 R F
4344 7345 M -2 -242 R 0 152 R F
4344 7345 M -2 -90 R -1 8 R F
4344 7345 M -3 -82 R -1 7 R F
4344 7345 M -4 -75 R -3 7 R F
4344 7345 M -7 -68 R -4 5 R F
4344 7345 M -11 -63 R -5 4 R F
4344 7345 M -16 -59 R -1 60 R F
4307 7291 M 0 53 R 8 -53 R F
4315 7291 M -8 53 R 10 2 R F
4315 7291 M 2 55 R 5 -57 R F
4322 7289 M -5 57 R 10 0 R F
4322 7289 M 5 57 R 1 -60 R F
4273 7273 M 0 54 R 5 -48 R F
4278 7279 M -5 48 R 8 6 R F
4278 7279 M 3 54 R 3 -48 R F
4284 7285 M -3 48 R 8 5 R F
4284 7285 M 5 53 R 1 -50 R F
4290 7288 M -1 50 R 9 3 R F
4290 7288 M 8 53 R 0 -50 R F
4298 7291 M 0 50 R 9 3 R F
4298 7291 M 9 53 R 0 -53 R F
4267 7246 M -1 74 R 1 -64 R F
4267 7256 M -1 64 R 7 7 R F
4267 7256 M 6 71 R -4 -62 R F
4269 7265 M 4 62 R 0 -54 R F
4597 7163 M 0 5 R 1 -68 R F
4598 7100 M -1 68 R 4 74 R F
4598 7100 M 3 142 R 16 -135 R F
4617 7107 M -16 135 R 18 -6 R F
4617 7107 M 2 129 R 14 -120 R F
4633 7116 M -14 120 R 14 -7 R F
4633 7116 M 0 113 R 12 -101 R F
4645 7128 M -12 101 R 11 -8 R F
4645 7128 M -1 93 R 7 -8 R F
4598 7100 M -23 -4 R 6 52 R F
4598 7100 M -17 48 R 6 2 R F
4598 7100 M -11 50 R 5 4 R F
4598 7100 M -6 54 R 3 4 R F
4598 7100 M -3 58 R 2 5 R F
4575 7096 M -25 -1 R 8 49 R F
4575 7096 M -17 48 R 9 1 R F
4575 7096 M -8 49 R 8 1 R F
4575 7096 M 0 50 R 6 2 R F
4550 7095 M -23 1 R 2 53 R F
4550 7095 M -21 54 R 8 -3 R F
4550 7095 M -13 51 R 10 -1 R F
4550 7095 M -3 50 R 11 -1 R F
4527 7096 M -21 4 R 4 71 R F
4527 7096 M -17 75 R 3 -7 R F
4527 7096 M -14 68 R 3 -6 R F
4527 7096 M -11 62 R 6 -5 R F
4527 7096 M -5 57 R 7 -4 R F
4509 7180 M 1 -9 R -4 -71 R F
4509 7180 M -3 -80 R -18 7 R F
4509 7180 M -21 -73 R -15 10 R F
4509 7180 M -36 -63 R -12 12 R F
4509 7180 M -48 -51 R -8 14 R F
4509 7180 M -56 -37 R -6 16 R F
4509 7180 M -62 -21 R -1 18 R F
4509 7180 M -63 -3 R 0 3 R F
4645 7128 M 6 85 R 3 -71 R F
4654 7142 M -3 71 R 6 -10 R F
4654 7142 M 3 61 R 2 -45 R F
4659 7158 M -2 45 R 3 -12 R F
4659 7158 M 1 33 R 1 -14 R F
4572 7250 M 4 -1 R 0 -61 R F
4576 7188 M 0 61 R 3 -1 R F
4576 7188 M 3 60 R 9 -66 R F
4588 7182 M -9 66 R 22 -6 R F
4588 7182 M 13 60 R -6 -67 R F
4595 7175 M 6 67 R -4 -74 R F
4576 7188 M -17 4 R 3 60 R F
4576 7188 M -14 64 R 5 -1 R F
4576 7188 M -9 63 R 5 -1 R F
4559 7192 M -7 2 R 10 58 R F
4562 7252 M -10 -58 R -7 1 R F
4562 7252 M -17 -57 R -4 63 R F
4541 7258 M 4 -63 R -5 2 R F
4541 7258 M -1 -61 R -5 1 R F
4535 7198 M -22 6 R 2 73 R F
4535 7198 M -20 79 R 3 -7 R F
4535 7198 M -17 72 R 9 -6 R F
4535 7198 M -8 66 R 14 -6 R F
4653 7267 M -61 0 R 0 76 R F
4653 7267 M -61 76 R 18 -7 R F
4653 7267 M -43 69 R 15 -9 R F
4653 7267 M -28 60 R 11 -12 R F
4653 7267 M -17 48 R 9 -14 R F
4653 7267 M -8 34 R 6 -16 R F
4592 7343 M 0 -76 R -1 8 R F
4592 7343 M -1 -68 R -2 6 R F
4592 7343 M -3 -62 R -4 5 R F
4592 7343 M -7 -57 R -5 5 R F
4592 7343 M -12 -52 R -6 3 R F
4592 7343 M -18 -49 R -2 53 R F
4572 7347 M 2 -53 R -7 3 R F
4572 7347 M -5 -50 R -8 1 R F
4572 7347 M -13 -49 R -9 1 R F
4572 7347 M -22 -48 R 0 49 R F
4550 7299 M -8 0 R 8 49 R F
4550 7348 M -8 -49 R -7 -1 R F
4550 7348 M -15 -50 R -6 49 R F
4529 7347 M 6 -49 R -7 -2 R F
4529 7347 M -1 -51 R -4 -2 R F
4529 7347 M -5 -53 R -4 -4 R F
4529 7347 M -9 -57 R -3 -3 R F
4529 7347 M -12 -60 R -2 -5 R F
4529 7347 M -14 -65 R -5 61 R F
4510 7343 M 5 -61 R 0 -5 R F
4510 7343 M 5 -66 R -2 -73 R F
4510 7343 M 3 -139 R -17 7 R F
4510 7343 M -14 -132 R -3 125 R F
4454 7256 M 0 30 R 3 -41 R F
4457 7245 M -3 41 R 5 16 R F
4457 7245 M 2 57 R 4 -68 R F
4463 7234 M -4 68 R 8 13 R F
4463 7234 M 4 81 R 4 -89 R F
4471 7226 M -4 89 R 12 12 R F
4471 7226 M 8 101 R 2 -109 R F
4481 7218 M -2 109 R 14 9 R F
4481 7218 M 12 118 R 3 -125 R F
4454 7286 M 0 -30 R -1 13 R F
4857 7167 M 0 44 R 260 0 R F
4857 7167 M 260 44 R 0 -44 R F
4857 7261 M 0 43 R 260 0 R F
4857 7261 M 260 43 R 0 -43 R F
5435 7192 M -122 0 R 0 59 R F
5435 7192 M -122 59 R 122 0 R F
5619 7103 M -61 0 R 4 286 R F
5619 7103 M -57 286 R 5 12 R F
5619 7103 M -52 298 R 3 14 R F
5619 7103 M -49 312 R 49 0 R F
5558 7316 M -74 0 R 4 44 R F
5558 7316 M -70 44 R 19 0 R F
5558 7316 M -51 44 R 17 3 R F
5558 7316 M -34 47 R 13 4 R F
5558 7316 M -21 51 R 11 5 R F
5558 7316 M -10 56 R 8 8 R F
5558 7316 M -2 64 R 6 9 R F
5558 7316 M 4 73 R -4 -286 R F
5488 7360 M -4 -44 R 0 44 R F
5797 7103 M -66 0 R 0 65 R F
5797 7103 M -66 65 R 66 0 R F
5905 7315 M -59 0 R 3 23 R F
5905 7315 M -56 23 R 5 19 R F
5905 7315 M -51 42 R 9 17 R F
5905 7315 M -42 59 R 12 15 R F
5905 7315 M -30 74 R 15 11 R F
5905 7315 M -15 85 R 15 -82 R F
5998 7193 M -1 11 R 13 197 R F
6010 7401 M -13 -197 R -2 9 R F
6010 7401 M -15 -188 R -2 195 R F
5993 7408 M 2 -195 R -5 8 R F
5993 7408 M -3 -187 R -1 104 R F
5989 7325 M 1 -104 R -1 94 R F
5977 7293 M 5 6 R 1 -71 R F
5983 7228 M -1 71 R 4 7 R F
5983 7228 M 3 78 R 4 -85 R F
5990 7221 M -4 85 R 3 9 R F
5939 7240 M 10 43 R 4 -44 R F
5953 7239 M -4 44 R 11 2 R F
5953 7239 M 7 46 R 5 -48 R F
5965 7237 M -5 48 R 9 3 R F
5965 7237 M 4 51 R 6 -55 R F
5975 7233 M -6 55 R 8 5 R F
5975 7233 M 2 60 R 6 -65 R F
5937 7240 M -1 0 R 1 42 R F
5937 7240 M 0 42 R 12 1 R F
5937 7240 M 12 43 R -10 -43 R F
5937 7282 M -1 -42 R -1 0 R F
5937 7282 M -2 -42 R -2 -1 R F
5937 7282 M -4 -43 R -1 0 R F
5937 7282 M -5 -43 R -2 0 R F
5937 7282 M -7 -43 R 0 43 R F
6062 7173 M -6 -19 R 1 76 R F
6062 7173 M -5 57 R 4 -11 R F
6062 7173 M -1 46 R 2 -11 R F
6062 7173 M 1 35 R 1 -12 R F
6036 7256 M 9 -8 R 2 -112 R F
6047 7136 M -2 112 R 7 -9 R F
6047 7136 M 5 103 R 4 -85 R F
6056 7154 M -4 85 R 5 -9 R F
6010 7401 M 5 -133 R 1 -159 R F
6016 7109 M -1 159 R 12 -5 R F
6016 7109 M 11 154 R 6 -142 R F
6033 7121 M -6 142 R 9 -7 R F
6033 7121 M 3 135 R 11 -120 R F
5991 7164 M 4 9 R 2 -72 R F
5997 7101 M -2 72 R 3 9 R F
5997 7101 M 1 81 R 18 -73 R F
6016 7109 M -18 73 R 0 11 R F
6016 7109 M -18 84 R 12 208 R F
5961 7146 M 9 2 R 5 -52 R F
5975 7096 M -5 52 R 9 4 R F
5975 7096 M 4 56 R 18 -51 R F
5997 7101 M -18 51 R 7 6 R F
5997 7101 M -11 57 R 5 6 R F
5949 7094 M -24 2 R 3 53 R F
5949 7094 M -21 55 R 10 -3 R F
5949 7094 M -11 52 R 11 -1 R F
5949 7094 M 0 51 R 12 1 R F
5949 7094 M 12 52 R 14 -50 R F
5925 7096 M -22 5 R 0 74 R F
5925 7096 M -22 79 R 4 -9 R F
5925 7096 M -18 70 R 6 -8 R F
5925 7096 M -12 62 R 7 -5 R F
5925 7096 M -5 57 R 8 -4 R F
5903 7101 M -19 8 R 16 89 R F
5903 7101 M -3 97 R 1 -12 R F
5903 7101 M -2 85 R 2 -11 R F
5900 7198 M -16 -89 R -15 12 R F
5900 7198 M -31 -77 R -13 14 R F
5900 7198 M -44 -63 R -9 18 R F
5900 7198 M -53 -45 R -5 20 R F
5900 7198 M -58 -25 R -2 23 R F
5900 7198 M -60 -2 R 0 2 R F
6051 7348 M 2 -18 R -1 -10 R F
6051 7348 M 1 -28 R -2 -10 R F
6051 7348 M -1 -38 R -2 -8 R F
6051 7348 M -3 -46 R -2 62 R F
6048 7302 M -5 -8 R 3 70 R F
6046 7364 M -3 -70 R -5 -8 R F
6046 7364 M -8 -78 R -1 93 R F
6037 7379 M 1 -93 R -6 -6 R F
6037 7379 M -5 -99 R -7 111 R F
6025 7391 M 7 -111 R -8 -6 R F
6025 7391 M -1 -117 R -9 -6 R F
5993 7408 M -4 -83 R 0 9 R F
5993 7408 M -4 -74 R -2 8 R F
5993 7408 M -6 -66 R -4 6 R F
5993 7408 M -10 -60 R -5 6 R F
5993 7408 M -15 -54 R -5 59 R F
5973 7413 M 5 -59 R -6 5 R F
5973 7413 M -1 -54 R -6 3 R F
5973 7413 M -7 -51 R -8 2 R F
5973 7413 M -15 -49 R -7 50 R F
5951 7414 M 7 -50 R -9 0 R F
5951 7414 M -2 -50 R -10 0 R F
5951 7414 M -12 -50 R -9 -3 R F
5951 7414 M -21 -53 R -2 52 R F
5928 7413 M 2 -52 R -7 -3 R F
5928 7413 M -5 -55 R -6 -6 R F
5928 7413 M -11 -61 R -5 -6 R F
5928 7413 M -16 -67 R -4 -8 R F
5928 7413 M -20 -75 R -1 70 R F
5907 7408 M 1 -70 R -2 -10 R F
5907 7408 M -1 -80 R -1 -10 R F
5907 7408 M -2 -90 R -15 82 R F
6025 7391 M -10 -123 R -5 133 R F
6248 7353 M -153 0 R 221 53 R F
6248 7353 M 68 53 R -64 -136 R F
6248 7353 M 4 -83 R -15 -31 R F
6248 7353 M -11 -114 R -12 -32 R F
6248 7353 M -23 -146 R -1 115 R F
6224 7322 M 1 -115 R -10 -34 R F
6224 7322 M -9 -149 R -7 -34 R F
6224 7322 M -16 -183 R -4 -36 R F
6224 7322 M -20 -219 R -1 188 R F
6204 7103 M -65 0 R 3 32 R F
6204 7103 M -62 32 R 7 31 R F
6204 7103 M -55 63 R 9 32 R F
6204 7103 M -46 95 R 12 31 R F
6204 7103 M -34 126 R 15 32 R F
6204 7103 M -19 158 R 18 30 R F
6316 7406 M 0 -47 R -24 -29 R F
6316 7406 M -24 -76 R -22 -29 R F
6316 7406 M -46 -105 R -18 -31 R F
6316 7406 M -221 -53 R 0 53 R F
6572 7254 M -2 -38 R 0 76 R F
6570 7292 M 0 -76 R -5 -32 R F
6570 7292 M -5 -108 R 0 140 R F
6565 7324 M 0 -140 R -9 -28 R F
6565 7324 M -9 -168 R 0 196 R F
6556 7352 M 0 -196 R -12 -22 R F
6556 7352 M -12 -218 R 0 240 R F
6544 7374 M 0 -240 R -16 -17 R F
6544 7374 M -16 -257 R 0 275 R F
6528 7392 M 0 -275 R -19 -13 R F
6528 7392 M -19 -288 R 0 301 R F
6509 7405 M 0 -301 R -1 150 R F
6509 7405 M -1 -151 R -1 27 R F
6509 7104 M -23 -7 R 3 64 R F
6509 7104 M -20 57 R 7 11 R F
6509 7104 M -13 68 R 5 15 R F
6509 7104 M -8 83 R 4 19 R F
6509 7104 M -4 102 R 2 22 R F
6509 7104 M -2 124 R 1 26 R F
6448 7148 M 11 -2 R 0 -52 R F
6459 7094 M 0 52 R 12 2 R F
6459 7094 M 12 54 R 15 -51 R F
6486 7097 M -15 51 R 10 5 R F
6486 7097 M -5 56 R 8 8 R F
6423 7172 M 7 -11 R 3 -64 R F
6433 7097 M -3 64 R 8 -8 R F
6433 7097 M 5 56 R 21 -59 R F
6459 7094 M -21 59 R 10 -5 R F
6412 7254 M 0 -26 R -2 -124 R F
6410 7104 M 2 124 R 2 -23 R F
6410 7104 M 4 101 R 19 -108 R F
6433 7097 M -19 108 R 4 -18 R F
6433 7097 M -15 90 R 5 -15 R F
6509 7405 M -2 -124 R -2 22 R F
6509 7405 M -4 -102 R -4 19 R F
6509 7405 M -8 -83 R -5 15 R F
6509 7405 M -13 -68 R -7 11 R F
6509 7405 M -20 -57 R -3 64 R F
6486 7412 M 3 -64 R -8 8 R F
6486 7412 M -5 -56 R -10 5 R F
6486 7412 M -15 -51 R -12 1 R F
6486 7412 M -27 -50 R 0 53 R F
6459 7362 M -11 -1 R 11 54 R F
6459 7415 M -11 -54 R -10 -5 R F
6459 7415 M -21 -59 R -5 56 R F
6433 7412 M 5 -56 R -8 -8 R F
6433 7412 M -3 -64 R -7 -11 R F
6423 7337 M -5 -15 R 15 90 R F
6433 7412 M -15 -90 R -4 -19 R F
6433 7412 M -19 -109 R -4 102 R F
6410 7405 M 4 -102 R -2 -22 R F
6410 7405 M 2 -124 R 0 -27 R F
6347 7254 M 2 38 R 0 -75 R F
6349 7217 M 0 75 R 5 33 R F
6349 7217 M 5 108 R 0 -141 R F
6354 7184 M 0 141 R 9 27 R F
6354 7184 M 9 168 R 0 -195 R F
6363 7157 M 0 195 R 12 23 R F
6363 7157 M 12 218 R 0 -241 R F
6375 7134 M 0 241 R 16 17 R F
6375 7134 M 16 258 R 0 -275 R F
6391 7117 M 0 275 R 19 13 R F
6391 7117 M 19 288 R 0 -301 R F
6410 7104 M 0 301 R 2 -151 R F
6757 7206 M 1 19 R 16 -107 R F
6774 7118 M -16 107 R 19 167 R F
6774 7118 M 3 274 R 15 -255 R F
6792 7137 M -15 255 R 17 -17 R F
6792 7137 M 2 238 R 12 -214 R F
6806 7161 M -12 214 R 13 -22 R F
6806 7161 M 1 192 R 9 -164 R F
6816 7189 M -9 164 R 9 -26 R F
6816 7189 M 0 138 R 6 -104 R F
6822 7223 M -6 104 R 6 -31 R F
6822 7223 M 0 73 R 2 -35 R F
6744 7164 M 5 11 R 4 -71 R F
6753 7104 M -4 71 R 5 14 R F
6753 7104 M 1 85 R 20 -71 R F
6774 7118 M -20 71 R 3 17 R F
6708 7143 M 11 2 R 10 -49 R F
6729 7096 M -10 49 R 10 3 R F
6729 7096 M 0 52 R 24 -44 R F
6753 7104 M -24 44 R 8 7 R F
6753 7104 M -16 51 R 7 9 R F
6700 7093 M -19 2 R 0 56 R F
6700 7093 M -19 58 R 5 -4 R F
6700 7093 M -14 54 R 7 -2 R F
6700 7093 M -7 52 R 7 -1 R F
6700 7093 M 0 51 R 8 -1 R F
6700 7093 M 8 50 R 21 -47 R F
6681 7095 M -18 4 R 6 74 R F
6681 7095 M -12 78 R 2 -7 R F
6681 7095 M -10 71 R 2 -6 R F
6681 7095 M -8 65 R 4 -5 R F
6681 7095 M -4 60 R 4 -4 R F
6669 7173 M -6 -74 R -15 7 R F
6669 7173 M -21 -67 R -14 9 R F
6669 7173 M -35 -58 R -11 12 R F
6669 7173 M -46 -46 R -9 13 R F
6669 7173 M -55 -33 R -5 16 R F
6669 7173 M -60 -17 R -3 17 R F
6757 7405 M 20 -13 R -19 -167 R F
6757 7405 M 1 -180 R -1 81 R F
6757 7405 M 0 -99 R -1 13 R F
6757 7405 M -1 -86 R -2 11 R F
6757 7405 M -3 -75 R -5 10 R F
6757 7405 M -8 -65 R -5 8 R F
6757 7405 M -13 -57 R -8 7 R F
6757 7405 M -21 -50 R -2 57 R F
6708 7204 M 1 49 R 8 -48 R F
6717 7205 M -8 48 R 11 1 R F
6717 7205 M 3 49 R 5 -48 R F
6725 7206 M -5 48 R 9 3 R F
6725 7206 M 4 51 R 3 -48 R F
6732 7209 M -3 48 R 8 4 R F
6732 7209 M 5 52 R 3 -49 R F
6740 7212 M -3 49 R 7 6 R F
6740 7212 M 4 55 R 2 -52 R F
6746 7215 M -2 52 R 6 8 R F
6746 7215 M 4 60 R 2 -55 R F
6752 7220 M -2 55 R 4 9 R F
6752 7220 M 2 64 R 4 -59 R F
6758 7225 M -4 59 R 2 10 R F
6758 7225 M -2 69 R 1 12 R F
6699 7203 M -22 2 R 4 56 R F
6699 7203 M -18 58 R 8 -4 R F
6699 7203 M -10 54 R 10 -3 R F
6699 7203 M 0 51 R 10 -1 R F
6699 7203 M 10 50 R -1 -49 R F
6677 7205 M -19 5 R 4 85 R F
6677 7205 M -15 90 R 2 -10 R F
6677 7205 M -13 80 R 4 -10 R F
6677 7205 M -9 70 R 6 -7 R F
6677 7205 M -3 63 R 7 -7 R F
6658 7210 M -17 9 R 3 179 R F
6658 7210 M -14 188 R 19 9 R F
6658 7210 M 5 197 R -2 -100 R F
6658 7210 M 3 97 R 1 -12 R F
6734 7412 M 2 -57 R -8 5 R F
6734 7412 M -6 -52 R -10 3 R F
6734 7412 M -16 -49 R -11 1 R F
6734 7412 M -27 -48 R 0 51 R F
6707 7364 M -10 -1 R 10 52 R F
6707 7415 M -10 -52 R -9 -3 R F
6707 7415 M -19 -55 R -4 53 R F
6684 7413 M 4 -53 R -8 -4 R F
6684 7413 M -4 -57 R -7 -7 R F
6673 7349 M -5 -8 R 16 72 R F
6684 7413 M -16 -72 R -4 -10 R F
6684 7413 M -20 -82 R -1 76 R F
6663 7407 M 1 -76 R -2 -11 R F
6663 7407 M -1 -87 R -1 -13 R F
6644 7398 M -3 -179 R -13 165 R F
6628 7384 M 13 -165 R -15 12 R F
6628 7384 M -2 -153 R -11 137 R F
6615 7368 M 11 -137 R -13 15 R F
6615 7368 M -2 -122 R -8 103 R F
6605 7349 M 8 -103 R -8 17 R F
6605 7349 M 0 -86 R -5 65 R F
6600 7328 M 5 -65 R -5 20 R F
6600 7328 M 0 -45 R -2 22 R F
6937 7162 M 175 0 R 0 -59 R F
6937 7162 M 175 -59 R -240 0 R F
6937 7162 M -65 -59 R 65 265 R F
6937 7162 M 0 206 R 0 -69 R F
6937 7162 M 0 137 R 0 -54 R F
6937 7245 M 0 54 R 153 0 R F
6937 7245 M 153 54 R 0 -54 R F
6937 7368 M -65 -265 R 0 320 R F
6937 7368 M -65 55 R 232 0 R F
6937 7368 M 167 55 R 0 -55 R F
7293 7258 M 0 111 R 44 0 R F
7293 7258 M 44 111 R 0 -111 R F
7293 7258 M 44 0 R 109 0 R F
7293 7258 M 153 0 R 0 -44 R F
7293 7258 M 153 -44 R -109 0 R F
7293 7258 M 44 -44 R 0 -111 R F
7293 7258 M 44 -155 R -44 0 R F
7293 7258 M 0 -155 R 0 111 R F
7293 7258 M 0 -44 R -108 0 R F
7293 7258 M -108 -44 R 0 44 R F
7740 7254 M -2 -38 R 0 76 R F
7738 7292 M 0 -76 R -5 -32 R F
7738 7292 M -5 -108 R 0 140 R F
7733 7324 M 0 -140 R -9 -28 R F
7733 7324 M -9 -168 R 0 196 R F
7724 7352 M 0 -196 R -12 -22 R F
7724 7352 M -12 -218 R 0 240 R F
7712 7374 M 0 -240 R -16 -17 R F
7712 7374 M -16 -257 R 0 275 R F
7696 7392 M 0 -275 R -19 -13 R F
7696 7392 M -19 -288 R 0 301 R F
7677 7405 M 0 -301 R -2 150 R F
7677 7405 M -2 -151 R 0 27 R F
7677 7104 M -23 -7 R 3 64 R F
7677 7104 M -20 57 R 7 11 R F
7677 7104 M -13 68 R 5 15 R F
7677 7104 M -8 83 R 4 19 R F
7677 7104 M -4 102 R 2 22 R F
7677 7104 M -2 124 R 0 26 R F
7616 7148 M 11 -2 R 0 -52 R F
7627 7094 M 0 52 R 12 2 R F
7627 7094 M 12 54 R 15 -51 R F
7654 7097 M -15 51 R 10 5 R F
7654 7097 M -5 56 R 8 8 R F
7591 7172 M 6 -11 R 4 -64 R F
7601 7097 M -4 64 R 9 -8 R F
7601 7097 M 5 56 R 21 -59 R F
7627 7094 M -21 59 R 10 -5 R F
7579 7254 M 1 -26 R -2 -124 R F
7578 7104 M 2 124 R 2 -23 R F
7578 7104 M 4 101 R 19 -108 R F
7601 7097 M -19 108 R 4 -18 R F
7601 7097 M -15 90 R 5 -15 R F
7677 7405 M -2 -124 R -2 22 R F
7677 7405 M -4 -102 R -4 19 R F
7677 7405 M -8 -83 R -5 15 R F
7677 7405 M -13 -68 R -7 11 R F
7677 7405 M -20 -57 R -3 64 R F
7654 7412 M 3 -64 R -8 8 R F
7654 7412 M -5 -56 R -10 5 R F
7654 7412 M -15 -51 R -12 1 R F
7654 7412 M -27 -50 R 0 53 R F
7627 7362 M -11 -1 R 11 54 R F
7627 7415 M -11 -54 R -10 -5 R F
7627 7415 M -21 -59 R -5 56 R F
7601 7412 M 5 -56 R -9 -8 R F
7601 7412 M -4 -64 R -6 -11 R F
7591 7337 M -5 -15 R 15 90 R F
7601 7412 M -15 -90 R -4 -19 R F
7601 7412 M -19 -109 R -4 102 R F
7578 7405 M 4 -102 R -2 -22 R F
7578 7405 M 2 -124 R -1 -27 R F
7515 7254 M 2 38 R 0 -75 R F
7517 7217 M 0 75 R 5 33 R F
7517 7217 M 5 108 R 0 -141 R F
7522 7184 M 0 141 R 8 27 R F
7522 7184 M 8 168 R 0 -195 R F
7530 7157 M 0 195 R 13 23 R F
7530 7157 M 13 218 R 0 -241 R F
7543 7134 M 0 241 R 16 17 R F
7543 7134 M 16 258 R 0 -275 R F
7559 7117 M 0 275 R 19 13 R F
7559 7117 M 19 288 R 0 -301 R F
7578 7104 M 0 301 R 1 -151 R F
7925 7103 M -62 0 R 5 286 R F
7925 7103 M -57 286 R 4 12 R F
7925 7103 M -53 298 R 3 14 R F
7925 7103 M -50 312 R 50 0 R F
7863 7316 M -74 0 R 5 44 R F
7863 7316 M -69 44 R 19 0 R F
7863 7316 M -50 44 R 16 3 R F
7863 7316 M -34 47 R 13 4 R F
7863 7316 M -21 51 R 11 5 R F
7863 7316 M -10 56 R 8 8 R F
7863 7316 M -2 64 R 7 9 R F
7863 7316 M 5 73 R -5 -286 R F
7794 7360 M -5 -44 R 0 44 R F
%%PageTrailer
end
restore
showpage
%%PageResources: font Helvetica
%%Trailer
restore
%%Pages: 1
%%DocumentNeededResources: font Helvetica
%%EOF
