%!PS-Adobe-3.0
%%BoundingBox: 91 205 519 585
%%Title: Graphics produced by IDL
%%For: yssu@ArchTest, 
%%      /home/yssu/SURF2015/Thesis/point_source/emissivity/hist/fixed_hist
%%Creator: IDL Version 8.3 (linux x86_64 m64)
%%CreationDate: Wed May 11 11:53:31 2016
%%DocumentData: Clean7bit
%%Requirements: color
%%LanguageLevel: 2
%%PageOrder: Ascend
%%Pages: (atend)
%%DocumentNeededResources: (atend)
%%EndComments
%%BeginProlog
save
%+ prolog.ps -- Prolog for IDL generated PostScript files
%+ Copyright (c) 1988-2013 Exelis Visual Information Solutions, Inc. All Rights Reserved.
%v 5
/$IDL_DICT 40 dict def $IDL_DICT begin /bdef { bind def } bind def /C
{currentpoint newpath moveto} bdef /CP {currentpoint} bdef /D {currentpoint
stroke moveto} bdef /F {closepath fill} bdef /K { setgray } bdef /M {moveto}
bdef /N {rmoveto} bdef /P {lineto} bdef /R {rlineto} bdef /S {gsave show
grestore} bdef /X {currentpoint pop} bdef /Z {gsave currentpoint lineto 20
setlinewidth 1 setlinecap stroke grestore} bdef /L0 {[] 0 setdash} bdef /L1
{[40 100] 0 setdash} bdef /L2 {[200 200] 0 setdash} bdef /L3 {[200 100 50
100] 0 setdash} bdef /L4 {[300 100 50 100 50 100 50 100] 0 setdash} bdef /L5
{[400 200] 0 setdash} bdef /STDFONT { findfont exch scalefont setfont } bdef
/ISOFONT { findfont dup length dict begin { 1 index /FID ne {def} {pop pop}
ifelse } forall /Encoding ISOLatin1Encoding def currentdict end /idltmpfont
exch definefont exch scalefont setfont } bdef /ISOBULLET { gsave /Helvetica
findfont exch scalefont setfont (\267) show currentpoint grestore moveto}
bdef /MITERLIMIT { 2.5 setmiterlimit } bdef end
%%EndProlog
%%Page: 0 1
%%PageRequirements: color
%%PageResources: (atend)
%%PageOrientation: Portrait
%%PageBoundingBox: 91 205 519 585
%%BeginPageSetup
save
$IDL_DICT begin 91 205 translate 0.0283465 dup scale MITERLIMIT
%%IncludeResource: font Helvetica
423.333 /Helvetica STDFONT
%%EndPageSetup
0.000 0.000 0.000 setrgbcolor 7921 12883 M -1 -14 R 0 88 R F
7920 12957 M 0 -88 R 0 -175 R F
7920 12957 M 0 -263 R 0 401 R F
7920 13095 M 0 -401 R -79 0 R F
7920 13095 M -79 -401 R 0 401 R F
8105 12694 M -78 0 R 6 301 R F
8105 12694 M -72 301 R 11 -3 R F
8105 12694 M -61 298 R 11 -3 R F
8105 12694 M -50 295 R 10 -5 R F
8105 12694 M -40 290 R 9 -6 R F
8105 12694 M -31 284 R 8 -7 R F
8105 12694 M -23 277 R 7 -8 R F
8105 12694 M -16 269 R 4 -6 R F
8105 12694 M -12 263 R 4 -6 R F
8105 12694 M -8 257 R 3 -7 R F
8105 12694 M -5 250 R 2 -7 R F
8105 12694 M -3 243 R 1 -8 R F
8105 12694 M -2 235 R 2 -10 R F
8105 12694 M 0 225 R 0 -13 R F
8105 12694 M 0 212 R 0 -15 R F
8105 12694 M 0 197 R 0 -5 R F
8033 12995 M -6 -301 R 0 155 R F
8033 12995 M -6 -146 R -1 25 R F
8033 12995 M -7 -121 R -2 19 R F
8033 12995 M -9 -102 R -3 15 R F
8033 12995 M -12 -87 R 0 89 R F
8021 12908 M -4 10 R 4 79 R F
8021 12997 M -4 -79 R -6 6 R F
8021 12997 M -10 -73 R -3 74 R F
8008 12998 M 3 -74 R -8 4 R F
8008 12998 M -5 -70 R -9 69 R F
7994 12997 M 9 -69 R -10 3 R F
7994 12997 M -1 -66 R -11 64 R F
7982 12995 M 11 -64 R -12 1 R F
7982 12995 M -1 -63 R -11 60 R F
7970 12992 M 11 -60 R -14 -1 R F
7970 12992 M -3 -61 R -9 56 R F
7958 12987 M 9 -56 R -11 -4 R F
7958 12987 M -2 -60 R -9 55 R F
7947 12982 M 9 -55 R -11 -5 R F
7947 12982 M -2 -60 R -7 53 R F
7938 12975 M 7 -53 R -9 -7 R F
7938 12975 M -2 -60 R -7 -9 R F
7928 12966 M 10 9 R -9 -69 R F
7928 12966 M 1 -60 R -5 -11 R F
7928 12966 M -4 -71 R -3 -12 R F
7928 12966 M -7 -83 R -1 74 R F
8177 13023 M 0 72 R 79 0 R F
8177 13023 M 79 72 R 0 -72 R F
8177 12694 M 0 296 R 79 0 R F
8177 12694 M 79 296 R 0 -296 R F
8499 12769 M 0 6 R 1 -85 R F
8500 12690 M -1 85 R 5 93 R F
8500 12690 M 4 178 R 20 -169 R F
8524 12699 M -20 169 R 23 -8 R F
8524 12699 M 3 161 R 17 -150 R F
8544 12710 M -17 150 R 17 -8 R F
8544 12710 M 0 142 R 15 -127 R F
8559 12725 M -15 127 R 14 -10 R F
8559 12725 M -1 117 R 9 -11 R F
8500 12690 M -28 -5 R 8 65 R F
8500 12690 M -20 60 R 7 3 R F
8500 12690 M -13 63 R 5 5 R F
8500 12690 M -8 68 R 4 5 R F
8500 12690 M -4 73 R 3 6 R F
8472 12685 M -32 -1 R 11 62 R F
8472 12685 M -21 61 R 11 0 R F
8472 12685 M -10 61 R 10 2 R F
8472 12685 M 0 63 R 8 2 R F
8440 12684 M -28 2 R 2 66 R F
8440 12684 M -26 68 R 10 -4 R F
8440 12684 M -16 64 R 13 -2 R F
8440 12684 M -3 62 R 14 0 R F
8412 12686 M -26 5 R 4 89 R F
8412 12686 M -22 94 R 4 -10 R F
8412 12686 M -18 84 R 5 -7 R F
8412 12686 M -13 77 R 6 -6 R F
8412 12686 M -7 71 R 9 -5 R F
8389 12790 M 1 -10 R -4 -89 R F
8389 12790 M -3 -99 R -22 8 R F
8389 12790 M -25 -91 R -19 12 R F
8389 12790 M -44 -79 R -15 15 R F
8389 12790 M -59 -64 R -11 18 R F
8389 12790 M -70 -46 R -7 20 R F
8389 12790 M -77 -26 R -2 23 R F
8389 12790 M -79 -3 R 0 3 R F
8559 12725 M 8 106 R 3 -88 R F
8570 12743 M -3 88 R 7 -12 R F
8570 12743 M 4 76 R 3 -56 R F
8577 12763 M -3 56 R 4 -15 R F
8577 12763 M 1 41 R 1 -17 R F
8468 12878 M 5 -1 R 0 -77 R F
8473 12800 M 0 77 R 4 -1 R F
8473 12800 M 4 76 R 11 -83 R F
8488 12793 M -11 83 R 27 -8 R F
8488 12793 M 16 75 R -7 -83 R F
8497 12785 M 7 83 R -5 -93 R F
8473 12800 M -21 5 R 3 76 R F
8473 12800 M -18 81 R 7 -2 R F
8473 12800 M -11 79 R 6 -1 R F
8452 12805 M -9 2 R 12 74 R F
8455 12881 M -12 -74 R -8 2 R F
8455 12881 M -20 -72 R -5 79 R F
8430 12888 M 5 -79 R -7 2 R F
8430 12888 M -2 -77 R -7 2 R F
8421 12813 M -26 7 R 1 92 R F
8421 12813 M -25 99 R 4 -9 R F
8421 12813 M -21 90 R 11 -8 R F
8421 12813 M -10 82 R 19 -7 R F
8570 12900 M -77 0 R 0 94 R F
8570 12900 M -77 94 R 22 -9 R F
8570 12900 M -55 85 R 19 -11 R F
8570 12900 M -36 74 R 15 -15 R F
8570 12900 M -21 59 R 11 -17 R F
8570 12900 M -10 42 R 7 -20 R F
8493 12994 M 0 -94 R -2 8 R F
8493 12994 M -2 -86 R -2 8 R F
8493 12994 M -4 -78 R -5 7 R F
8493 12994 M -9 -71 R -6 6 R F
8493 12994 M -15 -65 R -7 4 R F
8493 12994 M -22 -61 R -2 66 R F
8469 12999 M 2 -66 R -9 3 R F
8469 12999 M -7 -63 R -10 2 R F
8469 12999 M -17 -61 R -11 1 R F
8469 12999 M -28 -60 R -1 61 R F
8441 12939 M -11 0 R 10 61 R F
8440 13000 M -10 -61 R -9 -2 R F
8440 13000 M -19 -63 R -7 62 R F
8414 12999 M 7 -62 R -7 -2 R F
8414 12999 M 0 -64 R -7 -3 R F
8414 12999 M -7 -67 R -4 -4 R F
8414 12999 M -11 -71 R -4 -4 R F
8414 12999 M -15 -75 R -2 -6 R F
8414 12999 M -17 -81 R -7 76 R F
8390 12994 M 7 -76 R -1 -6 R F
8390 12994 M 6 -82 R -1 -92 R F
8390 12994 M 5 -174 R -22 9 R F
8390 12994 M -17 -165 R -4 156 R F
8320 12885 M 1 38 R 3 -52 R F
8324 12871 M -3 52 R 6 19 R F
8324 12871 M 3 71 R 4 -84 R F
8331 12858 M -4 84 R 10 17 R F
8331 12858 M 6 101 R 4 -112 R F
8341 12847 M -4 112 R 15 15 R F
8341 12847 M 11 127 R 3 -136 R F
8355 12838 M -3 136 R 17 11 R F
8355 12838 M 14 147 R 4 -156 R F
8321 12923 M -1 -38 R -1 17 R F
8639 12751 M -1 23 R 79 296 R F
8717 13070 M -79 -296 R 0 160 R F
8717 13070 M -79 -136 R 0 56 R F
8638 12990 M 0 -56 R -39 0 R F
8638 12990 M -39 -56 R 0 56 R F
8762 12751 M 0 -59 R -5 0 R F
8762 12751 M -5 -59 R -7 -1 R F
8762 12751 M -12 -60 R -6 0 R F
8762 12751 M -18 -60 R -1 60 R F
8736 12691 M -7 -1 R 1 62 R F
8736 12691 M -6 61 R 6 0 R F
8736 12691 M 0 61 R 7 -1 R F
8736 12691 M 7 60 R 1 -60 R F
8718 12761 M 2 -4 R 0 -67 R F
8720 12690 M 0 67 R 2 -2 R F
8720 12690 M 2 65 R 2 -65 R F
8724 12690 M -2 65 R 3 -2 R F
8724 12690 M 1 63 R 4 -63 R F
8729 12690 M -4 63 R 5 -1 R F
8717 12690 M -21 1 R 21 79 R F
8717 12690 M 0 80 R 0 -5 R F
8717 12690 M 0 75 R 1 -4 R F
8717 12690 M 1 71 R 2 -71 R F
8696 12691 M 21 379 R 0 -300 R F
8717 12770 M 0 300 R 0 -80 R F
8717 12770 M 0 220 R 0 -56 R F
8717 12934 M 0 56 R 45 0 R F
8717 12934 M 45 56 R 0 -56 R F
8717 13070 M -21 -379 R -17 3 R F
8717 13070 M -38 -376 R -14 6 R F
8717 13070 M -52 -370 R -10 7 R F
8717 13070 M -62 -363 R -7 11 R F
8717 13070 M -69 -352 R -6 14 R F
8717 13070 M -75 -338 R -3 19 R F
8717 13070 M -79 -80 R 0 80 R F
8774 12562 M 0 56 R 278 0 R F
8774 12562 M 278 56 R 0 -56 R F
9150 12845 M -96 145 R 91 0 R F
9150 12845 M -5 145 R 52 -89 R F
9150 12845 M 47 56 R -2 -114 R F
9150 12845 M 45 -58 R -54 -93 R F
9150 12845 M -9 -151 R -91 0 R F
9243 12846 M 99 -152 R -93 0 R F
9243 12846 M 6 -152 R -52 207 R F
9243 12846 M -46 55 R 52 89 R F
9243 12846 M 6 144 R 87 0 R F
9195 12787 M 2 114 R 52 -207 R F
9455 12577 M -16 -3 R 1 75 R F
9455 12577 M -15 72 R 5 6 R F
9455 12577 M -10 78 R 3 8 R F
9455 12577 M -7 86 R 3 9 R F
9455 12577 M -4 95 R 0 10 R F
9455 12577 M -4 105 R 41 94 R F
9455 12577 M 37 199 R -23 -195 R F
9439 12574 M -20 -1 R 6 68 R F
9439 12574 M -14 67 R 8 3 R F
9439 12574 M -6 70 R 7 5 R F
9416 12573 M -4 0 R 3 66 R F
9416 12573 M -1 66 R 10 2 R F
9416 12573 M 9 68 R -6 -68 R F
9396 12638 M 3 0 R 0 -64 R F
9399 12574 M 0 64 R 2 0 R F
9399 12574 M 2 64 R 3 -64 R F
9404 12574 M -3 64 R 4 0 R F
9404 12574 M 1 64 R 3 -65 R F
9408 12573 M -3 65 R 10 1 R F
9408 12573 M 7 66 R -3 -66 R F
9395 12574 M -4 1 R 1 64 R F
9395 12574 M -3 65 R 2 -1 R F
9395 12574 M -1 64 R 2 0 R F
9395 12574 M 1 64 R 3 -64 R F
9391 12575 M -5 0 R 2 64 R F
9391 12575 M -3 64 R 2 0 R F
9391 12575 M -1 64 R 2 0 R F
9553 12990 M 83 0 R -121 -349 R F
9553 12990 M -38 -349 R -8 -18 R F
9553 12990 M -46 -367 R -8 -15 R F
9553 12990 M -54 -382 R -7 168 R F
9492 12776 M 7 -168 R -9 -12 R F
9492 12776 M -2 -180 R -9 -9 R F
9492 12776 M -11 -189 R -12 -6 R F
9492 12776 M -41 -94 R 0 2 R F
9492 12776 M -41 -92 R 0 2 R F
9492 12776 M -41 -90 R -1 2 R F
9492 12776 M -42 -88 R 0 2 R F
9492 12776 M -42 -86 R -20 300 R F
9430 12990 M 20 -300 R -107 300 R F
9388 12639 M -2 -64 R 0 64 R F
0.604 0.843 1.000 setrgbcolor 13755 5211 M -360 0 R -332 237 R 0 257 R
-27 9 R -7 -9 R -7 -257 R -13 -256 R -333 -238 R -359 -256 R -14 -20 R
-13 -256 R -333 -238 R -359 0 R -27 -19 R -333 -237 R -359 0 R -9 -20 R
-351 -250 R -359 13 R -360 -10 R -345 247 R -14 4 R -13 -4 R -346 -247 R
-360 -3 R -350 250 R -9 5 R -27 -5 R -333 -237 R -13 -19 R -346 -247 R
-360 256 R -359 0 R -346 247 R -14 20 R -332 237 R -360 257 R -359 256 R
-14 257 R -359 257 R 0 256 R -14 19 R -332 238 R -14 256 R -13 10 R
-346 247 R -7 257 R 2 256 R 18 257 R -27 19 R -332 238 R 332 237 R 27 19 R
0 513 R 333 238 R 13 19 R -13 19 R -333 238 R 333 237 R 359 0 R 27 19 R
360 257 R 0 257 R 332 237 R 333 -237 R 27 -5 R 27 5 R 332 237 R 9 19 R
351 250 R 359 -3 R 360 257 R 359 -10 R 360 0 R 27 19 R 332 238 R 333 -238 R
27 -9 R 359 -10 R 332 -237 R 27 -2 R 27 2 R 333 237 R 359 10 R 346 -247 R
-13 -257 R 27 -5 R 27 5 R 332 238 R 333 -238 R 27 -9 R 346 -247 R
-360 -257 R 14 -3 R 359 -3 R 27 6 R 333 237 R 332 -237 R 14 -257 R 13 -19 R
14 19 R 346 247 R 346 -247 R -14 -256 R 360 -257 R -360 -257 R 0 -256 R
-332 -238 R -9 -19 R 9 -9 R 346 -247 R 13 -20 R 14 20 R -14 19 R -332 237 R
332 238 R 360 0 R 0 -998 R -27 -10 R 13 -256 R -346 -247 R -27 -10 R
27 -10 R 346 -247 R -13 -256 R 27 -19 R F
0.082 0.635 1.000 setrgbcolor 7644 3777 M -360 257 R -92 131 R -133 257 R
225 215 R 181 -215 R 179 -160 R 298 160 R -298 53 R -342 203 R -18 13 R
-58 -13 R -301 -161 R -301 161 R -59 18 R -175 -18 R -184 -65 R -92 65 R
-92 257 R -360 257 R -87 256 R -88 42 R -226 215 R -104 256 R -30 63 R
-359 257 R -136 194 R 75 256 R 61 66 R 359 115 R 107 76 R 161 257 R
-180 256 R -88 63 R -181 194 R -44 256 R 225 215 R 360 -149 R 134 191 R
225 215 R 88 42 R 2 256 R 89 257 R 181 97 R 359 -193 R 360 54 R 175 42 R
-87 257 R 271 194 R 176 62 R 184 131 R 92 -131 R 267 -48 R 268 48 R
451 322 R 184 -65 R -3 -257 R 179 -54 R 107 54 R 252 180 R 359 13 R
360 -127 R 359 -257 R 360 32 R 359 -32 R 184 -65 R -184 -132 R -58 -125 R
58 -25 R 360 -66 R 359 -122 R 184 -44 R 0 -256 R 176 -63 R 181 -194 R
44 -257 R 134 -191 R 92 -65 R -30 -257 R 254 -256 R 44 -126 R 92 -131 R
-92 -131 R -360 -84 R -29 -42 R 29 -62 R 360 31 R 315 -225 R -315 -181 R
-268 -76 R 209 -257 R -165 -256 R -136 -194 R -44 -63 R -315 -225 R
-25 -31 R -82 -257 R -253 -225 R -359 0 R -88 -32 R -272 -129 R -359 -36 R
-179 -91 R 1 -257 R -120 -257 R -62 -43 R -92 43 R -179 257 R -88 18 R
-59 -18 R -301 -215 R -359 86 R -359 -86 R -360 -85 R -61 43 R -298 160 R
-360 -32 R -267 -128 R F
0.000 0.431 0.871 setrgbcolor 9441 4885 M -189 50 R -170 39 R -360 23 R
-359 9 R -360 110 R -359 6 R -137 70 R -223 149 R -185 107 R -174 232 R
-15 25 R -46 256 R -299 214 R -193 43 R 53 257 R -13 256 R -67 257 R
27 257 R 161 256 R 32 87 R 54 170 R 306 200 R 273 56 R 86 54 R 99 203 R
261 195 R 273 62 R 86 39 R 360 206 R 359 -83 R 360 13 R 174 81 R 185 82 R
240 -82 R 119 -71 R 360 -34 R 230 -151 R 129 -185 R 360 -257 R 76 -72 R
283 -162 R 121 -94 R 239 -104 R 124 -153 R 44 -256 R -48 -257 R 9 -257 R
-129 -150 R -44 -106 R -92 -257 R 136 -237 R 12 -20 R -12 -11 R -360 -46 R
-279 -199 R -80 -58 R -124 -199 R -236 -252 R -56 -4 R -303 -44 R
-299 -213 R -61 -23 R F
0.000 0.224 0.694 setrgbcolor 8363 5936 M -36 25 R -243 257 R -81 167 R
-27 90 R -46 256 R 25 257 R 34 257 R 14 15 R 149 241 R 211 120 R 359 47 R
360 -4 R 359 12 R 359 15 R 177 -190 R -24 -256 R 207 -136 R 201 -121 R
-201 -249 R -8 -8 R 8 -24 R 68 -232 R -68 -140 R -308 -117 R -52 -26 R
-359 21 R -130 -252 R -229 -82 R -360 -33 R F
0.604 0.843 1.000 setrgbcolor 10879 3414 M -333 238 R 333 237 R 359 0 R
333 -237 R -333 -238 R F
9441 10087 M -332 237 R 332 237 R 359 0 R 333 -237 R -333 -237 R F
8372 3395 M 350 250 R 360 -12 R 332 -238 R F
9468 3395 M 332 238 R 360 0 R 332 -238 R F
13395 4698 M -332 237 R 332 237 R 333 -237 R F
12317 9317 M -333 237 R 333 238 R 332 -238 R F
5487 9317 M -333 237 R 333 238 R 332 -238 R F
4049 5981 M -332 237 R 332 237 R 332 -237 R F
8363 10343 M -333 238 R 333 237 R 332 -237 R F
9441 3414 M -332 238 R 332 237 R 332 -237 R F
10879 10343 M -333 238 R 333 237 R 332 -237 R F
4768 8804 M -333 237 R 333 237 R 332 -237 R F
4768 5211 M -333 237 R 333 238 R 332 -238 R F
12676 4441 M -332 237 R 332 238 R 333 -238 R F
5487 4184 M -333 238 R 333 237 R 332 -237 R F
6565 9830 M -332 237 R 332 238 R 333 -238 R F
9773 10837 M -332 -237 R -332 237 R F
3690 6969 M 332 -238 R -332 -237 R F
0.082 0.635 1.000 setrgbcolor 6925 9423 M -62 131 R 62 44 R 184 -44 R F
8661 3395 M 61 44 R 92 -44 R F
1.000 1.000 1.000 setrgbcolor 10879 4402 M 27 20 R -27 2 R -6 -2 R F
7644 4417 M 9 5 R -9 1 R -6 -1 R F
40 setlinewidth L0 0.000 0.000 0.000 setrgbcolor 3330 2112 M 10784 0 R D
3330 2112 M 0 205 R D 2822 1409 M -122 0 R 0 60 R F
2822 1409 M -122 60 R 122 0 R F
3075 1471 M -2 -37 R 0 75 R F
3073 1509 M 0 -75 R -5 -33 R F
3073 1509 M -5 -108 R 0 140 R F
3068 1541 M 0 -140 R -9 -27 R F
3068 1541 M -9 -167 R 0 195 R F
3059 1569 M 0 -195 R -12 -23 R F
3059 1569 M -12 -218 R 0 241 R F
3047 1592 M 0 -241 R -16 -17 R F
3047 1592 M -16 -258 R 0 275 R F
3031 1609 M 0 -275 R -19 -13 R F
3031 1609 M -19 -288 R -1 301 R F
3011 1622 M 1 -301 R -2 151 R F
3011 1622 M -1 -150 R -1 26 R F
3012 1321 M -23 -7 R 3 64 R F
3012 1321 M -20 57 R 7 11 R F
3012 1321 M -13 68 R 5 15 R F
3012 1321 M -8 83 R 3 19 R F
3012 1321 M -5 102 R 2 22 R F
3012 1321 M -3 124 R 1 27 R F
2950 1365 M 12 -2 R 0 -51 R F
2962 1312 M 0 51 R 12 2 R F
2962 1312 M 12 53 R 15 -51 R F
2989 1314 M -15 51 R 10 5 R F
2989 1314 M -5 56 R 8 8 R F
2926 1389 M 6 -11 R 3 -64 R F
2935 1314 M -3 64 R 8 -8 R F
2935 1314 M 5 56 R 22 -58 R F
2962 1312 M -22 58 R 10 -5 R F
2914 1472 M 1 -27 R -2 -123 R F
2913 1322 M 2 123 R 2 -22 R F
2913 1322 M 4 101 R 18 -109 R F
2935 1314 M -18 109 R 4 -19 R F
2935 1314 M -14 90 R 5 -15 R F
3011 1622 M -2 -124 R -2 22 R F
3011 1622 M -4 -102 R -3 19 R F
3011 1622 M -7 -83 R -5 15 R F
3011 1622 M -12 -68 R -7 11 R F
3011 1622 M -19 -57 R -4 64 R F
2988 1629 M 4 -64 R -8 8 R F
2988 1629 M -4 -56 R -10 5 R F
2988 1629 M -14 -51 R -12 2 R F
2988 1629 M -26 -49 R 0 52 R F
2962 1580 M -12 -2 R 12 54 R F
2962 1632 M -12 -54 R -10 -5 R F
2962 1632 M -22 -59 R -5 56 R F
2935 1629 M 5 -56 R -8 -8 R F
2935 1629 M -3 -64 R -6 -11 R F
2926 1554 M -5 -15 R 14 90 R F
2935 1629 M -14 -90 R -4 -18 R F
2935 1629 M -18 -108 R -4 101 R F
2913 1622 M 4 -101 R -2 -23 R F
2913 1622 M 2 -124 R -1 -26 R F
2849 1472 M 2 37 R 0 -75 R F
2851 1434 M 0 75 R 5 33 R F
2851 1434 M 5 108 R 0 -141 R F
2856 1401 M 0 141 R 9 27 R F
2856 1401 M 9 168 R 0 -195 R F
2865 1374 M 0 195 R 12 23 R F
2865 1374 M 12 218 R 0 -241 R F
2877 1351 M 0 241 R 16 17 R F
2877 1351 M 16 258 R 0 -275 R F
2893 1334 M 0 275 R 20 13 R F
2893 1334 M 20 288 R 0 -300 R F
2913 1322 M 0 300 R 1 -150 R F
3184 1320 M -65 0 R 0 66 R F
3184 1320 M -65 66 R 65 0 R F
3454 1471 M -2 -37 R 0 75 R F
3452 1509 M 0 -75 R -5 -33 R F
3452 1509 M -5 -108 R 0 140 R F
3447 1541 M 0 -140 R -9 -27 R F
3447 1541 M -9 -167 R 0 195 R F
3438 1569 M 0 -195 R -12 -23 R F
3438 1569 M -12 -218 R 0 241 R F
3426 1592 M 0 -241 R -16 -17 R F
3426 1592 M -16 -258 R 0 275 R F
3410 1609 M 0 -275 R -19 -13 R F
3410 1609 M -19 -288 R 0 301 R F
3391 1622 M 0 -301 R -1 151 R F
3391 1622 M -1 -150 R -1 26 R F
3391 1321 M -23 -7 R 3 64 R F
3391 1321 M -20 57 R 7 11 R F
3391 1321 M -13 68 R 5 15 R F
3391 1321 M -8 83 R 4 19 R F
3391 1321 M -4 102 R 2 22 R F
3391 1321 M -2 124 R 1 27 R F
3330 1365 M 11 -2 R 0 -51 R F
3341 1312 M 0 51 R 12 2 R F
3341 1312 M 12 53 R 15 -51 R F
3368 1314 M -15 51 R 10 5 R F
3368 1314 M -5 56 R 8 8 R F
3305 1389 M 6 -11 R 4 -64 R F
3315 1314 M -4 64 R 9 -8 R F
3315 1314 M 5 56 R 21 -58 R F
3341 1312 M -21 58 R 10 -5 R F
3294 1472 M 0 -27 R -2 -123 R F
3292 1322 M 2 123 R 2 -22 R F
3292 1322 M 4 101 R 19 -109 R F
3315 1314 M -19 109 R 4 -19 R F
3315 1314 M -15 90 R 5 -15 R F
3391 1622 M -2 -124 R -2 22 R F
3391 1622 M -4 -102 R -4 19 R F
3391 1622 M -8 -83 R -5 15 R F
3391 1622 M -13 -68 R -7 11 R F
3391 1622 M -20 -57 R -3 64 R F
3368 1629 M 3 -64 R -8 8 R F
3368 1629 M -5 -56 R -10 5 R F
3368 1629 M -15 -51 R -12 2 R F
3368 1629 M -27 -49 R 0 52 R F
3341 1580 M -11 -2 R 11 54 R F
3341 1632 M -11 -54 R -10 -5 R F
3341 1632 M -21 -59 R -5 56 R F
3315 1629 M 5 -56 R -9 -8 R F
3315 1629 M -4 -64 R -6 -11 R F
3305 1554 M -5 -15 R 15 90 R F
3315 1629 M -15 -90 R -4 -18 R F
3315 1629 M -19 -108 R -4 101 R F
3292 1622 M 4 -101 R -2 -23 R F
3292 1622 M 2 -124 R 0 -26 R F
3229 1472 M 2 37 R 0 -75 R F
3231 1434 M 0 75 R 5 33 R F
3231 1434 M 5 108 R 0 -141 R F
3236 1401 M 0 141 R 9 27 R F
3236 1401 M 9 168 R 0 -195 R F
3245 1374 M 0 195 R 12 23 R F
3245 1374 M 12 218 R 0 -241 R F
3257 1351 M 0 241 R 16 17 R F
3257 1351 M 16 258 R 0 -275 R F
3273 1334 M 0 275 R 19 13 R F
3273 1334 M 19 288 R 0 -300 R F
3292 1322 M 0 300 R 2 -150 R F
3639 1320 M -61 0 R 4 286 R F
3639 1320 M -57 286 R 5 12 R F
3639 1320 M -52 298 R 2 14 R F
3639 1320 M -50 312 R 50 0 R F
3578 1533 M -75 0 R 5 44 R F
3578 1533 M -70 44 R 19 1 R F
3578 1533 M -51 45 R 16 2 R F
3578 1533 M -35 47 R 14 4 R F
3578 1533 M -21 51 R 10 6 R F
3578 1533 M -11 57 R 9 7 R F
3578 1533 M -2 64 R 6 9 R F
3578 1533 M 4 73 R -4 -286 R F
3508 1577 M -5 -44 R 0 44 R F
3891 1418 M 3 99 R 13 -189 R F
3907 1328 M -13 189 R 17 -9 R F
3907 1328 M 4 180 R 13 -167 R F
3924 1341 M -13 167 R 16 -12 R F
3924 1341 M 3 155 R 11 -139 R F
3938 1357 M -11 139 R 12 -16 R F
3938 1357 M 1 123 R 9 -104 R F
3948 1376 M -9 104 R 9 -17 R F
3948 1376 M 0 87 R 5 -66 R F
3953 1397 M -5 66 R 6 -20 R F
3953 1397 M 1 46 R 1 -22 R F
3878 1376 M 6 8 R 3 -65 R F
3887 1319 M -3 65 R 4 10 R F
3887 1319 M 1 75 R 19 -66 R F
3907 1328 M -19 66 R 2 11 R F
3907 1328 M -17 77 R 1 13 R F
3851 1362 M 11 3 R 2 -52 R F
3864 1313 M -2 52 R 8 4 R F
3864 1313 M 6 56 R 17 -50 R F
3887 1319 M -17 50 R 8 7 R F
3839 1311 M -23 2 R 5 51 R F
3839 1311 M -18 53 R 9 -2 R F
3839 1311 M -9 51 R 9 -1 R F
3839 1311 M 0 50 R 12 1 R F
3839 1311 M 12 51 R 13 -49 R F
3816 1313 M -20 4 R 1 69 R F
3816 1313 M -19 73 R 4 -8 R F
3816 1313 M -15 65 R 6 -6 R F
3816 1313 M -9 59 R 6 -5 R F
3816 1313 M -3 54 R 8 -3 R F
3796 1317 M -18 8 R 15 79 R F
3796 1317 M -3 87 R 1 -10 R F
3796 1317 M -2 77 R 3 -8 R F
3793 1404 M -15 -79 R -16 11 R F
3793 1404 M -31 -68 R -12 13 R F
3793 1404 M -43 -55 R -10 16 R F
3793 1404 M -53 -39 R -6 18 R F
3793 1404 M -59 -21 R -2 21 R F
3894 1517 M -3 -99 R -1 13 R F
3894 1517 M -4 -86 R -2 10 R F
3894 1517 M -6 -76 R -4 10 R F
3894 1517 M -10 -66 R -6 8 R F
3894 1517 M -16 -58 R -4 63 R F
3878 1459 M -8 7 R 4 56 R F
3874 1522 M -4 -56 R -9 4 R F
3874 1522 M -13 -52 R -9 54 R F
3852 1524 M 9 -54 R -10 3 R F
3852 1524 M -1 -51 R -7 51 R F
3844 1524 M 7 -51 R -11 1 R F
3844 1524 M -4 -50 R -4 49 R F
3836 1523 M 4 -49 R -7 0 R F
3836 1523 M -3 -49 R -4 48 R F
3829 1522 M 4 -48 R -6 -1 R F
3829 1522 M -2 -49 R -5 47 R F
3822 1520 M 5 -47 R -6 -2 R F
3822 1520 M -1 -49 R -5 -2 R F
3822 1520 M -6 -51 R 0 49 R F
3816 1518 M 0 -49 R -5 -4 R F
3816 1518 M -5 -53 R -1 50 R F
3810 1515 M 1 -50 R -5 -3 R F
3810 1515 M -4 -53 R -2 49 R F
3804 1511 M 2 -49 R -4 -5 R F
3804 1511 M -2 -54 R -3 -5 R F
3804 1511 M -5 -59 R 0 56 R F
3799 1508 M 0 -56 R -36 171 R F
3799 1508 M -36 115 R 44 -53 R F
3807 1570 M -44 53 R 179 0 R F
3807 1570 M 135 53 R 0 -53 R F
3763 1623 M 36 -171 R -57 4 R F
5127 2112 M 0 205 R D 4620 1409 M -123 0 R 0 60 R F
4620 1409 M -123 60 R 123 0 R F
4872 1471 M -2 -37 R 0 75 R F
4870 1509 M 0 -75 R -5 -33 R F
4870 1509 M -5 -108 R 0 140 R F
4865 1541 M 0 -140 R -9 -27 R F
4865 1541 M -9 -167 R 0 195 R F
4856 1569 M 0 -195 R -12 -23 R F
4856 1569 M -12 -218 R 0 241 R F
4844 1592 M 0 -241 R -16 -17 R F
4844 1592 M -16 -258 R 0 275 R F
4828 1609 M 0 -275 R -19 -13 R F
4828 1609 M -19 -288 R 0 301 R F
4809 1622 M 0 -301 R -2 151 R F
4809 1622 M -2 -150 R 0 26 R F
4809 1321 M -23 -7 R 3 64 R F
4809 1321 M -20 57 R 7 11 R F
4809 1321 M -13 68 R 5 15 R F
4809 1321 M -8 83 R 4 19 R F
4809 1321 M -4 102 R 2 22 R F
4809 1321 M -2 124 R 0 27 R F
4748 1365 M 11 -2 R 0 -51 R F
4759 1312 M 0 51 R 12 2 R F
4759 1312 M 12 53 R 15 -51 R F
4786 1314 M -15 51 R 10 5 R F
4786 1314 M -5 56 R 8 8 R F
4723 1389 M 6 -11 R 4 -64 R F
4733 1314 M -4 64 R 9 -8 R F
4733 1314 M 5 56 R 21 -58 R F
4759 1312 M -21 58 R 10 -5 R F
4711 1472 M 1 -27 R -2 -123 R F
4710 1322 M 2 123 R 2 -22 R F
4710 1322 M 4 101 R 19 -109 R F
4733 1314 M -19 109 R 4 -19 R F
4733 1314 M -15 90 R 5 -15 R F
4809 1622 M -2 -124 R -2 22 R F
4809 1622 M -4 -102 R -4 19 R F
4809 1622 M -8 -83 R -5 15 R F
4809 1622 M -13 -68 R -7 11 R F
4809 1622 M -20 -57 R -3 64 R F
4786 1629 M 3 -64 R -8 8 R F
4786 1629 M -5 -56 R -10 5 R F
4786 1629 M -15 -51 R -12 2 R F
4786 1629 M -27 -49 R 0 52 R F
4759 1580 M -11 -2 R 11 54 R F
4759 1632 M -11 -54 R -10 -5 R F
4759 1632 M -21 -59 R -5 56 R F
4733 1629 M 5 -56 R -9 -8 R F
4733 1629 M -4 -64 R -6 -11 R F
4723 1554 M -5 -15 R 15 90 R F
4733 1629 M -15 -90 R -4 -18 R F
4733 1629 M -19 -108 R -4 101 R F
4710 1622 M 4 -101 R -2 -23 R F
4710 1622 M 2 -124 R -1 -26 R F
4647 1472 M 2 37 R 0 -75 R F
4649 1434 M 0 75 R 5 33 R F
4649 1434 M 5 108 R 0 -141 R F
4654 1401 M 0 141 R 9 27 R F
4654 1401 M 9 168 R 0 -195 R F
4663 1374 M 0 195 R 12 23 R F
4663 1374 M 12 218 R 0 -241 R F
4675 1351 M 0 241 R 16 17 R F
4675 1351 M 16 258 R 0 -275 R F
4691 1334 M 0 275 R 19 13 R F
4691 1334 M 19 288 R 0 -300 R F
4710 1322 M 0 300 R 1 -150 R F
4982 1320 M -66 0 R 0 66 R F
4982 1320 M -66 66 R 66 0 R F
5251 1471 M -1 -37 R 0 75 R F
5250 1509 M 0 -75 R -6 -33 R F
5250 1509 M -6 -108 R 0 140 R F
5244 1541 M 0 -140 R -8 -27 R F
5244 1541 M -8 -167 R 0 195 R F
5236 1569 M 0 -195 R -12 -23 R F
5236 1569 M -12 -218 R -1 241 R F
5223 1592 M 1 -241 R -16 -17 R F
5223 1592 M -15 -258 R -1 275 R F
5207 1609 M 1 -275 R -20 -13 R F
5207 1609 M -19 -288 R 0 301 R F
5188 1622 M 0 -301 R -1 151 R F
5188 1622 M -1 -150 R -1 26 R F
5188 1321 M -23 -7 R 4 64 R F
5188 1321 M -19 57 R 6 11 R F
5188 1321 M -13 68 R 5 15 R F
5188 1321 M -8 83 R 4 19 R F
5188 1321 M -4 102 R 2 22 R F
5188 1321 M -2 124 R 1 27 R F
5127 1365 M 12 -2 R 0 -51 R F
5139 1312 M 0 51 R 11 2 R F
5139 1312 M 11 53 R 15 -51 R F
5165 1314 M -15 51 R 10 5 R F
5165 1314 M -5 56 R 9 8 R F
5102 1389 M 7 -11 R 3 -64 R F
5112 1314 M -3 64 R 8 -8 R F
5112 1314 M 5 56 R 22 -58 R F
5139 1312 M -22 58 R 10 -5 R F
5091 1472 M 1 -27 R -3 -123 R F
5089 1322 M 3 123 R 2 -22 R F
5089 1322 M 5 101 R 18 -109 R F
5112 1314 M -18 109 R 3 -19 R F
5112 1314 M -15 90 R 5 -15 R F
5188 1622 M -2 -124 R -2 22 R F
5188 1622 M -4 -102 R -4 19 R F
5188 1622 M -8 -83 R -5 15 R F
5188 1622 M -13 -68 R -6 11 R F
5188 1622 M -19 -57 R -4 64 R F
5165 1629 M 4 -64 R -9 8 R F
5165 1629 M -5 -56 R -10 5 R F
5165 1629 M -15 -51 R -11 2 R F
5165 1629 M -26 -49 R 0 52 R F
5139 1580 M -12 -2 R 12 54 R F
5139 1632 M -12 -54 R -10 -5 R F
5139 1632 M -22 -59 R -5 56 R F
5112 1629 M 5 -56 R -8 -8 R F
5112 1629 M -3 -64 R -7 -11 R F
5102 1554 M -5 -15 R 15 90 R F
5112 1629 M -15 -90 R -3 -18 R F
5112 1629 M -18 -108 R -5 101 R F
5089 1622 M 5 -101 R -2 -23 R F
5089 1622 M 3 -124 R -1 -26 R F
5026 1472 M 2 37 R 0 -75 R F
5028 1434 M 0 75 R 5 33 R F
5028 1434 M 5 108 R 0 -141 R F
5033 1401 M 0 141 R 9 27 R F
5033 1401 M 9 168 R 0 -195 R F
5042 1374 M 0 195 R 12 23 R F
5042 1374 M 12 218 R 0 -241 R F
5054 1351 M 0 241 R 16 17 R F
5054 1351 M 16 258 R 0 -275 R F
5070 1334 M 0 275 R 19 13 R F
5070 1334 M 19 288 R 0 -300 R F
5089 1322 M 0 300 R 2 -150 R F
5436 1320 M -61 0 R 4 286 R F
5436 1320 M -57 286 R 5 12 R F
5436 1320 M -52 298 R 2 14 R F
5436 1320 M -50 312 R 50 0 R F
5375 1533 M -75 0 R 5 44 R F
5375 1533 M -70 44 R 19 1 R F
5375 1533 M -51 45 R 16 2 R F
5375 1533 M -35 47 R 14 4 R F
5375 1533 M -21 51 R 11 6 R F
5375 1533 M -10 57 R 8 7 R F
5375 1533 M -2 64 R 6 9 R F
5375 1533 M 4 73 R -4 -286 R F
5305 1577 M -5 -44 R 0 44 R F
5757 1471 M -2 -37 R 0 75 R F
5755 1509 M 0 -75 R -5 -33 R F
5755 1509 M -5 -108 R 0 140 R F
5750 1541 M 0 -140 R -9 -27 R F
5750 1541 M -9 -167 R 0 195 R F
5741 1569 M 0 -195 R -12 -23 R F
5741 1569 M -12 -218 R 0 241 R F
5729 1592 M 0 -241 R -16 -17 R F
5729 1592 M -16 -258 R 0 275 R F
5713 1609 M 0 -275 R -19 -13 R F
5713 1609 M -19 -288 R 0 301 R F
5694 1622 M 0 -301 R -2 151 R F
5694 1622 M -2 -150 R 0 26 R F
5694 1321 M -23 -7 R 3 64 R F
5694 1321 M -20 57 R 7 11 R F
5694 1321 M -13 68 R 5 15 R F
5694 1321 M -8 83 R 3 19 R F
5694 1321 M -5 102 R 3 22 R F
5694 1321 M -2 124 R 0 27 R F
5633 1365 M 11 -2 R 0 -51 R F
5644 1312 M 0 51 R 12 2 R F
5644 1312 M 12 53 R 15 -51 R F
5671 1314 M -15 51 R 10 5 R F
5671 1314 M -5 56 R 8 8 R F
5608 1389 M 6 -11 R 4 -64 R F
5618 1314 M -4 64 R 9 -8 R F
5618 1314 M 5 56 R 21 -58 R F
5644 1312 M -21 58 R 10 -5 R F
5596 1472 M 1 -27 R -2 -123 R F
5595 1322 M 2 123 R 2 -22 R F
5595 1322 M 4 101 R 19 -109 R F
5618 1314 M -19 109 R 4 -19 R F
5618 1314 M -15 90 R 5 -15 R F
5694 1622 M -2 -124 R -3 22 R F
5694 1622 M -5 -102 R -3 19 R F
5694 1622 M -8 -83 R -5 15 R F
5694 1622 M -13 -68 R -7 11 R F
5694 1622 M -20 -57 R -3 64 R F
5671 1629 M 3 -64 R -8 8 R F
5671 1629 M -5 -56 R -10 5 R F
5671 1629 M -15 -51 R -12 2 R F
5671 1629 M -27 -49 R 0 52 R F
5644 1580 M -11 -2 R 11 54 R F
5644 1632 M -11 -54 R -10 -5 R F
5644 1632 M -21 -59 R -5 56 R F
5618 1629 M 5 -56 R -9 -8 R F
5618 1629 M -4 -64 R -6 -11 R F
5608 1554 M -5 -15 R 15 90 R F
5618 1629 M -15 -90 R -4 -18 R F
5618 1629 M -19 -108 R -4 101 R F
5595 1622 M 4 -101 R -2 -23 R F
5595 1622 M 2 -124 R -1 -26 R F
5532 1472 M 1 37 R 0 -75 R F
5533 1434 M 0 75 R 6 33 R F
5533 1434 M 6 108 R 0 -141 R F
5539 1401 M 0 141 R 8 27 R F
5539 1401 M 8 168 R 0 -195 R F
5547 1374 M 0 195 R 13 23 R F
5547 1374 M 13 218 R 0 -241 R F
5560 1351 M 0 241 R 15 17 R F
5560 1351 M 15 258 R 0 -275 R F
5575 1334 M 0 275 R 20 13 R F
5575 1334 M 20 288 R 0 -300 R F
5595 1322 M 0 300 R 1 -150 R F
6925 2112 M 0 205 R D 6417 1409 M -122 0 R 0 60 R F
6417 1409 M -122 60 R 122 0 R F
6669 1471 M -1 -37 R 0 75 R F
6668 1509 M 0 -75 R -6 -33 R F
6668 1509 M -6 -108 R 0 140 R F
6662 1541 M 0 -140 R -8 -27 R F
6662 1541 M -8 -167 R 0 195 R F
6654 1569 M 0 -195 R -13 -23 R F
6654 1569 M -13 -218 R 0 241 R F
6641 1592 M 0 -241 R -15 -17 R F
6641 1592 M -15 -258 R -1 275 R F
6625 1609 M 1 -275 R -20 -13 R F
6625 1609 M -19 -288 R 0 301 R F
6606 1622 M 0 -301 R -1 151 R F
6606 1622 M -1 -150 R -1 26 R F
6606 1321 M -23 -7 R 4 64 R F
6606 1321 M -19 57 R 6 11 R F
6606 1321 M -13 68 R 5 15 R F
6606 1321 M -8 83 R 4 19 R F
6606 1321 M -4 102 R 2 22 R F
6606 1321 M -2 124 R 1 27 R F
6545 1365 M 12 -2 R 0 -51 R F
6557 1312 M 0 51 R 11 2 R F
6557 1312 M 11 53 R 15 -51 R F
6583 1314 M -15 51 R 10 5 R F
6583 1314 M -5 56 R 9 8 R F
6520 1389 M 7 -11 R 3 -64 R F
6530 1314 M -3 64 R 8 -8 R F
6530 1314 M 5 56 R 22 -58 R F
6557 1312 M -22 58 R 10 -5 R F
6509 1472 M 0 -27 R -2 -123 R F
6507 1322 M 2 123 R 3 -22 R F
6507 1322 M 5 101 R 18 -109 R F
6530 1314 M -18 109 R 3 -19 R F
6530 1314 M -15 90 R 5 -15 R F
6606 1622 M -2 -124 R -2 22 R F
6606 1622 M -4 -102 R -4 19 R F
6606 1622 M -8 -83 R -5 15 R F
6606 1622 M -13 -68 R -6 11 R F
6606 1622 M -19 -57 R -4 64 R F
6583 1629 M 4 -64 R -9 8 R F
6583 1629 M -5 -56 R -10 5 R F
6583 1629 M -15 -51 R -11 2 R F
6583 1629 M -26 -49 R 0 52 R F
6557 1580 M -12 -2 R 12 54 R F
6557 1632 M -12 -54 R -10 -5 R F
6557 1632 M -22 -59 R -5 56 R F
6530 1629 M 5 -56 R -8 -8 R F
6530 1629 M -3 -64 R -7 -11 R F
6520 1554 M -5 -15 R 15 90 R F
6530 1629 M -15 -90 R -3 -18 R F
6530 1629 M -18 -108 R -5 101 R F
6507 1622 M 5 -101 R -3 -23 R F
6507 1622 M 2 -124 R 0 -26 R F
6444 1472 M 2 37 R 0 -75 R F
6446 1434 M 0 75 R 5 33 R F
6446 1434 M 5 108 R 0 -141 R F
6451 1401 M 0 141 R 9 27 R F
6451 1401 M 9 168 R 0 -195 R F
6460 1374 M 0 195 R 12 23 R F
6460 1374 M 12 218 R 0 -241 R F
6472 1351 M 0 241 R 16 17 R F
6472 1351 M 16 258 R 0 -275 R F
6488 1334 M 0 275 R 19 13 R F
6488 1334 M 19 288 R 0 -300 R F
6507 1322 M 0 300 R 2 -150 R F
6779 1320 M -66 0 R 0 66 R F
6779 1320 M -66 66 R 66 0 R F
7049 1471 M -2 -37 R 0 75 R F
7047 1509 M 0 -75 R -5 -33 R F
7047 1509 M -5 -108 R 0 140 R F
7042 1541 M 0 -140 R -9 -27 R F
7042 1541 M -9 -167 R 0 195 R F
7033 1569 M 0 -195 R -12 -23 R F
7033 1569 M -12 -218 R 0 241 R F
7021 1592 M 0 -241 R -16 -17 R F
7021 1592 M -16 -258 R 0 275 R F
7005 1609 M 0 -275 R -19 -13 R F
7005 1609 M -19 -288 R -1 301 R F
6985 1622 M 1 -301 R -2 151 R F
6985 1622 M -1 -150 R -1 26 R F
6986 1321 M -23 -7 R 3 64 R F
6986 1321 M -20 57 R 7 11 R F
6986 1321 M -13 68 R 5 15 R F
6986 1321 M -8 83 R 3 19 R F
6986 1321 M -5 102 R 2 22 R F
6986 1321 M -3 124 R 1 27 R F
6924 1365 M 12 -2 R 0 -51 R F
6936 1312 M 0 51 R 12 2 R F
6936 1312 M 12 53 R 15 -51 R F
6963 1314 M -15 51 R 10 5 R F
6963 1314 M -5 56 R 8 8 R F
6900 1389 M 6 -11 R 4 -64 R F
6910 1314 M -4 64 R 8 -8 R F
6910 1314 M 4 56 R 22 -58 R F
6936 1312 M -22 58 R 10 -5 R F
6888 1472 M 1 -27 R -2 -123 R F
6887 1322 M 2 123 R 2 -22 R F
6887 1322 M 4 101 R 19 -109 R F
6910 1314 M -19 109 R 4 -19 R F
6910 1314 M -15 90 R 5 -15 R F
6985 1622 M -2 -124 R -2 22 R F
6985 1622 M -4 -102 R -3 19 R F
6985 1622 M -7 -83 R -5 15 R F
6985 1622 M -12 -68 R -7 11 R F
6985 1622 M -19 -57 R -4 64 R F
6962 1629 M 4 -64 R -8 8 R F
6962 1629 M -4 -56 R -10 5 R F
6962 1629 M -14 -51 R -12 2 R F
6962 1629 M -26 -49 R 0 52 R F
6936 1580 M -12 -2 R 12 54 R F
6936 1632 M -12 -54 R -10 -5 R F
6936 1632 M -22 -59 R -4 56 R F
6910 1629 M 4 -56 R -8 -8 R F
6910 1629 M -4 -64 R -6 -11 R F
6900 1554 M -5 -15 R 15 90 R F
6910 1629 M -15 -90 R -4 -18 R F
6910 1629 M -19 -108 R -4 101 R F
6887 1622 M 4 -101 R -2 -23 R F
6887 1622 M 2 -124 R -1 -26 R F
6824 1472 M 1 37 R 0 -75 R F
6825 1434 M 0 75 R 6 33 R F
6825 1434 M 6 108 R 0 -141 R F
6831 1401 M 0 141 R 8 27 R F
6831 1401 M 8 168 R 0 -195 R F
6839 1374 M 0 195 R 12 23 R F
6839 1374 M 12 218 R 0 -241 R F
6851 1351 M 0 241 R 16 17 R F
6851 1351 M 16 258 R 0 -275 R F
6867 1334 M 0 275 R 20 13 R F
6867 1334 M 20 288 R 0 -300 R F
6887 1322 M 0 300 R 1 -150 R F
7302 1471 M -2 -37 R 0 75 R F
7300 1509 M 0 -75 R -5 -33 R F
7300 1509 M -5 -108 R -1 140 R F
7294 1541 M 1 -140 R -9 -27 R F
7294 1541 M -8 -167 R 0 195 R F
7286 1569 M 0 -195 R -12 -23 R F
7286 1569 M -12 -218 R -1 241 R F
7273 1592 M 1 -241 R -16 -17 R F
7273 1592 M -15 -258 R 0 275 R F
7258 1609 M 0 -275 R -20 -13 R F
7258 1609 M -20 -288 R 0 301 R F
7238 1622 M 0 -301 R -1 151 R F
7238 1622 M -1 -150 R -1 26 R F
7238 1321 M -23 -7 R 4 64 R F
7238 1321 M -19 57 R 6 11 R F
7238 1321 M -13 68 R 5 15 R F
7238 1321 M -8 83 R 4 19 R F
7238 1321 M -4 102 R 2 22 R F
7238 1321 M -2 124 R 1 27 R F
7177 1365 M 12 -2 R 0 -51 R F
7189 1312 M 0 51 R 11 2 R F
7189 1312 M 11 53 R 15 -51 R F
7215 1314 M -15 51 R 10 5 R F
7215 1314 M -5 56 R 9 8 R F
7152 1389 M 7 -11 R 3 -64 R F
7162 1314 M -3 64 R 8 -8 R F
7162 1314 M 5 56 R 22 -58 R F
7189 1312 M -22 58 R 10 -5 R F
7141 1472 M 1 -27 R -3 -123 R F
7139 1322 M 3 123 R 2 -22 R F
7139 1322 M 5 101 R 18 -109 R F
7162 1314 M -18 109 R 3 -19 R F
7162 1314 M -15 90 R 5 -15 R F
7238 1622 M -2 -124 R -2 22 R F
7238 1622 M -4 -102 R -4 19 R F
7238 1622 M -8 -83 R -5 15 R F
7238 1622 M -13 -68 R -6 11 R F
7238 1622 M -19 -57 R -4 64 R F
7215 1629 M 4 -64 R -9 8 R F
7215 1629 M -5 -56 R -10 5 R F
7215 1629 M -15 -51 R -11 2 R F
7215 1629 M -26 -49 R 0 52 R F
7189 1580 M -12 -2 R 12 54 R F
7189 1632 M -12 -54 R -10 -5 R F
7189 1632 M -22 -59 R -5 56 R F
7162 1629 M 5 -56 R -8 -8 R F
7162 1629 M -3 -64 R -7 -11 R F
7152 1554 M -5 -15 R 15 90 R F
7162 1629 M -15 -90 R -3 -18 R F
7162 1629 M -18 -108 R -5 101 R F
7139 1622 M 5 -101 R -2 -23 R F
7139 1622 M 3 -124 R -1 -26 R F
7076 1472 M 2 37 R 0 -75 R F
7078 1434 M 0 75 R 5 33 R F
7078 1434 M 5 108 R 0 -141 R F
7083 1401 M 0 141 R 9 27 R F
7083 1401 M 9 168 R 0 -195 R F
7092 1374 M 0 195 R 12 23 R F
7092 1374 M 12 218 R 0 -241 R F
7104 1351 M 0 241 R 16 17 R F
7104 1351 M 16 258 R 0 -275 R F
7120 1334 M 0 275 R 19 13 R F
7120 1334 M 19 288 R 0 -300 R F
7139 1322 M 0 300 R 2 -150 R F
7486 1418 M 2 99 R 13 -189 R F
7501 1328 M -13 189 R 18 -9 R F
7501 1328 M 5 180 R 13 -167 R F
7519 1341 M -13 167 R 16 -12 R F
7519 1341 M 3 155 R 10 -139 R F
7532 1357 M -10 139 R 12 -16 R F
7532 1357 M 2 123 R 8 -104 R F
7542 1376 M -8 104 R 9 -17 R F
7542 1376 M 1 87 R 5 -66 R F
7548 1397 M -5 66 R 5 -20 R F
7548 1397 M 0 46 R 2 -22 R F
7473 1376 M 5 8 R 4 -65 R F
7482 1319 M -4 65 R 5 10 R F
7482 1319 M 1 75 R 18 -66 R F
7501 1328 M -18 66 R 2 11 R F
7501 1328 M -16 77 R 1 13 R F
7446 1362 M 10 3 R 3 -52 R F
7459 1313 M -3 52 R 9 4 R F
7459 1313 M 6 56 R 17 -50 R F
7482 1319 M -17 50 R 8 7 R F
7434 1311 M -23 2 R 5 51 R F
7434 1311 M -18 53 R 8 -2 R F
7434 1311 M -10 51 R 10 -1 R F
7434 1311 M 0 50 R 12 1 R F
7434 1311 M 12 51 R 13 -49 R F
7411 1313 M -21 4 R 2 69 R F
7411 1313 M -19 73 R 4 -8 R F
7411 1313 M -15 65 R 5 -6 R F
7411 1313 M -10 59 R 7 -5 R F
7411 1313 M -3 54 R 8 -3 R F
7390 1317 M -18 8 R 16 79 R F
7390 1317 M -2 87 R 1 -10 R F
7390 1317 M -1 77 R 3 -8 R F
7388 1404 M -16 -79 R -15 11 R F
7388 1404 M -31 -68 R -13 13 R F
7388 1404 M -44 -55 R -9 16 R F
7388 1404 M -53 -39 R -6 18 R F
7388 1404 M -59 -21 R -2 21 R F
7488 1517 M -2 -99 R -1 13 R F
7488 1517 M -3 -86 R -3 10 R F
7488 1517 M -6 -76 R -4 10 R F
7488 1517 M -10 -66 R -6 8 R F
7488 1517 M -16 -58 R -4 63 R F
7472 1459 M -7 7 R 3 56 R F
7468 1522 M -3 -56 R -9 4 R F
7468 1522 M -12 -52 R -10 54 R F
7446 1524 M 10 -54 R -10 3 R F
7446 1524 M 0 -51 R -8 51 R F
7438 1524 M 8 -51 R -12 1 R F
7438 1524 M -4 -50 R -3 49 R F
7431 1523 M 3 -49 R -6 0 R F
7431 1523 M -3 -49 R -4 48 R F
7424 1522 M 4 -48 R -6 -1 R F
7424 1522 M -2 -49 R -5 47 R F
7417 1520 M 5 -47 R -6 -2 R F
7417 1520 M -1 -49 R -5 -2 R F
7417 1520 M -6 -51 R -1 49 R F
7410 1518 M 1 -49 R -5 -4 R F
7410 1518 M -4 -53 R -2 50 R F
7404 1515 M 2 -50 R -5 -3 R F
7404 1515 M -3 -53 R -3 49 R F
7398 1511 M 3 -49 R -4 -5 R F
7398 1511 M -1 -54 R -4 -5 R F
7398 1511 M -5 -59 R 0 56 R F
7393 1508 M 0 -56 R -36 171 R F
7393 1508 M -36 115 R 44 -53 R F
7401 1570 M -44 53 R 179 0 R F
7401 1570 M 135 53 R 0 -53 R F
7357 1623 M 36 -171 R -56 4 R F
8722 2112 M 0 205 R D 8392 1471 M -1 -37 R 0 75 R F
8391 1509 M 0 -75 R -6 -33 R F
8391 1509 M -6 -108 R 0 140 R F
8385 1541 M 0 -140 R -8 -27 R F
8385 1541 M -8 -167 R -1 195 R F
8376 1569 M 1 -195 R -13 -23 R F
8376 1569 M -12 -218 R 0 241 R F
8364 1592 M 0 -241 R -15 -17 R F
8364 1592 M -15 -258 R -1 275 R F
8348 1609 M 1 -275 R -20 -13 R F
8348 1609 M -19 -288 R 0 301 R F
8329 1622 M 0 -301 R -1 151 R F
8329 1622 M -1 -150 R -1 26 R F
8329 1321 M -23 -7 R 3 64 R F
8329 1321 M -20 57 R 7 11 R F
8329 1321 M -13 68 R 5 15 R F
8329 1321 M -8 83 R 4 19 R F
8329 1321 M -4 102 R 2 22 R F
8329 1321 M -2 124 R 1 27 R F
8268 1365 M 12 -2 R 0 -51 R F
8280 1312 M 0 51 R 11 2 R F
8280 1312 M 11 53 R 15 -51 R F
8306 1314 M -15 51 R 10 5 R F
8306 1314 M -5 56 R 8 8 R F
8243 1389 M 7 -11 R 3 -64 R F
8253 1314 M -3 64 R 8 -8 R F
8253 1314 M 5 56 R 22 -58 R F
8280 1312 M -22 58 R 10 -5 R F
8232 1472 M 0 -27 R -2 -123 R F
8230 1322 M 2 123 R 2 -22 R F
8230 1322 M 4 101 R 19 -109 R F
8253 1314 M -19 109 R 4 -19 R F
8253 1314 M -15 90 R 5 -15 R F
8329 1622 M -2 -124 R -2 22 R F
8329 1622 M -4 -102 R -4 19 R F
8329 1622 M -8 -83 R -5 15 R F
8329 1622 M -13 -68 R -7 11 R F
8329 1622 M -20 -57 R -3 64 R F
8306 1629 M 3 -64 R -8 8 R F
8306 1629 M -5 -56 R -10 5 R F
8306 1629 M -15 -51 R -11 2 R F
8306 1629 M -26 -49 R 0 52 R F
8280 1580 M -12 -2 R 12 54 R F
8280 1632 M -12 -54 R -10 -5 R F
8280 1632 M -22 -59 R -5 56 R F
8253 1629 M 5 -56 R -8 -8 R F
8253 1629 M -3 -64 R -7 -11 R F
8243 1554 M -5 -15 R 15 90 R F
8253 1629 M -15 -90 R -4 -18 R F
8253 1629 M -19 -108 R -4 101 R F
8230 1622 M 4 -101 R -2 -23 R F
8230 1622 M 2 -124 R 0 -26 R F
8167 1472 M 2 37 R 0 -75 R F
8169 1434 M 0 75 R 5 33 R F
8169 1434 M 5 108 R 0 -141 R F
8174 1401 M 0 141 R 9 27 R F
8174 1401 M 9 168 R 0 -195 R F
8183 1374 M 0 195 R 12 23 R F
8183 1374 M 12 218 R 0 -241 R F
8195 1351 M 0 241 R 16 17 R F
8195 1351 M 16 258 R 0 -275 R F
8211 1334 M 0 275 R 19 13 R F
8211 1334 M 19 288 R 0 -300 R F
8230 1322 M 0 300 R 2 -150 R F
8502 1320 M -66 0 R 0 66 R F
8502 1320 M -66 66 R 66 0 R F
8772 1471 M -2 -37 R 0 75 R F
8770 1509 M 0 -75 R -5 -33 R F
8770 1509 M -5 -108 R 0 140 R F
8765 1541 M 0 -140 R -9 -27 R F
8765 1541 M -9 -167 R 0 195 R F
8756 1569 M 0 -195 R -12 -23 R F
8756 1569 M -12 -218 R 0 241 R F
8744 1592 M 0 -241 R -16 -17 R F
8744 1592 M -16 -258 R 0 275 R F
8728 1609 M 0 -275 R -19 -13 R F
8728 1609 M -19 -288 R -1 301 R F
8708 1622 M 1 -301 R -2 151 R F
8708 1622 M -1 -150 R -1 26 R F
8709 1321 M -23 -7 R 3 64 R F
8709 1321 M -20 57 R 7 11 R F
8709 1321 M -13 68 R 5 15 R F
8709 1321 M -8 83 R 3 19 R F
8709 1321 M -5 102 R 2 22 R F
8709 1321 M -3 124 R 1 27 R F
8647 1365 M 12 -2 R 0 -51 R F
8659 1312 M 0 51 R 12 2 R F
8659 1312 M 12 53 R 15 -51 R F
8686 1314 M -15 51 R 10 5 R F
8686 1314 M -5 56 R 8 8 R F
8622 1389 M 7 -11 R 3 -64 R F
8632 1314 M -3 64 R 8 -8 R F
8632 1314 M 5 56 R 22 -58 R F
8659 1312 M -22 58 R 10 -5 R F
8611 1472 M 1 -27 R -2 -123 R F
8610 1322 M 2 123 R 2 -22 R F
8610 1322 M 4 101 R 18 -109 R F
8632 1314 M -18 109 R 3 -19 R F
8632 1314 M -15 90 R 5 -15 R F
8708 1622 M -2 -124 R -2 22 R F
8708 1622 M -4 -102 R -3 19 R F
8708 1622 M -7 -83 R -5 15 R F
8708 1622 M -12 -68 R -7 11 R F
8708 1622 M -19 -57 R -4 64 R F
8685 1629 M 4 -64 R -8 8 R F
8685 1629 M -4 -56 R -10 5 R F
8685 1629 M -14 -51 R -12 2 R F
8685 1629 M -26 -49 R 0 52 R F
8659 1580 M -12 -2 R 12 54 R F
8659 1632 M -12 -54 R -10 -5 R F
8659 1632 M -22 -59 R -5 56 R F
8632 1629 M 5 -56 R -8 -8 R F
8632 1629 M -3 -64 R -7 -11 R F
8622 1554 M -5 -15 R 15 90 R F
8632 1629 M -15 -90 R -3 -18 R F
8632 1629 M -18 -108 R -4 101 R F
8610 1622 M 4 -101 R -2 -23 R F
8610 1622 M 2 -124 R -1 -26 R F
8546 1472 M 2 37 R 0 -75 R F
8548 1434 M 0 75 R 5 33 R F
8548 1434 M 5 108 R 0 -141 R F
8553 1401 M 0 141 R 9 27 R F
8553 1401 M 9 168 R 0 -195 R F
8562 1374 M 0 195 R 12 23 R F
8562 1374 M 12 218 R 0 -241 R F
8574 1351 M 0 241 R 16 17 R F
8574 1351 M 16 258 R 0 -275 R F
8590 1334 M 0 275 R 20 13 R F
8590 1334 M 20 288 R 0 -300 R F
8610 1322 M 0 300 R 1 -150 R F
9024 1471 M -1 -37 R 0 75 R F
9023 1509 M 0 -75 R -6 -33 R F
9023 1509 M -6 -108 R 0 140 R F
9017 1541 M 0 -140 R -8 -27 R F
9017 1541 M -8 -167 R 0 195 R F
9009 1569 M 0 -195 R -13 -23 R F
9009 1569 M -13 -218 R 0 241 R F
8996 1592 M 0 -241 R -15 -17 R F
8996 1592 M -15 -258 R -1 275 R F
8980 1609 M 1 -275 R -20 -13 R F
8980 1609 M -19 -288 R 0 301 R F
8961 1622 M 0 -301 R -1 151 R F
8961 1622 M -1 -150 R -1 26 R F
8961 1321 M -23 -7 R 4 64 R F
8961 1321 M -19 57 R 6 11 R F
8961 1321 M -13 68 R 5 15 R F
8961 1321 M -8 83 R 4 19 R F
8961 1321 M -4 102 R 2 22 R F
8961 1321 M -2 124 R 1 27 R F
8900 1365 M 12 -2 R 0 -51 R F
8912 1312 M 0 51 R 11 2 R F
8912 1312 M 11 53 R 15 -51 R F
8938 1314 M -15 51 R 10 5 R F
8938 1314 M -5 56 R 9 8 R F
8875 1389 M 7 -11 R 3 -64 R F
8885 1314 M -3 64 R 8 -8 R F
8885 1314 M 5 56 R 22 -58 R F
8912 1312 M -22 58 R 10 -5 R F
8864 1472 M 0 -27 R -2 -123 R F
8862 1322 M 2 123 R 3 -22 R F
8862 1322 M 5 101 R 18 -109 R F
8885 1314 M -18 109 R 3 -19 R F
8885 1314 M -15 90 R 5 -15 R F
8961 1622 M -2 -124 R -2 22 R F
8961 1622 M -4 -102 R -4 19 R F
8961 1622 M -8 -83 R -5 15 R F
8961 1622 M -13 -68 R -6 11 R F
8961 1622 M -19 -57 R -4 64 R F
8938 1629 M 4 -64 R -9 8 R F
8938 1629 M -5 -56 R -10 5 R F
8938 1629 M -15 -51 R -11 2 R F
8938 1629 M -26 -49 R 0 52 R F
8912 1580 M -12 -2 R 12 54 R F
8912 1632 M -12 -54 R -10 -5 R F
8912 1632 M -22 -59 R -5 56 R F
8885 1629 M 5 -56 R -8 -8 R F
8885 1629 M -3 -64 R -7 -11 R F
8875 1554 M -5 -15 R 15 90 R F
8885 1629 M -15 -90 R -3 -18 R F
8885 1629 M -18 -108 R -5 101 R F
8862 1622 M 5 -101 R -3 -23 R F
8862 1622 M 2 -124 R 0 -26 R F
8799 1472 M 2 37 R 0 -75 R F
8801 1434 M 0 75 R 5 33 R F
8801 1434 M 5 108 R 0 -141 R F
8806 1401 M 0 141 R 9 27 R F
8806 1401 M 9 168 R 0 -195 R F
8815 1374 M 0 195 R 12 23 R F
8815 1374 M 12 218 R 0 -241 R F
8827 1351 M 0 241 R 16 17 R F
8827 1351 M 16 258 R 0 -275 R F
8843 1334 M 0 275 R 19 13 R F
8843 1334 M 19 288 R 0 -300 R F
8862 1322 M 0 300 R 2 -150 R F
9277 1471 M -2 -37 R 0 75 R F
9275 1509 M 0 -75 R -5 -33 R F
9275 1509 M -5 -108 R 0 140 R F
9270 1541 M 0 -140 R -9 -27 R F
9270 1541 M -9 -167 R 0 195 R F
9261 1569 M 0 -195 R -12 -23 R F
9261 1569 M -12 -218 R 0 241 R F
9249 1592 M 0 -241 R -16 -17 R F
9249 1592 M -16 -258 R 0 275 R F
9233 1609 M 0 -275 R -19 -13 R F
9233 1609 M -19 -288 R 0 301 R F
9214 1622 M 0 -301 R -1 151 R F
9214 1622 M -1 -150 R -1 26 R F
9214 1321 M -23 -7 R 3 64 R F
9214 1321 M -20 57 R 7 11 R F
9214 1321 M -13 68 R 5 15 R F
9214 1321 M -8 83 R 4 19 R F
9214 1321 M -4 102 R 2 22 R F
9214 1321 M -2 124 R 1 27 R F
9153 1365 M 11 -2 R 0 -51 R F
9164 1312 M 0 51 R 12 2 R F
9164 1312 M 12 53 R 15 -51 R F
9191 1314 M -15 51 R 10 5 R F
9191 1314 M -5 56 R 8 8 R F
9128 1389 M 7 -11 R 3 -64 R F
9138 1314 M -3 64 R 8 -8 R F
9138 1314 M 5 56 R 21 -58 R F
9164 1312 M -21 58 R 10 -5 R F
9117 1472 M 0 -27 R -2 -123 R F
9115 1322 M 2 123 R 2 -22 R F
9115 1322 M 4 101 R 19 -109 R F
9138 1314 M -19 109 R 4 -19 R F
9138 1314 M -15 90 R 5 -15 R F
9214 1622 M -2 -124 R -2 22 R F
9214 1622 M -4 -102 R -4 19 R F
9214 1622 M -8 -83 R -5 15 R F
9214 1622 M -13 -68 R -7 11 R F
9214 1622 M -20 -57 R -3 64 R F
9191 1629 M 3 -64 R -8 8 R F
9191 1629 M -5 -56 R -10 5 R F
9191 1629 M -15 -51 R -12 2 R F
9191 1629 M -27 -49 R 0 52 R F
9164 1580 M -11 -2 R 11 54 R F
9164 1632 M -11 -54 R -10 -5 R F
9164 1632 M -21 -59 R -5 56 R F
9138 1629 M 5 -56 R -8 -8 R F
9138 1629 M -3 -64 R -7 -11 R F
9128 1554 M -5 -15 R 15 90 R F
9138 1629 M -15 -90 R -4 -18 R F
9138 1629 M -19 -108 R -4 101 R F
9115 1622 M 4 -101 R -2 -23 R F
9115 1622 M 2 -124 R 0 -26 R F
9052 1472 M 2 37 R 0 -75 R F
9054 1434 M 0 75 R 5 33 R F
9054 1434 M 5 108 R 0 -141 R F
9059 1401 M 0 141 R 9 27 R F
9059 1401 M 9 168 R 0 -195 R F
9068 1374 M 0 195 R 12 23 R F
9068 1374 M 12 218 R 0 -241 R F
9080 1351 M 0 241 R 16 17 R F
9080 1351 M 16 258 R 0 -275 R F
9096 1334 M 0 275 R 19 13 R F
9096 1334 M 19 288 R 0 -300 R F
9115 1322 M 0 300 R 2 -150 R F
10519 2112 M 0 205 R D 10190 1471 M -2 -37 R 0 75 R F
10188 1509 M 0 -75 R -5 -33 R F
10188 1509 M -5 -108 R 0 140 R F
10183 1541 M 0 -140 R -9 -27 R F
10183 1541 M -9 -167 R 0 195 R F
10174 1569 M 0 -195 R -12 -23 R F
10174 1569 M -12 -218 R -1 241 R F
10161 1592 M 1 -241 R -16 -17 R F
10161 1592 M -15 -258 R 0 275 R F
10146 1609 M 0 -275 R -20 -13 R F
10146 1609 M -20 -288 R 0 301 R F
10126 1622 M 0 -301 R -1 151 R F
10126 1622 M -1 -150 R -1 26 R F
10126 1321 M -23 -7 R 4 64 R F
10126 1321 M -19 57 R 6 11 R F
10126 1321 M -13 68 R 5 15 R F
10126 1321 M -8 83 R 4 19 R F
10126 1321 M -4 102 R 2 22 R F
10126 1321 M -2 124 R 1 27 R F
10065 1365 M 12 -2 R 0 -51 R F
10077 1312 M 0 51 R 12 2 R F
10077 1312 M 12 53 R 14 -51 R F
10103 1314 M -14 51 R 10 5 R F
10103 1314 M -4 56 R 8 8 R F
10040 1389 M 7 -11 R 3 -64 R F
10050 1314 M -3 64 R 8 -8 R F
10050 1314 M 5 56 R 22 -58 R F
10077 1312 M -22 58 R 10 -5 R F
10029 1472 M 1 -27 R -3 -123 R F
10027 1322 M 3 123 R 2 -22 R F
10027 1322 M 5 101 R 18 -109 R F
10050 1314 M -18 109 R 3 -19 R F
10050 1314 M -15 90 R 5 -15 R F
10126 1622 M -2 -124 R -2 22 R F
10126 1622 M -4 -102 R -4 19 R F
10126 1622 M -8 -83 R -5 15 R F
10126 1622 M -13 -68 R -6 11 R F
10126 1622 M -19 -57 R -4 64 R F
10103 1629 M 4 -64 R -8 8 R F
10103 1629 M -4 -56 R -10 5 R F
10103 1629 M -14 -51 R -12 2 R F
10103 1629 M -26 -49 R 0 52 R F
10077 1580 M -12 -2 R 12 54 R F
10077 1632 M -12 -54 R -10 -5 R F
10077 1632 M -22 -59 R -5 56 R F
10050 1629 M 5 -56 R -8 -8 R F
10050 1629 M -3 -64 R -7 -11 R F
10040 1554 M -5 -15 R 15 90 R F
10050 1629 M -15 -90 R -3 -18 R F
10050 1629 M -18 -108 R -5 101 R F
10027 1622 M 5 -101 R -2 -23 R F
10027 1622 M 3 -124 R -1 -26 R F
9964 1472 M 2 37 R 0 -75 R F
9966 1434 M 0 75 R 5 33 R F
9966 1434 M 5 108 R 0 -141 R F
9971 1401 M 0 141 R 9 27 R F
9971 1401 M 9 168 R 0 -195 R F
9980 1374 M 0 195 R 12 23 R F
9980 1374 M 12 218 R 0 -241 R F
9992 1351 M 0 241 R 16 17 R F
9992 1351 M 16 258 R 0 -275 R F
10008 1334 M 0 275 R 19 13 R F
10008 1334 M 19 288 R 0 -300 R F
10027 1322 M 0 300 R 2 -150 R F
10299 1320 M -65 0 R 0 66 R F
10299 1320 M -65 66 R 65 0 R F
10569 1471 M -2 -37 R 0 75 R F
10567 1509 M 0 -75 R -5 -33 R F
10567 1509 M -5 -108 R 0 140 R F
10562 1541 M 0 -140 R -9 -27 R F
10562 1541 M -9 -167 R 0 195 R F
10553 1569 M 0 -195 R -12 -23 R F
10553 1569 M -12 -218 R 0 241 R F
10541 1592 M 0 -241 R -16 -17 R F
10541 1592 M -16 -258 R 0 275 R F
10525 1609 M 0 -275 R -19 -13 R F
10525 1609 M -19 -288 R 0 301 R F
10506 1622 M 0 -301 R -2 151 R F
10506 1622 M -2 -150 R 0 26 R F
10506 1321 M -23 -7 R 3 64 R F
10506 1321 M -20 57 R 7 11 R F
10506 1321 M -13 68 R 5 15 R F
10506 1321 M -8 83 R 4 19 R F
10506 1321 M -4 102 R 2 22 R F
10506 1321 M -2 124 R 0 27 R F
10445 1365 M 11 -2 R 0 -51 R F
10456 1312 M 0 51 R 12 2 R F
10456 1312 M 12 53 R 15 -51 R F
10483 1314 M -15 51 R 10 5 R F
10483 1314 M -5 56 R 8 8 R F
10420 1389 M 6 -11 R 4 -64 R F
10430 1314 M -4 64 R 9 -8 R F
10430 1314 M 5 56 R 21 -58 R F
10456 1312 M -21 58 R 10 -5 R F
10408 1472 M 1 -27 R -2 -123 R F
10407 1322 M 2 123 R 2 -22 R F
10407 1322 M 4 101 R 19 -109 R F
10430 1314 M -19 109 R 4 -19 R F
10430 1314 M -15 90 R 5 -15 R F
10506 1622 M -2 -124 R -2 22 R F
10506 1622 M -4 -102 R -4 19 R F
10506 1622 M -8 -83 R -5 15 R F
10506 1622 M -13 -68 R -7 11 R F
10506 1622 M -20 -57 R -3 64 R F
10483 1629 M 3 -64 R -8 8 R F
10483 1629 M -5 -56 R -10 5 R F
10483 1629 M -15 -51 R -12 2 R F
10483 1629 M -27 -49 R 0 52 R F
10456 1580 M -11 -2 R 11 54 R F
10456 1632 M -11 -54 R -10 -5 R F
10456 1632 M -21 -59 R -5 56 R F
10430 1629 M 5 -56 R -9 -8 R F
10430 1629 M -4 -64 R -6 -11 R F
10420 1554 M -5 -15 R 15 90 R F
10430 1629 M -15 -90 R -4 -18 R F
10430 1629 M -19 -108 R -4 101 R F
10407 1622 M 4 -101 R -2 -23 R F
10407 1622 M 2 -124 R -1 -26 R F
10344 1472 M 1 37 R 0 -75 R F
10345 1434 M 0 75 R 6 33 R F
10345 1434 M 6 108 R 0 -141 R F
10351 1401 M 0 141 R 8 27 R F
10351 1401 M 8 168 R 0 -195 R F
10359 1374 M 0 195 R 13 23 R F
10359 1374 M 13 218 R 0 -241 R F
10372 1351 M 0 241 R 15 17 R F
10372 1351 M 15 258 R 0 -275 R F
10387 1334 M 0 275 R 20 13 R F
10387 1334 M 20 288 R 0 -300 R F
10407 1322 M 0 300 R 1 -150 R F
10822 1471 M -2 -37 R 0 75 R F
10820 1509 M 0 -75 R -5 -33 R F
10820 1509 M -5 -108 R 0 140 R F
10815 1541 M 0 -140 R -9 -27 R F
10815 1541 M -9 -167 R 0 195 R F
10806 1569 M 0 -195 R -12 -23 R F
10806 1569 M -12 -218 R 0 241 R F
10794 1592 M 0 -241 R -16 -17 R F
10794 1592 M -16 -258 R 0 275 R F
10778 1609 M 0 -275 R -19 -13 R F
10778 1609 M -19 -288 R -1 301 R F
10758 1622 M 1 -301 R -2 151 R F
10758 1622 M -1 -150 R -1 26 R F
10759 1321 M -23 -7 R 3 64 R F
10759 1321 M -20 57 R 7 11 R F
10759 1321 M -13 68 R 5 15 R F
10759 1321 M -8 83 R 3 19 R F
10759 1321 M -5 102 R 2 22 R F
10759 1321 M -3 124 R 1 27 R F
10697 1365 M 12 -2 R 0 -51 R F
10709 1312 M 0 51 R 12 2 R F
10709 1312 M 12 53 R 15 -51 R F
10736 1314 M -15 51 R 10 5 R F
10736 1314 M -5 56 R 8 8 R F
10673 1389 M 6 -11 R 3 -64 R F
10682 1314 M -3 64 R 8 -8 R F
10682 1314 M 5 56 R 22 -58 R F
10709 1312 M -22 58 R 10 -5 R F
10661 1472 M 1 -27 R -2 -123 R F
10660 1322 M 2 123 R 2 -22 R F
10660 1322 M 4 101 R 18 -109 R F
10682 1314 M -18 109 R 4 -19 R F
10682 1314 M -14 90 R 5 -15 R F
10758 1622 M -2 -124 R -2 22 R F
10758 1622 M -4 -102 R -3 19 R F
10758 1622 M -7 -83 R -5 15 R F
10758 1622 M -12 -68 R -7 11 R F
10758 1622 M -19 -57 R -4 64 R F
10735 1629 M 4 -64 R -8 8 R F
10735 1629 M -4 -56 R -10 5 R F
10735 1629 M -14 -51 R -12 2 R F
10735 1629 M -26 -49 R 0 52 R F
10709 1580 M -12 -2 R 12 54 R F
10709 1632 M -12 -54 R -10 -5 R F
10709 1632 M -22 -59 R -5 56 R F
10682 1629 M 5 -56 R -8 -8 R F
10682 1629 M -3 -64 R -6 -11 R F
10673 1554 M -5 -15 R 14 90 R F
10682 1629 M -14 -90 R -4 -18 R F
10682 1629 M -18 -108 R -4 101 R F
10660 1622 M 4 -101 R -2 -23 R F
10660 1622 M 2 -124 R -1 -26 R F
10596 1472 M 2 37 R 0 -75 R F
10598 1434 M 0 75 R 5 33 R F
10598 1434 M 5 108 R 0 -141 R F
10603 1401 M 0 141 R 9 27 R F
10603 1401 M 9 168 R 0 -195 R F
10612 1374 M 0 195 R 12 23 R F
10612 1374 M 12 218 R 0 -241 R F
10624 1351 M 0 241 R 16 17 R F
10624 1351 M 16 258 R 0 -275 R F
10640 1334 M 0 275 R 20 13 R F
10640 1334 M 20 288 R 0 -300 R F
10660 1322 M 0 300 R 1 -150 R F
11006 1418 M 3 99 R 13 -189 R F
11022 1328 M -13 189 R 17 -9 R F
11022 1328 M 4 180 R 13 -167 R F
11039 1341 M -13 167 R 16 -12 R F
11039 1341 M 3 155 R 11 -139 R F
11053 1357 M -11 139 R 12 -16 R F
11053 1357 M 1 123 R 8 -104 R F
11062 1376 M -8 104 R 9 -17 R F
11062 1376 M 1 87 R 5 -66 R F
11068 1397 M -5 66 R 6 -20 R F
11068 1397 M 1 46 R 1 -22 R F
10993 1376 M 6 8 R 3 -65 R F
11002 1319 M -3 65 R 4 10 R F
11002 1319 M 1 75 R 19 -66 R F
11022 1328 M -19 66 R 2 11 R F
11022 1328 M -17 77 R 1 13 R F
10966 1362 M 10 3 R 3 -52 R F
10979 1313 M -3 52 R 9 4 R F
10979 1313 M 6 56 R 17 -50 R F
11002 1319 M -17 50 R 8 7 R F
10954 1311 M -23 2 R 5 51 R F
10954 1311 M -18 53 R 8 -2 R F
10954 1311 M -10 51 R 10 -1 R F
10954 1311 M 0 50 R 12 1 R F
10954 1311 M 12 51 R 13 -49 R F
10931 1313 M -20 4 R 1 69 R F
10931 1313 M -19 73 R 4 -8 R F
10931 1313 M -15 65 R 5 -6 R F
10931 1313 M -10 59 R 7 -5 R F
10931 1313 M -3 54 R 8 -3 R F
10911 1317 M -18 8 R 15 79 R F
10911 1317 M -3 87 R 1 -10 R F
10911 1317 M -2 77 R 3 -8 R F
10908 1404 M -15 -79 R -16 11 R F
10908 1404 M -31 -68 R -12 13 R F
10908 1404 M -43 -55 R -10 16 R F
10908 1404 M -53 -39 R -6 18 R F
10908 1404 M -59 -21 R -2 21 R F
11009 1517 M -3 -99 R -1 13 R F
11009 1517 M -4 -86 R -2 10 R F
11009 1517 M -6 -76 R -5 10 R F
11009 1517 M -11 -66 R -6 8 R F
11009 1517 M -17 -58 R -3 63 R F
10992 1459 M -7 7 R 4 56 R F
10989 1522 M -4 -56 R -9 4 R F
10989 1522 M -13 -52 R -9 54 R F
10967 1524 M 9 -54 R -10 3 R F
10967 1524 M -1 -51 R -7 51 R F
10959 1524 M 7 -51 R -11 1 R F
10959 1524 M -4 -50 R -4 49 R F
10951 1523 M 4 -49 R -7 0 R F
10951 1523 M -3 -49 R -4 48 R F
10944 1522 M 4 -48 R -6 -1 R F
10944 1522 M -2 -49 R -5 47 R F
10937 1520 M 5 -47 R -6 -2 R F
10937 1520 M -1 -49 R -5 -2 R F
10937 1520 M -6 -51 R -1 49 R F
10930 1518 M 1 -49 R -5 -4 R F
10930 1518 M -4 -53 R -2 50 R F
10924 1515 M 2 -50 R -5 -3 R F
10924 1515 M -3 -53 R -2 49 R F
10919 1511 M 2 -49 R -4 -5 R F
10919 1511 M -2 -54 R -4 -5 R F
10919 1511 M -6 -59 R 0 56 R F
10913 1508 M 0 -56 R -36 171 R F
10913 1508 M -36 115 R 44 -53 R F
10921 1570 M -44 53 R 180 0 R F
10921 1570 M 136 53 R 0 -53 R F
10877 1623 M 36 -171 R -56 4 R F
12317 2112 M 0 205 R D 11987 1471 M -2 -37 R 0 75 R F
11985 1509 M 0 -75 R -5 -33 R F
11985 1509 M -5 -108 R 0 140 R F
11980 1541 M 0 -140 R -9 -27 R F
11980 1541 M -9 -167 R 0 195 R F
11971 1569 M 0 -195 R -12 -23 R F
11971 1569 M -12 -218 R 0 241 R F
11959 1592 M 0 -241 R -16 -17 R F
11959 1592 M -16 -258 R 0 275 R F
11943 1609 M 0 -275 R -19 -13 R F
11943 1609 M -19 -288 R 0 301 R F
11924 1622 M 0 -301 R -2 151 R F
11924 1622 M -2 -150 R 0 26 R F
11924 1321 M -23 -7 R 3 64 R F
11924 1321 M -20 57 R 7 11 R F
11924 1321 M -13 68 R 5 15 R F
11924 1321 M -8 83 R 3 19 R F
11924 1321 M -5 102 R 3 22 R F
11924 1321 M -2 124 R 0 27 R F
11863 1365 M 11 -2 R 0 -51 R F
11874 1312 M 0 51 R 12 2 R F
11874 1312 M 12 53 R 15 -51 R F
11901 1314 M -15 51 R 10 5 R F
11901 1314 M -5 56 R 8 8 R F
11838 1389 M 6 -11 R 4 -64 R F
11848 1314 M -4 64 R 9 -8 R F
11848 1314 M 5 56 R 21 -58 R F
11874 1312 M -21 58 R 10 -5 R F
11826 1472 M 1 -27 R -2 -123 R F
11825 1322 M 2 123 R 2 -22 R F
11825 1322 M 4 101 R 19 -109 R F
11848 1314 M -19 109 R 4 -19 R F
11848 1314 M -15 90 R 5 -15 R F
11924 1622 M -2 -124 R -3 22 R F
11924 1622 M -5 -102 R -3 19 R F
11924 1622 M -8 -83 R -5 15 R F
11924 1622 M -13 -68 R -7 11 R F
11924 1622 M -20 -57 R -3 64 R F
11901 1629 M 3 -64 R -8 8 R F
11901 1629 M -5 -56 R -10 5 R F
11901 1629 M -15 -51 R -12 2 R F
11901 1629 M -27 -49 R 0 52 R F
11874 1580 M -11 -2 R 11 54 R F
11874 1632 M -11 -54 R -10 -5 R F
11874 1632 M -21 -59 R -5 56 R F
11848 1629 M 5 -56 R -9 -8 R F
11848 1629 M -4 -64 R -6 -11 R F
11838 1554 M -5 -15 R 15 90 R F
11848 1629 M -15 -90 R -4 -18 R F
11848 1629 M -19 -108 R -4 101 R F
11825 1622 M 4 -101 R -2 -23 R F
11825 1622 M 2 -124 R -1 -26 R F
11762 1472 M 1 37 R 0 -75 R F
11763 1434 M 0 75 R 6 33 R F
11763 1434 M 6 108 R 0 -141 R F
11769 1401 M 0 141 R 8 27 R F
11769 1401 M 8 168 R 0 -195 R F
11777 1374 M 0 195 R 13 23 R F
11777 1374 M 13 218 R 0 -241 R F
11790 1351 M 0 241 R 15 17 R F
11790 1351 M 15 258 R 0 -275 R F
11805 1334 M 0 275 R 20 13 R F
11805 1334 M 20 288 R 0 -300 R F
11825 1322 M 0 300 R 1 -150 R F
12096 1320 M -65 0 R 0 66 R F
12096 1320 M -65 66 R 65 0 R F
12366 1471 M -1 -37 R 0 75 R F
12365 1509 M 0 -75 R -6 -33 R F
12365 1509 M -6 -108 R 0 140 R F
12359 1541 M 0 -140 R -8 -27 R F
12359 1541 M -8 -167 R 0 195 R F
12351 1569 M 0 -195 R -13 -23 R F
12351 1569 M -13 -218 R 0 241 R F
12338 1592 M 0 -241 R -15 -17 R F
12338 1592 M -15 -258 R -1 275 R F
12322 1609 M 1 -275 R -20 -13 R F
12322 1609 M -19 -288 R 0 301 R F
12303 1622 M 0 -301 R -1 151 R F
12303 1622 M -1 -150 R -1 26 R F
12303 1321 M -23 -7 R 4 64 R F
12303 1321 M -19 57 R 6 11 R F
12303 1321 M -13 68 R 5 15 R F
12303 1321 M -8 83 R 4 19 R F
12303 1321 M -4 102 R 2 22 R F
12303 1321 M -2 124 R 1 27 R F
12242 1365 M 12 -2 R 0 -51 R F
12254 1312 M 0 51 R 11 2 R F
12254 1312 M 11 53 R 15 -51 R F
12280 1314 M -15 51 R 10 5 R F
12280 1314 M -5 56 R 9 8 R F
12217 1389 M 7 -11 R 3 -64 R F
12227 1314 M -3 64 R 8 -8 R F
12227 1314 M 5 56 R 22 -58 R F
12254 1312 M -22 58 R 10 -5 R F
12206 1472 M 0 -27 R -2 -123 R F
12204 1322 M 2 123 R 3 -22 R F
12204 1322 M 5 101 R 18 -109 R F
12227 1314 M -18 109 R 3 -19 R F
12227 1314 M -15 90 R 5 -15 R F
12303 1622 M -2 -124 R -2 22 R F
12303 1622 M -4 -102 R -4 19 R F
12303 1622 M -8 -83 R -5 15 R F
12303 1622 M -13 -68 R -6 11 R F
12303 1622 M -19 -57 R -4 64 R F
12280 1629 M 4 -64 R -9 8 R F
12280 1629 M -5 -56 R -10 5 R F
12280 1629 M -15 -51 R -11 2 R F
12280 1629 M -26 -49 R 0 52 R F
12254 1580 M -12 -2 R 12 54 R F
12254 1632 M -12 -54 R -10 -5 R F
12254 1632 M -22 -59 R -5 56 R F
12227 1629 M 5 -56 R -8 -8 R F
12227 1629 M -3 -64 R -7 -11 R F
12217 1554 M -5 -15 R 15 90 R F
12227 1629 M -15 -90 R -3 -18 R F
12227 1629 M -18 -108 R -5 101 R F
12204 1622 M 5 -101 R -3 -23 R F
12204 1622 M 2 -124 R 0 -26 R F
12141 1472 M 2 37 R 0 -75 R F
12143 1434 M 0 75 R 5 33 R F
12143 1434 M 5 108 R 0 -141 R F
12148 1401 M 0 141 R 9 27 R F
12148 1401 M 9 168 R 0 -195 R F
12157 1374 M 0 195 R 12 23 R F
12157 1374 M 12 218 R 0 -241 R F
12169 1351 M 0 241 R 16 17 R F
12169 1351 M 16 258 R 0 -275 R F
12185 1334 M 0 275 R 19 13 R F
12185 1334 M 19 288 R 0 -300 R F
12204 1322 M 0 300 R 2 -150 R F
12551 1320 M -61 0 R 4 286 R F
12551 1320 M -57 286 R 5 12 R F
12551 1320 M -52 298 R 2 14 R F
12551 1320 M -50 312 R 50 0 R F
12490 1533 M -75 0 R 5 44 R F
12490 1533 M -70 44 R 19 1 R F
12490 1533 M -51 45 R 16 2 R F
12490 1533 M -35 47 R 14 4 R F
12490 1533 M -21 51 R 10 6 R F
12490 1533 M -11 57 R 9 7 R F
12490 1533 M -2 64 R 6 9 R F
12490 1533 M 4 73 R -4 -286 R F
12420 1577 M -5 -44 R 0 44 R F
12872 1471 M -2 -37 R 0 75 R F
12870 1509 M 0 -75 R -5 -33 R F
12870 1509 M -5 -108 R 0 140 R F
12865 1541 M 0 -140 R -9 -27 R F
12865 1541 M -9 -167 R 0 195 R F
12856 1569 M 0 -195 R -12 -23 R F
12856 1569 M -12 -218 R 0 241 R F
12844 1592 M 0 -241 R -16 -17 R F
12844 1592 M -16 -258 R 0 275 R F
12828 1609 M 0 -275 R -19 -13 R F
12828 1609 M -19 -288 R -1 301 R F
12808 1622 M 1 -301 R -2 151 R F
12808 1622 M -1 -150 R -1 26 R F
12809 1321 M -23 -7 R 3 64 R F
12809 1321 M -20 57 R 7 11 R F
12809 1321 M -13 68 R 5 15 R F
12809 1321 M -8 83 R 3 19 R F
12809 1321 M -5 102 R 2 22 R F
12809 1321 M -3 124 R 1 27 R F
12747 1365 M 12 -2 R 0 -51 R F
12759 1312 M 0 51 R 12 2 R F
12759 1312 M 12 53 R 15 -51 R F
12786 1314 M -15 51 R 10 5 R F
12786 1314 M -5 56 R 8 8 R F
12723 1389 M 6 -11 R 4 -64 R F
12733 1314 M -4 64 R 8 -8 R F
12733 1314 M 4 56 R 22 -58 R F
12759 1312 M -22 58 R 10 -5 R F
12711 1472 M 1 -27 R -2 -123 R F
12710 1322 M 2 123 R 2 -22 R F
12710 1322 M 4 101 R 19 -109 R F
12733 1314 M -19 109 R 4 -19 R F
12733 1314 M -15 90 R 5 -15 R F
12808 1622 M -2 -124 R -2 22 R F
12808 1622 M -4 -102 R -3 19 R F
12808 1622 M -7 -83 R -5 15 R F
12808 1622 M -12 -68 R -7 11 R F
12808 1622 M -19 -57 R -4 64 R F
12785 1629 M 4 -64 R -8 8 R F
12785 1629 M -4 -56 R -10 5 R F
12785 1629 M -14 -51 R -12 2 R F
12785 1629 M -26 -49 R 0 52 R F
12759 1580 M -12 -2 R 12 54 R F
12759 1632 M -12 -54 R -10 -5 R F
12759 1632 M -22 -59 R -4 56 R F
12733 1629 M 4 -56 R -8 -8 R F
12733 1629 M -4 -64 R -6 -11 R F
12723 1554 M -5 -15 R 15 90 R F
12733 1629 M -15 -90 R -4 -18 R F
12733 1629 M -19 -108 R -4 101 R F
12710 1622 M 4 -101 R -2 -23 R F
12710 1622 M 2 -124 R -1 -26 R F
12647 1472 M 1 37 R 0 -75 R F
12648 1434 M 0 75 R 6 33 R F
12648 1434 M 6 108 R 0 -141 R F
12654 1401 M 0 141 R 8 27 R F
12654 1401 M 8 168 R 0 -195 R F
12662 1374 M 0 195 R 12 23 R F
12662 1374 M 12 218 R 0 -241 R F
12674 1351 M 0 241 R 16 17 R F
12674 1351 M 16 258 R 0 -275 R F
12690 1334 M 0 275 R 20 13 R F
12690 1334 M 20 288 R 0 -300 R F
12710 1322 M 0 300 R 1 -150 R F
14114 2112 M 0 205 R D 13784 1471 M -1 -37 R 0 75 R F
13783 1509 M 0 -75 R -6 -33 R F
13783 1509 M -6 -108 R 0 140 R F
13777 1541 M 0 -140 R -8 -27 R F
13777 1541 M -8 -167 R -1 195 R F
13768 1569 M 1 -195 R -13 -23 R F
13768 1569 M -12 -218 R 0 241 R F
13756 1592 M 0 -241 R -15 -17 R F
13756 1592 M -15 -258 R -1 275 R F
13740 1609 M 1 -275 R -20 -13 R F
13740 1609 M -19 -288 R 0 301 R F
13721 1622 M 0 -301 R -1 151 R F
13721 1622 M -1 -150 R -1 26 R F
13721 1321 M -23 -7 R 3 64 R F
13721 1321 M -20 57 R 7 11 R F
13721 1321 M -13 68 R 5 15 R F
13721 1321 M -8 83 R 4 19 R F
13721 1321 M -4 102 R 2 22 R F
13721 1321 M -2 124 R 1 27 R F
13660 1365 M 12 -2 R 0 -51 R F
13672 1312 M 0 51 R 11 2 R F
13672 1312 M 11 53 R 15 -51 R F
13698 1314 M -15 51 R 10 5 R F
13698 1314 M -5 56 R 8 8 R F
13635 1389 M 7 -11 R 3 -64 R F
13645 1314 M -3 64 R 8 -8 R F
13645 1314 M 5 56 R 22 -58 R F
13672 1312 M -22 58 R 10 -5 R F
13624 1472 M 0 -27 R -2 -123 R F
13622 1322 M 2 123 R 3 -22 R F
13622 1322 M 5 101 R 18 -109 R F
13645 1314 M -18 109 R 3 -19 R F
13645 1314 M -15 90 R 5 -15 R F
13721 1622 M -2 -124 R -2 22 R F
13721 1622 M -4 -102 R -4 19 R F
13721 1622 M -8 -83 R -5 15 R F
13721 1622 M -13 -68 R -7 11 R F
13721 1622 M -20 -57 R -3 64 R F
13698 1629 M 3 -64 R -8 8 R F
13698 1629 M -5 -56 R -10 5 R F
13698 1629 M -15 -51 R -11 2 R F
13698 1629 M -26 -49 R 0 52 R F
13672 1580 M -12 -2 R 12 54 R F
13672 1632 M -12 -54 R -10 -5 R F
13672 1632 M -22 -59 R -5 56 R F
13645 1629 M 5 -56 R -8 -8 R F
13645 1629 M -3 -64 R -7 -11 R F
13635 1554 M -5 -15 R 15 90 R F
13645 1629 M -15 -90 R -3 -18 R F
13645 1629 M -18 -108 R -5 101 R F
13622 1622 M 5 -101 R -3 -23 R F
13622 1622 M 2 -124 R 0 -26 R F
13559 1472 M 2 37 R 0 -75 R F
13561 1434 M 0 75 R 5 33 R F
13561 1434 M 5 108 R 0 -141 R F
13566 1401 M 0 141 R 9 27 R F
13566 1401 M 9 168 R 0 -195 R F
13575 1374 M 0 195 R 12 23 R F
13575 1374 M 12 218 R 0 -241 R F
13587 1351 M 0 241 R 16 17 R F
13587 1351 M 16 258 R 0 -275 R F
13603 1334 M 0 275 R 19 13 R F
13603 1334 M 19 288 R 0 -300 R F
13622 1322 M 0 300 R 2 -150 R F
13894 1320 M -66 0 R 0 66 R F
13894 1320 M -66 66 R 66 0 R F
14164 1471 M -2 -37 R 0 75 R F
14162 1509 M 0 -75 R -5 -33 R F
14162 1509 M -5 -108 R 0 140 R F
14157 1541 M 0 -140 R -9 -27 R F
14157 1541 M -9 -167 R 0 195 R F
14148 1569 M 0 -195 R -12 -23 R F
14148 1569 M -12 -218 R 0 241 R F
14136 1592 M 0 -241 R -16 -17 R F
14136 1592 M -16 -258 R 0 275 R F
14120 1609 M 0 -275 R -19 -13 R F
14120 1609 M -19 -288 R -1 301 R F
14100 1622 M 1 -301 R -2 151 R F
14100 1622 M -1 -150 R -1 26 R F
14101 1321 M -23 -7 R 3 64 R F
14101 1321 M -20 57 R 7 11 R F
14101 1321 M -13 68 R 5 15 R F
14101 1321 M -8 83 R 3 19 R F
14101 1321 M -5 102 R 2 22 R F
14101 1321 M -3 124 R 1 27 R F
14039 1365 M 12 -2 R 0 -51 R F
14051 1312 M 0 51 R 12 2 R F
14051 1312 M 12 53 R 15 -51 R F
14078 1314 M -15 51 R 10 5 R F
14078 1314 M -5 56 R 8 8 R F
14014 1389 M 7 -11 R 3 -64 R F
14024 1314 M -3 64 R 8 -8 R F
14024 1314 M 5 56 R 22 -58 R F
14051 1312 M -22 58 R 10 -5 R F
14003 1472 M 1 -27 R -2 -123 R F
14002 1322 M 2 123 R 2 -22 R F
14002 1322 M 4 101 R 18 -109 R F
14024 1314 M -18 109 R 3 -19 R F
14024 1314 M -15 90 R 5 -15 R F
14100 1622 M -2 -124 R -2 22 R F
14100 1622 M -4 -102 R -3 19 R F
14100 1622 M -7 -83 R -5 15 R F
14100 1622 M -12 -68 R -7 11 R F
14100 1622 M -19 -57 R -4 64 R F
14077 1629 M 4 -64 R -8 8 R F
14077 1629 M -4 -56 R -10 5 R F
14077 1629 M -14 -51 R -12 2 R F
14077 1629 M -26 -49 R 0 52 R F
14051 1580 M -12 -2 R 12 54 R F
14051 1632 M -12 -54 R -10 -5 R F
14051 1632 M -22 -59 R -5 56 R F
14024 1629 M 5 -56 R -8 -8 R F
14024 1629 M -3 -64 R -7 -11 R F
14014 1554 M -5 -15 R 15 90 R F
14024 1629 M -15 -90 R -3 -18 R F
14024 1629 M -18 -108 R -4 101 R F
14002 1622 M 4 -101 R -2 -23 R F
14002 1622 M 2 -124 R -1 -26 R F
13938 1472 M 2 37 R 0 -75 R F
13940 1434 M 0 75 R 5 33 R F
13940 1434 M 5 108 R 0 -141 R F
13945 1401 M 0 141 R 9 27 R F
13945 1401 M 9 168 R 0 -195 R F
13954 1374 M 0 195 R 12 23 R F
13954 1374 M 12 218 R 0 -241 R F
13966 1351 M 0 241 R 16 17 R F
13966 1351 M 16 258 R 0 -275 R F
13982 1334 M 0 275 R 20 13 R F
13982 1334 M 20 288 R 0 -300 R F
14002 1322 M 0 300 R 1 -150 R F
14349 1320 M -62 0 R 5 286 R F
14349 1320 M -57 286 R 4 12 R F
14349 1320 M -53 298 R 3 14 R F
14349 1320 M -50 312 R 50 0 R F
14287 1533 M -74 0 R 4 44 R F
14287 1533 M -70 44 R 19 1 R F
14287 1533 M -51 45 R 17 2 R F
14287 1533 M -34 47 R 13 4 R F
14287 1533 M -21 51 R 11 6 R F
14287 1533 M -10 57 R 8 7 R F
14287 1533 M -2 64 R 7 9 R F
14287 1533 M 5 73 R -5 -286 R F
14217 1577 M -4 -44 R 0 44 R F
14601 1418 M 2 99 R 13 -189 R F
14616 1328 M -13 189 R 18 -9 R F
14616 1328 M 5 180 R 12 -167 R F
14633 1341 M -12 167 R 15 -12 R F
14633 1341 M 3 155 R 11 -139 R F
14647 1357 M -11 139 R 13 -16 R F
14647 1357 M 2 123 R 8 -104 R F
14657 1376 M -8 104 R 9 -17 R F
14657 1376 M 1 87 R 5 -66 R F
14663 1397 M -5 66 R 5 -20 R F
14663 1397 M 0 46 R 2 -22 R F
14587 1376 M 6 8 R 4 -65 R F
14597 1319 M -4 65 R 4 10 R F
14597 1319 M 0 75 R 19 -66 R F
14616 1328 M -19 66 R 3 11 R F
14616 1328 M -16 77 R 1 13 R F
14561 1362 M 10 3 R 3 -52 R F
14574 1313 M -3 52 R 9 4 R F
14574 1313 M 6 56 R 17 -50 R F
14597 1319 M -17 50 R 7 7 R F
14549 1311 M -23 2 R 4 51 R F
14549 1311 M -19 53 R 9 -2 R F
14549 1311 M -10 51 R 10 -1 R F
14549 1311 M 0 50 R 12 1 R F
14549 1311 M 12 51 R 13 -49 R F
14526 1313 M -21 4 R 2 69 R F
14526 1313 M -19 73 R 4 -8 R F
14526 1313 M -15 65 R 5 -6 R F
14526 1313 M -10 59 R 7 -5 R F
14526 1313 M -3 54 R 7 -3 R F
14505 1317 M -18 8 R 15 79 R F
14505 1317 M -3 87 R 2 -10 R F
14505 1317 M -1 77 R 3 -8 R F
14502 1404 M -15 -79 R -15 11 R F
14502 1404 M -30 -68 R -13 13 R F
14502 1404 M -43 -55 R -9 16 R F
14502 1404 M -52 -39 R -6 18 R F
14502 1404 M -58 -21 R -3 21 R F
14603 1517 M -2 -99 R -1 13 R F
14603 1517 M -3 -86 R -3 10 R F
14603 1517 M -6 -76 R -4 10 R F
14603 1517 M -10 -66 R -6 8 R F
14603 1517 M -16 -58 R -4 63 R F
14587 1459 M -7 7 R 3 56 R F
14583 1522 M -3 -56 R -9 4 R F
14583 1522 M -12 -52 R -10 54 R F
14561 1524 M 10 -54 R -10 3 R F
14561 1524 M 0 -51 R -8 51 R F
14553 1524 M 8 -51 R -12 1 R F
14553 1524 M -4 -50 R -3 49 R F
14546 1523 M 3 -49 R -6 0 R F
14546 1523 M -3 -49 R -5 48 R F
14538 1522 M 5 -48 R -6 -1 R F
14538 1522 M -1 -49 R -5 47 R F
14532 1520 M 5 -47 R -6 -2 R F
14532 1520 M -1 -49 R -6 -2 R F
14532 1520 M -7 -51 R 0 49 R F
14525 1518 M 0 -49 R -4 -4 R F
14525 1518 M -4 -53 R -2 50 R F
14519 1515 M 2 -50 R -5 -3 R F
14519 1515 M -3 -53 R -3 49 R F
14513 1511 M 3 -49 R -4 -5 R F
14513 1511 M -1 -54 R -4 -5 R F
14513 1511 M -5 -59 R 0 56 R F
14508 1508 M 0 -56 R -36 171 R F
14508 1508 M -36 115 R 44 -53 R F
14516 1570 M -44 53 R 179 0 R F
14516 1570 M 135 53 R 0 -53 R F
14472 1623 M 36 -171 R -56 4 R F
3690 2112 M 0 103 R D 4049 2112 M 0 103 R D 4408 2112 M 0 103 R D
4768 2112 M 0 103 R D 5487 2112 M 0 103 R D 5846 2112 M 0 103 R D
6206 2112 M 0 103 R D 6565 2112 M 0 103 R D 7284 2112 M 0 103 R D
7644 2112 M 0 103 R D 8003 2112 M 0 103 R D 8363 2112 M 0 103 R D
9082 2112 M 0 103 R D 9441 2112 M 0 103 R D 9800 2112 M 0 103 R D
10160 2112 M 0 103 R D 10879 2112 M 0 103 R D 11238 2112 M 0 103 R D
11598 2112 M 0 103 R D 11957 2112 M 0 103 R D 12676 2112 M 0 103 R D
13036 2112 M 0 103 R D 13395 2112 M 0 103 R D 13755 2112 M 0 103 R D
8685 754 M -76 116 R 72 0 R F
8685 754 M -4 116 R 42 -71 R F
8685 754 M 38 45 R -2 -90 R F
8685 754 M 36 -45 R -43 -75 R F
8685 754 M -7 -120 R -73 0 R F
8760 755 M 79 -121 R -74 0 R F
8760 755 M 5 -121 R -42 165 R F
8760 755 M -37 44 R 41 71 R F
8760 755 M 4 115 R 70 0 R F
8721 709 M 2 90 R 42 -165 R F
3330 12377 M 10784 0 R D 3330 12377 M 0 -205 R D 5127 12377 M 0 -205 R D
6925 12377 M 0 -205 R D 8722 12377 M 0 -205 R D 10519 12377 M 0 -205 R D
12317 12377 M 0 -205 R D 14114 12377 M 0 -205 R D 3690 12377 M 0 -103 R D
4049 12377 M 0 -103 R D 4408 12377 M 0 -103 R D 4768 12377 M 0 -103 R D
5487 12377 M 0 -103 R D 5846 12377 M 0 -103 R D 6206 12377 M 0 -103 R D
6565 12377 M 0 -103 R D 7284 12377 M 0 -103 R D 7644 12377 M 0 -103 R D
8003 12377 M 0 -103 R D 8363 12377 M 0 -103 R D 9082 12377 M 0 -103 R D
9441 12377 M 0 -103 R D 9800 12377 M 0 -103 R D 10160 12377 M 0 -103 R D
10879 12377 M 0 -103 R D 11238 12377 M 0 -103 R D 11598 12377 M 0 -103 R D
11957 12377 M 0 -103 R D 12676 12377 M 0 -103 R D 13036 12377 M 0 -103 R D
13395 12377 M 0 -103 R D 13755 12377 M 0 -103 R D 3330 2112 M 0 10265 R D
3330 2112 M 216 0 R D 2265 2201 M -122 0 R 0 60 R F
2265 2201 M -122 60 R 122 0 R F
2518 2263 M -2 -37 R 0 75 R F
2516 2301 M 0 -75 R -5 -33 R F
2516 2301 M -5 -108 R 0 140 R F
2511 2333 M 0 -140 R -9 -27 R F
2511 2333 M -9 -167 R 0 195 R F
2502 2361 M 0 -195 R -12 -23 R F
2502 2361 M -12 -218 R 0 241 R F
2490 2384 M 0 -241 R -16 -17 R F
2490 2384 M -16 -258 R 0 275 R F
2474 2401 M 0 -275 R -19 -13 R F
2474 2401 M -19 -288 R -1 301 R F
2454 2414 M 1 -301 R -2 151 R F
2454 2414 M -1 -150 R -1 26 R F
2455 2113 M -23 -7 R 3 64 R F
2455 2113 M -20 57 R 7 11 R F
2455 2113 M -13 68 R 5 15 R F
2455 2113 M -8 83 R 3 19 R F
2455 2113 M -5 102 R 2 22 R F
2455 2113 M -3 124 R 1 27 R F
2393 2157 M 12 -2 R 0 -51 R F
2405 2104 M 0 51 R 12 2 R F
2405 2104 M 12 53 R 15 -51 R F
2432 2106 M -15 51 R 10 5 R F
2432 2106 M -5 56 R 8 8 R F
2368 2181 M 7 -11 R 3 -64 R F
2378 2106 M -3 64 R 8 -8 R F
2378 2106 M 5 56 R 22 -58 R F
2405 2104 M -22 58 R 10 -5 R F
2357 2264 M 1 -27 R -2 -123 R F
2356 2114 M 2 123 R 2 -22 R F
2356 2114 M 4 101 R 18 -109 R F
2378 2106 M -18 109 R 3 -19 R F
2378 2106 M -15 90 R 5 -15 R F
2454 2414 M -2 -124 R -2 22 R F
2454 2414 M -4 -102 R -3 19 R F
2454 2414 M -7 -83 R -5 15 R F
2454 2414 M -12 -68 R -7 11 R F
2454 2414 M -19 -57 R -4 64 R F
2431 2421 M 4 -64 R -8 8 R F
2431 2421 M -4 -56 R -10 5 R F
2431 2421 M -14 -51 R -12 2 R F
2431 2421 M -26 -49 R 0 52 R F
2405 2372 M -12 -2 R 12 54 R F
2405 2424 M -12 -54 R -10 -5 R F
2405 2424 M -22 -59 R -5 56 R F
2378 2421 M 5 -56 R -8 -8 R F
2378 2421 M -3 -64 R -7 -11 R F
2368 2346 M -5 -15 R 15 90 R F
2378 2421 M -15 -90 R -3 -18 R F
2378 2421 M -18 -108 R -4 101 R F
2356 2414 M 4 -101 R -2 -23 R F
2356 2414 M 2 -124 R -1 -26 R F
2292 2264 M 2 37 R 0 -75 R F
2294 2226 M 0 75 R 5 33 R F
2294 2226 M 5 108 R 0 -141 R F
2299 2193 M 0 141 R 9 27 R F
2299 2193 M 9 168 R 0 -195 R F
2308 2166 M 0 195 R 12 23 R F
2308 2166 M 12 218 R 0 -241 R F
2320 2143 M 0 241 R 16 17 R F
2320 2143 M 16 258 R 0 -275 R F
2336 2126 M 0 275 R 20 13 R F
2336 2126 M 20 288 R 0 -300 R F
2356 2114 M 0 300 R 1 -150 R F
2627 2112 M -65 0 R 0 66 R F
2627 2112 M -65 66 R 65 0 R F
2897 2263 M -2 -37 R 0 75 R F
2895 2301 M 0 -75 R -5 -33 R F
2895 2301 M -5 -108 R 0 140 R F
2890 2333 M 0 -140 R -9 -27 R F
2890 2333 M -9 -167 R 0 195 R F
2881 2361 M 0 -195 R -12 -23 R F
2881 2361 M -12 -218 R 0 241 R F
2869 2384 M 0 -241 R -16 -17 R F
2869 2384 M -16 -258 R 0 275 R F
2853 2401 M 0 -275 R -19 -13 R F
2853 2401 M -19 -288 R 0 301 R F
2834 2414 M 0 -301 R -2 151 R F
2834 2414 M -2 -150 R 0 26 R F
2834 2113 M -23 -7 R 3 64 R F
2834 2113 M -20 57 R 7 11 R F
2834 2113 M -13 68 R 5 15 R F
2834 2113 M -8 83 R 4 19 R F
2834 2113 M -4 102 R 2 22 R F
2834 2113 M -2 124 R 0 27 R F
2773 2157 M 11 -2 R 0 -51 R F
2784 2104 M 0 51 R 12 2 R F
2784 2104 M 12 53 R 15 -51 R F
2811 2106 M -15 51 R 10 5 R F
2811 2106 M -5 56 R 8 8 R F
2748 2181 M 6 -11 R 4 -64 R F
2758 2106 M -4 64 R 9 -8 R F
2758 2106 M 5 56 R 21 -58 R F
2784 2104 M -21 58 R 10 -5 R F
2736 2264 M 1 -27 R -2 -123 R F
2735 2114 M 2 123 R 2 -22 R F
2735 2114 M 4 101 R 19 -109 R F
2758 2106 M -19 109 R 4 -19 R F
2758 2106 M -15 90 R 5 -15 R F
2834 2414 M -2 -124 R -2 22 R F
2834 2414 M -4 -102 R -4 19 R F
2834 2414 M -8 -83 R -5 15 R F
2834 2414 M -13 -68 R -7 11 R F
2834 2414 M -20 -57 R -3 64 R F
2811 2421 M 3 -64 R -8 8 R F
2811 2421 M -5 -56 R -10 5 R F
2811 2421 M -15 -51 R -12 2 R F
2811 2421 M -27 -49 R 0 52 R F
2784 2372 M -11 -2 R 11 54 R F
2784 2424 M -11 -54 R -10 -5 R F
2784 2424 M -21 -59 R -5 56 R F
2758 2421 M 5 -56 R -9 -8 R F
2758 2421 M -4 -64 R -6 -11 R F
2748 2346 M -5 -15 R 15 90 R F
2758 2421 M -15 -90 R -4 -18 R F
2758 2421 M -19 -108 R -4 101 R F
2735 2414 M 4 -101 R -2 -23 R F
2735 2414 M 2 -124 R -1 -26 R F
2672 2264 M 2 37 R 0 -75 R F
2674 2226 M 0 75 R 5 33 R F
2674 2226 M 5 108 R 0 -141 R F
2679 2193 M 0 141 R 9 27 R F
2679 2193 M 9 168 R 0 -195 R F
2688 2166 M 0 195 R 12 23 R F
2688 2166 M 12 218 R 0 -241 R F
2700 2143 M 0 241 R 16 17 R F
2700 2143 M 16 258 R 0 -275 R F
2716 2126 M 0 275 R 19 13 R F
2716 2126 M 19 288 R 0 -300 R F
2735 2114 M 0 300 R 1 -150 R F
2984 2312 M -57 0 R 1 26 R F
2984 2312 M -56 26 R 6 22 R F
2984 2312 M -50 48 R 9 19 R F
2984 2312 M -41 67 R 12 16 R F
2984 2312 M -29 83 R 16 13 R F
2984 2312 M -13 96 R 13 -93 R F
2998 2165 M 142 0 R 0 -53 R F
2998 2165 M 142 -53 R -201 71 R F
2998 2165 M -59 18 R 11 14 R F
2998 2165 M -48 32 R 13 15 R F
2998 2165 M -35 47 R 17 15 R F
2998 2165 M -18 62 R 21 15 R F
2998 2165 M 3 77 R 2 -69 R F
3140 2112 M -219 0 R 2 20 R F
3140 2112 M -217 20 R 3 19 R F
3140 2112 M -214 39 R 6 17 R F
3140 2112 M -208 56 R 7 15 R F
3143 2328 M -1 -15 R -1 35 R F
3141 2348 M 1 -35 R -3 -14 R F
3141 2348 M -2 -49 R -4 68 R F
3135 2367 M 4 -68 R -5 -13 R F
3135 2367 M -1 -81 R -6 -12 R F
3135 2367 M -7 -93 R -1 109 R F
3127 2383 M 1 -109 R -10 -12 R F
3127 2383 M -9 -121 R -4 136 R F
3114 2398 M 4 -136 R -12 -13 R F
3114 2398 M -8 -149 R -8 160 R F
3098 2409 M 8 -160 R -17 -13 R F
3098 2409 M -9 -173 R -9 181 R F
3080 2417 M 9 -181 R -10 91 R F
3080 2417 M -1 -90 R 0 10 R F
3079 2327 M 10 -91 R -13 73 R F
3076 2309 M 13 -73 R -19 -14 R F
3076 2309 M -6 -87 R -5 69 R F
3065 2291 M 5 -69 R -5 -4 R F
3065 2291 M 0 -73 R -6 -4 R F
3052 2210 M -8 -5 R 2 68 R F
3052 2210 M -6 63 R 19 18 R F
3052 2210 M 13 81 R -6 -77 R F
3026 2193 M -14 -11 R 3 69 R F
3026 2193 M -11 58 R 6 3 R F
3026 2193 M -5 61 R 25 19 R F
3026 2193 M 20 80 R -2 -68 R F
3012 2182 M -9 -9 R 2 71 R F
3012 2182 M -7 62 R 4 3 R F
3012 2182 M -3 65 R 6 4 R F
3080 2417 M -1 -80 R -3 8 R F
3080 2417 M -4 -72 R -4 8 R F
3080 2417 M -8 -64 R -5 7 R F
3080 2417 M -13 -57 R -7 5 R F
3080 2417 M -20 -52 R 0 57 R F
3060 2365 M -8 4 R 8 53 R F
3060 2422 M -8 -53 R -9 2 R F
3060 2422 M -17 -51 R -6 53 R F
3037 2424 M 6 -53 R -10 1 R F
3037 2424 M -4 -52 R -11 -1 R F
3012 2368 M -8 -5 R 8 59 R F
3012 2368 M 0 54 R 25 2 R F
3012 2368 M 25 56 R -15 -53 R F
3004 2363 M -7 -6 R 15 65 R F
3012 2422 M -15 -65 R -6 -8 R F
3012 2422 M -21 -73 R -1 68 R F
2990 2417 M 1 -68 R -4 -10 R F
2990 2417 M -3 -78 R -2 -11 R F
2984 2315 M -13 93 R 19 9 R F
2984 2315 M 6 102 R -5 -89 R F
3003 2173 M -2 69 R 4 2 R F
3330 4678 M 216 0 R D 2265 4556 M -122 0 R 0 60 R F
2265 4556 M -122 60 R 122 0 R F
2518 4618 M -2 -37 R 0 75 R F
2516 4656 M 0 -75 R -5 -33 R F
2516 4656 M -5 -108 R 0 140 R F
2511 4688 M 0 -140 R -9 -27 R F
2511 4688 M -9 -167 R 0 195 R F
2502 4716 M 0 -195 R -12 -23 R F
2502 4716 M -12 -218 R 0 241 R F
2490 4739 M 0 -241 R -16 -17 R F
2490 4739 M -16 -258 R 0 275 R F
2474 4756 M 0 -275 R -19 -12 R F
2474 4756 M -19 -287 R -1 300 R F
2454 4769 M 1 -300 R -2 150 R F
2454 4769 M -1 -150 R -1 26 R F
2455 4469 M -23 -8 R 3 64 R F
2455 4469 M -20 56 R 7 11 R F
2455 4469 M -13 67 R 5 15 R F
2455 4469 M -8 82 R 3 19 R F
2455 4469 M -5 101 R 2 22 R F
2455 4469 M -3 123 R 1 27 R F
2393 4512 M 12 -2 R 0 -51 R F
2405 4459 M 0 51 R 12 2 R F
2405 4459 M 12 53 R 15 -51 R F
2432 4461 M -15 51 R 10 5 R F
2432 4461 M -5 56 R 8 8 R F
2368 4536 M 7 -11 R 3 -64 R F
2378 4461 M -3 64 R 8 -8 R F
2378 4461 M 5 56 R 22 -58 R F
2405 4459 M -22 58 R 10 -5 R F
2357 4619 M 1 -27 R -2 -123 R F
2356 4469 M 2 123 R 2 -22 R F
2356 4469 M 4 101 R 18 -109 R F
2378 4461 M -18 109 R 3 -19 R F
2378 4461 M -15 90 R 5 -15 R F
2454 4769 M -2 -124 R -2 22 R F
2454 4769 M -4 -102 R -3 19 R F
2454 4769 M -7 -83 R -5 15 R F
2454 4769 M -12 -68 R -7 11 R F
2454 4769 M -19 -57 R -4 64 R F
2431 4776 M 4 -64 R -8 8 R F
2431 4776 M -4 -56 R -10 5 R F
2431 4776 M -14 -51 R -12 2 R F
2431 4776 M -26 -49 R 0 52 R F
2405 4727 M -12 -2 R 12 54 R F
2405 4779 M -12 -54 R -10 -5 R F
2405 4779 M -22 -59 R -5 56 R F
2378 4776 M 5 -56 R -8 -8 R F
2378 4776 M -3 -64 R -7 -11 R F
2368 4701 M -5 -15 R 15 90 R F
2378 4776 M -15 -90 R -3 -18 R F
2378 4776 M -18 -108 R -4 101 R F
2356 4769 M 4 -101 R -2 -23 R F
2356 4769 M 2 -124 R -1 -26 R F
2292 4619 M 2 37 R 0 -75 R F
2294 4581 M 0 75 R 5 33 R F
2294 4581 M 5 108 R 0 -141 R F
2299 4548 M 0 141 R 9 27 R F
2299 4548 M 9 168 R 0 -195 R F
2308 4521 M 0 195 R 12 23 R F
2308 4521 M 12 218 R 0 -241 R F
2320 4498 M 0 241 R 16 17 R F
2320 4498 M 16 258 R 0 -275 R F
2336 4481 M 0 275 R 20 13 R F
2336 4481 M 20 288 R 0 -300 R F
2356 4469 M 0 300 R 1 -150 R F
2627 4467 M -65 0 R 0 66 R F
2627 4467 M -65 66 R 65 0 R F
2897 4618 M -2 -37 R 0 75 R F
2895 4656 M 0 -75 R -5 -33 R F
2895 4656 M -5 -108 R 0 140 R F
2890 4688 M 0 -140 R -9 -27 R F
2890 4688 M -9 -167 R 0 195 R F
2881 4716 M 0 -195 R -12 -23 R F
2881 4716 M -12 -218 R 0 241 R F
2869 4739 M 0 -241 R -16 -17 R F
2869 4739 M -16 -258 R 0 275 R F
2853 4756 M 0 -275 R -19 -12 R F
2853 4756 M -19 -287 R 0 300 R F
2834 4769 M 0 -300 R -2 150 R F
2834 4769 M -2 -150 R 0 26 R F
2834 4469 M -23 -8 R 3 64 R F
2834 4469 M -20 56 R 7 11 R F
2834 4469 M -13 67 R 5 15 R F
2834 4469 M -8 82 R 4 19 R F
2834 4469 M -4 101 R 2 22 R F
2834 4469 M -2 123 R 0 27 R F
2773 4512 M 11 -2 R 0 -51 R F
2784 4459 M 0 51 R 12 2 R F
2784 4459 M 12 53 R 15 -51 R F
2811 4461 M -15 51 R 10 5 R F
2811 4461 M -5 56 R 8 8 R F
2748 4536 M 6 -11 R 4 -64 R F
2758 4461 M -4 64 R 9 -8 R F
2758 4461 M 5 56 R 21 -58 R F
2784 4459 M -21 58 R 10 -5 R F
2736 4619 M 1 -27 R -2 -123 R F
2735 4469 M 2 123 R 2 -22 R F
2735 4469 M 4 101 R 19 -109 R F
2758 4461 M -19 109 R 4 -19 R F
2758 4461 M -15 90 R 5 -15 R F
2834 4769 M -2 -124 R -2 22 R F
2834 4769 M -4 -102 R -4 19 R F
2834 4769 M -8 -83 R -5 15 R F
2834 4769 M -13 -68 R -7 11 R F
2834 4769 M -20 -57 R -3 64 R F
2811 4776 M 3 -64 R -8 8 R F
2811 4776 M -5 -56 R -10 5 R F
2811 4776 M -15 -51 R -12 2 R F
2811 4776 M -27 -49 R 0 52 R F
2784 4727 M -11 -2 R 11 54 R F
2784 4779 M -11 -54 R -10 -5 R F
2784 4779 M -21 -59 R -5 56 R F
2758 4776 M 5 -56 R -9 -8 R F
2758 4776 M -4 -64 R -6 -11 R F
2748 4701 M -5 -15 R 15 90 R F
2758 4776 M -15 -90 R -4 -18 R F
2758 4776 M -19 -108 R -4 101 R F
2735 4769 M 4 -101 R -2 -23 R F
2735 4769 M 2 -124 R -1 -26 R F
2672 4619 M 2 37 R 0 -75 R F
2674 4581 M 0 75 R 5 33 R F
2674 4581 M 5 108 R 0 -141 R F
2679 4548 M 0 141 R 9 27 R F
2679 4548 M 9 168 R 0 -195 R F
2688 4521 M 0 195 R 12 23 R F
2688 4521 M 12 218 R 0 -241 R F
2700 4498 M 0 241 R 16 17 R F
2700 4498 M 16 258 R 0 -275 R F
2716 4481 M 0 275 R 19 13 R F
2716 4481 M 19 288 R 0 -300 R F
2735 4469 M 0 300 R 1 -150 R F
3082 4467 M -61 0 R 4 286 R F
3082 4467 M -57 286 R 5 12 R F
3082 4467 M -52 298 R 2 14 R F
3082 4467 M -50 312 R 50 0 R F
3021 4680 M -75 0 R 5 44 R F
3021 4680 M -70 44 R 19 1 R F
3021 4680 M -51 45 R 16 2 R F
3021 4680 M -35 47 R 14 4 R F
3021 4680 M -21 51 R 10 6 R F
3021 4680 M -11 57 R 9 7 R F
3021 4680 M -2 64 R 6 9 R F
3021 4680 M 4 73 R -4 -286 R F
2951 4724 M -5 -44 R 0 44 R F
3330 7245 M 216 0 R D 2518 7184 M -2 -37 R 0 75 R F
2516 7222 M 0 -75 R -5 -33 R F
2516 7222 M -5 -108 R 0 141 R F
2511 7255 M 0 -141 R -9 -27 R F
2511 7255 M -9 -168 R 0 195 R F
2502 7282 M 0 -195 R -12 -23 R F
2502 7282 M -12 -218 R 0 241 R F
2490 7305 M 0 -241 R -16 -17 R F
2490 7305 M -16 -258 R 0 275 R F
2474 7322 M 0 -275 R -19 -12 R F
2474 7322 M -19 -287 R -1 300 R F
2454 7335 M 1 -300 R -2 150 R F
2454 7335 M -1 -150 R -1 26 R F
2455 7035 M -23 -8 R 3 64 R F
2455 7035 M -20 56 R 7 12 R F
2455 7035 M -13 68 R 5 14 R F
2455 7035 M -8 82 R 3 19 R F
2455 7035 M -5 101 R 2 23 R F
2455 7035 M -3 124 R 1 26 R F
2393 7078 M 12 -1 R 0 -52 R F
2405 7025 M 0 52 R 12 1 R F
2405 7025 M 12 53 R 15 -51 R F
2432 7027 M -15 51 R 10 5 R F
2432 7027 M -5 56 R 8 8 R F
2368 7102 M 7 -11 R 3 -64 R F
2378 7027 M -3 64 R 8 -8 R F
2378 7027 M 5 56 R 22 -58 R F
2405 7025 M -22 58 R 10 -5 R F
2357 7185 M 1 -27 R -2 -123 R F
2356 7035 M 2 123 R 2 -22 R F
2356 7035 M 4 101 R 18 -109 R F
2378 7027 M -18 109 R 3 -19 R F
2378 7027 M -15 90 R 5 -15 R F
2454 7335 M -2 -124 R -2 23 R F
2454 7335 M -4 -101 R -3 18 R F
2454 7335 M -7 -83 R -5 15 R F
2454 7335 M -12 -68 R -7 11 R F
2454 7335 M -19 -57 R -4 65 R F
2431 7343 M 4 -65 R -8 8 R F
2431 7343 M -4 -57 R -10 5 R F
2431 7343 M -14 -52 R -12 2 R F
2431 7343 M -26 -50 R 0 52 R F
2405 7293 M -12 -2 R 12 54 R F
2405 7345 M -12 -54 R -10 -5 R F
2405 7345 M -22 -59 R -5 57 R F
2378 7343 M 5 -57 R -8 -8 R F
2378 7343 M -3 -65 R -7 -11 R F
2368 7267 M -5 -14 R 15 90 R F
2378 7343 M -15 -90 R -3 -19 R F
2378 7343 M -18 -109 R -4 101 R F
2356 7335 M 4 -101 R -2 -23 R F
2356 7335 M 2 -124 R -1 -26 R F
2292 7185 M 2 38 R 0 -76 R F
2294 7147 M 0 76 R 5 32 R F
2294 7147 M 5 108 R 0 -140 R F
2299 7115 M 0 140 R 9 28 R F
2299 7115 M 9 168 R 0 -196 R F
2308 7087 M 0 196 R 12 22 R F
2308 7087 M 12 218 R 0 -240 R F
2320 7065 M 0 240 R 16 18 R F
2320 7065 M 16 258 R 0 -276 R F
2336 7047 M 0 276 R 20 12 R F
2336 7047 M 20 288 R 0 -300 R F
2356 7035 M 0 300 R 1 -150 R F
2627 7033 M -65 0 R 0 66 R F
2627 7033 M -65 66 R 65 0 R F
2897 7184 M -2 -37 R 0 75 R F
2895 7222 M 0 -75 R -5 -33 R F
2895 7222 M -5 -108 R 0 141 R F
2890 7255 M 0 -141 R -9 -27 R F
2890 7255 M -9 -168 R 0 195 R F
2881 7282 M 0 -195 R -12 -23 R F
2881 7282 M -12 -218 R 0 241 R F
2869 7305 M 0 -241 R -16 -17 R F
2869 7305 M -16 -258 R 0 275 R F
2853 7322 M 0 -275 R -19 -12 R F
2853 7322 M -19 -287 R 0 300 R F
2834 7335 M 0 -300 R -2 150 R F
2834 7335 M -2 -150 R 0 26 R F
2834 7035 M -23 -8 R 3 64 R F
2834 7035 M -20 56 R 7 12 R F
2834 7035 M -13 68 R 5 14 R F
2834 7035 M -8 82 R 4 19 R F
2834 7035 M -4 101 R 2 23 R F
2834 7035 M -2 124 R 0 26 R F
2773 7078 M 11 -1 R 0 -52 R F
2784 7025 M 0 52 R 12 1 R F
2784 7025 M 12 53 R 15 -51 R F
2811 7027 M -15 51 R 10 5 R F
2811 7027 M -5 56 R 8 8 R F
2748 7102 M 6 -11 R 4 -64 R F
2758 7027 M -4 64 R 9 -8 R F
2758 7027 M 5 56 R 21 -58 R F
2784 7025 M -21 58 R 10 -5 R F
2736 7185 M 1 -27 R -2 -123 R F
2735 7035 M 2 123 R 2 -22 R F
2735 7035 M 4 101 R 19 -109 R F
2758 7027 M -19 109 R 4 -19 R F
2758 7027 M -15 90 R 5 -15 R F
2834 7335 M -2 -124 R -2 23 R F
2834 7335 M -4 -101 R -4 18 R F
2834 7335 M -8 -83 R -5 15 R F
2834 7335 M -13 -68 R -7 11 R F
2834 7335 M -20 -57 R -3 65 R F
2811 7343 M 3 -65 R -8 8 R F
2811 7343 M -5 -57 R -10 5 R F
2811 7343 M -15 -52 R -12 2 R F
2811 7343 M -27 -50 R 0 52 R F
2784 7293 M -11 -2 R 11 54 R F
2784 7345 M -11 -54 R -10 -5 R F
2784 7345 M -21 -59 R -5 57 R F
2758 7343 M 5 -57 R -9 -8 R F
2758 7343 M -4 -65 R -6 -11 R F
2748 7267 M -5 -14 R 15 90 R F
2758 7343 M -15 -90 R -4 -19 R F
2758 7343 M -19 -109 R -4 101 R F
2735 7335 M 4 -101 R -2 -23 R F
2735 7335 M 2 -124 R -1 -26 R F
2672 7185 M 2 38 R 0 -76 R F
2674 7147 M 0 76 R 5 32 R F
2674 7147 M 5 108 R 0 -140 R F
2679 7115 M 0 140 R 9 28 R F
2679 7115 M 9 168 R 0 -196 R F
2688 7087 M 0 196 R 12 22 R F
2688 7087 M 12 218 R 0 -240 R F
2700 7065 M 0 240 R 16 18 R F
2700 7065 M 16 258 R 0 -276 R F
2716 7047 M 0 276 R 19 12 R F
2716 7047 M 19 288 R 0 -300 R F
2735 7035 M 0 300 R 1 -150 R F
3150 7184 M -2 -37 R 0 75 R F
3148 7222 M 0 -75 R -5 -33 R F
3148 7222 M -5 -108 R 0 141 R F
3143 7255 M 0 -141 R -9 -27 R F
3143 7255 M -9 -168 R 0 195 R F
3134 7282 M 0 -195 R -12 -23 R F
3134 7282 M -12 -218 R 0 241 R F
3122 7305 M 0 -241 R -16 -17 R F
3122 7305 M -16 -258 R 0 275 R F
3106 7322 M 0 -275 R -19 -12 R F
3106 7322 M -19 -287 R -1 300 R F
3086 7335 M 1 -300 R -2 150 R F
3086 7335 M -1 -150 R -1 26 R F
3087 7035 M -23 -8 R 3 64 R F
3087 7035 M -20 56 R 7 12 R F
3087 7035 M -13 68 R 5 14 R F
3087 7035 M -8 82 R 3 19 R F
3087 7035 M -5 101 R 2 23 R F
3087 7035 M -3 124 R 1 26 R F
3025 7078 M 12 -1 R 0 -52 R F
3037 7025 M 0 52 R 12 1 R F
3037 7025 M 12 53 R 15 -51 R F
3064 7027 M -15 51 R 10 5 R F
3064 7027 M -5 56 R 8 8 R F
3001 7102 M 6 -11 R 4 -64 R F
3011 7027 M -4 64 R 8 -8 R F
3011 7027 M 4 56 R 22 -58 R F
3037 7025 M -22 58 R 10 -5 R F
2989 7185 M 1 -27 R -2 -123 R F
2988 7035 M 2 123 R 2 -22 R F
2988 7035 M 4 101 R 19 -109 R F
3011 7027 M -19 109 R 4 -19 R F
3011 7027 M -15 90 R 5 -15 R F
3086 7335 M -2 -124 R -2 23 R F
3086 7335 M -4 -101 R -3 18 R F
3086 7335 M -7 -83 R -5 15 R F
3086 7335 M -12 -68 R -7 11 R F
3086 7335 M -19 -57 R -3 65 R F
3064 7343 M 3 -65 R -8 8 R F
3064 7343 M -5 -57 R -10 5 R F
3064 7343 M -15 -52 R -12 2 R F
3064 7343 M -27 -50 R 0 52 R F
3037 7293 M -12 -2 R 12 54 R F
3037 7345 M -12 -54 R -10 -5 R F
3037 7345 M -22 -59 R -4 57 R F
3011 7343 M 4 -57 R -8 -8 R F
3011 7343 M -4 -65 R -6 -11 R F
3001 7267 M -5 -14 R 15 90 R F
3011 7343 M -15 -90 R -4 -19 R F
3011 7343 M -19 -109 R -4 101 R F
2988 7335 M 4 -101 R -2 -23 R F
2988 7335 M 2 -124 R -1 -26 R F
2925 7185 M 1 38 R 0 -76 R F
2926 7147 M 0 76 R 6 32 R F
2926 7147 M 6 108 R 0 -140 R F
2932 7115 M 0 140 R 8 28 R F
2932 7115 M 8 168 R 0 -196 R F
2940 7087 M 0 196 R 13 22 R F
2940 7087 M 13 218 R 0 -240 R F
2953 7065 M 0 240 R 15 18 R F
2953 7065 M 15 258 R 0 -276 R F
2968 7047 M 0 276 R 20 12 R F
2968 7047 M 20 288 R 0 -300 R F
2988 7035 M 0 300 R 1 -150 R F
3330 9811 M 216 0 R D 2518 9751 M -2 -38 R 0 75 R F
2516 9788 M 0 -75 R -5 -32 R F
2516 9788 M -5 -107 R 0 140 R F
2511 9821 M 0 -140 R -9 -28 R F
2511 9821 M -9 -168 R 0 196 R F
2502 9849 M 0 -196 R -12 -22 R F
2502 9849 M -12 -218 R 0 240 R F
2490 9871 M 0 -240 R -16 -18 R F
2490 9871 M -16 -258 R 0 276 R F
2474 9889 M 0 -276 R -19 -12 R F
2474 9889 M -19 -288 R -1 300 R F
2454 9901 M 1 -300 R -2 150 R F
2454 9901 M -1 -150 R -1 26 R F
2455 9601 M -23 -7 R 3 64 R F
2455 9601 M -20 57 R 7 11 R F
2455 9601 M -13 68 R 5 15 R F
2455 9601 M -8 83 R 3 18 R F
2455 9601 M -5 101 R 2 23 R F
2455 9601 M -3 124 R 1 26 R F
2393 9645 M 12 -2 R 0 -52 R F
2405 9591 M 0 52 R 12 2 R F
2405 9591 M 12 54 R 15 -51 R F
2432 9594 M -15 51 R 10 4 R F
2432 9594 M -5 55 R 8 9 R F
2368 9669 M 7 -12 R 3 -63 R F
2378 9594 M -3 63 R 8 -8 R F
2378 9594 M 5 55 R 22 -58 R F
2405 9591 M -22 58 R 10 -4 R F
2357 9751 M 1 -26 R -2 -124 R F
2356 9601 M 2 124 R 2 -23 R F
2356 9601 M 4 101 R 18 -108 R F
2378 9594 M -18 108 R 3 -19 R F
2378 9594 M -15 89 R 5 -14 R F
2454 9901 M -2 -124 R -2 23 R F
2454 9901 M -4 -101 R -3 19 R F
2454 9901 M -7 -82 R -5 14 R F
2454 9901 M -12 -68 R -7 12 R F
2454 9901 M -19 -56 R -4 64 R F
2431 9909 M 4 -64 R -8 8 R F
2431 9909 M -4 -56 R -10 4 R F
2431 9909 M -14 -52 R -12 2 R F
2431 9909 M -26 -50 R 0 52 R F
2405 9859 M -12 -2 R 12 54 R F
2405 9911 M -12 -54 R -10 -4 R F
2405 9911 M -22 -58 R -5 56 R F
2378 9909 M 5 -56 R -8 -8 R F
2378 9909 M -3 -64 R -7 -11 R F
2368 9834 M -5 -15 R 15 90 R F
2378 9909 M -15 -90 R -3 -19 R F
2378 9909 M -18 -109 R -4 101 R F
2356 9901 M 4 -101 R -2 -22 R F
2356 9901 M 2 -123 R -1 -27 R F
2292 9751 M 2 38 R 0 -76 R F
2294 9713 M 0 76 R 5 32 R F
2294 9713 M 5 108 R 0 -140 R F
2299 9681 M 0 140 R 9 28 R F
2299 9681 M 9 168 R 0 -196 R F
2308 9653 M 0 196 R 12 22 R F
2308 9653 M 12 218 R 0 -240 R F
2320 9631 M 0 240 R 16 18 R F
2320 9631 M 16 258 R 0 -275 R F
2336 9614 M 0 275 R 20 12 R F
2336 9614 M 20 287 R 0 -300 R F
2356 9601 M 0 300 R 1 -150 R F
2627 9600 M -65 0 R 0 65 R F
2627 9600 M -65 65 R 65 0 R F
2897 9751 M -2 -38 R 0 75 R F
2895 9788 M 0 -75 R -5 -32 R F
2895 9788 M -5 -107 R 0 140 R F
2890 9821 M 0 -140 R -9 -28 R F
2890 9821 M -9 -168 R 0 196 R F
2881 9849 M 0 -196 R -12 -22 R F
2881 9849 M -12 -218 R 0 240 R F
2869 9871 M 0 -240 R -16 -18 R F
2869 9871 M -16 -258 R 0 276 R F
2853 9889 M 0 -276 R -19 -12 R F
2853 9889 M -19 -288 R 0 300 R F
2834 9901 M 0 -300 R -2 150 R F
2834 9901 M -2 -150 R 0 26 R F
2834 9601 M -23 -7 R 3 64 R F
2834 9601 M -20 57 R 7 11 R F
2834 9601 M -13 68 R 5 15 R F
2834 9601 M -8 83 R 4 18 R F
2834 9601 M -4 101 R 2 23 R F
2834 9601 M -2 124 R 0 26 R F
2773 9645 M 11 -2 R 0 -52 R F
2784 9591 M 0 52 R 12 2 R F
2784 9591 M 12 54 R 15 -51 R F
2811 9594 M -15 51 R 10 4 R F
2811 9594 M -5 55 R 8 9 R F
2748 9669 M 6 -12 R 4 -63 R F
2758 9594 M -4 63 R 9 -8 R F
2758 9594 M 5 55 R 21 -58 R F
2784 9591 M -21 58 R 10 -4 R F
2736 9751 M 1 -26 R -2 -124 R F
2735 9601 M 2 124 R 2 -23 R F
2735 9601 M 4 101 R 19 -108 R F
2758 9594 M -19 108 R 4 -19 R F
2758 9594 M -15 89 R 5 -14 R F
2834 9901 M -2 -124 R -2 23 R F
2834 9901 M -4 -101 R -4 19 R F
2834 9901 M -8 -82 R -5 14 R F
2834 9901 M -13 -68 R -7 12 R F
2834 9901 M -20 -56 R -3 64 R F
2811 9909 M 3 -64 R -8 8 R F
2811 9909 M -5 -56 R -10 4 R F
2811 9909 M -15 -52 R -12 2 R F
2811 9909 M -27 -50 R 0 52 R F
2784 9859 M -11 -2 R 11 54 R F
2784 9911 M -11 -54 R -10 -4 R F
2784 9911 M -21 -58 R -5 56 R F
2758 9909 M 5 -56 R -9 -8 R F
2758 9909 M -4 -64 R -6 -11 R F
2748 9834 M -5 -15 R 15 90 R F
2758 9909 M -15 -90 R -4 -19 R F
2758 9909 M -19 -109 R -4 101 R F
2735 9901 M 4 -101 R -2 -22 R F
2735 9901 M 2 -123 R -1 -27 R F
2672 9751 M 2 38 R 0 -76 R F
2674 9713 M 0 76 R 5 32 R F
2674 9713 M 5 108 R 0 -140 R F
2679 9681 M 0 140 R 9 28 R F
2679 9681 M 9 168 R 0 -196 R F
2688 9653 M 0 196 R 12 22 R F
2688 9653 M 12 218 R 0 -240 R F
2700 9631 M 0 240 R 16 18 R F
2700 9631 M 16 258 R 0 -275 R F
2716 9614 M 0 275 R 19 12 R F
2716 9614 M 19 287 R 0 -300 R F
2735 9601 M 0 300 R 1 -150 R F
3082 9600 M -61 0 R 4 286 R F
3082 9600 M -57 286 R 5 12 R F
3082 9600 M -52 298 R 2 13 R F
3082 9600 M -50 311 R 50 0 R F
3021 9813 M -75 0 R 5 43 R F
3021 9813 M -70 43 R 19 1 R F
3021 9813 M -51 44 R 16 3 R F
3021 9813 M -35 47 R 14 4 R F
3021 9813 M -21 51 R 10 5 R F
3021 9813 M -11 56 R 9 7 R F
3021 9813 M -2 63 R 6 10 R F
3021 9813 M 4 73 R -4 -286 R F
2951 9856 M -5 -43 R 0 43 R F
3330 12377 M 216 0 R D 2518 12159 M -2 -38 R 0 75 R F
2516 12196 M 0 -75 R -5 -33 R F
2516 12196 M -5 -108 R 0 141 R F
2511 12229 M 0 -141 R -9 -27 R F
2511 12229 M -9 -168 R 0 195 R F
2502 12256 M 0 -195 R -12 -22 R F
2502 12256 M -12 -217 R 0 240 R F
2490 12279 M 0 -240 R -16 -18 R F
2490 12279 M -16 -258 R 0 276 R F
2474 12297 M 0 -276 R -19 -12 R F
2474 12297 M -19 -288 R -1 300 R F
2454 12309 M 1 -300 R -2 150 R F
2454 12309 M -1 -150 R -1 26 R F
2455 12009 M -23 -8 R 3 64 R F
2455 12009 M -20 56 R 7 12 R F
2455 12009 M -13 68 R 5 15 R F
2455 12009 M -8 83 R 3 18 R F
2455 12009 M -5 101 R 2 23 R F
2455 12009 M -3 124 R 1 26 R F
2393 12052 M 12 -1 R 0 -52 R F
2405 11999 M 0 52 R 12 1 R F
2405 11999 M 12 53 R 15 -51 R F
2432 12001 M -15 51 R 10 5 R F
2432 12001 M -5 56 R 8 8 R F
2368 12076 M 7 -11 R 3 -64 R F
2378 12001 M -3 64 R 8 -8 R F
2378 12001 M 5 56 R 22 -58 R F
2405 11999 M -22 58 R 10 -5 R F
2357 12159 M 1 -26 R -2 -124 R F
2356 12009 M 2 124 R 2 -23 R F
2356 12009 M 4 101 R 18 -109 R F
2378 12001 M -18 109 R 3 -19 R F
2378 12001 M -15 90 R 5 -15 R F
2454 12309 M -2 -124 R -2 23 R F
2454 12309 M -4 -101 R -3 18 R F
2454 12309 M -7 -83 R -5 15 R F
2454 12309 M -12 -68 R -7 11 R F
2454 12309 M -19 -57 R -4 65 R F
2431 12317 M 4 -65 R -8 9 R F
2431 12317 M -4 -56 R -10 4 R F
2431 12317 M -14 -52 R -12 2 R F
2431 12317 M -26 -50 R 0 52 R F
2405 12267 M -12 -2 R 12 54 R F
2405 12319 M -12 -54 R -10 -4 R F
2405 12319 M -22 -58 R -5 56 R F
2378 12317 M 5 -56 R -8 -8 R F
2378 12317 M -3 -64 R -7 -12 R F
2368 12241 M -5 -14 R 15 90 R F
2378 12317 M -15 -90 R -3 -19 R F
2378 12317 M -18 -109 R -4 101 R F
2356 12309 M 4 -101 R -2 -23 R F
2356 12309 M 2 -124 R -1 -26 R F
2292 12159 M 2 38 R 0 -76 R F
2294 12121 M 0 76 R 5 32 R F
2294 12121 M 5 108 R 0 -140 R F
2299 12089 M 0 140 R 9 28 R F
2299 12089 M 9 168 R 0 -196 R F
2308 12061 M 0 196 R 12 22 R F
2308 12061 M 12 218 R 0 -240 R F
2320 12039 M 0 240 R 16 18 R F
2320 12039 M 16 258 R 0 -276 R F
2336 12021 M 0 276 R 20 12 R F
2336 12021 M 20 288 R 0 -300 R F
2356 12009 M 0 300 R 1 -150 R F
2627 12007 M -65 0 R 0 66 R F
2627 12007 M -65 66 R 65 0 R F
2897 12159 M -2 -38 R 0 75 R F
2895 12196 M 0 -75 R -5 -33 R F
2895 12196 M -5 -108 R 0 141 R F
2890 12229 M 0 -141 R -9 -27 R F
2890 12229 M -9 -168 R 0 195 R F
2881 12256 M 0 -195 R -12 -22 R F
2881 12256 M -12 -217 R 0 240 R F
2869 12279 M 0 -240 R -16 -18 R F
2869 12279 M -16 -258 R 0 276 R F
2853 12297 M 0 -276 R -19 -12 R F
2853 12297 M -19 -288 R 0 300 R F
2834 12309 M 0 -300 R -2 150 R F
2834 12309 M -2 -150 R 0 26 R F
2834 12009 M -23 -8 R 3 64 R F
2834 12009 M -20 56 R 7 12 R F
2834 12009 M -13 68 R 5 15 R F
2834 12009 M -8 83 R 4 18 R F
2834 12009 M -4 101 R 2 23 R F
2834 12009 M -2 124 R 0 26 R F
2773 12052 M 11 -1 R 0 -52 R F
2784 11999 M 0 52 R 12 1 R F
2784 11999 M 12 53 R 15 -51 R F
2811 12001 M -15 51 R 10 5 R F
2811 12001 M -5 56 R 8 8 R F
2748 12076 M 6 -11 R 4 -64 R F
2758 12001 M -4 64 R 9 -8 R F
2758 12001 M 5 56 R 21 -58 R F
2784 11999 M -21 58 R 10 -5 R F
2736 12159 M 1 -26 R -2 -124 R F
2735 12009 M 2 124 R 2 -23 R F
2735 12009 M 4 101 R 19 -109 R F
2758 12001 M -19 109 R 4 -19 R F
2758 12001 M -15 90 R 5 -15 R F
2834 12309 M -2 -124 R -2 23 R F
2834 12309 M -4 -101 R -4 18 R F
2834 12309 M -8 -83 R -5 15 R F
2834 12309 M -13 -68 R -7 11 R F
2834 12309 M -20 -57 R -3 65 R F
2811 12317 M 3 -65 R -8 9 R F
2811 12317 M -5 -56 R -10 4 R F
2811 12317 M -15 -52 R -12 2 R F
2811 12317 M -27 -50 R 0 52 R F
2784 12267 M -11 -2 R 11 54 R F
2784 12319 M -11 -54 R -10 -4 R F
2784 12319 M -21 -58 R -5 56 R F
2758 12317 M 5 -56 R -9 -8 R F
2758 12317 M -4 -64 R -6 -12 R F
2748 12241 M -5 -14 R 15 90 R F
2758 12317 M -15 -90 R -4 -19 R F
2758 12317 M -19 -109 R -4 101 R F
2735 12309 M 4 -101 R -2 -23 R F
2735 12309 M 2 -124 R -1 -26 R F
2672 12159 M 2 38 R 0 -76 R F
2674 12121 M 0 76 R 5 32 R F
2674 12121 M 5 108 R 0 -140 R F
2679 12089 M 0 140 R 9 28 R F
2679 12089 M 9 168 R 0 -196 R F
2688 12061 M 0 196 R 12 22 R F
2688 12061 M 12 218 R 0 -240 R F
2700 12039 M 0 240 R 16 18 R F
2700 12039 M 16 258 R 0 -276 R F
2716 12021 M 0 276 R 19 12 R F
2716 12021 M 19 288 R 0 -300 R F
2735 12009 M 0 300 R 1 -150 R F
2984 12208 M -57 0 R 1 25 R F
2984 12208 M -56 25 R 6 22 R F
2984 12208 M -50 47 R 9 19 R F
2984 12208 M -41 66 R 12 16 R F
2984 12208 M -29 82 R 16 13 R F
2984 12208 M -13 95 R 13 -93 R F
2998 12061 M 142 0 R 0 -54 R F
2998 12061 M 142 -54 R -201 71 R F
2998 12061 M -59 17 R 11 15 R F
2998 12061 M -48 32 R 13 15 R F
2998 12061 M -35 47 R 17 14 R F
2998 12061 M -18 61 R 21 15 R F
2998 12061 M 3 76 R 2 -69 R F
3140 12007 M -219 0 R 2 21 R F
3140 12007 M -217 21 R 3 18 R F
3140 12007 M -214 39 R 6 17 R F
3140 12007 M -208 56 R 7 15 R F
3143 12223 M -1 -15 R -1 36 R F
3141 12244 M 1 -36 R -3 -14 R F
3141 12244 M -2 -50 R -4 68 R F
3135 12262 M 4 -68 R -5 -13 R F
3135 12262 M -1 -81 R -6 -12 R F
3135 12262 M -7 -93 R -1 110 R F
3127 12279 M 1 -110 R -10 -12 R F
3127 12279 M -9 -122 R -4 136 R F
3114 12293 M 4 -136 R -12 -12 R F
3114 12293 M -8 -148 R -8 159 R F
3098 12304 M 8 -159 R -17 -14 R F
3098 12304 M -9 -173 R -9 182 R F
3080 12313 M 9 -182 R -10 91 R F
3080 12313 M -1 -91 R 0 10 R F
3079 12222 M 10 -91 R -13 74 R F
3076 12205 M 13 -74 R -19 -14 R F
3076 12205 M -6 -88 R -5 70 R F
3065 12187 M 5 -70 R -5 -3 R F
3065 12187 M 0 -73 R -6 -4 R F
3052 12106 M -8 -5 R 2 67 R F
3052 12106 M -6 62 R 19 19 R F
3052 12106 M 13 81 R -6 -77 R F
3026 12088 M -14 -11 R 3 69 R F
3026 12088 M -11 58 R 6 4 R F
3026 12088 M -5 62 R 25 18 R F
3026 12088 M 20 80 R -2 -67 R F
3012 12077 M -9 -9 R 2 72 R F
3012 12077 M -7 63 R 4 3 R F
3012 12077 M -3 66 R 6 3 R F
3080 12313 M -1 -81 R -3 9 R F
3080 12313 M -4 -72 R -4 7 R F
3080 12313 M -8 -65 R -5 7 R F
3080 12313 M -13 -58 R -7 5 R F
3080 12313 M -20 -53 R 0 58 R F
3060 12260 M -8 4 R 8 54 R F
3060 12318 M -8 -54 R -9 2 R F
3060 12318 M -17 -52 R -6 53 R F
3037 12319 M 6 -53 R -10 1 R F
3037 12319 M -4 -52 R -11 -1 R F
3012 12263 M -8 -4 R 8 58 R F
3012 12263 M 0 54 R 25 2 R F
3012 12263 M 25 56 R -15 -53 R F
3004 12259 M -7 -7 R 15 65 R F
3012 12317 M -15 -65 R -6 -8 R F
3012 12317 M -21 -73 R -1 68 R F
2990 12312 M 1 -68 R -4 -10 R F
2990 12312 M -3 -78 R -2 -11 R F
2984 12210 M -13 93 R 19 9 R F
2984 12210 M 6 102 R -5 -89 R F
3003 12068 M -2 69 R 4 3 R F
3330 2369 M 108 0 R D 3330 2625 M 108 0 R D 3330 2882 M 108 0 R D
3330 3139 M 108 0 R D 3330 3395 M 108 0 R D 3330 3652 M 108 0 R D
3330 3908 M 108 0 R D 3330 4165 M 108 0 R D 3330 4422 M 108 0 R D
3330 4935 M 108 0 R D 3330 5192 M 108 0 R D 3330 5448 M 108 0 R D
3330 5705 M 108 0 R D 3330 5961 M 108 0 R D 3330 6218 M 108 0 R D
3330 6475 M 108 0 R D 3330 6731 M 108 0 R D 3330 6988 M 108 0 R D
3330 7501 M 108 0 R D 3330 7758 M 108 0 R D 3330 8014 M 108 0 R D
3330 8271 M 108 0 R D 3330 8528 M 108 0 R D 3330 8784 M 108 0 R D
3330 9041 M 108 0 R D 3330 9298 M 108 0 R D 3330 9554 M 108 0 R D
3330 10067 M 108 0 R D 3330 10324 M 108 0 R D 3330 10581 M 108 0 R D
3330 10837 M 108 0 R D 3330 11094 M 108 0 R D 3330 11351 M 108 0 R D
3330 11607 M 108 0 R D 3330 11864 M 108 0 R D 3330 12120 M 108 0 R D
1724 7217 M 2 -13 R -60 1 R F
1724 7217 M -58 -12 R -5 4 R F
1724 7217 M -63 -8 R -6 3 R F
1724 7217 M -69 -5 R -7 2 R F
1724 7217 M -76 -3 R -8 0 R F
1724 7217 M -84 -3 R -76 33 R F
1724 7217 M -160 30 R 157 -19 R F
1726 7204 M 1 -15 R -54 4 R F
1726 7204 M -53 -11 R -3 6 R F
1726 7204 M -56 -5 R -4 6 R F
1727 7186 M 0 -3 R -53 2 R F
1727 7186 M -53 -1 R -1 8 R F
1727 7186 M -54 7 R 54 -4 R F
1675 7170 M 0 2 R 51 1 R F
1726 7173 M -51 -1 R 0 2 R F
1726 7173 M -51 1 R 52 2 R F
1727 7176 M -52 -2 R 0 3 R F
1727 7176 M -52 1 R 52 2 R F
1727 7179 M -52 -2 R -1 8 R F
1727 7179 M -53 6 R 53 -2 R F
1726 7169 M 0 -3 R -51 1 R F
1726 7169 M -51 -2 R 0 1 R F
1726 7169 M -51 -1 R 0 2 R F
1726 7169 M -51 1 R 51 3 R F
1726 7166 M -1 -4 R -51 1 R F
1726 7166 M -52 -3 R 0 2 R F
1726 7166 M -52 -1 R 1 2 R F
1394 7296 M 0 66 R 279 -97 R F
1394 7296 M 279 -31 R 14 -6 R F
1394 7296 M 293 -37 R 12 -6 R F
1394 7296 M 305 -43 R -135 -6 R F
1564 7247 M 135 6 R 10 -8 R F
1564 7247 M 145 -2 R 7 -7 R F
1564 7247 M 152 -9 R 5 -10 R F
1564 7247 M 76 -33 R -2 0 R F
1564 7247 M 74 -33 R -2 0 R F
1564 7247 M 72 -33 R -1 -1 R F
1564 7247 M 71 -34 R -2 0 R F
1564 7247 M 69 -34 R -239 -16 R F
1394 7197 M 239 16 R -239 -86 R F
1674 7163 M 51 -1 R -51 0 R F
14114 2112 M 0 10265 R D 14114 2112 M -216 0 R D 14114 4678 M -216 0 R D
14114 7245 M -216 0 R D 14114 9811 M -216 0 R D 14114 12377 M -216 0 R D
14114 2369 M -108 0 R D 14114 2625 M -108 0 R D 14114 2882 M -108 0 R D
14114 3139 M -108 0 R D 14114 3395 M -108 0 R D 14114 3652 M -108 0 R D
14114 3908 M -108 0 R D 14114 4165 M -108 0 R D 14114 4422 M -108 0 R D
14114 4935 M -108 0 R D 14114 5192 M -108 0 R D 14114 5448 M -108 0 R D
14114 5705 M -108 0 R D 14114 5961 M -108 0 R D 14114 6218 M -108 0 R D
14114 6475 M -108 0 R D 14114 6731 M -108 0 R D 14114 6988 M -108 0 R D
14114 7501 M -108 0 R D 14114 7758 M -108 0 R D 14114 8014 M -108 0 R D
14114 8271 M -108 0 R D 14114 8528 M -108 0 R D 14114 8784 M -108 0 R D
14114 9041 M -108 0 R D 14114 9298 M -108 0 R D 14114 9554 M -108 0 R D
14114 10067 M -108 0 R D 14114 10324 M -108 0 R D 14114 10581 M -108 0 R D
14114 10837 M -108 0 R D 14114 11094 M -108 0 R D 14114 11351 M -108 0 R D
14114 11607 M -108 0 R D 14114 11864 M -108 0 R D 14114 12120 M -108 0 R D
%%PageTrailer
end
restore
showpage
%%PageResources: font Helvetica
%%Trailer
restore
%%Pages: 1
%%DocumentNeededResources: font Helvetica
%%EOF
