%!PS-Adobe-3.0
%%BoundingBox: 91 288 519 502
%%Title: Graphics produced by IDL
%%For: yssu@archMini, /home/yssu/SURF2015/Summer/multi_band/testsigm/single
%%Creator: IDL Version 8.3 (linux x86_64 m64)
%%CreationDate: Thu Jul 30 10:35:35 2015
%%DocumentData: Clean7bit
%%Requirements: color
%%LanguageLevel: 2
%%PageOrder: Ascend
%%Pages: (atend)
%%DocumentNeededResources: (atend)
%%EndComments
%%BeginProlog
save
%+ prolog.ps -- Prolog for IDL generated PostScript files
%+ Copyright (c) 1988-2013 Exelis Visual Information Solutions, Inc. All Rights Reserved.
%v 5
/$IDL_DICT 40 dict def $IDL_DICT begin /bdef { bind def } bind def /C
{currentpoint newpath moveto} bdef /CP {currentpoint} bdef /D {currentpoint
stroke moveto} bdef /F {closepath fill} bdef /K { setgray } bdef /M {moveto}
bdef /N {rmoveto} bdef /P {lineto} bdef /R {rlineto} bdef /S {gsave show
grestore} bdef /X {currentpoint pop} bdef /Z {gsave currentpoint lineto 20
setlinewidth 1 setlinecap stroke grestore} bdef /L0 {[] 0 setdash} bdef /L1
{[40 100] 0 setdash} bdef /L2 {[200 200] 0 setdash} bdef /L3 {[200 100 50
100] 0 setdash} bdef /L4 {[300 100 50 100 50 100 50 100] 0 setdash} bdef /L5
{[400 200] 0 setdash} bdef /STDFONT { findfont exch scalefont setfont } bdef
/ISOFONT { findfont dup length dict begin { 1 index /FID ne {def} {pop pop}
ifelse } forall /Encoding ISOLatin1Encoding def currentdict end /idltmpfont
exch definefont exch scalefont setfont } bdef /ISOBULLET { gsave /Helvetica
findfont exch scalefont setfont (\267) show currentpoint grestore moveto}
bdef /MITERLIMIT { 2.5 setmiterlimit } bdef end
%%EndProlog
%%Page: 0 1
%%PageRequirements: color
%%PageResources: (atend)
%%PageOrientation: Portrait
%%PageBoundingBox: 91 288 519 502
%%BeginPageSetup
save
$IDL_DICT begin 91 288 translate 0.0283465 dup scale MITERLIMIT
%%IncludeResource: font Helvetica
423.333 /Helvetica STDFONT
%%EndPageSetup
10 setlinewidth L0 0.000 0.000 0.000 setrgbcolor 6026 7370 M -117 -307 R D
6026 7370 M 117 -307 R D 5953 7165 M 146 0 R D 6216 7268 M 0 -205 R D
6216 7209 M 44 44 R 29 15 R 44 0 R 29 -15 R 14 -44 R 0 -146 R D 6376 7209 M
44 44 R 29 15 R 44 0 R 30 -15 R 14 -44 R 0 -146 R D 6654 7268 M 0 -322 R D
6654 7224 M 29 29 R 29 15 R 44 0 R 29 -15 R 30 -29 R 14 -44 R 0 -29 R
-14 -44 R -30 -29 R -29 -15 R -44 0 R -29 15 R -29 29 R D 6931 7370 M
0 -307 R D 7034 7370 M 14 -15 R 15 15 R -15 15 R -14 -15 R D 7048 7268 M
0 -205 R D 7180 7370 M 0 -248 R 14 -44 R 30 -15 R 29 0 R D 7136 7268 M
102 0 R D 7340 7268 M 0 -146 R 15 -44 R 29 -15 R 44 0 R 29 15 R 44 44 R D
7501 7268 M 0 -205 R D 7779 7370 M 0 -307 R D 7779 7224 M -30 29 R -29 15 R
-44 0 R -29 -15 R -29 -29 R -15 -44 R 0 -29 R 15 -44 R 29 -29 R 29 -15 R
44 0 R 29 15 R 30 29 R D 7881 7180 M 175 0 R 0 29 R -15 30 R -14 14 R
-29 15 R -44 0 R -29 -15 R -30 -29 R -14 -44 R 0 -29 R 14 -44 R 30 -29 R
29 -15 R 44 0 R 29 15 R 29 29 R D 8377 7180 M 176 0 R 0 29 R -15 30 R
-15 14 R -29 15 R -44 0 R -29 -15 R -29 -29 R -15 -44 R 0 -29 R 15 -44 R
29 -29 R 29 -15 R 44 0 R 29 15 R 30 29 R D 8801 7224 M -15 29 R -43 15 R
-44 0 R -44 -15 R -15 -29 R 15 -29 R 29 -15 R 73 -15 R 29 -14 R 15 -29 R
0 -15 R -15 -29 R -43 -15 R -44 0 R -44 15 R -15 29 R D 8918 7370 M 0 -248 R
14 -44 R 30 -15 R 29 0 R D 8874 7268 M 102 0 R D 9064 7370 M 14 -15 R
15 15 R -15 15 R -14 -15 R D 9078 7268 M 0 -205 R D 9195 7268 M 0 -205 R D
9195 7209 M 44 44 R 29 15 R 44 0 R 29 -15 R 15 -44 R 0 -146 R D 9356 7209 M
44 44 R 29 15 R 44 0 R 29 -15 R 15 -44 R 0 -146 R D 9794 7268 M 0 -205 R D
9794 7224 M -29 29 R -29 15 R -44 0 R -29 -15 R -30 -29 R -14 -44 R 0 -29 R
14 -44 R 30 -29 R 29 -15 R 44 0 R 29 15 R 29 29 R D 9926 7370 M 0 -248 R
14 -44 R 29 -15 R 30 0 R D 9882 7268 M 102 0 R D 10145 7268 M -30 -15 R
-29 -29 R -14 -44 R 0 -29 R 14 -44 R 29 -29 R 30 -15 R 43 0 R 30 15 R
29 29 R 14 44 R 0 29 R -14 44 R -29 29 R -30 15 R -43 0 R D 10364 7268 M
0 -205 R D 10364 7180 M 14 44 R 30 29 R 29 15 R 44 0 R D 10700 7224 M
-15 29 R -44 15 R -44 0 R -43 -15 R -15 -29 R 15 -29 R 29 -15 R 73 -15 R
29 -14 R 15 -29 R 0 -15 R -15 -29 R -44 -15 R -44 0 R -43 15 R -15 29 R D
40 setlinewidth 2220 1408 M 12227 0 R D 2220 1408 M 0 109 R D
10 setlinewidth 1671 1125 M -35 -11 R -24 -35 R -11 -59 R 0 -35 R 11 -58 R
24 -35 R 35 -12 R 23 0 R 35 12 R 24 35 R 11 58 R 0 35 R -11 59 R -24 35 R
-35 11 R -23 0 R D 1858 903 M -12 -11 R 12 -12 R 12 12 R -12 11 R D
2103 1044 M -11 -35 R -24 -24 R -35 -11 R -12 0 R -35 11 R -23 24 R -12 35 R
0 11 R 12 35 R 23 24 R 35 11 R 12 0 R 35 -11 R 24 -24 R 11 -46 R 0 -59 R
-11 -58 R -24 -35 R -35 -12 R -23 0 R -35 12 R -12 23 R D 2337 1044 M
-12 -35 R -23 -24 R -35 -11 R -12 0 R -35 11 R -23 24 R -12 35 R 0 11 R
12 35 R 23 24 R 35 11 R 12 0 R 35 -11 R 23 -24 R 12 -46 R 0 -59 R -12 -58 R
-23 -35 R -35 -12 R -24 0 R -35 12 R -11 23 R D 2477 1125 M -35 -11 R
-12 -24 R 0 -23 R 12 -23 R 23 -12 R 47 -12 R 35 -11 R 24 -24 R 11 -23 R
0 -35 R -11 -24 R -12 -11 R -35 -12 R -47 0 R -35 12 R -12 11 R -11 24 R
0 35 R 11 23 R 24 24 R 35 11 R 47 12 R 23 12 R 12 23 R 0 23 R -12 24 R
-35 11 R -47 0 R D 2793 1125 M -117 0 R -12 -105 R 12 12 R 35 12 R 35 0 R
35 -12 R 23 -23 R 12 -35 R 0 -24 R -12 -35 R -23 -23 R -35 -12 R -35 0 R
-35 12 R -12 11 R -12 24 R D 40 setlinewidth 4258 1408 M 0 109 R D
10 setlinewidth 3709 1125 M -35 -11 R -24 -35 R -11 -59 R 0 -35 R 11 -58 R
24 -35 R 35 -12 R 23 0 R 35 12 R 24 35 R 11 58 R 0 35 R -11 59 R -24 35 R
-35 11 R -23 0 R D 3896 903 M -12 -11 R 12 -12 R 11 12 R -11 11 R D
4141 1044 M -12 -35 R -23 -24 R -35 -11 R -12 0 R -35 11 R -23 24 R -12 35 R
0 11 R 12 35 R 23 24 R 35 11 R 12 0 R 35 -11 R 23 -24 R 12 -46 R 0 -59 R
-12 -58 R -23 -35 R -35 -12 R -23 0 R -35 12 R -12 23 R D 4375 1044 M
-12 -35 R -23 -24 R -35 -11 R -12 0 R -35 11 R -23 24 R -12 35 R 0 11 R
12 35 R 23 24 R 35 11 R 12 0 R 35 -11 R 23 -24 R 12 -46 R 0 -59 R -12 -58 R
-23 -35 R -35 -12 R -24 0 R -35 12 R -11 23 R D 4608 1044 M -11 -35 R
-24 -24 R -35 -11 R -11 0 R -35 11 R -24 24 R -11 35 R 0 11 R 11 35 R
24 24 R 35 11 R 11 0 R 35 -11 R 24 -24 R 11 -46 R 0 -59 R -11 -58 R
-24 -35 R -35 -12 R -23 0 R -35 12 R -12 23 R D 4760 1125 M -35 -11 R
-23 -35 R -12 -59 R 0 -35 R 12 -58 R 23 -35 R 35 -12 R 24 0 R 35 12 R
23 35 R 12 58 R 0 35 R -12 59 R -23 35 R -35 11 R -24 0 R D 40 setlinewidth
6296 1408 M 0 109 R D 10 setlinewidth 5747 1125 M -35 -11 R -24 -35 R
-12 -59 R 0 -35 R 12 -58 R 24 -35 R 35 -12 R 23 0 R 35 12 R 23 35 R 12 58 R
0 35 R -12 59 R -23 35 R -35 11 R -23 0 R D 5934 903 M -12 -11 R 12 -12 R
11 12 R -11 11 R D 6179 1044 M -12 -35 R -23 -24 R -35 -11 R -12 0 R
-35 11 R -23 24 R -12 35 R 0 11 R 12 35 R 23 24 R 35 11 R 12 0 R 35 -11 R
23 -24 R 12 -46 R 0 -59 R -12 -58 R -23 -35 R -35 -12 R -24 0 R -35 12 R
-11 23 R D 6413 1044 M -12 -35 R -23 -24 R -36 -11 R -11 0 R -35 11 R
-24 24 R -11 35 R 0 11 R 11 35 R 24 24 R 35 11 R 11 0 R 36 -11 R 23 -24 R
12 -46 R 0 -59 R -12 -58 R -23 -35 R -36 -12 R -23 0 R -35 12 R -12 23 R D
6646 1044 M -11 -35 R -24 -24 R -35 -11 R -12 0 R -35 11 R -23 24 R -12 35 R
0 11 R 12 35 R 23 24 R 35 11 R 12 0 R 35 -11 R 24 -24 R 11 -46 R 0 -59 R
-11 -58 R -24 -35 R -35 -12 R -23 0 R -35 12 R -12 23 R D 6868 1125 M
-117 0 R -11 -105 R 11 12 R 35 12 R 36 0 R 35 -12 R 23 -23 R 12 -35 R
0 -24 R -12 -35 R -23 -23 R -35 -12 R -36 0 R -35 12 R -11 11 R -12 24 R D
40 setlinewidth 8334 1408 M 0 109 R D 10 setlinewidth 7749 1079 M 24 11 R
35 35 R 0 -245 R D 7971 903 M -11 -11 R 11 -12 R 12 12 R -12 11 R D
8135 1125 M -35 -11 R -23 -35 R -12 -59 R 0 -35 R 12 -58 R 23 -35 R 35 -12 R
23 0 R 35 12 R 24 35 R 11 58 R 0 35 R -11 59 R -24 35 R -35 11 R -23 0 R D
8369 1125 M -35 -11 R -24 -35 R -11 -59 R 0 -35 R 11 -58 R 24 -35 R 35 -12 R
23 0 R 35 12 R 23 35 R 12 58 R 0 35 R -12 59 R -23 35 R -35 11 R -23 0 R D
8602 1125 M -35 -11 R -23 -35 R -12 -59 R 0 -35 R 12 -58 R 23 -35 R 35 -12 R
24 0 R 35 12 R 23 35 R 12 58 R 0 35 R -12 59 R -23 35 R -35 11 R -24 0 R D
8836 1125 M -35 -11 R -23 -35 R -12 -59 R 0 -35 R 12 -58 R 23 -35 R 35 -12 R
23 0 R 35 12 R 24 35 R 11 58 R 0 35 R -11 59 R -24 35 R -35 11 R -23 0 R D
40 setlinewidth 10371 1408 M 0 109 R D 10 setlinewidth 9787 1079 M 24 11 R
35 35 R 0 -245 R D 10009 903 M -11 -11 R 11 -12 R 12 12 R -12 11 R D
10173 1125 M -35 -11 R -24 -35 R -11 -59 R 0 -35 R 11 -58 R 24 -35 R
35 -12 R 23 0 R 35 12 R 24 35 R 11 58 R 0 35 R -11 59 R -24 35 R -35 11 R
-23 0 R D 10406 1125 M -35 -11 R -23 -35 R -12 -59 R 0 -35 R 12 -58 R
23 -35 R 35 -12 R 24 0 R 35 12 R 23 35 R 12 58 R 0 35 R -12 59 R -23 35 R
-35 11 R -24 0 R D 10640 1125 M -35 -11 R -23 -35 R -12 -59 R 0 -35 R
12 -58 R 23 -35 R 35 -12 R 24 0 R 35 12 R 23 35 R 12 58 R 0 35 R -12 59 R
-23 35 R -35 11 R -24 0 R D 10944 1125 M -117 0 R -12 -105 R 12 12 R 35 12 R
35 0 R 35 -12 R 24 -23 R 11 -35 R 0 -24 R -11 -35 R -24 -23 R -35 -12 R
-35 0 R -35 12 R -12 11 R -11 24 R D 40 setlinewidth 12409 1408 M 0 109 R D
10 setlinewidth 11825 1079 M 23 11 R 35 35 R 0 -245 R D 12047 903 M
-12 -11 R 12 -12 R 12 12 R -12 11 R D 12211 1125 M -35 -11 R -24 -35 R
-11 -59 R 0 -35 R 11 -58 R 24 -35 R 35 -12 R 23 0 R 35 12 R 23 35 R 12 58 R
0 35 R -12 59 R -23 35 R -35 11 R -23 0 R D 12444 1125 M -35 -11 R -23 -35 R
-12 -59 R 0 -35 R 12 -58 R 23 -35 R 35 -12 R 24 0 R 35 12 R 23 35 R 12 58 R
0 35 R -12 59 R -23 35 R -35 11 R -24 0 R D 12643 1079 M 23 11 R 35 35 R
0 -245 R D 12912 1125 M -35 -11 R -24 -35 R -11 -59 R 0 -35 R 11 -58 R
24 -35 R 35 -12 R 23 0 R 35 12 R 23 35 R 12 58 R 0 35 R -12 59 R -23 35 R
-35 11 R -23 0 R D 40 setlinewidth 14447 1408 M 0 109 R D 10 setlinewidth
13863 1079 M 23 11 R 35 35 R 0 -245 R D 14085 903 M -12 -11 R 12 -12 R
12 12 R -12 11 R D 14248 1125 M -35 -11 R -23 -35 R -12 -59 R 0 -35 R
12 -58 R 23 -35 R 35 -12 R 24 0 R 35 12 R 23 35 R 12 58 R 0 35 R -12 59 R
-23 35 R -35 11 R -24 0 R D 14482 1125 M -35 -11 R -23 -35 R -12 -59 R
0 -35 R 12 -58 R 23 -35 R 35 -12 R 23 0 R 36 12 R 23 35 R 12 58 R 0 35 R
-12 59 R -23 35 R -36 11 R -23 0 R D 14681 1079 M 23 11 R 35 35 R 0 -245 R D
15020 1125 M -117 0 R -12 -105 R 12 12 R 35 12 R 35 0 R 35 -12 R 23 -23 R
12 -35 R 0 -24 R -12 -35 R -23 -23 R -35 -12 R -35 0 R -35 12 R -12 11 R
-12 24 R D 40 setlinewidth 2628 1408 M 0 54 R D 3035 1408 M 0 54 R D
3443 1408 M 0 54 R D 3850 1408 M 0 54 R D 4665 1408 M 0 54 R D 5073 1408 M
0 54 R D 5481 1408 M 0 54 R D 5888 1408 M 0 54 R D 6703 1408 M 0 54 R D
7111 1408 M 0 54 R D 7518 1408 M 0 54 R D 7926 1408 M 0 54 R D 8741 1408 M
0 54 R D 9149 1408 M 0 54 R D 9556 1408 M 0 54 R D 9964 1408 M 0 54 R D
10779 1408 M 0 54 R D 11187 1408 M 0 54 R D 11594 1408 M 0 54 R D
12002 1408 M 0 54 R D 12817 1408 M 0 54 R D 13224 1408 M 0 54 R D
13632 1408 M 0 54 R D 14040 1408 M 0 54 R D 10 setlinewidth 5979 668 M
-93 -246 R D 5979 668 M 94 -246 R D 5921 504 M 117 0 R D 6131 586 M 0 -164 R
D 6131 539 M 35 35 R 24 12 R 35 0 R 23 -12 R 12 -35 R 0 -117 R D 6260 539 M
35 35 R 23 12 R 35 0 R 23 -12 R 12 -35 R 0 -117 R D 6482 586 M 0 -257 R D
6482 551 M 23 23 R 23 12 R 35 0 R 24 -12 R 23 -23 R 12 -35 R 0 -23 R
-12 -36 R -23 -23 R -24 -12 R -35 0 R -23 12 R -23 23 R D 6704 668 M
0 -246 R D 6785 668 M 12 -12 R 12 12 R -12 11 R -12 -11 R D 6797 586 M
0 -164 R D 6902 668 M 0 -199 R 12 -35 R 23 -12 R 24 0 R D 6867 586 M 82 0 R
D 7031 586 M 0 -117 R 11 -35 R 24 -12 R 35 0 R 23 12 R 35 35 R D 7159 586 M
0 -164 R D 7381 668 M 0 -246 R D 7381 551 M -23 23 R -23 12 R -35 0 R
-24 -12 R -23 -23 R -12 -35 R 0 -23 R 12 -36 R 23 -23 R 24 -12 R 35 0 R
23 12 R 23 23 R D 7463 516 M 140 0 R 0 23 R -11 24 R -12 11 R -23 12 R
-35 0 R -24 -12 R -23 -23 R -12 -35 R 0 -23 R 12 -36 R 23 -23 R 24 -12 R
35 0 R 23 12 R 23 23 R D 7919 586 M -24 -12 R -23 -23 R -12 -35 R 0 -23 R
12 -36 R 23 -23 R 24 -12 R 35 0 R 23 12 R 24 23 R 11 36 R 0 23 R -11 35 R
-24 23 R -23 12 R -35 0 R D 8164 668 M -23 0 R -24 -12 R -11 -35 R 0 -199 R
D 8071 586 M 81 0 R D 8421 668 M 0 -246 R D 8421 551 M 24 23 R 23 12 R
35 0 R 23 -12 R 24 -23 R 11 -35 R 0 -23 R -11 -36 R -24 -23 R -23 -12 R
-35 0 R -23 12 R -24 23 R D 8632 516 M 140 0 R 0 23 R -12 24 R -12 11 R
-23 12 R -35 0 R -23 -12 R -24 -23 R -11 -35 R 0 -23 R 11 -36 R 24 -23 R
23 -12 R 35 0 R 23 12 R 24 23 R D 8982 586 M 0 -164 R D 8982 551 M -23 23 R
-24 12 R -35 0 R -23 -12 R -23 -23 R -12 -35 R 0 -23 R 12 -36 R 23 -23 R
23 -12 R 35 0 R 24 12 R 23 23 R D 9076 586 M 0 -164 R D 9076 539 M 35 35 R
23 12 R 35 0 R 23 -12 R 12 -35 R 0 -117 R D 9204 539 M 35 35 R 23 12 R
36 0 R 23 -12 R 12 -35 R 0 -117 R D 9695 715 M -24 -24 R -23 -35 R -23 -47 R
-12 -58 R 0 -47 R 12 -58 R 23 -59 R 23 -35 R 24 -23 R D 9777 586 M 0 -117 R
11 -35 R 24 -12 R 35 0 R 23 12 R 35 35 R D 9905 586 M 0 -164 R D 9999 586 M
0 -164 R D 9999 539 M 35 35 R 23 12 R 35 0 R 23 -12 R 12 -35 R 0 -117 R D
10209 668 M 12 -12 R 11 12 R -11 11 R -12 -11 R D 10221 586 M 0 -164 R D
10326 668 M 0 -199 R 11 -35 R 24 -12 R 23 0 R D 10291 586 M 81 0 R D
10571 551 M -12 23 R -35 12 R -35 0 R -35 -12 R -11 -23 R 11 -23 R 24 -12 R
58 -12 R 23 -11 R 12 -24 R 0 -12 R -12 -23 R -35 -12 R -35 0 R -35 12 R
-11 23 R D 10641 715 M 24 -24 R 23 -35 R 23 -47 R 12 -58 R 0 -47 R -12 -58 R
-23 -59 R -23 -35 R -24 -23 R D 40 setlinewidth 2220 6852 M 12227 0 R D
2220 6852 M 0 -109 R D 4258 6852 M 0 -109 R D 6296 6852 M 0 -109 R D
8334 6852 M 0 -109 R D 10371 6852 M 0 -109 R D 12409 6852 M 0 -109 R D
14447 6852 M 0 -109 R D 2628 6852 M 0 -54 R D 3035 6852 M 0 -54 R D
3443 6852 M 0 -54 R D 3850 6852 M 0 -54 R D 4665 6852 M 0 -54 R D
5073 6852 M 0 -54 R D 5481 6852 M 0 -54 R D 5888 6852 M 0 -54 R D
6703 6852 M 0 -54 R D 7111 6852 M 0 -54 R D 7518 6852 M 0 -54 R D
7926 6852 M 0 -54 R D 8741 6852 M 0 -54 R D 9149 6852 M 0 -54 R D
9556 6852 M 0 -54 R D 9964 6852 M 0 -54 R D 10779 6852 M 0 -54 R D
11187 6852 M 0 -54 R D 11594 6852 M 0 -54 R D 12002 6852 M 0 -54 R D
12817 6852 M 0 -54 R D 13224 6852 M 0 -54 R D 13632 6852 M 0 -54 R D
14040 6852 M 0 -54 R D 2220 1408 M 0 5444 R D 2220 1408 M 245 0 R D
10 setlinewidth 1969 1653 M -35 -11 R -24 -35 R -11 -59 R 0 -35 R 11 -58 R
24 -35 R 35 -12 R 23 0 R 35 12 R 24 35 R 11 58 R 0 35 R -11 59 R -24 35 R
-35 11 R -23 0 R D 40 setlinewidth 2220 2769 M 245 0 R D 10 setlinewidth
1443 2815 M 0 12 R 12 23 R 11 12 R 24 12 R 47 0 R 23 -12 R 12 -12 R 11 -23 R
0 -23 R -11 -24 R -24 -35 R -117 -117 R 164 0 R D 1735 2874 M -35 -12 R
-23 -35 R -12 -59 R 0 -35 R 12 -58 R 23 -35 R 35 -12 R 24 0 R 35 12 R
23 35 R 12 58 R 0 35 R -12 59 R -23 35 R -35 12 R -24 0 R D 1969 2874 M
-35 -12 R -24 -35 R -11 -59 R 0 -35 R 11 -58 R 24 -35 R 35 -12 R 23 0 R
35 12 R 24 35 R 11 58 R 0 35 R -11 59 R -24 35 R -35 12 R -23 0 R D
40 setlinewidth 2220 4130 M 245 0 R D 10 setlinewidth 1548 4235 M
-117 -164 R 176 0 R D 1548 4235 M 0 -246 R D 1735 4235 M -35 -12 R -23 -35 R
-12 -59 R 0 -35 R 12 -58 R 23 -35 R 35 -12 R 24 0 R 35 12 R 23 35 R 12 58 R
0 35 R -12 59 R -23 35 R -35 12 R -24 0 R D 1969 4235 M -35 -12 R -24 -35 R
-11 -59 R 0 -35 R 11 -58 R 24 -35 R 35 -12 R 23 0 R 35 12 R 24 35 R 11 58 R
0 35 R -11 59 R -24 35 R -35 12 R -23 0 R D 40 setlinewidth 2220 5491 M
245 0 R D 10 setlinewidth 1583 5561 M -11 23 R -35 12 R -24 0 R -35 -12 R
-23 -35 R -12 -59 R 0 -58 R 12 -47 R 23 -23 R 35 -12 R 12 0 R 35 12 R
23 23 R 12 35 R 0 12 R -12 35 R -23 23 R -35 12 R -12 0 R -35 -12 R
-23 -23 R -12 -35 R D 1735 5596 M -35 -12 R -23 -35 R -12 -59 R 0 -35 R
12 -58 R 23 -35 R 35 -12 R 24 0 R 35 12 R 23 35 R 12 58 R 0 35 R -12 59 R
-23 35 R -35 12 R -24 0 R D 1969 5596 M -35 -12 R -24 -35 R -11 -59 R
0 -35 R 11 -58 R 24 -35 R 35 -12 R 23 0 R 35 12 R 24 35 R 11 58 R 0 35 R
-11 59 R -24 35 R -35 12 R -23 0 R D 40 setlinewidth 2220 6852 M 245 0 R D
10 setlinewidth 1490 6851 M -35 -12 R -12 -23 R 0 -23 R 12 -24 R 23 -11 R
47 -12 R 35 -12 R 23 -23 R 12 -24 R 0 -35 R -12 -23 R -11 -12 R -35 -11 R
-47 0 R -35 11 R -12 12 R -12 23 R 0 35 R 12 24 R 23 23 R 35 12 R 47 12 R
24 11 R 11 24 R 0 23 R -11 23 R -35 12 R -47 0 R D 1735 6851 M -35 -12 R
-23 -35 R -12 -58 R 0 -35 R 12 -59 R 23 -35 R 35 -11 R 24 0 R 35 11 R
23 35 R 12 59 R 0 35 R -12 58 R -23 35 R -35 12 R -24 0 R D 1969 6851 M
-35 -12 R -24 -35 R -11 -58 R 0 -35 R 11 -59 R 24 -35 R 35 -11 R 23 0 R
35 11 R 24 35 R 11 59 R 0 35 R -11 58 R -24 35 R -35 12 R -23 0 R D
40 setlinewidth 2220 1748 M 122 0 R D 2220 2089 M 122 0 R D 2220 2429 M
122 0 R D 2220 3109 M 122 0 R D 2220 3450 M 122 0 R D 2220 3790 M 122 0 R D
2220 4470 M 122 0 R D 2220 4811 M 122 0 R D 2220 5151 M 122 0 R D
2220 5831 M 122 0 R D 2220 6172 M 122 0 R D 2220 6512 M 122 0 R D
14447 1408 M 0 5444 R D 14447 1408 M -244 0 R D 14447 2769 M -244 0 R D
14447 4130 M -244 0 R D 14447 5491 M -244 0 R D 14447 6852 M -244 0 R D
14447 1748 M -122 0 R D 14447 2089 M -122 0 R D 14447 2429 M -122 0 R D
14447 3109 M -122 0 R D 14447 3450 M -122 0 R D 14447 3790 M -122 0 R D
14447 4470 M -122 0 R D 14447 4811 M -122 0 R D 14447 5151 M -122 0 R D
14447 5831 M -122 0 R D 14447 6172 M -122 0 R D 14447 6512 M -122 0 R D
2834 1415 M 22 0 R 0 -7 R 22 0 R 22 0 R 22 0 R 21 0 R 22 0 R 22 0 R 22 0 R
22 0 R 22 0 R 22 0 R 21 0 R 22 0 R 22 0 R 22 0 R 0 20 R 22 0 R 22 0 R
0 -20 R 22 0 R 21 0 R 22 0 R 22 0 R 22 0 R 22 0 R 22 0 R 21 0 R 22 0 R
22 0 R 0 14 R 22 0 R 22 0 R 0 -14 R 22 0 R 22 0 R 0 7 R 21 0 R 22 0 R 22 0 R
22 0 R 0 7 R 22 0 R 22 0 R 0 -7 R 22 0 R 21 0 R 0 -7 R 22 0 R 22 0 R 0 20 R
22 0 R 22 0 R 0 7 R 22 0 R 22 0 R 21 0 R 22 0 R 22 0 R 22 0 R 0 -27 R 22 0 R
22 0 R 0 14 R 22 0 R 21 0 R 0 6 R 22 0 R 22 0 R 0 -6 R 22 0 R 22 0 R 0 -7 R
22 0 R 22 0 R 0 27 R 21 0 R 22 0 R 0 14 R 22 0 R 22 0 R 0 -28 R 22 0 R
22 0 R 0 7 R 22 0 R 21 0 R 0 21 R 22 0 R 22 0 R 0 13 R 22 0 R 22 0 R 22 0 R
22 0 R 0 7 R 21 0 R 22 0 R 0 -34 R 22 0 R 22 0 R 0 48 R 22 0 R 22 0 R
0 -14 R 22 0 R 21 0 R 0 -7 R 22 0 R 22 0 R 0 48 R 22 0 R 22 0 R 0 20 R
22 0 R 21 0 R 0 -40 R 22 0 R 22 0 R 0 40 R 22 0 R 22 0 R 0 -34 R 22 0 R
22 0 R 0 41 R 21 0 R 22 0 R 0 61 R 22 0 R 22 0 R 0 -54 R 22 0 R 22 0 R
0 68 R 22 0 R 21 0 R 0 -14 R 22 0 R 22 0 R 0 28 R 22 0 R 22 0 R 0 68 R
22 0 R 22 0 R 0 -7 R 21 0 R 22 0 R 0 -48 R 22 0 R 22 0 R 0 48 R 22 0 R
22 0 R 0 88 R 22 0 R 21 0 R 0 21 R 22 0 R 22 0 R 0 -7 R 22 0 R 22 0 R 0 27 R
22 0 R 22 0 R 0 41 R 21 0 R 22 0 R 0 -14 R 22 0 R 22 0 R 0 198 R 22 0 R
22 0 R 0 -62 R 22 0 R 21 0 R 0 55 R 22 0 R 22 0 R 0 -27 R 22 0 R 22 0 R
0 129 R 22 0 R 22 0 R 0 48 R 21 0 R 22 0 R 0 -34 R 22 0 R 22 0 R 0 177 R
22 0 R 22 0 R 0 -103 R 22 0 R 21 0 R 0 123 R 22 0 R 22 0 R 0 7 R 22 0 R
22 0 R 0 54 R 22 0 R 22 0 R 0 41 R 21 0 R 22 0 R 0 136 R 22 0 R 22 0 R
0 -68 R 22 0 R 22 0 R 0 340 R 21 0 R 22 0 R 0 -27 R 22 0 R 22 0 R 0 75 R
22 0 R 22 0 R 0 75 R 22 0 R 21 0 R 0 115 R 22 0 R 22 0 R 0 -40 R 22 0 R
22 0 R 0 129 R 22 0 R 22 0 R 0 197 R 21 0 R 22 0 R 0 -68 R 22 0 R 22 0 R
0 150 R 22 0 R 22 0 R 0 88 R 22 0 R 21 0 R 0 48 R 22 0 R 22 0 R 0 75 R
22 0 R 22 0 R 0 7 R 22 0 R 22 0 R 0 320 R 21 0 R 22 0 R 0 122 R 22 0 R
22 0 R 0 -41 R 22 0 R 22 0 R 0 143 R 22 0 R 21 0 R 0 116 R 22 0 R 22 0 R
0 -68 R 22 0 R 22 0 R 0 374 R 22 0 R 22 0 R 0 14 R 21 0 R 22 0 R 0 -96 R
22 0 R 22 0 R 0 177 R 22 0 R 22 0 R 0 225 R 22 0 R 21 0 R 0 7 R 22 0 R
22 0 R 0 -14 R 22 0 R 22 0 R 0 157 R 22 0 R 22 0 R 0 -143 R 21 0 R 22 0 R
0 360 R 22 0 R 22 0 R 0 245 R 22 0 R 22 0 R 0 -435 R 21 0 R 22 0 R 0 102 R
22 0 R 22 0 R 0 231 R 22 0 R 22 0 R 0 293 R 22 0 R 21 0 R 0 -102 R 22 0 R
22 0 R 0 -232 R 22 0 R 22 0 R 0 205 R 22 0 R 22 0 R 0 47 R 21 0 R 22 0 R
0 422 R 22 0 R 22 0 R 0 -490 R 22 0 R 22 0 R 0 129 R 22 0 R 21 0 R 0 150 R
22 0 R 22 0 R 22 0 R 22 0 R 0 -109 R 22 0 R 22 0 R 0 -204 R 21 0 R 22 0 R
0 640 R 22 0 R 22 0 R 0 -688 R 22 0 R 22 0 R 0 756 R 22 0 R 21 0 R 0 -361 R
22 0 R 22 0 R 0 48 R 22 0 R 22 0 R 0 -136 R 22 0 R 22 0 R 0 245 R 21 0 R
22 0 R 0 -89 R 22 0 R 22 0 R 0 -27 R 22 0 R 22 0 R 0 7 R 22 0 R 21 0 R
0 -340 R 22 0 R 22 0 R 0 -320 R 22 0 R 22 0 R 0 360 R 22 0 R 22 0 R 0 -143 R
21 0 R 22 0 R 0 -102 R 22 0 R 22 0 R 0 239 R 22 0 R 22 0 R 0 -443 R 21 0 R
22 0 R 0 538 R 22 0 R 22 0 R 0 -633 R 22 0 R 22 0 R 0 286 R 22 0 R 21 0 R
0 -626 R 22 0 R 22 0 R 0 7 R 22 0 R 22 0 R 0 299 R 22 0 R 22 0 R 0 225 R
21 0 R 22 0 R 0 -477 R 22 0 R 22 0 R 0 -13 R 22 0 R 22 0 R 0 -41 R 22 0 R
21 0 R 0 -157 R 22 0 R 22 0 R 0 143 R 22 0 R 22 0 R 0 -660 R 22 0 R 22 0 R
0 313 R 21 0 R 22 0 R 0 34 R 22 0 R 22 0 R 0 -374 R 22 0 R 22 0 R 0 -129 R
22 0 R 21 0 R 0 129 R 22 0 R 22 0 R 0 -293 R 22 0 R 22 0 R 0 -136 R 22 0 R
22 0 R 0 34 R 21 0 R 22 0 R 0 -116 R 22 0 R 22 0 R 0 -251 R 22 0 R 22 0 R
0 -89 R 22 0 R 21 0 R 0 -7 R 22 0 R 22 0 R 22 0 R 22 0 R 0 -115 R 22 0 R
22 0 R 0 27 R 21 0 R 22 0 R 0 -129 R 22 0 R 22 0 R 0 -313 R 22 0 R 22 0 R
0 47 R 22 0 R 21 0 R 0 -136 R 22 0 R 22 0 R 0 -129 R 22 0 R 22 0 R 0 102 R
22 0 R 21 0 R 0 -204 R 22 0 R 22 0 R 0 122 R 22 0 R 22 0 R 0 -95 R 22 0 R
22 0 R 0 -88 R 21 0 R 22 0 R 0 -21 R 22 0 R 22 0 R 0 -54 R 22 0 R 22 0 R
0 13 R 22 0 R 21 0 R 0 -129 R 22 0 R 22 0 R 0 -75 R 22 0 R 22 0 R 0 -20 R
22 0 R 22 0 R 0 95 R 21 0 R 22 0 R 0 -95 R 22 0 R 22 0 R 0 61 R 22 0 R
22 0 R 0 -238 R 22 0 R 21 0 R 0 109 R 22 0 R 22 0 R 0 -130 R 22 0 R 22 0 R
0 -129 R 22 0 R 22 0 R 0 136 R 21 0 R 22 0 R 0 -81 R 22 0 R 22 0 R 0 47 R
22 0 R 22 0 R 0 -61 R 22 0 R 21 0 R 0 -48 R 22 0 R 22 0 R 0 -68 R 22 0 R
22 0 R 0 61 R 22 0 R 22 0 R 0 -102 R 21 0 R 22 0 R 0 -20 R 22 0 R 22 0 R
22 0 R 22 0 R 22 0 R 21 0 R 0 -34 R 22 0 R 22 0 R 0 48 R 22 0 R 22 0 R
0 -55 R 22 0 R 21 0 R 0 -47 R 22 0 R 22 0 R 0 40 R 22 0 R 22 0 R 0 -20 R
22 0 R 22 0 R 0 -14 R 21 0 R 22 0 R 0 -13 R 22 0 R 22 0 R 0 27 R 22 0 R
22 0 R 0 -14 R 22 0 R 21 0 R 0 -68 R 22 0 R 22 0 R 0 62 R 22 0 R 22 0 R
0 -48 R 22 0 R 22 0 R 21 0 R 22 0 R 0 13 R 22 0 R 22 0 R 0 -13 R 22 0 R
22 0 R 0 -27 R 22 0 R 21 0 R 0 27 R 22 0 R 22 0 R 0 -21 R 22 0 R 22 0 R
0 -13 R 22 0 R 22 0 R 0 20 R 21 0 R 22 0 R 0 -13 R 22 0 R 22 0 R 0 6 R
22 0 R 22 0 R 22 0 R 21 0 R 0 -20 R 22 0 R 22 0 R 0 20 R 22 0 R 22 0 R
0 -6 R 22 0 R 22 0 R 0 -7 R 21 0 R 22 0 R 0 -7 R 22 0 R 22 0 R 22 0 R 22 0 R
0 7 R 22 0 R 21 0 R 22 0 R 22 0 R 22 0 R 22 0 R 0 13 R 22 0 R 22 0 R 0 -20 R
21 0 R 22 0 R 22 0 R 22 0 R 0 14 R 22 0 R 22 0 R 0 -14 R 21 0 R 22 0 R
22 0 R 22 0 R 22 0 R 22 0 R 22 0 R 21 0 R 0 14 R 22 0 R 22 0 R 0 -14 R
22 0 R 22 0 R 22 0 R 22 0 R 21 0 R 22 0 R 0 7 R 22 0 R 22 0 R 0 -7 R 22 0 R
22 0 R 0 7 R 22 0 R D 60 setlinewidth 1.000 0.000 0.000 setrgbcolor
2834 1409 M 44 0 R 44 0 R 43 0 R 44 0 R 44 1 R 43 0 R 44 0 R 44 0 R 44 1 R
43 0 R 44 0 R 44 1 R 43 0 R 44 1 R 44 1 R 43 0 R 44 1 R 44 1 R 44 1 R 43 1 R
44 2 R 44 1 R 43 2 R 44 1 R 44 2 R 44 2 R 43 3 R 44 2 R 44 3 R 43 3 R 44 3 R
44 4 R 44 4 R 43 5 R 44 5 R 44 5 R 43 6 R 44 6 R 44 7 R 44 8 R 43 8 R 44 9 R
44 10 R 43 10 R 44 11 R 44 13 R 43 13 R 44 14 R 44 15 R 44 16 R 43 18 R
44 18 R 44 20 R 43 22 R 44 22 R 44 24 R 44 26 R 43 28 R 44 29 R 44 30 R
43 33 R 44 34 R 44 37 R 44 38 R 43 40 R 44 42 R 44 45 R 43 46 R 44 49 R
44 51 R 44 53 R 43 55 R 44 58 R 44 60 R 43 62 R 44 64 R 44 67 R 43 68 R
44 71 R 44 73 R 44 75 R 43 77 R 44 79 R 44 81 R 43 82 R 44 84 R 44 86 R
44 87 R 43 88 R 44 89 R 44 90 R 43 91 R 44 91 R 44 92 R 44 92 R 43 92 R
44 92 R 44 91 R 43 91 R 44 90 R 44 89 R 44 87 R 43 86 R 44 85 R 44 82 R
43 80 R 44 77 R 44 75 R 43 72 R 44 69 R 44 65 R 44 62 R 43 59 R 44 54 R
44 50 R 43 46 R 44 42 R 44 37 R 44 33 R 43 27 R 44 23 R 44 19 R 43 13 R
44 8 R 44 3 R 44 -2 R 43 -7 R 44 -12 R 44 -17 R 43 -22 R 44 -27 R 44 -31 R
44 -36 R 43 -41 R 44 -45 R 44 -49 R 43 -54 R 44 -57 R 44 -61 R 43 -65 R
44 -68 R 44 -71 R 44 -74 R 43 -77 R 44 -80 R 44 -81 R 43 -84 R 44 -86 R
44 -87 R 44 -88 R 43 -90 R 44 -91 R 44 -91 R 43 -92 R 44 -92 R 44 -92 R
44 -92 R 43 -91 R 44 -91 R 44 -91 R 43 -89 R 44 -88 R 44 -87 R 44 -86 R
43 -85 R 44 -82 R 44 -82 R 43 -79 R 44 -77 R 44 -76 R 44 -73 R 43 -72 R
44 -69 R 44 -67 R 43 -65 R 44 -62 R 44 -61 R 43 -58 R 44 -55 R 44 -54 R
44 -52 R 43 -49 R 44 -47 R 44 -45 R 43 -42 R 44 -41 R 44 -39 R 44 -37 R
43 -34 R 44 -33 R 44 -31 R 43 -30 R 44 -28 R 44 -26 R 44 -24 R 43 -23 R
44 -22 R 44 -20 R 43 -19 R 44 -18 R 44 -16 R 44 -16 R 43 -14 R 44 -14 R
44 -12 R 43 -11 R 44 -11 R 44 -10 R 43 -9 R 44 -8 R 44 -8 R 44 -7 R 43 -7 R
44 -6 R 44 -5 R 43 -5 R 44 -5 R 44 -4 R 44 -4 R 43 -3 R 44 -3 R 44 -3 R
43 -3 R 44 -2 R 44 -2 R 44 -2 R 43 -2 R 44 -2 R 44 -1 R 43 -1 R 44 -2 R
44 -1 R 44 -1 R 43 0 R 44 -1 R 44 -1 R 43 0 R 44 -1 R 44 0 R 43 -1 R 44 0 R
44 -1 R 44 0 R 43 0 R 44 0 R 44 -1 R 43 0 R 44 0 R 44 0 R 44 0 R D
10 setlinewidth 0.000 0.000 0.000 setrgbcolor 2866 6471 M 0 -163 R D
2866 6424 M 36 36 R 23 11 R 35 0 R 23 -11 R 12 -36 R 0 -116 R D 2995 6424 M
35 36 R 23 11 R 35 0 R 24 -11 R 12 -36 R 0 -116 R D 3205 6401 M 141 0 R
0 23 R -12 24 R -12 12 R -23 11 R -35 0 R -24 -11 R -23 -24 R -12 -35 R
0 -23 R 12 -35 R 23 -24 R 24 -11 R 35 0 R 23 11 R 24 24 R D 3556 6471 M
0 -163 R D 3556 6436 M -24 24 R -23 11 R -35 0 R -23 -11 R -24 -24 R
-11 -35 R 0 -23 R 11 -35 R 24 -24 R 23 -11 R 35 0 R 23 11 R 24 24 R D
3649 6471 M 0 -163 R D 3649 6424 M 35 36 R 24 11 R 35 0 R 23 -11 R 12 -36 R
0 -116 R D 4058 6448 M 211 0 R D 4058 6378 M 211 0 R D 4794 6553 M -35 -12 R
-23 -35 R -12 -58 R 0 -35 R 12 -59 R 23 -35 R 35 -11 R 24 0 R 35 11 R
23 35 R 12 59 R 0 35 R -12 58 R -23 35 R -35 12 R -24 0 R D 4981 6331 M
-11 -12 R 11 -11 R 12 11 R -12 12 R D 5227 6471 M -12 -35 R -23 -23 R
-35 -12 R -12 0 R -35 12 R -24 23 R -11 35 R 0 12 R 11 35 R 24 23 R 35 12 R
12 0 R 35 -12 R 23 -23 R 12 -47 R 0 -58 R -12 -59 R -23 -35 R -35 -11 R
-24 0 R -35 11 R -12 24 R D 5460 6471 M -11 -35 R -24 -23 R -35 -12 R
-11 0 R -35 12 R -24 23 R -12 35 R 0 12 R 12 35 R 24 23 R 35 12 R 11 0 R
35 -12 R 24 -23 R 11 -47 R 0 -58 R -11 -59 R -24 -35 R -35 -11 R -23 0 R
-35 11 R -12 24 R D 5694 6471 M -12 -35 R -23 -23 R -35 -12 R -12 0 R
-35 12 R -23 23 R -12 35 R 0 12 R 12 35 R 23 23 R 35 12 R 12 0 R 35 -12 R
23 -23 R 12 -47 R 0 -58 R -12 -59 R -23 -35 R -35 -11 R -23 0 R -35 11 R
-12 24 R D 5928 6471 M -12 -35 R -23 -23 R -35 -12 R -12 0 R -35 12 R
-23 23 R -12 35 R 0 12 R 12 35 R 23 23 R 35 12 R 12 0 R 35 -12 R 23 -23 R
12 -47 R 0 -58 R -12 -59 R -23 -35 R -35 -11 R -24 0 R -35 11 R -11 24 R D
6161 6471 M -11 -35 R -24 -23 R -35 -12 R -11 0 R -35 12 R -24 23 R -11 35 R
0 12 R 11 35 R 24 23 R 35 12 R 11 0 R 35 -12 R 24 -23 R 11 -47 R 0 -58 R
-11 -59 R -24 -35 R -35 -11 R -23 0 R -35 11 R -12 24 R D 2866 6119 M
0 -163 R D 2866 6049 M 12 35 R 24 24 R 23 11 R 35 0 R D 3018 6119 M 0 -163 R
D 3018 6072 M 35 36 R 24 11 R 35 0 R 23 -11 R 12 -36 R 0 -116 R D
3147 6072 M 35 36 R 23 11 R 35 0 R 24 -11 R 11 -36 R 0 -116 R D 3486 6084 M
-12 24 R -35 11 R -35 0 R -35 -11 R -12 -24 R 12 -23 R 23 -12 R 59 -12 R
23 -11 R 12 -24 R 0 -11 R -12 -24 R -35 -11 R -35 0 R -35 11 R -12 24 R D
3754 6096 M 211 0 R D 3754 6026 M 211 0 R D 4304 6201 M -35 -12 R -24 -35 R
-11 -58 R 0 -35 R 11 -59 R 24 -35 R 35 -11 R 23 0 R 35 11 R 23 35 R 12 59 R
0 35 R -12 58 R -23 35 R -35 12 R -23 0 R D 4491 5979 M -12 -12 R 12 -11 R
11 11 R -11 12 R D 4654 6201 M -35 -12 R -23 -35 R -12 -58 R 0 -35 R
12 -59 R 23 -35 R 35 -11 R 24 0 R 35 11 R 23 35 R 12 59 R 0 35 R -12 58 R
-23 35 R -35 12 R -24 0 R D 4888 6201 M -35 -12 R -24 -35 R -11 -58 R
0 -35 R 11 -59 R 24 -35 R 35 -11 R 23 0 R 35 11 R 24 35 R 11 59 R 0 35 R
-11 58 R -24 35 R -35 12 R -23 0 R D 5122 6201 M -36 -12 R -23 -35 R
-12 -58 R 0 -35 R 12 -59 R 23 -35 R 36 -11 R 23 0 R 35 11 R 23 35 R 12 59 R
0 35 R -12 58 R -23 35 R -35 12 R -23 0 R D 5308 6201 M 129 0 R -70 -93 R
35 0 R 23 -12 R 12 -12 R 12 -35 R 0 -23 R -12 -35 R -23 -24 R -35 -11 R
-35 0 R -36 11 R -11 12 R -12 23 R D 5530 6143 M 0 11 R 12 24 R 12 11 R
23 12 R 47 0 R 23 -12 R 12 -11 R 12 -24 R 0 -23 R -12 -23 R -23 -36 R
-117 -116 R 163 0 R D 5776 6201 M 128 0 R -70 -93 R 35 0 R 24 -12 R 11 -12 R
12 -35 R 0 -23 R -12 -35 R -23 -24 R -35 -11 R -35 0 R -35 11 R -12 12 R
-12 23 R D 2878 5849 M 0 -199 R 12 -35 R 23 -11 R 24 0 R D 2843 5767 M
82 0 R D 3007 5849 M 0 -245 R D 3007 5720 M 35 36 R 23 11 R 35 0 R 24 -11 R
11 -36 R 0 -116 R D 3217 5697 M 140 0 R 0 23 R -11 24 R -12 12 R -24 11 R
-35 0 R -23 -11 R -23 -24 R -12 -35 R 0 -23 R 12 -35 R 23 -24 R 23 -11 R
35 0 R 24 11 R 23 24 R D 3486 5767 M -24 -11 R -23 -24 R -12 -35 R 0 -23 R
12 -35 R 23 -24 R 24 -11 R 35 0 R 23 11 R 24 24 R 11 35 R 0 23 R -11 35 R
-24 24 R -23 11 R -35 0 R D 3661 5767 M 0 -163 R D 3661 5697 M 12 35 R
23 24 R 23 11 R 35 0 R D 3790 5767 M 70 -163 R 70 163 R D 3860 5604 M
-24 -59 R -23 -23 R -23 -12 R -12 0 R D 4187 5744 M 210 0 R D 4187 5674 M
210 0 R D 4736 5849 M -35 -12 R -23 -35 R -12 -58 R 0 -35 R 12 -59 R
23 -35 R 35 -11 R 23 0 R 35 11 R 24 35 R 11 59 R 0 35 R -11 58 R -24 35 R
-35 12 R -23 0 R D 4923 5627 M -12 -12 R 12 -11 R 12 11 R -12 12 R D
5086 5849 M -35 -12 R -23 -35 R -12 -58 R 0 -35 R 12 -59 R 23 -35 R 35 -11 R
24 0 R 35 11 R 23 35 R 12 59 R 0 35 R -12 58 R -23 35 R -35 12 R -24 0 R D
5320 5849 M -35 -12 R -23 -35 R -12 -58 R 0 -35 R 12 -59 R 23 -35 R 35 -11 R
24 0 R 35 11 R 23 35 R 12 59 R 0 35 R -12 58 R -23 35 R -35 12 R -24 0 R D
5554 5849 M -35 -12 R -24 -35 R -11 -58 R 0 -35 R 11 -59 R 24 -35 R 35 -11 R
23 0 R 35 11 R 24 35 R 11 59 R 0 35 R -11 58 R -24 35 R -35 12 R -23 0 R D
5741 5849 M 128 0 R -70 -93 R 35 0 R 24 -12 R 11 -12 R 12 -35 R 0 -23 R
-12 -35 R -23 -24 R -35 -11 R -35 0 R -35 11 R -12 12 R -12 23 R D
5963 5791 M 0 11 R 11 24 R 12 11 R 24 12 R 46 0 R 24 -12 R 11 -11 R 12 -24 R
0 -23 R -12 -23 R -23 -36 R -117 -116 R 164 0 R D 6220 5802 M 23 12 R
35 35 R 0 -245 R D
%%PageTrailer
end
restore
showpage
%%PageResources: font Helvetica
%%Trailer
restore
%%Pages: 1
%%DocumentNeededResources: font Helvetica
%%EOF
