%!PS-Adobe-3.0
%%BoundingBox: 91 181 519 609
%%Title: Graphics produced by IDL
%%For: yssu@archMini, /home/yssu/SURF2015/Summer/multi_band/testsigm/single
%%Creator: IDL Version 8.3 (linux x86_64 m64)
%%CreationDate: Thu Jul 30 10:35:35 2015
%%DocumentData: Clean7bit
%%Requirements: color
%%LanguageLevel: 2
%%PageOrder: Ascend
%%Pages: (atend)
%%DocumentNeededResources: (atend)
%%EndComments
%%BeginProlog
save
%+ prolog.ps -- Prolog for IDL generated PostScript files
%+ Copyright (c) 1988-2013 Exelis Visual Information Solutions, Inc. All Rights Reserved.
%v 5
/$IDL_DICT 40 dict def $IDL_DICT begin /bdef { bind def } bind def /C
{currentpoint newpath moveto} bdef /CP {currentpoint} bdef /D {currentpoint
stroke moveto} bdef /F {closepath fill} bdef /K { setgray } bdef /M {moveto}
bdef /N {rmoveto} bdef /P {lineto} bdef /R {rlineto} bdef /S {gsave show
grestore} bdef /X {currentpoint pop} bdef /Z {gsave currentpoint lineto 20
setlinewidth 1 setlinecap stroke grestore} bdef /L0 {[] 0 setdash} bdef /L1
{[40 100] 0 setdash} bdef /L2 {[200 200] 0 setdash} bdef /L3 {[200 100 50
100] 0 setdash} bdef /L4 {[300 100 50 100 50 100 50 100] 0 setdash} bdef /L5
{[400 200] 0 setdash} bdef /STDFONT { findfont exch scalefont setfont } bdef
/ISOFONT { findfont dup length dict begin { 1 index /FID ne {def} {pop pop}
ifelse } forall /Encoding ISOLatin1Encoding def currentdict end /idltmpfont
exch definefont exch scalefont setfont } bdef /ISOBULLET { gsave /Helvetica
findfont exch scalefont setfont (\267) show currentpoint grestore moveto}
bdef /MITERLIMIT { 2.5 setmiterlimit } bdef end
%%EndProlog
%%Page: 0 1
%%PageRequirements: color
%%PageResources: (atend)
%%PageOrientation: Portrait
%%PageBoundingBox: 91 181 519 609
%%BeginPageSetup
save
$IDL_DICT begin 91 181 translate 0.0283465 dup scale MITERLIMIT
%%IncludeResource: font Helvetica
423.333 /Helvetica STDFONT
%%EndPageSetup
10 setlinewidth L0 0.000 0.000 0.000 setrgbcolor 5894 14927 M 205 -307 R D
6099 14927 M -205 -307 R D 6435 14825 M 0 -322 R D 6435 14781 M 29 29 R
29 15 R 44 0 R 29 -15 R 30 -29 R 14 -44 R 0 -29 R -14 -44 R -30 -29 R
-29 -15 R -44 0 R -29 15 R -29 29 R D 6771 14825 M -29 -15 R -30 -29 R
-14 -44 R 0 -29 R 14 -44 R 30 -29 R 29 -15 R 44 0 R 29 15 R 29 29 R 15 44 R
0 29 R -15 44 R -29 29 R -29 15 R -44 0 R D 7136 14781 M -15 29 R -43 15 R
-44 0 R -44 -15 R -15 -29 R 15 -29 R 29 -15 R 73 -14 R 29 -15 R 15 -29 R
0 -15 R -15 -29 R -43 -15 R -44 0 R -44 15 R -15 29 R D 7224 14927 M
14 -15 R 15 15 R -15 15 R -14 -15 R D 7238 14825 M 0 -205 R D 7370 14927 M
0 -248 R 14 -44 R 29 -15 R 30 0 R D 7326 14825 M 102 0 R D 7516 14927 M
14 -15 R 15 15 R -15 15 R -14 -15 R D 7530 14825 M 0 -205 R D 7706 14825 M
-30 -15 R -29 -29 R -14 -44 R 0 -29 R 14 -44 R 29 -29 R 30 -15 R 43 0 R
30 15 R 29 29 R 14 44 R 0 29 R -14 44 R -29 29 R -30 15 R -43 0 R D
7925 14825 M 0 -205 R D 7925 14766 M 43 44 R 30 15 R 43 0 R 30 -15 R
14 -44 R 0 -146 R D 8421 14737 M 175 0 R 0 29 R -14 30 R -15 14 R -29 15 R
-44 0 R -29 -15 R -29 -29 R -15 -44 R 0 -29 R 15 -44 R 29 -29 R 29 -15 R
44 0 R 29 15 R 29 29 R D 8845 14781 M -15 29 R -44 15 R -43 0 R -44 -15 R
-15 -29 R 15 -29 R 29 -15 R 73 -14 R 29 -15 R 15 -29 R 0 -15 R -15 -29 R
-44 -15 R -43 0 R -44 15 R -15 29 R D 8962 14927 M 0 -248 R 14 -44 R
29 -15 R 30 0 R D 8918 14825 M 102 0 R D 9108 14927 M 14 -15 R 15 15 R
-15 15 R -14 -15 R D 9122 14825 M 0 -205 R D 9239 14825 M 0 -205 R D
9239 14766 M 44 44 R 29 15 R 44 0 R 29 -15 R 15 -44 R 0 -146 R D
9400 14766 M 44 44 R 29 15 R 44 0 R 29 -15 R 14 -44 R 0 -146 R D
9838 14825 M 0 -205 R D 9838 14781 M -29 29 R -30 15 R -43 0 R -30 -15 R
-29 -29 R -14 -44 R 0 -29 R 14 -44 R 29 -29 R 30 -15 R 43 0 R 30 15 R
29 29 R D 9969 14927 M 0 -248 R 15 -44 R 29 -15 R 29 0 R D 9926 14825 M
102 0 R D 10188 14825 M -29 -15 R -29 -29 R -15 -44 R 0 -29 R 15 -44 R
29 -29 R 29 -15 R 44 0 R 29 15 R 30 29 R 14 44 R 0 29 R -14 44 R -30 29 R
-29 15 R -44 0 R D 10408 14825 M 0 -205 R D 10408 14737 M 14 44 R 29 29 R
30 15 R 43 0 R D 10743 14781 M -14 29 R -44 15 R -44 0 R -44 -15 R -14 -29 R
14 -29 R 30 -15 R 73 -14 R 29 -15 R 14 -29 R 0 -15 R -14 -29 R -44 -15 R
-44 0 R -44 15 R -14 29 R D 40 setlinewidth 2220 8965 M 12227 0 R D
2220 8965 M 0 108 R D 10 setlinewidth 1519 8635 M 23 12 R 35 35 R 0 -245 R D
1729 8624 M 0 11 R 12 24 R 12 11 R 23 12 R 47 0 R 23 -12 R 12 -11 R 12 -24 R
0 -23 R -12 -24 R -24 -35 R -116 -116 R 163 0 R D 2103 8647 M -11 23 R
-36 12 R -23 0 R -35 -12 R -23 -35 R -12 -58 R 0 -59 R 12 -46 R 23 -24 R
35 -11 R 12 0 R 35 11 R 23 24 R 12 35 R 0 11 R -12 35 R -23 24 R -35 11 R
-12 0 R -35 -11 R -23 -24 R -12 -35 R D 2208 8460 M -11 -12 R 11 -11 R
12 11 R -12 12 R D 2454 8600 M -12 -35 R -23 -23 R -35 -12 R -12 0 R
-35 12 R -23 23 R -12 35 R 0 12 R 12 35 R 23 23 R 35 12 R 12 0 R 35 -12 R
23 -23 R 12 -47 R 0 -58 R -12 -59 R -23 -35 R -35 -11 R -24 0 R -35 11 R
-11 24 R D 2687 8600 M -11 -35 R -24 -23 R -35 -12 R -11 0 R -35 12 R
-24 23 R -11 35 R 0 12 R 11 35 R 24 23 R 35 12 R 11 0 R 35 -12 R 24 -23 R
11 -47 R 0 -58 R -11 -59 R -24 -35 R -35 -11 R -23 0 R -35 11 R -12 24 R D
2839 8682 M -35 -12 R -23 -35 R -12 -58 R 0 -35 R 12 -59 R 23 -35 R 35 -11 R
24 0 R 35 11 R 23 35 R 12 59 R 0 35 R -12 58 R -23 35 R -35 12 R -24 0 R D
40 setlinewidth 5277 8965 M 0 108 R D 10 setlinewidth 4576 8635 M 23 12 R
35 35 R 0 -245 R D 4786 8624 M 0 11 R 12 24 R 11 11 R 24 12 R 47 0 R
23 -12 R 12 -11 R 11 -24 R 0 -23 R -11 -24 R -24 -35 R -117 -116 R 164 0 R D
5160 8647 M -12 23 R -35 12 R -23 0 R -35 -12 R -24 -35 R -11 -58 R 0 -59 R
11 -46 R 24 -24 R 35 -11 R 12 0 R 35 11 R 23 24 R 12 35 R 0 11 R -12 35 R
-23 24 R -35 11 R -12 0 R -35 -11 R -24 -24 R -11 -35 R D 5265 8460 M
-12 -12 R 12 -11 R 12 11 R -12 12 R D 5511 8600 M -12 -35 R -24 -23 R
-35 -12 R -11 0 R -35 12 R -24 23 R -11 35 R 0 12 R 11 35 R 24 23 R 35 12 R
11 0 R 35 -12 R 24 -23 R 12 -47 R 0 -58 R -12 -59 R -24 -35 R -35 -11 R
-23 0 R -35 11 R -12 24 R D 5744 8600 M -11 -35 R -24 -23 R -35 -12 R
-12 0 R -35 12 R -23 23 R -12 35 R 0 12 R 12 35 R 23 23 R 35 12 R 12 0 R
35 -12 R 24 -23 R 11 -47 R 0 -58 R -11 -59 R -24 -35 R -35 -11 R -23 0 R
-35 11 R -12 24 R D 5966 8682 M -117 0 R -11 -105 R 11 11 R 35 12 R 35 0 R
36 -12 R 23 -23 R 12 -35 R 0 -23 R -12 -35 R -23 -24 R -36 -11 R -35 0 R
-35 11 R -11 12 R -12 23 R D 40 setlinewidth 8334 8965 M 0 108 R D
10 setlinewidth 7633 8635 M 23 12 R 35 35 R 0 -245 R D 7843 8624 M 0 11 R
12 24 R 11 11 R 24 12 R 46 0 R 24 -12 R 11 -11 R 12 -24 R 0 -23 R -12 -24 R
-23 -35 R -117 -116 R 164 0 R D 8228 8682 M -116 -245 R D 8065 8682 M
163 0 R D 8322 8460 M -12 -12 R 12 -11 R 12 11 R -12 12 R D 8485 8682 M
-35 -12 R -23 -35 R -12 -58 R 0 -35 R 12 -59 R 23 -35 R 35 -11 R 24 0 R
35 11 R 23 35 R 12 59 R 0 35 R -12 58 R -23 35 R -35 12 R -24 0 R D
8719 8682 M -35 -12 R -23 -35 R -12 -58 R 0 -35 R 12 -59 R 23 -35 R 35 -11 R
24 0 R 35 11 R 23 35 R 12 59 R 0 35 R -12 58 R -23 35 R -35 12 R -24 0 R D
8953 8682 M -35 -12 R -24 -35 R -11 -58 R 0 -35 R 11 -59 R 24 -35 R 35 -11 R
23 0 R 35 11 R 24 35 R 11 59 R 0 35 R -11 58 R -24 35 R -35 12 R -23 0 R D
40 setlinewidth 11390 8965 M 0 108 R D 10 setlinewidth 10689 8635 M 24 12 R
35 35 R 0 -245 R D 10900 8624 M 0 11 R 11 24 R 12 11 R 23 12 R 47 0 R
23 -12 R 12 -11 R 12 -24 R 0 -23 R -12 -24 R -23 -35 R -117 -116 R 163 0 R D
11285 8682 M -117 -245 R D 11122 8682 M 163 0 R D 11379 8460 M -12 -12 R
12 -11 R 11 11 R -11 12 R D 11542 8682 M -35 -12 R -23 -35 R -12 -58 R
0 -35 R 12 -59 R 23 -35 R 35 -11 R 24 0 R 35 11 R 23 35 R 12 59 R 0 35 R
-12 58 R -23 35 R -35 12 R -24 0 R D 11776 8682 M -35 -12 R -24 -35 R
-11 -58 R 0 -35 R 11 -59 R 24 -35 R 35 -11 R 23 0 R 35 11 R 24 35 R 11 59 R
0 35 R -11 58 R -24 35 R -35 12 R -23 0 R D 12080 8682 M -117 0 R -12 -105 R
12 11 R 35 12 R 35 0 R 35 -12 R 23 -23 R 12 -35 R 0 -23 R -12 -35 R
-23 -24 R -35 -11 R -35 0 R -35 11 R -12 12 R -12 23 R D 40 setlinewidth
14447 8965 M 0 108 R D 10 setlinewidth 13746 8635 M 23 12 R 35 35 R 0 -245 R
D 13956 8624 M 0 11 R 12 24 R 12 11 R 23 12 R 47 0 R 23 -12 R 12 -11 R
12 -24 R 0 -23 R -12 -24 R -24 -35 R -116 -116 R 163 0 R D 14342 8682 M
-117 -245 R D 14178 8682 M 164 0 R D 14435 8460 M -11 -12 R 11 -11 R 12 11 R
-12 12 R D 14599 8682 M -35 -12 R -23 -35 R -12 -58 R 0 -35 R 12 -59 R
23 -35 R 35 -11 R 23 0 R 35 11 R 24 35 R 11 59 R 0 35 R -11 58 R -24 35 R
-35 12 R -23 0 R D 14798 8635 M 23 12 R 35 35 R 0 -245 R D 15066 8682 M
-35 -12 R -23 -35 R -12 -58 R 0 -35 R 12 -59 R 23 -35 R 35 -11 R 24 0 R
35 11 R 23 35 R 12 59 R 0 35 R -12 58 R -23 35 R -35 12 R -24 0 R D
40 setlinewidth 2831 8965 M 0 54 R D 3443 8965 M 0 54 R D 4054 8965 M 0 54 R
D 4665 8965 M 0 54 R D 5888 8965 M 0 54 R D 6500 8965 M 0 54 R D 7111 8965 M
0 54 R D 7722 8965 M 0 54 R D 8945 8965 M 0 54 R D 9556 8965 M 0 54 R D
10168 8965 M 0 54 R D 10779 8965 M 0 54 R D 12002 8965 M 0 54 R D
12613 8965 M 0 54 R D 13224 8965 M 0 54 R D 13836 8965 M 0 54 R D
10 setlinewidth 6914 8224 M 164 -245 R D 7078 8224 M -164 -245 R D
7346 8143 M 0 -257 R D 7346 8108 M 24 23 R 23 12 R 35 0 R 23 -12 R 24 -23 R
11 -36 R 0 -23 R -11 -35 R -24 -23 R -23 -12 R -35 0 R -23 12 R -24 23 R D
7615 8143 M -23 -12 R -24 -23 R -11 -36 R 0 -23 R 11 -35 R 24 -23 R 23 -12 R
35 0 R 23 12 R 24 23 R 11 35 R 0 23 R -11 36 R -24 23 R -23 12 R -35 0 R D
7907 8108 M -12 23 R -35 12 R -35 0 R -35 -12 R -11 -23 R 11 -24 R 24 -12 R
58 -11 R 23 -12 R 12 -23 R 0 -12 R -12 -23 R -35 -12 R -35 0 R -35 12 R
-11 23 R D 7977 8224 M 12 -11 R 12 11 R -12 12 R -12 -12 R D 7989 8143 M
0 -164 R D 8094 8224 M 0 -198 R 12 -35 R 23 -12 R 23 0 R D 8059 8143 M
82 0 R D 8211 8224 M 12 -11 R 11 11 R -11 12 R -12 -12 R D 8223 8143 M
0 -164 R D 8363 8143 M -24 -12 R -23 -23 R -12 -36 R 0 -23 R 12 -35 R
23 -23 R 24 -12 R 35 0 R 23 12 R 24 23 R 11 35 R 0 23 R -11 36 R -24 23 R
-23 12 R -35 0 R D 8538 8143 M 0 -164 R D 8538 8096 M 35 35 R 23 12 R 36 0 R
23 -12 R 12 -35 R 0 -117 R D 9029 8271 M -24 -23 R -23 -35 R -23 -47 R
-12 -58 R 0 -47 R 12 -59 R 23 -58 R 23 -35 R 24 -23 R D 9111 8224 M 0 -245 R
D 9111 8108 M 23 23 R 23 12 R 35 0 R 24 -12 R 23 -23 R 12 -36 R 0 -23 R
-12 -35 R -23 -23 R -24 -12 R -35 0 R -23 12 R -23 23 R D 9321 8224 M
12 -11 R 11 11 R -11 12 R -12 -12 R D 9333 8143 M 0 -164 R D 9426 8143 M
0 -164 R D 9426 8096 M 35 35 R 23 12 R 36 0 R 23 -12 R 12 -35 R 0 -117 R D
9636 8271 M 24 -23 R 23 -35 R 23 -47 R 12 -58 R 0 -47 R -12 -59 R -23 -58 R
-23 -35 R -24 -23 R D 40 setlinewidth 2220 14409 M 12227 0 R D 2220 14409 M
0 -109 R D 5277 14409 M 0 -109 R D 8334 14409 M 0 -109 R D 11390 14409 M
0 -109 R D 14447 14409 M 0 -109 R D 2831 14409 M 0 -54 R D 3443 14409 M
0 -54 R D 4054 14409 M 0 -54 R D 4665 14409 M 0 -54 R D 5888 14409 M 0 -54 R
D 6500 14409 M 0 -54 R D 7111 14409 M 0 -54 R D 7722 14409 M 0 -54 R D
8945 14409 M 0 -54 R D 9556 14409 M 0 -54 R D 10168 14409 M 0 -54 R D
10779 14409 M 0 -54 R D 12002 14409 M 0 -54 R D 12613 14409 M 0 -54 R D
13224 14409 M 0 -54 R D 13836 14409 M 0 -54 R D 2220 8965 M 0 5444 R D
2220 8965 M 245 0 R D 10 setlinewidth 1969 9210 M -35 -12 R -24 -35 R
-11 -58 R 0 -35 R 11 -59 R 24 -35 R 35 -11 R 23 0 R 35 11 R 24 35 R 11 59 R
0 35 R -11 58 R -24 35 R -35 12 R -23 0 R D 40 setlinewidth 2220 10326 M
245 0 R D 10 setlinewidth 1443 10372 M 0 12 R 12 23 R 11 12 R 24 11 R 47 0 R
23 -11 R 12 -12 R 11 -23 R 0 -24 R -11 -23 R -24 -35 R -117 -117 R 164 0 R D
1735 10430 M -35 -11 R -23 -35 R -12 -59 R 0 -35 R 12 -58 R 23 -35 R
35 -12 R 24 0 R 35 12 R 23 35 R 12 58 R 0 35 R -12 59 R -23 35 R -35 11 R
-24 0 R D 1969 10430 M -35 -11 R -24 -35 R -11 -59 R 0 -35 R 11 -58 R
24 -35 R 35 -12 R 23 0 R 35 12 R 24 35 R 11 58 R 0 35 R -11 59 R -24 35 R
-35 11 R -23 0 R D 40 setlinewidth 2220 11687 M 245 0 R D 10 setlinewidth
1548 11791 M -117 -163 R 176 0 R D 1548 11791 M 0 -245 R D 1735 11791 M
-35 -11 R -23 -35 R -12 -59 R 0 -35 R 12 -58 R 23 -35 R 35 -12 R 24 0 R
35 12 R 23 35 R 12 58 R 0 35 R -12 59 R -23 35 R -35 11 R -24 0 R D
1969 11791 M -35 -11 R -24 -35 R -11 -59 R 0 -35 R 11 -58 R 24 -35 R
35 -12 R 23 0 R 35 12 R 24 35 R 11 58 R 0 35 R -11 59 R -24 35 R -35 11 R
-23 0 R D 40 setlinewidth 2220 13048 M 245 0 R D 10 setlinewidth
1583 13117 M -11 24 R -35 12 R -24 0 R -35 -12 R -23 -35 R -12 -59 R 0 -58 R
12 -47 R 23 -23 R 35 -12 R 12 0 R 35 12 R 23 23 R 12 35 R 0 12 R -12 35 R
-23 23 R -35 12 R -12 0 R -35 -12 R -23 -23 R -12 -35 R D 1735 13153 M
-35 -12 R -23 -35 R -12 -59 R 0 -35 R 12 -58 R 23 -35 R 35 -12 R 24 0 R
35 12 R 23 35 R 12 58 R 0 35 R -12 59 R -23 35 R -35 12 R -24 0 R D
1969 13153 M -35 -12 R -24 -35 R -11 -59 R 0 -35 R 11 -58 R 24 -35 R
35 -12 R 23 0 R 35 12 R 24 35 R 11 58 R 0 35 R -11 59 R -24 35 R -35 12 R
-23 0 R D 40 setlinewidth 2220 14409 M 245 0 R D 10 setlinewidth
1490 14408 M -35 -12 R -12 -23 R 0 -23 R 12 -24 R 23 -11 R 47 -12 R 35 -12 R
23 -23 R 12 -24 R 0 -35 R -12 -23 R -11 -12 R -35 -11 R -47 0 R -35 11 R
-12 12 R -12 23 R 0 35 R 12 24 R 23 23 R 35 12 R 47 12 R 24 11 R 11 24 R
0 23 R -11 23 R -35 12 R -47 0 R D 1735 14408 M -35 -12 R -23 -35 R
-12 -58 R 0 -35 R 12 -59 R 23 -35 R 35 -11 R 24 0 R 35 11 R 23 35 R 12 59 R
0 35 R -12 58 R -23 35 R -35 12 R -24 0 R D 1969 14408 M -35 -12 R -24 -35 R
-11 -58 R 0 -35 R 11 -59 R 24 -35 R 35 -11 R 23 0 R 35 11 R 24 35 R 11 59 R
0 35 R -11 58 R -24 35 R -35 12 R -23 0 R D 40 setlinewidth 2220 9305 M
122 0 R D 2220 9645 M 122 0 R D 2220 9985 M 122 0 R D 2220 10666 M 122 0 R D
2220 11006 M 122 0 R D 2220 11347 M 122 0 R D 2220 12027 M 122 0 R D
2220 12367 M 122 0 R D 2220 12708 M 122 0 R D 2220 13388 M 122 0 R D
2220 13729 M 122 0 R D 2220 14069 M 122 0 R D 14447 8965 M 0 5444 R D
14447 8965 M -244 0 R D 14447 10326 M -244 0 R D 14447 11687 M -244 0 R D
14447 13048 M -244 0 R D 14447 14409 M -244 0 R D 14447 9305 M -122 0 R D
14447 9645 M -122 0 R D 14447 9985 M -122 0 R D 14447 10666 M -122 0 R D
14447 11006 M -122 0 R D 14447 11347 M -122 0 R D 14447 12027 M -122 0 R D
14447 12367 M -122 0 R D 14447 12708 M -122 0 R D 14447 13388 M -122 0 R D
14447 13729 M -122 0 R D 14447 14069 M -122 0 R D 2351 8971 M 23 0 R 0 -6 R
23 0 R 23 0 R 23 0 R 23 0 R 23 0 R 23 0 R 23 0 R 23 0 R 0 6 R 23 0 R 23 0 R
0 -6 R 23 0 R 23 0 R 23 0 R 23 0 R 23 0 R 23 0 R 0 6 R 23 0 R 23 0 R 0 -6 R
23 0 R 23 0 R 23 0 R 23 0 R 23 0 R 23 0 R 0 6 R 23 0 R 23 0 R 23 0 R 23 0 R
23 0 R 23 0 R 0 -6 R 23 0 R 23 0 R 23 0 R 23 0 R 0 6 R 23 0 R 23 0 R 23 0 R
23 0 R 0 14 R 23 0 R 23 0 R 0 -20 R 23 0 R 23 0 R 0 13 R 23 0 R 23 0 R
23 0 R 23 0 R 0 -7 R 23 0 R 23 0 R 23 0 R 23 0 R 23 0 R 23 0 R 0 14 R 23 0 R
23 0 R 0 -7 R 23 0 R 23 0 R 0 7 R 23 0 R 23 0 R 0 -20 R 23 0 R 23 0 R 0 40 R
23 0 R 23 0 R 0 -27 R 23 0 R 23 0 R 0 7 R 23 0 R 23 0 R 0 -14 R 23 0 R
23 0 R 0 34 R 23 0 R 23 0 R 0 -13 R 23 0 R 23 0 R 0 -14 R 23 0 R 23 0 R
0 14 R 23 0 R 23 0 R 0 13 R 23 0 R 23 0 R 0 28 R 23 0 R 23 0 R 0 -34 R
23 0 R 23 0 R 0 54 R 23 0 R 23 0 R 0 -34 R 22 0 R 23 0 R 0 48 R 23 0 R
23 0 R 0 -21 R 23 0 R 23 0 R 0 14 R 23 0 R 23 0 R 0 -27 R 23 0 R 23 0 R
0 20 R 23 0 R 23 0 R 0 95 R 23 0 R 23 0 R 0 -34 R 23 0 R 23 0 R 0 -20 R
23 0 R 23 0 R 0 34 R 23 0 R 23 0 R 0 82 R 23 0 R 23 0 R 0 -75 R 23 0 R
23 0 R 0 109 R 23 0 R 23 0 R 0 34 R 23 0 R 23 0 R 0 -123 R 23 0 R 23 0 R
0 102 R 23 0 R 23 0 R 0 -7 R 23 0 R 23 0 R 0 82 R 23 0 R 23 0 R 0 -48 R
23 0 R 23 0 R 0 48 R 23 0 R 23 0 R 0 -61 R 23 0 R 23 0 R 0 -14 R 23 0 R
23 0 R 0 150 R 23 0 R 23 0 R 0 34 R 23 0 R 23 0 R 0 129 R 23 0 R 23 0 R
0 -13 R 23 0 R 23 0 R 0 102 R 23 0 R 23 0 R 0 -89 R 23 0 R 23 0 R 0 -88 R
23 0 R 23 0 R 0 190 R 23 0 R 23 0 R 0 48 R 23 0 R 23 0 R 0 279 R 23 0 R
23 0 R 0 -54 R 23 0 R 23 0 R 0 -191 R 23 0 R 23 0 R 0 374 R 23 0 R 23 0 R
0 -34 R 23 0 R 23 0 R 0 41 R 23 0 R 23 0 R 0 -47 R 23 0 R 23 0 R 0 292 R
23 0 R 23 0 R 0 -279 R 23 0 R 23 0 R 0 197 R 23 0 R 23 0 R 0 150 R 23 0 R
23 0 R 0 21 R 23 0 R 23 0 R 0 102 R 23 0 R 23 0 R 0 68 R 23 0 R 23 0 R
0 231 R 23 0 R 23 0 R 0 -292 R 23 0 R 23 0 R 0 367 R 23 0 R 23 0 R 0 102 R
23 0 R 23 0 R 0 -163 R 23 0 R 23 0 R 0 224 R 23 0 R 23 0 R 0 130 R 23 0 R
23 0 R 0 -28 R 23 0 R 23 0 R 0 143 R 23 0 R 23 0 R 0 191 R 23 0 R 23 0 R
0 14 R 23 0 R 23 0 R 0 163 R 23 0 R 23 0 R 0 47 R 23 0 R 23 0 R 0 96 R
23 0 R 23 0 R 0 -191 R 23 0 R 23 0 R 0 259 R 23 0 R 23 0 R 0 292 R 23 0 R
23 0 R 0 96 R 23 0 R 23 0 R 0 27 R 23 0 R 22 0 R 0 27 R 23 0 R 23 0 R
0 211 R 23 0 R 23 0 R 0 -313 R 23 0 R 23 0 R 0 408 R 23 0 R 23 0 R 0 -54 R
23 0 R 23 0 R 0 61 R 23 0 R 23 0 R 0 252 R 23 0 R 23 0 R 0 -34 R 23 0 R
23 0 R 0 -41 R 23 0 R 23 0 R 0 483 R 23 0 R 23 0 R 0 143 R 23 0 R 23 0 R
0 -490 R 23 0 R 23 0 R 0 327 R 23 0 R 23 0 R 0 238 R 23 0 R 23 0 R 0 -136 R
23 0 R 23 0 R 0 211 R 23 0 R 23 0 R 0 -122 R 23 0 R 23 0 R 0 -89 R 23 0 R
23 0 R 0 -102 R 23 0 R 23 0 R 0 109 R 23 0 R 23 0 R 0 20 R 23 0 R 23 0 R
0 123 R 23 0 R 23 0 R 0 34 R 23 0 R 23 0 R 0 -204 R 23 0 R 23 0 R 0 -55 R
23 0 R 23 0 R 0 48 R 23 0 R 23 0 R 0 -7 R 23 0 R 23 0 R 0 -14 R 23 0 R
23 0 R 0 293 R 23 0 R 23 0 R 0 -293 R 23 0 R 23 0 R 0 -20 R 23 0 R 23 0 R
0 -109 R 23 0 R 23 0 R 0 470 R 23 0 R 23 0 R 0 -266 R 23 0 R 23 0 R 0 -122 R
23 0 R 23 0 R 0 -95 R 23 0 R 23 0 R 0 13 R 23 0 R 23 0 R 0 -361 R 23 0 R
23 0 R 0 48 R 23 0 R 23 0 R 0 259 R 23 0 R 23 0 R 0 -307 R 23 0 R 23 0 R
0 -170 R 23 0 R 23 0 R 0 -149 R 23 0 R 23 0 R 0 -116 R 23 0 R 23 0 R 0 102 R
23 0 R 23 0 R 0 54 R 23 0 R 23 0 R 0 -224 R 23 0 R 23 0 R 0 -75 R 23 0 R
23 0 R 0 -476 R 23 0 R 23 0 R 0 326 R 23 0 R 23 0 R 0 -143 R 23 0 R 23 0 R
0 -7 R 23 0 R 23 0 R 0 -347 R 23 0 R 23 0 R 0 -20 R 23 0 R 23 0 R 0 88 R
23 0 R 23 0 R 0 -265 R 23 0 R 23 0 R 0 -41 R 23 0 R 23 0 R 0 -279 R 23 0 R
23 0 R 0 374 R 23 0 R 23 0 R 0 -367 R 23 0 R 23 0 R 0 -68 R 23 0 R 23 0 R
0 -157 R 23 0 R 23 0 R 0 75 R 23 0 R 23 0 R 0 -265 R 22 0 R 23 0 R 0 -55 R
23 0 R 23 0 R 0 -129 R 23 0 R 23 0 R 0 163 R 23 0 R 23 0 R 0 -258 R 23 0 R
23 0 R 0 -61 R 23 0 R 23 0 R 0 -157 R 23 0 R 23 0 R 0 34 R 23 0 R 23 0 R
0 -211 R 23 0 R 23 0 R 0 95 R 23 0 R 23 0 R 0 -115 R 23 0 R 23 0 R 0 -75 R
23 0 R 23 0 R 0 129 R 23 0 R 23 0 R 0 -327 R 23 0 R 23 0 R 0 103 R 23 0 R
23 0 R 0 -82 R 23 0 R 23 0 R 0 -68 R 23 0 R 23 0 R 0 47 R 23 0 R 23 0 R
0 -190 R 23 0 R 23 0 R 0 61 R 23 0 R 23 0 R 0 41 R 23 0 R 23 0 R 0 -170 R
23 0 R 23 0 R 0 -68 R 23 0 R 23 0 R 0 -68 R 23 0 R 23 0 R 0 13 R 23 0 R
23 0 R 0 -6 R 23 0 R 23 0 R 0 -75 R 23 0 R 23 0 R 0 40 R 23 0 R 23 0 R
0 41 R 23 0 R 23 0 R 0 -81 R 23 0 R 23 0 R 0 -130 R 23 0 R 23 0 R 0 41 R
23 0 R 23 0 R 0 -47 R 23 0 R 23 0 R 0 -34 R 23 0 R 23 0 R 0 34 R 23 0 R
23 0 R 0 -41 R 23 0 R 23 0 R 0 -21 R 23 0 R 23 0 R 0 21 R 23 0 R 23 0 R
0 41 R 23 0 R 23 0 R 0 -96 R 23 0 R 23 0 R 0 34 R 23 0 R 23 0 R 0 -34 R
23 0 R 23 0 R 0 -20 R 23 0 R 23 0 R 0 20 R 23 0 R 23 0 R 0 -7 R 23 0 R
23 0 R 0 -54 R 23 0 R 23 0 R 0 41 R 23 0 R 23 0 R 0 -55 R 23 0 R 23 0 R
0 21 R 23 0 R 23 0 R 23 0 R 23 0 R 0 -7 R 23 0 R 23 0 R 0 14 R 23 0 R 23 0 R
0 -48 R 23 0 R 23 0 R 0 -14 R 23 0 R 23 0 R 0 28 R 23 0 R 23 0 R 0 -14 R
23 0 R 23 0 R 0 -7 R 23 0 R 23 0 R 0 7 R 23 0 R 23 0 R 0 7 R 23 0 R 23 0 R
0 -14 R 23 0 R 23 0 R 0 7 R 23 0 R 23 0 R 0 7 R 23 0 R 23 0 R 0 -7 R 23 0 R
23 0 R 0 14 R 23 0 R 23 0 R 0 -21 R 22 0 R 23 0 R 23 0 R 23 0 R 23 0 R
23 0 R 0 -7 R 23 0 R 23 0 R 0 7 R 23 0 R 23 0 R 0 -7 R 23 0 R 23 0 R 0 -6 R
23 0 R 23 0 R 23 0 R 23 0 R 0 13 R 23 0 R 23 0 R 0 -7 R 23 0 R 23 0 R 0 -6 R
23 0 R 23 0 R 0 6 R 23 0 R D 60 setlinewidth 1.000 0.000 0.000 setrgbcolor
2351 8965 M 46 0 R 46 0 R 46 0 R 46 0 R 46 0 R 46 0 R 46 1 R 46 0 R 46 0 R
46 0 R 46 0 R 46 1 R 46 0 R 46 0 R 46 1 R 46 0 R 46 0 R 46 1 R 46 0 R 46 1 R
46 1 R 46 1 R 46 1 R 46 1 R 46 1 R 46 1 R 46 1 R 46 2 R 46 2 R 46 1 R 46 3 R
46 2 R 46 2 R 46 3 R 46 3 R 46 4 R 46 4 R 46 4 R 46 4 R 46 5 R 46 5 R 46 6 R
45 7 R 46 7 R 46 7 R 46 9 R 46 9 R 46 9 R 46 11 R 46 11 R 46 12 R 46 14 R
46 14 R 46 15 R 46 17 R 46 17 R 46 19 R 46 20 R 46 22 R 46 23 R 46 24 R
46 26 R 46 28 R 46 29 R 46 32 R 46 33 R 46 34 R 46 37 R 46 39 R 46 41 R
46 43 R 46 45 R 46 47 R 46 49 R 46 52 R 46 54 R 46 56 R 46 59 R 46 60 R
46 63 R 46 66 R 46 67 R 46 70 R 46 72 R 46 74 R 46 76 R 46 78 R 46 80 R
46 82 R 46 84 R 46 85 R 46 86 R 46 88 R 46 90 R 46 90 R 46 91 R 46 92 R
46 93 R 46 92 R 46 93 R 46 93 R 46 93 R 46 92 R 46 91 R 46 91 R 46 89 R
45 88 R 46 86 R 46 85 R 46 82 R 46 80 R 46 78 R 46 74 R 46 72 R 46 68 R
46 65 R 46 61 R 46 58 R 46 53 R 46 49 R 46 45 R 46 40 R 46 36 R 46 31 R
46 26 R 46 21 R 46 16 R 46 11 R 46 7 R 46 0 R 46 -4 R 46 -9 R 46 -15 R
46 -19 R 46 -24 R 46 -30 R 46 -34 R 46 -38 R 46 -44 R 46 -47 R 46 -52 R
46 -56 R 46 -60 R 46 -64 R 46 -67 R 46 -70 R 46 -74 R 46 -77 R 46 -79 R
46 -81 R 46 -84 R 46 -86 R 46 -87 R 46 -89 R 46 -90 R 46 -91 R 46 -92 R
46 -92 R 46 -93 R 46 -93 R 46 -93 R 46 -93 R 46 -92 R 46 -91 R 46 -91 R
46 -90 R 46 -88 R 46 -87 R 46 -86 R 45 -84 R 46 -82 R 46 -81 R 46 -79 R
46 -77 R 46 -74 R 46 -73 R 46 -71 R 46 -68 R 46 -66 R 46 -64 R 46 -61 R
46 -60 R 46 -57 R 46 -54 R 46 -53 R 46 -50 R 46 -48 R 46 -46 R 46 -43 R
46 -42 R 46 -39 R 46 -38 R 46 -35 R 46 -34 R 46 -32 R 46 -30 R 46 -28 R
46 -27 R 46 -25 R 46 -23 R 46 -22 R 46 -21 R 46 -19 R 46 -18 R 46 -17 R
46 -16 R 46 -15 R 46 -13 R 46 -13 R 46 -11 R 46 -11 R 46 -10 R 46 -9 R
46 -9 R 46 -8 R 46 -7 R 46 -6 R 46 -7 R 46 -5 R 46 -5 R 46 -5 R 46 -4 R
46 -4 R 46 -3 R 46 -4 R 46 -3 R 46 -2 R 46 -3 R 46 -2 R 46 -2 R 46 -2 R
46 -1 R 46 -2 R 45 -1 R 46 -1 R 46 -1 R 46 -1 R 46 -1 R 46 -1 R 46 0 R
46 -1 R 46 0 R 46 -1 R 46 0 R 46 -1 R D 10 setlinewidth
0.000 0.000 0.000 setrgbcolor 2866 14028 M 0 -163 R D 2866 13981 M 36 36 R
23 11 R 35 0 R 23 -11 R 12 -36 R 0 -116 R D 2995 13981 M 35 36 R 23 11 R
35 0 R 24 -11 R 12 -36 R 0 -116 R D 3205 13958 M 141 0 R 0 23 R -12 24 R
-12 12 R -23 11 R -35 0 R -24 -11 R -23 -24 R -12 -35 R 0 -23 R 12 -35 R
23 -24 R 24 -11 R 35 0 R 23 11 R 24 24 R D 3556 14028 M 0 -163 R D
3556 13993 M -24 24 R -23 11 R -35 0 R -23 -11 R -24 -24 R -11 -35 R 0 -23 R
11 -35 R 24 -24 R 23 -11 R 35 0 R 23 11 R 24 24 R D 3649 14028 M 0 -163 R D
3649 13981 M 35 36 R 24 11 R 35 0 R 23 -11 R 12 -36 R 0 -116 R D
4058 14005 M 211 0 R D 4058 13935 M 211 0 R D 4946 14063 M 24 12 R 35 35 R
0 -245 R D 5157 14052 M 0 11 R 11 24 R 12 11 R 23 12 R 47 0 R 23 -12 R
12 -11 R 12 -24 R 0 -23 R -12 -23 R -23 -36 R -117 -116 R 163 0 R D
5542 14110 M -117 -245 R D 5379 14110 M 163 0 R D 5636 13888 M -12 -12 R
12 -11 R 11 11 R -11 12 R D 5799 14110 M -35 -12 R -23 -35 R -12 -58 R
0 -35 R 12 -59 R 23 -35 R 35 -11 R 24 0 R 35 11 R 23 35 R 12 59 R 0 35 R
-12 58 R -23 35 R -35 12 R -24 0 R D 6033 14110 M -35 -12 R -24 -35 R
-11 -58 R 0 -35 R 11 -59 R 24 -35 R 35 -11 R 23 0 R 35 11 R 24 35 R 11 59 R
0 35 R -11 58 R -24 35 R -35 12 R -23 0 R D 2866 13676 M 0 -163 R D
2866 13606 M 12 35 R 24 24 R 23 11 R 35 0 R D 3018 13676 M 0 -163 R D
3018 13629 M 35 36 R 24 11 R 35 0 R 23 -11 R 12 -36 R 0 -116 R D
3147 13629 M 35 36 R 23 11 R 35 0 R 24 -11 R 11 -36 R 0 -116 R D
3486 13641 M -12 24 R -35 11 R -35 0 R -35 -11 R -12 -24 R 12 -23 R 23 -12 R
59 -12 R 23 -11 R 12 -24 R 0 -11 R -12 -24 R -35 -11 R -35 0 R -35 11 R
-12 24 R D 3754 13653 M 211 0 R D 3754 13583 M 211 0 R D 4304 13758 M
-35 -12 R -24 -35 R -11 -58 R 0 -35 R 11 -59 R 24 -35 R 35 -11 R 23 0 R
35 11 R 23 35 R 12 59 R 0 35 R -12 58 R -23 35 R -35 12 R -23 0 R D
4491 13536 M -12 -12 R 12 -11 R 11 11 R -11 12 R D 4654 13758 M -35 -12 R
-23 -35 R -12 -58 R 0 -35 R 12 -59 R 23 -35 R 35 -11 R 24 0 R 35 11 R
23 35 R 12 59 R 0 35 R -12 58 R -23 35 R -35 12 R -24 0 R D 4888 13758 M
-35 -12 R -24 -35 R -11 -58 R 0 -35 R 11 -59 R 24 -35 R 35 -11 R 23 0 R
35 11 R 24 35 R 11 59 R 0 35 R -11 58 R -24 35 R -35 12 R -23 0 R D
5063 13700 M 0 11 R 12 24 R 11 11 R 24 12 R 47 0 R 23 -12 R 12 -11 R
11 -24 R 0 -23 R -11 -23 R -24 -36 R -117 -116 R 164 0 R D 5297 13700 M
0 11 R 11 24 R 12 11 R 24 12 R 46 0 R 24 -12 R 11 -11 R 12 -24 R 0 -23 R
-12 -23 R -23 -36 R -117 -116 R 164 0 R D 5659 13758 M -117 0 R -12 -105 R
12 12 R 35 11 R 35 0 R 35 -11 R 24 -24 R 11 -35 R 0 -23 R -11 -35 R
-24 -24 R -35 -11 R -35 0 R -35 11 R -12 12 R -11 23 R D 5788 13711 M
23 12 R 35 35 R 0 -245 R D 2878 13406 M 0 -199 R 12 -35 R 23 -11 R 24 0 R D
2843 13324 M 82 0 R D 3007 13406 M 0 -245 R D 3007 13277 M 35 36 R 23 11 R
35 0 R 24 -11 R 11 -36 R 0 -116 R D 3217 13254 M 140 0 R 0 23 R -11 24 R
-12 12 R -24 11 R -35 0 R -23 -11 R -23 -24 R -12 -35 R 0 -23 R 12 -35 R
23 -24 R 23 -11 R 35 0 R 24 11 R 23 24 R D 3486 13324 M -24 -11 R -23 -24 R
-12 -35 R 0 -23 R 12 -35 R 23 -24 R 24 -11 R 35 0 R 23 11 R 24 24 R 11 35 R
0 23 R -11 35 R -24 24 R -23 11 R -35 0 R D 3661 13324 M 0 -163 R D
3661 13254 M 12 35 R 23 24 R 23 11 R 35 0 R D 3790 13324 M 70 -163 R
70 163 R D 3860 13161 M -24 -59 R -23 -23 R -23 -12 R -12 0 R D 4187 13301 M
210 0 R D 4187 13231 M 210 0 R D 4736 13406 M -35 -12 R -23 -35 R -12 -58 R
0 -35 R 12 -59 R 23 -35 R 35 -11 R 23 0 R 35 11 R 24 35 R 11 59 R 0 35 R
-11 58 R -24 35 R -35 12 R -23 0 R D 4923 13184 M -12 -12 R 12 -11 R 12 11 R
-12 12 R D 5086 13406 M -35 -12 R -23 -35 R -12 -58 R 0 -35 R 12 -59 R
23 -35 R 35 -11 R 24 0 R 35 11 R 23 35 R 12 59 R 0 35 R -12 58 R -23 35 R
-35 12 R -24 0 R D 5320 13406 M -35 -12 R -23 -35 R -12 -58 R 0 -35 R
12 -59 R 23 -35 R 35 -11 R 24 0 R 35 11 R 23 35 R 12 59 R 0 35 R -12 58 R
-23 35 R -35 12 R -24 0 R D 5495 13348 M 0 11 R 12 24 R 12 11 R 23 12 R
47 0 R 23 -12 R 12 -11 R 12 -24 R 0 -23 R -12 -23 R -23 -36 R -117 -116 R
163 0 R D 5729 13348 M 0 11 R 12 24 R 11 11 R 24 12 R 47 0 R 23 -12 R
12 -11 R 11 -24 R 0 -23 R -11 -23 R -24 -36 R -117 -116 R 164 0 R D
5986 13359 M 24 12 R 35 35 R 0 -245 R D 6255 13406 M -35 -12 R -24 -35 R
-11 -58 R 0 -35 R 11 -59 R 24 -35 R 35 -11 R 23 0 R 35 11 R 24 35 R 11 59 R
0 35 R -11 58 R -24 35 R -35 12 R -23 0 R D 5880 7370 M 117 -146 R 0 -160 R
D 6114 7370 M -117 -146 R D 6420 7268 M 0 -321 R D 6420 7224 M 29 30 R
30 14 R 44 0 R 29 -14 R 29 -30 R 15 -43 R 0 -30 R -15 -43 R -29 -30 R
-29 -14 R -44 0 R -30 14 R -29 30 R D 6756 7268 M -29 -14 R -29 -30 R
-15 -43 R 0 -30 R 15 -43 R 29 -30 R 29 -14 R 44 0 R 29 14 R 29 30 R 15 43 R
0 30 R -15 43 R -29 30 R -29 14 R -44 0 R D 7121 7224 M -14 30 R -44 14 R
-44 0 R -44 -14 R -14 -30 R 14 -29 R 29 -14 R 74 -15 R 29 -15 R 14 -29 R
0 -14 R -14 -30 R -44 -14 R -44 0 R -44 14 R -14 30 R D 7209 7370 M 15 -14 R
14 14 R -14 15 R -15 -15 R D 7224 7268 M 0 -204 R D 7355 7370 M 0 -248 R
15 -44 R 29 -14 R 29 0 R D 7311 7268 M 102 0 R D 7501 7370 M 15 -14 R
14 14 R -14 15 R -15 -15 R D 7516 7268 M 0 -204 R D 7691 7268 M -29 -14 R
-29 -30 R -15 -43 R 0 -30 R 15 -43 R 29 -30 R 29 -14 R 44 0 R 29 14 R
29 30 R 15 43 R 0 30 R -15 43 R -29 30 R -29 14 R -44 0 R D 7910 7268 M
0 -204 R D 7910 7210 M 44 44 R 29 14 R 44 0 R 29 -14 R 15 -44 R 0 -146 R D
8407 7181 M 175 0 R 0 29 R -15 29 R -14 15 R -30 14 R -43 0 R -30 -14 R
-29 -30 R -14 -43 R 0 -30 R 14 -43 R 29 -30 R 30 -14 R 43 0 R 30 14 R
29 30 R D 8830 7224 M -14 30 R -44 14 R -44 0 R -44 -14 R -15 -30 R 15 -29 R
29 -14 R 73 -15 R 30 -15 R 14 -29 R 0 -14 R -14 -30 R -44 -14 R -44 0 R
-44 14 R -15 30 R D 8947 7370 M 0 -248 R 15 -44 R 29 -14 R 29 0 R D
8903 7268 M 102 0 R D 9093 7370 M 15 -14 R 14 14 R -14 15 R -15 -15 R D
9108 7268 M 0 -204 R D 9224 7268 M 0 -204 R D 9224 7210 M 44 44 R 30 14 R
43 0 R 30 -14 R 14 -44 R 0 -146 R D 9385 7210 M 44 44 R 29 14 R 44 0 R
29 -14 R 15 -44 R 0 -146 R D 9823 7268 M 0 -204 R D 9823 7224 M -29 30 R
-29 14 R -44 0 R -29 -14 R -29 -30 R -15 -43 R 0 -30 R 15 -43 R 29 -30 R
29 -14 R 44 0 R 29 14 R 29 30 R D 9955 7370 M 0 -248 R 14 -44 R 30 -14 R
29 0 R D 9911 7268 M 102 0 R D 10174 7268 M -29 -14 R -30 -30 R -14 -43 R
0 -30 R 14 -43 R 30 -30 R 29 -14 R 44 0 R 29 14 R 29 30 R 15 43 R 0 30 R
-15 43 R -29 30 R -29 14 R -44 0 R D 10393 7268 M 0 -204 R D 10393 7181 M
15 43 R 29 30 R 29 14 R 44 0 R D 10729 7224 M -15 30 R -44 14 R -43 0 R
-44 -14 R -15 -30 R 15 -29 R 29 -14 R 73 -15 R 29 -15 R 15 -29 R 0 -14 R
-15 -30 R -44 -14 R -43 0 R -44 14 R -15 30 R D 40 setlinewidth 2220 1408 M
12227 0 R D 2220 1408 M 0 109 R D 10 setlinewidth 1519 1079 M 23 11 R
35 35 R 0 -245 R D 1729 1067 M 0 12 R 12 23 R 12 12 R 23 11 R 47 0 R
23 -11 R 12 -12 R 12 -23 R 0 -24 R -12 -23 R -24 -35 R -116 -117 R 163 0 R D
2103 1090 M -11 24 R -36 11 R -23 0 R -35 -11 R -23 -35 R -12 -59 R 0 -58 R
12 -47 R 23 -23 R 35 -12 R 12 0 R 35 12 R 23 23 R 12 35 R 0 12 R -12 35 R
-23 23 R -35 12 R -12 0 R -35 -12 R -23 -23 R -12 -35 R D 2208 903 M
-11 -11 R 11 -12 R 12 12 R -12 11 R D 2454 1044 M -12 -35 R -23 -24 R
-35 -11 R -12 0 R -35 11 R -23 24 R -12 35 R 0 11 R 12 35 R 23 24 R 35 11 R
12 0 R 35 -11 R 23 -24 R 12 -46 R 0 -59 R -12 -58 R -23 -35 R -35 -12 R
-24 0 R -35 12 R -11 23 R D 2687 1044 M -11 -35 R -24 -24 R -35 -11 R
-11 0 R -35 11 R -24 24 R -11 35 R 0 11 R 11 35 R 24 24 R 35 11 R 11 0 R
35 -11 R 24 -24 R 11 -46 R 0 -59 R -11 -58 R -24 -35 R -35 -12 R -23 0 R
-35 12 R -12 23 R D 2839 1125 M -35 -11 R -23 -35 R -12 -59 R 0 -35 R
12 -58 R 23 -35 R 35 -12 R 24 0 R 35 12 R 23 35 R 12 58 R 0 35 R -12 59 R
-23 35 R -35 11 R -24 0 R D 40 setlinewidth 4665 1408 M 0 109 R D
10 setlinewidth 3964 1079 M 24 11 R 35 35 R 0 -245 R D 4175 1067 M 0 12 R
11 23 R 12 12 R 23 11 R 47 0 R 24 -11 R 11 -12 R 12 -23 R 0 -24 R -12 -23 R
-23 -35 R -117 -117 R 164 0 R D 4549 1090 M -12 24 R -35 11 R -23 0 R
-36 -11 R -23 -35 R -12 -59 R 0 -58 R 12 -47 R 23 -23 R 36 -12 R 11 0 R
35 12 R 24 23 R 11 35 R 0 12 R -11 35 R -24 23 R -35 12 R -11 0 R -36 -12 R
-23 -23 R -12 -35 R D 4654 903 M -12 -11 R 12 -12 R 11 12 R -11 11 R D
4899 1044 M -12 -35 R -23 -24 R -35 -11 R -12 0 R -35 11 R -23 24 R -12 35 R
0 11 R 12 35 R 23 24 R 35 11 R 12 0 R 35 -11 R 23 -24 R 12 -46 R 0 -59 R
-12 -58 R -23 -35 R -35 -12 R -23 0 R -35 12 R -12 23 R D 5133 1044 M
-12 -35 R -23 -24 R -35 -11 R -12 0 R -35 11 R -23 24 R -12 35 R 0 11 R
12 35 R 23 24 R 35 11 R 12 0 R 35 -11 R 23 -24 R 12 -46 R 0 -59 R -12 -58 R
-23 -35 R -35 -12 R -24 0 R -35 12 R -11 23 R D 5355 1125 M -117 0 R
-12 -105 R 12 12 R 35 12 R 35 0 R 35 -12 R 24 -23 R 11 -35 R 0 -24 R
-11 -35 R -24 -23 R -35 -12 R -35 0 R -35 12 R -12 11 R -11 24 R D
40 setlinewidth 7111 1408 M 0 109 R D 10 setlinewidth 6410 1079 M 23 11 R
35 35 R 0 -245 R D 6620 1067 M 0 12 R 12 23 R 12 12 R 23 11 R 47 0 R
23 -11 R 12 -12 R 11 -23 R 0 -24 R -11 -23 R -24 -35 R -117 -117 R 164 0 R D
7006 1125 M -117 -245 R D 6842 1125 M 164 0 R D 7099 903 M -11 -11 R
11 -12 R 12 12 R -12 11 R D 7263 1125 M -35 -11 R -24 -35 R -11 -59 R
0 -35 R 11 -58 R 24 -35 R 35 -12 R 23 0 R 35 12 R 24 35 R 11 58 R 0 35 R
-11 59 R -24 35 R -35 11 R -23 0 R D 7496 1125 M -35 -11 R -23 -35 R
-12 -59 R 0 -35 R 12 -58 R 23 -35 R 35 -12 R 24 0 R 35 12 R 23 35 R 12 58 R
0 35 R -12 59 R -23 35 R -35 11 R -24 0 R D 7730 1125 M -35 -11 R -23 -35 R
-12 -59 R 0 -35 R 12 -58 R 23 -35 R 35 -12 R 24 0 R 35 12 R 23 35 R 12 58 R
0 35 R -12 59 R -23 35 R -35 11 R -24 0 R D 40 setlinewidth 9556 1408 M
0 109 R D 10 setlinewidth 8855 1079 M 24 11 R 35 35 R 0 -245 R D 9066 1067 M
0 12 R 11 23 R 12 12 R 23 11 R 47 0 R 23 -11 R 12 -12 R 12 -23 R 0 -24 R
-12 -23 R -23 -35 R -117 -117 R 163 0 R D 9451 1125 M -117 -245 R D
9288 1125 M 163 0 R D 9545 903 M -12 -11 R 12 -12 R 11 12 R -11 11 R D
9708 1125 M -35 -11 R -23 -35 R -12 -59 R 0 -35 R 12 -58 R 23 -35 R 35 -12 R
24 0 R 35 12 R 23 35 R 12 58 R 0 35 R -12 59 R -23 35 R -35 11 R -24 0 R D
9942 1125 M -35 -11 R -24 -35 R -11 -59 R 0 -35 R 11 -58 R 24 -35 R 35 -12 R
23 0 R 35 12 R 24 35 R 11 58 R 0 35 R -11 59 R -24 35 R -35 11 R -23 0 R D
10246 1125 M -117 0 R -12 -105 R 12 12 R 35 12 R 35 0 R 35 -12 R 23 -23 R
12 -35 R 0 -24 R -12 -35 R -23 -23 R -35 -12 R -35 0 R -35 12 R -12 11 R
-12 24 R D 40 setlinewidth 12002 1408 M 0 109 R D 10 setlinewidth
11301 1079 M 23 11 R 35 35 R 0 -245 R D 11511 1067 M 0 12 R 12 23 R 11 12 R
24 11 R 46 0 R 24 -11 R 11 -12 R 12 -23 R 0 -24 R -12 -23 R -23 -35 R
-117 -117 R 164 0 R D 11897 1125 M -117 -245 R D 11733 1125 M 164 0 R D
11990 903 M -12 -11 R 12 -12 R 12 12 R -12 11 R D 12154 1125 M -35 -11 R
-24 -35 R -12 -59 R 0 -35 R 12 -58 R 24 -35 R 35 -12 R 23 0 R 35 12 R
23 35 R 12 58 R 0 35 R -12 59 R -23 35 R -35 11 R -23 0 R D 12352 1079 M
24 11 R 35 35 R 0 -245 R D 12621 1125 M -35 -11 R -23 -35 R -12 -59 R
0 -35 R 12 -58 R 23 -35 R 35 -12 R 23 0 R 35 12 R 24 35 R 11 58 R 0 35 R
-11 59 R -24 35 R -35 11 R -23 0 R D 40 setlinewidth 14447 1408 M 0 109 R D
10 setlinewidth 13746 1079 M 23 11 R 35 35 R 0 -245 R D 13956 1067 M 0 12 R
12 23 R 12 12 R 23 11 R 47 0 R 23 -11 R 12 -12 R 12 -23 R 0 -24 R -12 -23 R
-24 -35 R -116 -117 R 163 0 R D 14342 1125 M -117 -245 R D 14178 1125 M
164 0 R D 14435 903 M -11 -11 R 11 -12 R 12 12 R -12 11 R D 14599 1125 M
-35 -11 R -23 -35 R -12 -59 R 0 -35 R 12 -58 R 23 -35 R 35 -12 R 23 0 R
35 12 R 24 35 R 11 58 R 0 35 R -11 59 R -24 35 R -35 11 R -23 0 R D
14798 1079 M 23 11 R 35 35 R 0 -245 R D 15136 1125 M -116 0 R -12 -105 R
12 12 R 35 12 R 35 0 R 35 -12 R 23 -23 R 12 -35 R 0 -24 R -12 -35 R
-23 -23 R -35 -12 R -35 0 R -35 12 R -12 11 R -12 24 R D 40 setlinewidth
2709 1408 M 0 55 R D 3198 1408 M 0 55 R D 3687 1408 M 0 55 R D 4176 1408 M
0 55 R D 5155 1408 M 0 55 R D 5644 1408 M 0 55 R D 6133 1408 M 0 55 R D
6622 1408 M 0 55 R D 7600 1408 M 0 55 R D 8089 1408 M 0 55 R D 8578 1408 M
0 55 R D 9067 1408 M 0 55 R D 10045 1408 M 0 55 R D 10534 1408 M 0 55 R D
11024 1408 M 0 55 R D 11513 1408 M 0 55 R D 12491 1408 M 0 55 R D
12980 1408 M 0 55 R D 13469 1408 M 0 55 R D 13958 1408 M 0 55 R D
10 setlinewidth 6902 668 M 94 -117 R 0 -129 R D 7089 668 M -93 -117 R D
7335 586 M 0 -257 R D 7335 551 M 23 23 R 23 12 R 35 0 R 24 -12 R 23 -23 R
12 -35 R 0 -23 R -12 -35 R -23 -24 R -24 -12 R -35 0 R -23 12 R -23 24 R D
7603 586 M -23 -12 R -23 -23 R -12 -35 R 0 -23 R 12 -35 R 23 -24 R 23 -12 R
35 0 R 24 12 R 23 24 R 12 35 R 0 23 R -12 35 R -23 23 R -24 12 R -35 0 R D
7895 551 M -11 23 R -35 12 R -35 0 R -35 -12 R -12 -23 R 12 -23 R 23 -12 R
58 -12 R 24 -11 R 11 -24 R 0 -11 R -11 -24 R -35 -12 R -35 0 R -35 12 R
-12 24 R D 7966 668 M 11 -12 R 12 12 R -12 12 R -11 -12 R D 7977 586 M
0 -164 R D 8082 668 M 0 -199 R 12 -35 R 23 -12 R 24 0 R D 8047 586 M 82 0 R
D 8199 668 M 12 -12 R 12 12 R -12 12 R -12 -12 R D 8211 586 M 0 -164 R D
8351 586 M -23 -12 R -24 -23 R -11 -35 R 0 -23 R 11 -35 R 24 -24 R 23 -12 R
35 0 R 24 12 R 23 24 R 12 35 R 0 23 R -12 35 R -23 23 R -24 12 R -35 0 R D
8526 586 M 0 -164 R D 8526 539 M 35 35 R 24 12 R 35 0 R 23 -12 R 12 -35 R
0 -117 R D 9017 715 M -23 -24 R -24 -35 R -23 -47 R -12 -58 R 0 -47 R
12 -58 R 23 -59 R 24 -35 R 23 -23 R D 9099 668 M 0 -246 R D 9099 551 M
23 23 R 24 12 R 35 0 R 23 -12 R 23 -23 R 12 -35 R 0 -23 R -12 -35 R
-23 -24 R -23 -12 R -35 0 R -24 12 R -23 24 R D 9309 668 M 12 -12 R 12 12 R
-12 12 R -12 -12 R D 9321 586 M 0 -164 R D 9414 586 M 0 -164 R D 9414 539 M
35 35 R 24 12 R 35 0 R 23 -12 R 12 -35 R 0 -117 R D 9625 715 M 23 -24 R
23 -35 R 24 -47 R 11 -58 R 0 -47 R -11 -58 R -24 -59 R -23 -35 R -23 -23 R D
40 setlinewidth 2220 6853 M 12227 0 R D 2220 6853 M 0 -109 R D 4665 6853 M
0 -109 R D 7111 6853 M 0 -109 R D 9556 6853 M 0 -109 R D 12002 6853 M
0 -109 R D 14447 6853 M 0 -109 R D 2709 6853 M 0 -55 R D 3198 6853 M 0 -55 R
D 3687 6853 M 0 -55 R D 4176 6853 M 0 -55 R D 5155 6853 M 0 -55 R D
5644 6853 M 0 -55 R D 6133 6853 M 0 -55 R D 6622 6853 M 0 -55 R D
7600 6853 M 0 -55 R D 8089 6853 M 0 -55 R D 8578 6853 M 0 -55 R D
9067 6853 M 0 -55 R D 10045 6853 M 0 -55 R D 10534 6853 M 0 -55 R D
11024 6853 M 0 -55 R D 11513 6853 M 0 -55 R D 12491 6853 M 0 -55 R D
12980 6853 M 0 -55 R D 13469 6853 M 0 -55 R D 13958 6853 M 0 -55 R D
2220 1408 M 0 5445 R D 2220 1408 M 245 0 R D 10 setlinewidth 1969 1653 M
-35 -11 R -24 -35 R -11 -59 R 0 -35 R 11 -58 R 24 -35 R 35 -12 R 23 0 R
35 12 R 24 35 R 11 58 R 0 35 R -11 59 R -24 35 R -35 11 R -23 0 R D
40 setlinewidth 2220 2769 M 245 0 R D 10 setlinewidth 1443 2815 M 0 12 R
12 23 R 11 12 R 24 12 R 47 0 R 23 -12 R 12 -12 R 11 -23 R 0 -23 R -11 -24 R
-24 -35 R -117 -117 R 164 0 R D 1735 2874 M -35 -12 R -23 -35 R -12 -58 R
0 -35 R 12 -59 R 23 -35 R 35 -12 R 24 0 R 35 12 R 23 35 R 12 59 R 0 35 R
-12 58 R -23 35 R -35 12 R -24 0 R D 1969 2874 M -35 -12 R -24 -35 R
-11 -58 R 0 -35 R 11 -59 R 24 -35 R 35 -12 R 23 0 R 35 12 R 24 35 R 11 59 R
0 35 R -11 58 R -24 35 R -35 12 R -23 0 R D 40 setlinewidth 2220 4130 M
245 0 R D 10 setlinewidth 1548 4235 M -117 -164 R 176 0 R D 1548 4235 M
0 -245 R D 1735 4235 M -35 -12 R -23 -35 R -12 -58 R 0 -35 R 12 -59 R
23 -35 R 35 -11 R 24 0 R 35 11 R 23 35 R 12 59 R 0 35 R -12 58 R -23 35 R
-35 12 R -24 0 R D 1969 4235 M -35 -12 R -24 -35 R -11 -58 R 0 -35 R
11 -59 R 24 -35 R 35 -11 R 23 0 R 35 11 R 24 35 R 11 59 R 0 35 R -11 58 R
-24 35 R -35 12 R -23 0 R D 40 setlinewidth 2220 5491 M 245 0 R D
10 setlinewidth 1583 5561 M -11 23 R -35 12 R -24 0 R -35 -12 R -23 -35 R
-12 -58 R 0 -59 R 12 -46 R 23 -24 R 35 -11 R 12 0 R 35 11 R 23 24 R 12 35 R
0 11 R -12 35 R -23 24 R -35 12 R -12 0 R -35 -12 R -23 -24 R -12 -35 R D
1735 5596 M -35 -12 R -23 -35 R -12 -58 R 0 -35 R 12 -59 R 23 -35 R 35 -11 R
24 0 R 35 11 R 23 35 R 12 59 R 0 35 R -12 58 R -23 35 R -35 12 R -24 0 R D
1969 5596 M -35 -12 R -24 -35 R -11 -58 R 0 -35 R 11 -59 R 24 -35 R 35 -11 R
23 0 R 35 11 R 24 35 R 11 59 R 0 35 R -11 58 R -24 35 R -35 12 R -23 0 R D
40 setlinewidth 2220 6853 M 245 0 R D 10 setlinewidth 1490 6852 M -35 -12 R
-12 -24 R 0 -23 R 12 -23 R 23 -12 R 47 -12 R 35 -11 R 23 -24 R 12 -23 R
0 -35 R -12 -23 R -11 -12 R -35 -12 R -47 0 R -35 12 R -12 12 R -12 23 R
0 35 R 12 23 R 23 24 R 35 11 R 47 12 R 24 12 R 11 23 R 0 23 R -11 24 R
-35 12 R -47 0 R D 1735 6852 M -35 -12 R -23 -35 R -12 -59 R 0 -35 R
12 -58 R 23 -35 R 35 -12 R 24 0 R 35 12 R 23 35 R 12 58 R 0 35 R -12 59 R
-23 35 R -35 12 R -24 0 R D 1969 6852 M -35 -12 R -24 -35 R -11 -59 R
0 -35 R 11 -58 R 24 -35 R 35 -12 R 23 0 R 35 12 R 24 35 R 11 58 R 0 35 R
-11 59 R -24 35 R -35 12 R -23 0 R D 40 setlinewidth 2220 1748 M 122 0 R D
2220 2089 M 122 0 R D 2220 2429 M 122 0 R D 2220 3109 M 122 0 R D
2220 3450 M 122 0 R D 2220 3790 M 122 0 R D 2220 4471 M 122 0 R D
2220 4811 M 122 0 R D 2220 5151 M 122 0 R D 2220 5832 M 122 0 R D
2220 6172 M 122 0 R D 2220 6512 M 122 0 R D 14447 1408 M 0 5445 R D
14447 1408 M -244 0 R D 14447 2769 M -244 0 R D 14447 4130 M -244 0 R D
14447 5491 M -244 0 R D 14447 6853 M -244 0 R D 14447 1748 M -122 0 R D
14447 2089 M -122 0 R D 14447 2429 M -122 0 R D 14447 3109 M -122 0 R D
14447 3450 M -122 0 R D 14447 3790 M -122 0 R D 14447 4471 M -122 0 R D
14447 4811 M -122 0 R D 14447 5151 M -122 0 R D 14447 5832 M -122 0 R D
14447 6172 M -122 0 R D 14447 6512 M -122 0 R D 2562 1415 M 18 0 R 0 -7 R
19 0 R 18 0 R 19 0 R 18 0 R 19 0 R 19 0 R 18 0 R 19 0 R 18 0 R 19 0 R 18 0 R
19 0 R 18 0 R 19 0 R 19 0 R 18 0 R 19 0 R 18 0 R 0 27 R 19 0 R 18 0 R
0 -27 R 19 0 R 19 0 R 0 7 R 18 0 R 19 0 R 18 0 R 19 0 R 18 0 R 19 0 R 0 -7 R
18 0 R 19 0 R 0 7 R 19 0 R 18 0 R 19 0 R 18 0 R 0 7 R 19 0 R 18 0 R 0 -7 R
19 0 R 18 0 R 0 7 R 19 0 R 19 0 R 0 13 R 18 0 R 19 0 R 0 -20 R 18 0 R 19 0 R
0 7 R 18 0 R 19 0 R 0 -7 R 19 0 R 18 0 R 0 7 R 19 0 R 18 0 R 0 6 R 19 0 R
18 0 R 0 28 R 19 0 R 18 0 R 0 -14 R 19 0 R 19 0 R 0 14 R 18 0 R 19 0 R
0 -21 R 18 0 R 19 0 R 0 34 R 18 0 R 19 0 R 0 14 R 18 0 R 19 0 R 19 0 R
18 0 R 0 -20 R 19 0 R 18 0 R 0 6 R 19 0 R 18 0 R 0 28 R 19 0 R 19 0 R
0 -28 R 18 0 R 19 0 R 0 14 R 18 0 R 19 0 R 0 54 R 18 0 R 19 0 R 0 -40 R
18 0 R 19 0 R 0 81 R 19 0 R 18 0 R 0 7 R 19 0 R 18 0 R 0 -48 R 19 0 R 18 0 R
0 -47 R 19 0 R 18 0 R 0 75 R 19 0 R 19 0 R 0 6 R 18 0 R 19 0 R 0 75 R 18 0 R
19 0 R 0 -54 R 18 0 R 19 0 R 0 47 R 19 0 R 18 0 R 0 -6 R 19 0 R 18 0 R
0 88 R 19 0 R 18 0 R 0 -34 R 19 0 R 18 0 R 19 0 R 19 0 R 0 184 R 18 0 R
19 0 R 0 -184 R 18 0 R 19 0 R 0 123 R 18 0 R 19 0 R 0 61 R 19 0 R 18 0 R
0 -55 R 19 0 R 18 0 R 0 239 R 19 0 R 18 0 R 0 -68 R 19 0 R 18 0 R 0 -55 R
19 0 R 19 0 R 0 75 R 18 0 R 19 0 R 0 34 R 18 0 R 19 0 R 0 41 R 18 0 R 19 0 R
0 177 R 18 0 R 19 0 R 0 -55 R 19 0 R 18 0 R 0 102 R 19 0 R 18 0 R 0 21 R
19 0 R 18 0 R 0 -34 R 19 0 R 19 0 R 0 68 R 18 0 R 19 0 R 0 177 R 18 0 R
19 0 R 0 204 R 18 0 R 19 0 R 0 -259 R 18 0 R 19 0 R 0 177 R 19 0 R 18 0 R
0 150 R 19 0 R 18 0 R 0 102 R 19 0 R 18 0 R 0 -54 R 19 0 R 18 0 R 0 -150 R
19 0 R 19 0 R 0 483 R 18 0 R 19 0 R 0 34 R 18 0 R 19 0 R 0 48 R 18 0 R
19 0 R 0 -116 R 19 0 R 18 0 R 0 266 R 19 0 R 18 0 R 0 122 R 19 0 R 18 0 R
0 7 R 19 0 R 18 0 R 19 0 R 19 0 R 0 218 R 18 0 R 19 0 R 0 -171 R 18 0 R
19 0 R 0 28 R 18 0 R 19 0 R 0 292 R 19 0 R 18 0 R 0 415 R 19 0 R 18 0 R
0 -272 R 19 0 R 18 0 R 0 483 R 19 0 R 18 0 R 0 -279 R 19 0 R 19 0 R 0 436 R
18 0 R 19 0 R 0 -88 R 18 0 R 19 0 R 0 -232 R 18 0 R 19 0 R 0 388 R 18 0 R
19 0 R 0 306 R 19 0 R 18 0 R 0 -435 R 19 0 R 18 0 R 0 469 R 19 0 R 18 0 R
0 -136 R 19 0 R 19 0 R 0 -20 R 18 0 R 19 0 R 0 245 R 18 0 R 19 0 R 0 190 R
18 0 R 19 0 R 0 -115 R 18 0 R 19 0 R 0 211 R 19 0 R 18 0 R 0 109 R 19 0 R
18 0 R 0 204 R 19 0 R 18 0 R 0 -7 R 19 0 R 18 0 R 0 -456 R 19 0 R 19 0 R
0 408 R 18 0 R 19 0 R 0 -149 R 18 0 R 19 0 R 0 -41 R 18 0 R 19 0 R 0 381 R
19 0 R 18 0 R 0 -211 R 19 0 R 18 0 R 0 265 R 19 0 R 18 0 R 0 204 R 19 0 R
18 0 R 0 -224 R 19 0 R 19 0 R 0 75 R 18 0 R 19 0 R 0 -184 R 18 0 R 19 0 R
0 272 R 18 0 R 19 0 R 0 -367 R 18 0 R 19 0 R 0 442 R 19 0 R 18 0 R 0 -102 R
19 0 R 18 0 R 0 -184 R 19 0 R 18 0 R 0 27 R 19 0 R 19 0 R 0 -265 R 18 0 R
19 0 R 0 381 R 18 0 R 19 0 R 0 -327 R 18 0 R 19 0 R 0 -231 R 18 0 R 19 0 R
0 320 R 19 0 R 18 0 R 0 -306 R 19 0 R 18 0 R 0 292 R 19 0 R 18 0 R 0 -211 R
19 0 R 19 0 R 0 14 R 18 0 R 19 0 R 0 -89 R 18 0 R 19 0 R 0 -136 R 18 0 R
19 0 R 0 -306 R 18 0 R 19 0 R 19 0 R 18 0 R 0 320 R 19 0 R 18 0 R 0 -272 R
19 0 R 18 0 R 0 -123 R 19 0 R 18 0 R 0 -367 R 19 0 R 19 0 R 0 238 R 18 0 R
19 0 R 0 -109 R 18 0 R 19 0 R 0 -122 R 18 0 R 19 0 R 0 -48 R 19 0 R 18 0 R
0 -95 R 19 0 R 18 0 R 0 61 R 19 0 R 18 0 R 0 -177 R 19 0 R 18 0 R 0 -136 R
19 0 R 19 0 R 0 -55 R 18 0 R 19 0 R 0 -258 R 18 0 R 19 0 R 0 -123 R 18 0 R
19 0 R 0 184 R 18 0 R 19 0 R 0 -136 R 19 0 R 18 0 R 0 -157 R 19 0 R 18 0 R
0 -272 R 19 0 R 18 0 R 0 -54 R 19 0 R 19 0 R 0 163 R 18 0 R 19 0 R 0 -184 R
18 0 R 19 0 R 0 14 R 18 0 R 19 0 R 0 -272 R 18 0 R 19 0 R 0 -62 R 19 0 R
18 0 R 0 -68 R 19 0 R 18 0 R 0 -74 R 19 0 R 18 0 R 0 -116 R 19 0 R 19 0 R
0 -157 R 18 0 R 19 0 R 0 62 R 18 0 R 19 0 R 0 -89 R 18 0 R 19 0 R 0 -61 R
18 0 R 19 0 R 0 -89 R 19 0 R 18 0 R 0 -47 R 19 0 R 18 0 R 0 54 R 19 0 R
18 0 R 0 -150 R 19 0 R 18 0 R 0 -190 R 19 0 R 19 0 R 0 61 R 18 0 R 19 0 R
0 -48 R 18 0 R 19 0 R 0 -88 R 18 0 R 19 0 R 0 14 R 19 0 R 18 0 R 0 -41 R
19 0 R 18 0 R 0 -48 R 19 0 R 18 0 R 0 -34 R 19 0 R 18 0 R 0 -143 R 19 0 R
19 0 R 0 75 R 18 0 R 19 0 R 0 34 R 18 0 R 19 0 R 0 -75 R 18 0 R 19 0 R
0 -143 R 18 0 R 19 0 R 0 109 R 19 0 R 18 0 R 0 55 R 19 0 R 18 0 R 0 -130 R
19 0 R 18 0 R 0 -6 R 19 0 R 19 0 R 0 -28 R 18 0 R 19 0 R 0 -27 R 18 0 R
19 0 R 0 7 R 18 0 R 19 0 R 0 -7 R 18 0 R 19 0 R 0 -129 R 19 0 R 18 0 R
0 54 R 19 0 R 18 0 R 0 7 R 19 0 R 18 0 R 19 0 R 19 0 R 0 -61 R 18 0 R 19 0 R
0 13 R 18 0 R 19 0 R 0 -20 R 18 0 R 19 0 R 0 -27 R 18 0 R 19 0 R 0 34 R
19 0 R 18 0 R 0 -34 R 19 0 R 18 0 R 0 7 R 19 0 R 18 0 R 0 -14 R 19 0 R
18 0 R 0 -14 R 19 0 R 19 0 R 0 -13 R 18 0 R 19 0 R 0 34 R 18 0 R 19 0 R
0 -27 R 18 0 R 19 0 R 0 -28 R 19 0 R 18 0 R 0 7 R 19 0 R 18 0 R 0 7 R 19 0 R
18 0 R 0 -34 R 19 0 R 18 0 R 0 20 R 19 0 R 19 0 R 0 -13 R 18 0 R 19 0 R
0 41 R 18 0 R 19 0 R 0 -41 R 18 0 R 19 0 R 0 6 R 18 0 R 19 0 R 0 -6 R 19 0 R
18 0 R 0 6 R 19 0 R 18 0 R 0 -6 R 19 0 R 18 0 R 0 13 R 19 0 R 19 0 R 0 -13 R
18 0 R 19 0 R 0 -7 R 18 0 R 19 0 R 18 0 R 19 0 R 0 7 R 18 0 R 19 0 R 19 0 R
18 0 R 0 -14 R 19 0 R 18 0 R 19 0 R 18 0 R 19 0 R 18 0 R 19 0 R 19 0 R
18 0 R 19 0 R 18 0 R 19 0 R 18 0 R 19 0 R 19 0 R 18 0 R 0 7 R 19 0 R 18 0 R
0 -7 R 19 0 R 18 0 R 19 0 R 18 0 R 19 0 R 19 0 R 18 0 R 19 0 R 18 0 R 19 0 R
18 0 R 19 0 R 19 0 R 18 0 R 19 0 R 18 0 R 19 0 R 18 0 R 19 0 R 18 0 R 19 0 R
19 0 R 0 7 R 18 0 R 19 0 R 0 -7 R 18 0 R 19 0 R 18 0 R 19 0 R 18 0 R 19 0 R
19 0 R 18 0 R 19 0 R 18 0 R 19 0 R 18 0 R 19 0 R 19 0 R 18 0 R 19 0 R 18 0 R
19 0 R 18 0 R 19 0 R 18 0 R 19 0 R 19 0 R 18 0 R 19 0 R 18 0 R 19 0 R D
12436 1408 M 18 0 R 0 7 R 19 0 R D 60 setlinewidth
1.000 0.000 0.000 setrgbcolor 2562 1409 M 37 0 R 37 1 R 37 0 R 37 0 R 37 0 R
37 1 R 37 0 R 38 0 R 37 1 R 37 0 R 37 1 R 37 1 R 37 0 R 37 1 R 37 1 R 38 1 R
37 1 R 37 1 R 37 2 R 37 1 R 37 2 R 37 2 R 37 2 R 38 2 R 37 3 R 37 2 R 37 3 R
37 4 R 37 4 R 37 4 R 37 4 R 37 5 R 38 5 R 37 6 R 37 6 R 37 7 R 37 8 R 37 8 R
37 9 R 37 9 R 38 10 R 37 12 R 37 12 R 37 13 R 37 13 R 37 15 R 37 17 R
37 17 R 38 18 R 37 20 R 37 21 R 37 23 R 37 24 R 37 26 R 37 27 R 37 29 R
38 30 R 37 33 R 37 34 R 37 36 R 37 38 R 37 40 R 37 42 R 37 45 R 37 46 R
38 49 R 37 50 R 37 53 R 37 56 R 37 57 R 37 60 R 37 62 R 37 64 R 38 67 R
37 68 R 37 71 R 37 73 R 37 75 R 37 77 R 37 79 R 37 81 R 38 83 R 37 84 R
37 85 R 37 87 R 37 89 R 37 89 R 37 90 R 37 92 R 38 91 R 37 92 R 37 93 R
37 92 R 37 92 R 37 92 R 37 91 R 37 90 R 37 90 R 38 88 R 37 86 R 37 85 R
37 82 R 37 81 R 37 78 R 37 75 R 37 72 R 38 69 R 37 66 R 37 63 R 37 58 R
37 55 R 37 51 R 37 46 R 37 42 R 38 37 R 37 33 R 37 28 R 37 23 R 37 19 R
37 13 R 37 8 R 37 4 R 37 -2 R 38 -7 R 37 -12 R 37 -17 R 37 -22 R 37 -27 R
37 -31 R 37 -37 R 37 -40 R 38 -46 R 37 -49 R 37 -54 R 37 -57 R 37 -62 R
37 -65 R 37 -68 R 37 -72 R 38 -74 R 37 -77 R 37 -80 R 37 -82 R 37 -84 R
37 -86 R 37 -88 R 37 -89 R 38 -90 R 37 -91 R 37 -91 R 37 -92 R 37 -93 R
37 -92 R 37 -92 R 37 -92 R 37 -91 R 38 -91 R 37 -89 R 37 -89 R 37 -87 R
37 -86 R 37 -85 R 37 -83 R 37 -81 R 38 -80 R 37 -77 R 37 -76 R 37 -73 R
37 -72 R 37 -69 R 37 -67 R 37 -65 R 38 -63 R 37 -60 R 37 -58 R 37 -56 R
37 -54 R 37 -51 R 37 -49 R 37 -47 R 38 -45 R 37 -43 R 37 -40 R 37 -39 R
37 -37 R 37 -34 R 37 -33 R 37 -31 R 37 -30 R 38 -27 R 37 -26 R 37 -25 R
37 -23 R 37 -21 R 37 -20 R 37 -19 R 37 -18 R 38 -16 R 37 -16 R 37 -14 R
37 -13 R 37 -12 R 37 -12 R 37 -10 R 37 -10 R 38 -9 R 37 -8 R 37 -8 R 37 -7 R
37 -6 R 37 -6 R 37 -6 R 37 -5 R 38 -4 R 37 -4 R 37 -4 R 37 -4 R 37 -3 R
37 -3 R 37 -2 R 37 -3 R 37 -2 R 38 -2 R 37 -1 R 37 -2 R 37 -1 R 37 -2 R
37 -1 R 37 -1 R 37 -1 R 38 0 R 37 -1 R 37 -1 R 37 0 R 37 -1 R 37 0 R 37 -1 R
37 0 R 38 -1 R 37 0 R 37 0 R 37 0 R 37 -1 R 37 0 R 37 0 R 37 0 R 38 0 R
37 0 R 37 0 R 37 0 R 37 0 R 37 -1 R 37 0 R 37 0 R 37 0 R 38 0 R 37 0 R
37 0 R 37 0 R 37 0 R 37 0 R 37 0 R 37 0 R 38 0 R 37 0 R 37 0 R 37 0 R D
10 setlinewidth 0.000 0.000 0.000 setrgbcolor 2744 6472 M 0 -164 R D
2744 6425 M 35 35 R 24 12 R 35 0 R 23 -12 R 12 -35 R 0 -117 R D 2873 6425 M
35 35 R 23 12 R 35 0 R 24 -12 R 11 -35 R 0 -117 R D 3083 6402 M 140 0 R
0 23 R -11 23 R -12 12 R -23 12 R -36 0 R -23 -12 R -23 -23 R -12 -35 R
0 -24 R 12 -35 R 23 -23 R 23 -12 R 36 0 R 23 12 R 23 23 R D 3434 6472 M
0 -164 R D 3434 6437 M -24 23 R -23 12 R -35 0 R -24 -12 R -23 -23 R
-12 -35 R 0 -24 R 12 -35 R 23 -23 R 24 -12 R 35 0 R 23 12 R 24 23 R D
3527 6472 M 0 -164 R D 3527 6425 M 35 35 R 23 12 R 36 0 R 23 -12 R 12 -35 R
0 -117 R D 3936 6448 M 210 0 R D 3936 6378 M 210 0 R D 4824 6507 M 23 11 R
35 35 R 0 -245 R D 5034 6495 M 0 12 R 12 23 R 12 12 R 23 11 R 47 0 R
23 -11 R 12 -12 R 12 -23 R 0 -24 R -12 -23 R -24 -35 R -116 -117 R 163 0 R D
5420 6553 M -117 -245 R D 5256 6553 M 164 0 R D 5513 6331 M -11 -11 R
11 -12 R 12 12 R -12 11 R D 5677 6553 M -35 -11 R -23 -35 R -12 -59 R
0 -35 R 12 -58 R 23 -35 R 35 -12 R 23 0 R 35 12 R 24 35 R 11 58 R 0 35 R
-11 59 R -24 35 R -35 11 R -23 0 R D 5911 6553 M -35 -11 R -24 -35 R
-11 -59 R 0 -35 R 11 -58 R 24 -35 R 35 -12 R 23 0 R 35 12 R 23 35 R 12 58 R
0 35 R -12 59 R -23 35 R -35 11 R -23 0 R D 2744 6120 M 0 -164 R D
2744 6050 M 12 35 R 23 23 R 24 12 R 35 0 R D 2896 6120 M 0 -164 R D
2896 6073 M 35 35 R 24 12 R 35 0 R 23 -12 R 12 -35 R 0 -117 R D 3025 6073 M
35 35 R 23 12 R 35 0 R 23 -12 R 12 -35 R 0 -117 R D 3363 6085 M -11 23 R
-35 12 R -35 0 R -35 -12 R -12 -23 R 12 -24 R 23 -11 R 58 -12 R 24 -12 R
11 -23 R 0 -12 R -11 -23 R -35 -12 R -35 0 R -35 12 R -12 23 R D 3632 6096 M
211 0 R D 3632 6026 M 211 0 R D 4181 6201 M -35 -11 R -23 -35 R -12 -59 R
0 -35 R 12 -58 R 23 -35 R 35 -12 R 24 0 R 35 12 R 23 35 R 12 58 R 0 35 R
-12 59 R -23 35 R -35 11 R -24 0 R D 4368 5979 M -11 -11 R 11 -12 R 12 12 R
-12 11 R D 4532 6201 M -35 -11 R -24 -35 R -11 -59 R 0 -35 R 11 -58 R
24 -35 R 35 -12 R 23 0 R 35 12 R 24 35 R 11 58 R 0 35 R -11 59 R -24 35 R
-35 11 R -23 0 R D 4766 6201 M -35 -11 R -24 -35 R -12 -59 R 0 -35 R
12 -58 R 24 -35 R 35 -12 R 23 0 R 35 12 R 23 35 R 12 58 R 0 35 R -12 59 R
-23 35 R -35 11 R -23 0 R D 4941 6143 M 0 12 R 12 23 R 11 12 R 24 11 R
46 0 R 24 -11 R 11 -12 R 12 -23 R 0 -24 R -12 -23 R -23 -35 R -117 -117 R
164 0 R D 5175 6143 M 0 12 R 11 23 R 12 12 R 23 11 R 47 0 R 23 -11 R
12 -12 R 12 -23 R 0 -24 R -12 -23 R -23 -35 R -117 -117 R 163 0 R D
5455 6201 M -35 -11 R -12 -24 R 0 -23 R 12 -23 R 23 -12 R 47 -12 R 35 -11 R
23 -24 R 12 -23 R 0 -35 R -12 -24 R -11 -11 R -35 -12 R -47 0 R -35 12 R
-12 11 R -11 24 R 0 35 R 11 23 R 24 24 R 35 11 R 46 12 R 24 12 R 11 23 R
0 23 R -11 24 R -35 11 R -47 0 R D 5700 6201 M -35 -11 R -23 -35 R -12 -59 R
0 -35 R 12 -58 R 23 -35 R 35 -12 R 24 0 R 35 12 R 23 35 R 12 58 R 0 35 R
-12 59 R -23 35 R -35 11 R -24 0 R D 2756 5849 M 0 -198 R 12 -35 R 23 -12 R
23 0 R D 2721 5768 M 82 0 R D 2884 5849 M 0 -245 R D 2884 5721 M 35 35 R
24 12 R 35 0 R 23 -12 R 12 -35 R 0 -117 R D 3095 5698 M 140 0 R 0 23 R
-12 23 R -11 12 R -24 12 R -35 0 R -23 -12 R -24 -23 R -11 -35 R 0 -24 R
11 -35 R 24 -23 R 23 -12 R 35 0 R 24 12 R 23 23 R D 3363 5768 M -23 -12 R
-23 -23 R -12 -35 R 0 -24 R 12 -35 R 23 -23 R 23 -12 R 36 0 R 23 12 R
23 23 R 12 35 R 0 24 R -12 35 R -23 23 R -23 12 R -36 0 R D 3539 5768 M
0 -164 R D 3539 5698 M 11 35 R 24 23 R 23 12 R 35 0 R D 3667 5768 M
70 -164 R 70 164 R D 3737 5604 M -23 -58 R -23 -24 R -24 -11 R -11 0 R D
4065 5744 M 210 0 R D 4065 5674 M 210 0 R D 4614 5849 M -35 -11 R -24 -35 R
-11 -59 R 0 -35 R 11 -58 R 24 -35 R 35 -12 R 23 0 R 35 12 R 23 35 R 12 58 R
0 35 R -12 59 R -23 35 R -35 11 R -23 0 R D 4801 5627 M -12 -11 R 12 -12 R
11 12 R -11 11 R D 4964 5849 M -35 -11 R -23 -35 R -12 -59 R 0 -35 R
12 -58 R 23 -35 R 35 -12 R 24 0 R 35 12 R 23 35 R 12 58 R 0 35 R -12 59 R
-23 35 R -35 11 R -24 0 R D 5198 5849 M -35 -11 R -24 -35 R -11 -59 R
0 -35 R 11 -58 R 24 -35 R 35 -12 R 23 0 R 35 12 R 24 35 R 11 58 R 0 35 R
-11 59 R -24 35 R -35 11 R -23 0 R D 5373 5791 M 0 12 R 12 23 R 12 12 R
23 11 R 47 0 R 23 -11 R 12 -12 R 11 -23 R 0 -24 R -11 -23 R -24 -35 R
-117 -117 R 164 0 R D 5607 5791 M 0 12 R 12 23 R 11 12 R 24 11 R 46 0 R
24 -11 R 11 -12 R 12 -23 R 0 -24 R -12 -23 R -23 -35 R -117 -117 R 164 0 R D
5864 5803 M 23 11 R 35 35 R 0 -245 R D 6133 5849 M -35 -11 R -24 -35 R
-11 -59 R 0 -35 R 11 -58 R 24 -35 R 35 -12 R 23 0 R 35 12 R 23 35 R 12 58 R
0 35 R -12 59 R -23 35 R -35 11 R -23 0 R D
%%PageTrailer
end
restore
showpage
%%PageResources: font Helvetica
%%Trailer
restore
%%Pages: 1
%%DocumentNeededResources: font Helvetica
%%EOF
