%!PS-Adobe-3.0
%%BoundingBox: 91 288 519 502
%%Title: Graphics produced by IDL
%%For: yssu@archMini, /home/yssu/SURF2015/Summer/multi_band/emissivity
%%Creator: IDL Version 8.3 (linux x86_64 m64)
%%CreationDate: Sun Aug 16 13:16:10 2015
%%DocumentData: Clean7bit
%%Requirements: color
%%LanguageLevel: 2
%%PageOrder: Ascend
%%Pages: (atend)
%%DocumentNeededResources: (atend)
%%EndComments
%%BeginProlog
save
%+ prolog.ps -- Prolog for IDL generated PostScript files
%+ Copyright (c) 1988-2013 Exelis Visual Information Solutions, Inc. All Rights Reserved.
%v 5
/$IDL_DICT 40 dict def $IDL_DICT begin /bdef { bind def } bind def /C
{currentpoint newpath moveto} bdef /CP {currentpoint} bdef /D {currentpoint
stroke moveto} bdef /F {closepath fill} bdef /K { setgray } bdef /M {moveto}
bdef /N {rmoveto} bdef /P {lineto} bdef /R {rlineto} bdef /S {gsave show
grestore} bdef /X {currentpoint pop} bdef /Z {gsave currentpoint lineto 20
setlinewidth 1 setlinecap stroke grestore} bdef /L0 {[] 0 setdash} bdef /L1
{[40 100] 0 setdash} bdef /L2 {[200 200] 0 setdash} bdef /L3 {[200 100 50
100] 0 setdash} bdef /L4 {[300 100 50 100 50 100 50 100] 0 setdash} bdef /L5
{[400 200] 0 setdash} bdef /STDFONT { findfont exch scalefont setfont } bdef
/ISOFONT { findfont dup length dict begin { 1 index /FID ne {def} {pop pop}
ifelse } forall /Encoding ISOLatin1Encoding def currentdict end /idltmpfont
exch definefont exch scalefont setfont } bdef /ISOBULLET { gsave /Helvetica
findfont exch scalefont setfont (\267) show currentpoint grestore moveto}
bdef /MITERLIMIT { 2.5 setmiterlimit } bdef end
%%EndProlog
%%Page: 0 1
%%PageRequirements: color
%%PageResources: (atend)
%%PageOrientation: Portrait
%%PageBoundingBox: 91 288 519 502
%%BeginPageSetup
save
$IDL_DICT begin 91 288 translate 0.0283465 dup scale MITERLIMIT
%%IncludeResource: font Helvetica
423.333 /Helvetica STDFONT
%%EndPageSetup
10 setlinewidth L0 0.000 0.000 0.000 setrgbcolor 4668 7370 M 204 -307 R D
4872 7370 M -204 -307 R D 5208 7268 M 0 -322 R D 5208 7224 M 29 29 R 29 15 R
44 0 R 29 -15 R 30 -29 R 14 -44 R 0 -29 R -14 -44 R -30 -29 R -29 -15 R
-44 0 R -29 15 R -29 29 R D 5544 7268 M -29 -15 R -29 -29 R -15 -44 R
0 -29 R 15 -44 R 29 -29 R 29 -15 R 44 0 R 29 15 R 29 29 R 15 44 R 0 29 R
-15 44 R -29 29 R -29 15 R -44 0 R D 5909 7224 M -15 29 R -43 15 R -44 0 R
-44 -15 R -15 -29 R 15 -29 R 29 -15 R 73 -15 R 29 -14 R 15 -29 R 0 -15 R
-15 -29 R -43 -15 R -44 0 R -44 15 R -15 29 R D 5997 7370 M 14 -15 R 15 15 R
-15 15 R -14 -15 R D 6011 7268 M 0 -205 R D 6143 7370 M 0 -248 R 14 -44 R
30 -15 R 29 0 R D 6099 7268 M 102 0 R D 6289 7370 M 14 -15 R 15 15 R
-15 15 R -14 -15 R D 6303 7268 M 0 -205 R D 6479 7268 M -30 -15 R -29 -29 R
-14 -44 R 0 -29 R 14 -44 R 29 -29 R 30 -15 R 44 0 R 29 15 R 29 29 R 15 44 R
0 29 R -15 44 R -29 29 R -29 15 R -44 0 R D 6698 7268 M 0 -205 R D
6698 7209 M 44 44 R 29 15 R 44 0 R 29 -15 R 14 -44 R 0 -146 R D 7194 7180 M
176 0 R 0 29 R -15 30 R -15 14 R -29 15 R -44 0 R -29 -15 R -29 -29 R
-15 -44 R 0 -29 R 15 -44 R 29 -29 R 29 -15 R 44 0 R 29 15 R 30 29 R D
7618 7224 M -15 29 R -44 15 R -43 0 R -44 -15 R -15 -29 R 15 -29 R 29 -15 R
73 -15 R 29 -14 R 15 -29 R 0 -15 R -15 -29 R -44 -15 R -43 0 R -44 15 R
-15 29 R D 7735 7370 M 0 -248 R 14 -44 R 30 -15 R 29 0 R D 7691 7268 M
102 0 R D 7881 7370 M 14 -15 R 15 15 R -15 15 R -14 -15 R D 7895 7268 M
0 -205 R D 8012 7268 M 0 -205 R D 8012 7209 M 44 44 R 29 15 R 44 0 R
29 -15 R 15 -44 R 0 -146 R D 8173 7209 M 44 44 R 29 15 R 44 0 R 29 -15 R
15 -44 R 0 -146 R D 8611 7268 M 0 -205 R D 8611 7224 M -29 29 R -29 15 R
-44 0 R -29 -15 R -30 -29 R -14 -44 R 0 -29 R 14 -44 R 30 -29 R 29 -15 R
44 0 R 29 15 R 29 29 R D 8743 7370 M 0 -248 R 14 -44 R 29 -15 R 30 0 R D
8699 7268 M 102 0 R D 8889 7370 M 14 -15 R 15 15 R -15 15 R -14 -15 R D
8903 7268 M 0 -205 R D 9078 7268 M -29 -15 R -29 -29 R -15 -44 R 0 -29 R
15 -44 R 29 -29 R 29 -15 R 44 0 R 29 15 R 30 29 R 14 44 R 0 29 R -14 44 R
-30 29 R -29 15 R -44 0 R D 9298 7268 M 0 -205 R D 9298 7209 M 43 44 R
30 15 R 43 0 R 30 -15 R 14 -44 R 0 -146 R D 9969 7370 M 0 -307 R D
9969 7224 M -29 29 R -29 15 R -44 0 R -29 -15 R -29 -29 R -15 -44 R 0 -29 R
15 -44 R 29 -29 R 29 -15 R 44 0 R 29 15 R 29 29 R D 10072 7180 M 175 0 R
0 29 R -15 30 R -14 14 R -30 15 R -43 0 R -30 -15 R -29 -29 R -14 -44 R
0 -29 R 14 -44 R 29 -29 R 30 -15 R 43 0 R 30 15 R 29 29 R D 10320 7268 M
88 -205 R 87 205 R D 10568 7370 M 15 -15 R 14 15 R -14 15 R -15 -15 R D
10583 7268 M 0 -205 R D 10860 7268 M 0 -205 R D 10860 7224 M -29 29 R
-29 15 R -44 0 R -29 -15 R -29 -29 R -15 -44 R 0 -29 R 15 -44 R 29 -29 R
29 -15 R 44 0 R 29 15 R 29 29 R D 10992 7370 M 0 -248 R 14 -44 R 30 -15 R
29 0 R D 10948 7268 M 102 0 R D 11138 7370 M 14 -15 R 15 15 R -15 15 R
-14 -15 R D 11152 7268 M 0 -205 R D 11328 7268 M -30 -15 R -29 -29 R
-14 -44 R 0 -29 R 14 -44 R 29 -29 R 30 -15 R 43 0 R 30 15 R 29 29 R 14 44 R
0 29 R -14 44 R -29 29 R -30 15 R -43 0 R D 11547 7268 M 0 -205 R D
11547 7209 M 44 44 R 29 15 R 44 0 R 29 -15 R 14 -44 R 0 -146 R D
11970 7224 M -14 29 R -44 15 R -44 0 R -44 -15 R -14 -29 R 14 -29 R 29 -15 R
73 -15 R 30 -14 R 14 -29 R 0 -15 R -14 -29 R -44 -15 R -44 0 R -44 15 R
-14 29 R D 40 setlinewidth 2220 1408 M 12227 0 R D 2220 1408 M 0 109 R D
10 setlinewidth 1870 1079 M 23 11 R 35 35 R 0 -245 R D 2092 903 M -12 -11 R
12 -12 R 11 12 R -11 11 R D 2302 1125 M -117 -163 R 175 0 R D 2302 1125 M
0 -245 R D 2571 1090 M -12 24 R -35 11 R -24 0 R -35 -11 R -23 -35 R
-12 -59 R 0 -58 R 12 -47 R 23 -23 R 35 -12 R 12 0 R 35 12 R 24 23 R 11 35 R
0 12 R -11 35 R -24 23 R -35 12 R -12 0 R -35 -12 R -23 -23 R -12 -35 R D
40 setlinewidth 5277 1408 M 0 109 R D 10 setlinewidth 4926 1079 M 24 11 R
35 35 R 0 -245 R D 5148 903 M -11 -11 R 11 -12 R 12 12 R -12 11 R D
5359 1125 M -117 -163 R 175 0 R D 5359 1125 M 0 -245 R D 5534 1125 M
-35 -11 R -12 -24 R 0 -23 R 12 -23 R 23 -12 R 47 -12 R 35 -11 R 23 -24 R
12 -23 R 0 -35 R -12 -24 R -11 -11 R -35 -12 R -47 0 R -35 12 R -12 11 R
-12 24 R 0 35 R 12 23 R 24 24 R 35 11 R 46 12 R 24 12 R 11 23 R 0 23 R
-11 24 R -35 11 R -47 0 R D 40 setlinewidth 8334 1408 M 0 109 R D
10 setlinewidth 7983 1079 M 23 11 R 35 35 R 0 -245 R D 8205 903 M -12 -11 R
12 -12 R 12 12 R -12 11 R D 8439 1125 M -117 0 R -12 -105 R 12 12 R 35 12 R
35 0 R 35 -12 R 23 -23 R 12 -35 R 0 -24 R -12 -35 R -23 -23 R -35 -12 R
-35 0 R -35 12 R -12 11 R -11 24 R D 8602 1125 M -35 -11 R -23 -35 R
-12 -59 R 0 -35 R 12 -58 R 23 -35 R 35 -12 R 24 0 R 35 12 R 23 35 R 12 58 R
0 35 R -12 59 R -23 35 R -35 11 R -24 0 R D 40 setlinewidth 11390 1408 M
0 109 R D 10 setlinewidth 11040 1079 M 23 11 R 35 35 R 0 -245 R D
11262 903 M -12 -11 R 12 -12 R 11 12 R -11 11 R D 11495 1125 M -116 0 R
-12 -105 R 12 12 R 35 12 R 35 0 R 35 -12 R 23 -23 R 12 -35 R 0 -24 R
-12 -35 R -23 -23 R -35 -12 R -35 0 R -35 12 R -12 11 R -12 24 R D
11601 1067 M 0 12 R 11 23 R 12 12 R 23 11 R 47 0 R 23 -11 R 12 -12 R
12 -23 R 0 -24 R -12 -23 R -23 -35 R -117 -117 R 164 0 R D 40 setlinewidth
14447 1408 M 0 109 R D 10 setlinewidth 14097 1079 M 23 11 R 35 35 R 0 -245 R
D 14319 903 M -12 -11 R 12 -12 R 11 12 R -11 11 R D 14552 1125 M -117 0 R
-11 -105 R 11 12 R 35 12 R 35 0 R 36 -12 R 23 -23 R 12 -35 R 0 -24 R
-12 -35 R -23 -23 R -36 -12 R -35 0 R -35 12 R -11 11 R -12 24 R D
14763 1125 M -117 -163 R 175 0 R D 14763 1125 M 0 -245 R D 40 setlinewidth
2984 1408 M 0 54 R D 3748 1408 M 0 54 R D 4513 1408 M 0 54 R D 6041 1408 M
0 54 R D 6805 1408 M 0 54 R D 7569 1408 M 0 54 R D 9098 1408 M 0 54 R D
9862 1408 M 0 54 R D 10626 1408 M 0 54 R D 12155 1408 M 0 54 R D
12919 1408 M 0 54 R D 13683 1408 M 0 54 R D 10 setlinewidth 6914 668 M
164 -246 R D 7078 668 M -164 -246 R D 7346 586 M 0 -257 R D 7346 551 M
24 23 R 23 12 R 35 0 R 23 -12 R 24 -23 R 11 -35 R 0 -23 R -11 -36 R
-24 -23 R -23 -12 R -35 0 R -23 12 R -24 23 R D 7615 586 M -23 -12 R
-24 -23 R -11 -35 R 0 -23 R 11 -36 R 24 -23 R 23 -12 R 35 0 R 23 12 R
24 23 R 11 36 R 0 23 R -11 35 R -24 23 R -23 12 R -35 0 R D 7907 551 M
-12 23 R -35 12 R -35 0 R -35 -12 R -11 -23 R 11 -23 R 24 -12 R 58 -12 R
23 -11 R 12 -24 R 0 -12 R -12 -23 R -35 -12 R -35 0 R -35 12 R -11 23 R D
7977 668 M 12 -12 R 12 12 R -12 11 R -12 -11 R D 7989 586 M 0 -164 R D
8094 668 M 0 -199 R 12 -35 R 23 -12 R 23 0 R D 8059 586 M 82 0 R D
8211 668 M 12 -12 R 11 12 R -11 11 R -12 -11 R D 8223 586 M 0 -164 R D
8363 586 M -24 -12 R -23 -23 R -12 -35 R 0 -23 R 12 -36 R 23 -23 R 24 -12 R
35 0 R 23 12 R 24 23 R 11 36 R 0 23 R -11 35 R -24 23 R -23 12 R -35 0 R D
8538 586 M 0 -164 R D 8538 539 M 35 35 R 23 12 R 36 0 R 23 -12 R 12 -35 R
0 -117 R D 9029 715 M -24 -24 R -23 -35 R -23 -47 R -12 -58 R 0 -47 R
12 -58 R 23 -59 R 23 -35 R 24 -23 R D 9111 668 M 0 -246 R D 9111 551 M
23 23 R 23 12 R 35 0 R 24 -12 R 23 -23 R 12 -35 R 0 -23 R -12 -36 R
-23 -23 R -24 -12 R -35 0 R -23 12 R -23 23 R D 9321 668 M 12 -12 R 11 12 R
-11 11 R -12 -11 R D 9333 586 M 0 -164 R D 9426 586 M 0 -164 R D 9426 539 M
35 35 R 23 12 R 36 0 R 23 -12 R 12 -35 R 0 -117 R D 9636 715 M 24 -24 R
23 -35 R 23 -47 R 12 -58 R 0 -47 R -12 -58 R -23 -59 R -23 -35 R -24 -23 R D
40 setlinewidth 2220 6852 M 12227 0 R D 2220 6852 M 0 -109 R D 5277 6852 M
0 -109 R D 8334 6852 M 0 -109 R D 11390 6852 M 0 -109 R D 14447 6852 M
0 -109 R D 2984 6852 M 0 -54 R D 3748 6852 M 0 -54 R D 4513 6852 M 0 -54 R D
6041 6852 M 0 -54 R D 6805 6852 M 0 -54 R D 7569 6852 M 0 -54 R D
9098 6852 M 0 -54 R D 9862 6852 M 0 -54 R D 10626 6852 M 0 -54 R D
12155 6852 M 0 -54 R D 12919 6852 M 0 -54 R D 13683 6852 M 0 -54 R D
2220 1408 M 0 5444 R D 2220 1408 M 245 0 R D 10 setlinewidth 1969 1653 M
-35 -11 R -24 -35 R -11 -59 R 0 -35 R 11 -58 R 24 -35 R 35 -12 R 23 0 R
35 12 R 24 35 R 11 58 R 0 35 R -11 59 R -24 35 R -35 11 R -23 0 R D
40 setlinewidth 2220 2497 M 245 0 R D 10 setlinewidth 1677 2543 M 0 12 R
11 23 R 12 12 R 23 11 R 47 0 R 24 -11 R 11 -12 R 12 -23 R 0 -24 R -12 -23 R
-23 -35 R -117 -117 R 164 0 R D 1969 2601 M -35 -11 R -24 -35 R -11 -59 R
0 -35 R 11 -58 R 24 -35 R 35 -12 R 23 0 R 35 12 R 24 35 R 11 58 R 0 35 R
-11 59 R -24 35 R -35 11 R -23 0 R D 40 setlinewidth 2220 3586 M 245 0 R D
10 setlinewidth 1782 3690 M -117 -163 R 175 0 R D 1782 3690 M 0 -245 R D
1969 3690 M -35 -11 R -24 -36 R -11 -58 R 0 -35 R 11 -58 R 24 -35 R 35 -12 R
23 0 R 35 12 R 24 35 R 11 58 R 0 35 R -11 58 R -24 36 R -35 11 R -23 0 R D
40 setlinewidth 2220 4674 M 245 0 R D 10 setlinewidth 1817 4744 M -12 23 R
-35 12 R -23 0 R -35 -12 R -24 -35 R -11 -58 R 0 -59 R 11 -46 R 24 -24 R
35 -11 R 12 0 R 35 11 R 23 24 R 12 35 R 0 11 R -12 35 R -23 24 R -35 12 R
-12 0 R -35 -12 R -24 -24 R -11 -35 R D 1969 4779 M -35 -12 R -24 -35 R
-11 -58 R 0 -35 R 11 -59 R 24 -35 R 35 -11 R 23 0 R 35 11 R 24 35 R 11 59 R
0 35 R -11 58 R -24 35 R -35 12 R -23 0 R D 40 setlinewidth 2220 5763 M
245 0 R D 10 setlinewidth 1723 5868 M -35 -12 R -11 -23 R 0 -24 R 11 -23 R
24 -12 R 47 -11 R 35 -12 R 23 -23 R 12 -24 R 0 -35 R -12 -23 R -12 -12 R
-35 -12 R -47 0 R -35 12 R -11 12 R -12 23 R 0 35 R 12 24 R 23 23 R 35 12 R
47 11 R 23 12 R 12 23 R 0 24 R -12 23 R -35 12 R -47 0 R D 1969 5868 M
-35 -12 R -24 -35 R -11 -58 R 0 -35 R 11 -59 R 24 -35 R 35 -12 R 23 0 R
35 12 R 24 35 R 11 59 R 0 35 R -11 58 R -24 35 R -35 12 R -23 0 R D
40 setlinewidth 2220 6852 M 245 0 R D 10 setlinewidth 1466 6804 M 24 12 R
35 35 R 0 -245 R D 1735 6851 M -35 -12 R -23 -35 R -12 -58 R 0 -35 R
12 -59 R 23 -35 R 35 -11 R 24 0 R 35 11 R 23 35 R 12 59 R 0 35 R -12 58 R
-23 35 R -35 12 R -24 0 R D 1969 6851 M -35 -12 R -24 -35 R -11 -58 R
0 -35 R 11 -59 R 24 -35 R 35 -11 R 23 0 R 35 11 R 24 35 R 11 59 R 0 35 R
-11 58 R -24 35 R -35 12 R -23 0 R D 40 setlinewidth 2220 1680 M 122 0 R D
2220 1952 M 122 0 R D 2220 2225 M 122 0 R D 2220 2769 M 122 0 R D
2220 3041 M 122 0 R D 2220 3313 M 122 0 R D 2220 3858 M 122 0 R D
2220 4130 M 122 0 R D 2220 4402 M 122 0 R D 2220 4947 M 122 0 R D
2220 5219 M 122 0 R D 2220 5491 M 122 0 R D 2220 6035 M 122 0 R D
2220 6308 M 122 0 R D 2220 6580 M 122 0 R D 14447 1408 M 0 5444 R D
14447 1408 M -244 0 R D 14447 2497 M -244 0 R D 14447 3586 M -244 0 R D
14447 4674 M -244 0 R D 14447 5763 M -244 0 R D 14447 6852 M -244 0 R D
14447 1680 M -122 0 R D 14447 1952 M -122 0 R D 14447 2225 M -122 0 R D
14447 2769 M -122 0 R D 14447 3041 M -122 0 R D 14447 3313 M -122 0 R D
14447 3858 M -122 0 R D 14447 4130 M -122 0 R D 14447 4402 M -122 0 R D
14447 4947 M -122 0 R D 14447 5219 M -122 0 R D 14447 5491 M -122 0 R D
14447 6035 M -122 0 R D 14447 6308 M -122 0 R D 14447 6580 M -122 0 R D
5385 1462 M 15 0 R 15 0 R 15 0 R 0 -54 R 15 0 R 16 0 R 0 54 R 15 0 R 15 0 R
0 -54 R 15 0 R 15 0 R 0 54 R 16 0 R 15 0 R 0 -54 R 15 0 R 15 0 R 0 54 R
15 0 R 16 0 R 15 0 R 15 0 R 0 -54 R 15 0 R 15 0 R 16 0 R 15 0 R 0 109 R
15 0 R 15 0 R 15 0 R 16 0 R 0 -55 R 15 0 R 15 0 R 0 218 R 15 0 R 15 0 R
0 -218 R 16 0 R 15 0 R 15 0 R 15 0 R 0 218 R 15 0 R 16 0 R 0 -109 R 15 0 R
15 0 R 0 -54 R 15 0 R 15 0 R 0 54 R 15 0 R 16 0 R 0 -109 R 15 0 R 15 0 R
0 218 R 15 0 R 15 0 R 0 -163 R 16 0 R 15 0 R 0 54 R 15 0 R 15 0 R 0 -54 R
15 0 R 16 0 R 0 327 R 15 0 R 15 0 R 0 -164 R 15 0 R 15 0 R 16 0 R 15 0 R
0 109 R 15 0 R 15 0 R 0 -109 R 15 0 R 16 0 R 0 -109 R 15 0 R 15 0 R 0 164 R
15 0 R 15 0 R 0 -218 R 16 0 R 15 0 R 0 544 R 15 0 R 15 0 R 0 -217 R 15 0 R
15 0 R 16 0 R 15 0 R 0 -55 R 15 0 R 15 0 R 0 272 R 15 0 R 16 0 R 0 -109 R
15 0 R 15 0 R 0 164 R 15 0 R 15 0 R 0 109 R 16 0 R 15 0 R 0 54 R 15 0 R
15 0 R 0 272 R 15 0 R 16 0 R 0 -599 R 15 0 R 15 0 R 0 218 R 15 0 R 15 0 R
0 55 R 16 0 R 15 0 R 0 163 R 15 0 R 15 0 R 0 -163 R 15 0 R 16 0 R 0 109 R
15 0 R 15 0 R 0 707 R 15 0 R 15 0 R 0 -54 R 15 0 R 16 0 R 0 544 R 15 0 R
15 0 R 0 -381 R 15 0 R 15 0 R 0 -653 R 16 0 R 15 0 R 0 653 R 15 0 R 15 0 R
0 -218 R 15 0 R 16 0 R 0 273 R 15 0 R 15 0 R 0 272 R 15 0 R 15 0 R 0 -490 R
16 0 R 15 0 R 0 490 R 15 0 R 15 0 R 0 -272 R 15 0 R 16 0 R 0 707 R 15 0 R
15 0 R 0 -435 R 15 0 R 15 0 R 0 -436 R 16 0 R 15 0 R 0 272 R 15 0 R 15 0 R
0 817 R 15 0 R 16 0 R 0 -272 R 15 0 R 15 0 R 0 435 R 15 0 R 15 0 R 0 -381 R
15 0 R 16 0 R 0 -54 R 15 0 R 15 0 R 0 435 R 15 0 R 15 0 R 0 -272 R 16 0 R
15 0 R 0 163 R 15 0 R 15 0 R 0 490 R 15 0 R 16 0 R 0 599 R 15 0 R 15 0 R
0 -707 R 15 0 R 15 0 R 0 -273 R 16 0 R 15 0 R 0 871 R 15 0 R 15 0 R 0 -598 R
15 0 R 16 0 R 0 272 R 15 0 R 15 0 R 0 544 R 15 0 R 15 0 R 0 -326 R 16 0 R
15 0 R 0 272 R 15 0 R 15 0 R 0 -708 R 15 0 R 15 0 R 0 -54 R 16 0 R 15 0 R
0 381 R 15 0 R 15 0 R 0 871 R 15 0 R 16 0 R 0 -1252 R 15 0 R 15 0 R 0 762 R
15 0 R 15 0 R 0 54 R 16 0 R 15 0 R 0 -653 R 15 0 R 15 0 R 0 762 R 15 0 R
16 0 R 0 -109 R 15 0 R 15 0 R 0 163 R 15 0 R 15 0 R 0 -435 R 16 0 R 15 0 R
0 109 R 15 0 R 15 0 R 0 381 R 15 0 R 16 0 R 0 -109 R 15 0 R 15 0 R 0 327 R
15 0 R 15 0 R 0 -381 R 16 0 R 15 0 R 0 -164 R 15 0 R 15 0 R 0 -326 R 15 0 R
15 0 R 0 -381 R 16 0 R 15 0 R 0 707 R 15 0 R 15 0 R 0 -435 R 15 0 R 16 0 R
0 544 R 15 0 R 15 0 R 0 -381 R 15 0 R 15 0 R 0 -490 R 16 0 R 15 0 R 0 218 R
15 0 R 15 0 R 15 0 R 16 0 R 0 381 R 15 0 R 15 0 R 0 -381 R 15 0 R 15 0 R
0 -218 R 16 0 R 15 0 R 0 -762 R 15 0 R 15 0 R 0 1252 R 15 0 R 16 0 R
0 -817 R 15 0 R 15 0 R 0 1198 R 15 0 R 15 0 R 0 -1361 R 15 0 R 16 0 R
0 163 R 15 0 R 15 0 R 0 164 R 15 0 R 15 0 R 0 -164 R 16 0 R 15 0 R 0 -489 R
15 0 R 15 0 R 0 435 R 15 0 R 16 0 R 0 327 R 15 0 R 15 0 R 0 -218 R 15 0 R
15 0 R 0 -653 R 16 0 R 15 0 R 0 490 R 15 0 R 15 0 R 0 -273 R 15 0 R 16 0 R
0 -1088 R 15 0 R 15 0 R 0 925 R 15 0 R 15 0 R 0 -327 R 16 0 R 15 0 R 0 436 R
15 0 R 15 0 R 0 -327 R 15 0 R 16 0 R 0 -490 R 15 0 R 15 0 R 0 381 R 15 0 R
15 0 R 0 55 R 15 0 R 16 0 R 0 -980 R 15 0 R 15 0 R 0 272 R 15 0 R 15 0 R
0 272 R 16 0 R 15 0 R 0 -381 R 15 0 R 15 0 R 0 -54 R 15 0 R 16 0 R 0 163 R
15 0 R 15 0 R 15 0 R 15 0 R 0 -218 R 16 0 R 15 0 R 0 436 R 15 0 R 15 0 R
15 0 R 16 0 R 0 -599 R 15 0 R 15 0 R 0 109 R 15 0 R 15 0 R 0 -109 R 16 0 R
15 0 R 0 272 R 15 0 R 15 0 R 0 -435 R 15 0 R 15 0 R 0 163 R 16 0 R 15 0 R
0 -327 R 15 0 R 15 0 R 0 164 R 15 0 R 16 0 R 15 0 R 15 0 R 0 -218 R 15 0 R
15 0 R 0 -109 R 16 0 R 15 0 R 0 109 R 15 0 R 15 0 R 0 54 R 15 0 R 16 0 R
0 109 R 15 0 R 15 0 R 0 -109 R 15 0 R 15 0 R 0 -326 R 16 0 R 15 0 R 0 544 R
15 0 R 15 0 R 0 -435 R 15 0 R 16 0 R 0 -109 R 15 0 R 15 0 R 0 109 R 15 0 R
15 0 R 0 -218 R 16 0 R 15 0 R 0 163 R 15 0 R 15 0 R 0 55 R 15 0 R 15 0 R
0 -55 R 16 0 R 15 0 R 15 0 R 15 0 R 15 0 R 16 0 R 0 -54 R 15 0 R 15 0 R
0 -109 R 15 0 R 15 0 R 0 272 R 16 0 R 15 0 R 0 -272 R 15 0 R 15 0 R 0 54 R
15 0 R 16 0 R 15 0 R 15 0 R 0 -163 R 15 0 R 15 0 R 0 109 R 16 0 R 15 0 R
0 109 R 15 0 R 15 0 R 0 -218 R 15 0 R 16 0 R 0 54 R 15 0 R 15 0 R 15 0 R
15 0 R 0 55 R 15 0 R 16 0 R 0 109 R 15 0 R 15 0 R 0 -164 R 15 0 R 15 0 R
0 -54 R 16 0 R 15 0 R 0 163 R 15 0 R 15 0 R 0 -109 R 15 0 R 16 0 R 15 0 R
15 0 R 0 -54 R 15 0 R 15 0 R 16 0 R 15 0 R 15 0 R 15 0 R 15 0 R 16 0 R
15 0 R 15 0 R 15 0 R 15 0 R 0 54 R 16 0 R 15 0 R 0 -54 R 15 0 R 15 0 R
15 0 R 16 0 R 15 0 R 15 0 R 15 0 R 15 0 R 15 0 R 16 0 R 15 0 R 15 0 R 15 0 R
15 0 R 16 0 R 15 0 R 0 54 R 15 0 R 15 0 R 0 -54 R 15 0 R 16 0 R 15 0 R
15 0 R 15 0 R 15 0 R 16 0 R 15 0 R 15 0 R 15 0 R 15 0 R 16 0 R 15 0 R 15 0 R
15 0 R 15 0 R 16 0 R 15 0 R 0 54 R 15 0 R D 60 setlinewidth
1.000 0.000 0.000 setrgbcolor 5385 1436 M 30 3 R 30 4 R 31 3 R 30 4 R 31 5 R
30 4 R 30 6 R 31 5 R 30 6 R 31 7 R 30 7 R 30 8 R 31 8 R 30 9 R 31 10 R
30 10 R 30 12 R 31 12 R 30 13 R 30 14 R 31 15 R 30 16 R 31 17 R 30 18 R
30 19 R 31 21 R 30 22 R 31 23 R 30 25 R 30 26 R 31 28 R 30 29 R 31 30 R
30 33 R 30 33 R 31 36 R 30 37 R 30 40 R 31 41 R 30 42 R 31 45 R 30 46 R
30 48 R 31 51 R 30 52 R 31 53 R 30 56 R 30 57 R 31 60 R 30 61 R 30 62 R
31 64 R 30 66 R 31 68 R 30 68 R 30 71 R 31 71 R 30 72 R 31 74 R 30 74 R
30 76 R 31 76 R 30 76 R 31 77 R 30 77 R 30 77 R 31 77 R 30 77 R 30 76 R
31 75 R 30 75 R 31 74 R 30 73 R 30 71 R 31 69 R 30 68 R 31 66 R 30 64 R
30 62 R 31 59 R 30 56 R 31 54 R 30 50 R 30 48 R 31 44 R 30 41 R 30 37 R
31 34 R 30 30 R 31 26 R 30 22 R 30 18 R 31 14 R 30 10 R 31 6 R 30 2 R
30 -3 R 31 -7 R 30 -10 R 31 -15 R 30 -19 R 30 -23 R 31 -27 R 30 -30 R
30 -35 R 31 -38 R 30 -41 R 31 -45 R 30 -48 R 30 -51 R 31 -54 R 30 -57 R
31 -60 R 30 -62 R 30 -64 R 31 -67 R 30 -68 R 30 -70 R 31 -71 R 30 -73 R
31 -74 R 30 -75 R 30 -76 R 31 -76 R 30 -77 R 31 -77 R 30 -77 R 30 -77 R
31 -77 R 30 -76 R 31 -76 R 30 -75 R 30 -74 R 31 -74 R 30 -72 R 30 -71 R
31 -70 R 30 -68 R 31 -67 R 30 -66 R 30 -64 R 31 -62 R 30 -61 R 31 -59 R
30 -57 R 30 -55 R 31 -54 R 30 -51 R 31 -50 R 30 -48 R 30 -46 R 31 -44 R
30 -42 R 30 -41 R 31 -39 R 30 -37 R 31 -35 R 30 -34 R 30 -32 R 31 -30 R
30 -29 R 31 -27 R 30 -26 R 30 -24 R 31 -23 R 30 -22 R 31 -20 R 30 -19 R
30 -18 R 31 -17 R 30 -16 R 30 -15 R 31 -14 R 30 -12 R 31 -12 R 30 -12 R
30 -10 R 31 -10 R 30 -9 R 31 -8 R 30 -7 R 30 -7 R 31 -7 R 30 -6 R 30 -5 R
31 -6 R 30 -4 R 31 -4 R 30 -4 R 30 -4 R 31 -3 R 30 -3 R 31 -3 R 30 -2 R
30 -3 R 31 -2 R 30 -2 R 31 -1 R 30 -2 R 30 -1 R 31 -1 R 30 -2 R 30 -1 R
31 0 R 30 -1 R 31 -1 R 30 -1 R 30 0 R 31 -1 R 30 0 R 31 -1 R 30 0 R 30 0 R
31 -1 R 30 0 R 31 0 R 30 0 R D 10 setlinewidth 0.000 0.000 0.000 setrgbcolor
2866 6471 M 0 -163 R D 2866 6424 M 36 36 R 23 11 R 35 0 R 23 -11 R 12 -36 R
0 -116 R D 2995 6424 M 35 36 R 23 11 R 35 0 R 24 -11 R 12 -36 R 0 -116 R D
3205 6401 M 141 0 R 0 23 R -12 24 R -12 12 R -23 11 R -35 0 R -24 -11 R
-23 -24 R -12 -35 R 0 -23 R 12 -35 R 23 -24 R 24 -11 R 35 0 R 23 11 R
24 24 R D 3556 6471 M 0 -163 R D 3556 6436 M -24 24 R -23 11 R -35 0 R
-23 -11 R -24 -24 R -11 -35 R 0 -23 R 11 -35 R 24 -24 R 23 -11 R 35 0 R
23 11 R 24 24 R D 3649 6471 M 0 -163 R D 3649 6424 M 35 36 R 24 11 R 35 0 R
23 -11 R 12 -36 R 0 -116 R D 4058 6448 M 211 0 R D 4058 6378 M 211 0 R D
5507 6506 M 23 12 R 36 35 R 0 -245 R D 5729 6331 M -12 -12 R 12 -11 R
12 11 R -12 12 R D 5963 6553 M -117 0 R -12 -105 R 12 12 R 35 11 R 35 0 R
35 -11 R 23 -24 R 12 -35 R 0 -23 R -12 -35 R -23 -24 R -35 -11 R -35 0 R
-35 11 R -12 12 R -11 23 R D 2866 6119 M 0 -163 R D 2866 6049 M 12 35 R
24 24 R 23 11 R 35 0 R D 3018 6119 M 0 -163 R D 3018 6072 M 35 36 R 24 11 R
35 0 R 23 -11 R 12 -36 R 0 -116 R D 3147 6072 M 35 36 R 23 11 R 35 0 R
24 -11 R 11 -36 R 0 -116 R D 3486 6084 M -12 24 R -35 11 R -35 0 R -35 -11 R
-12 -24 R 12 -23 R 23 -12 R 59 -12 R 23 -11 R 12 -24 R 0 -11 R -12 -24 R
-35 -11 R -35 0 R -35 11 R -12 24 R D 3754 6096 M 211 0 R D 3754 6026 M
211 0 R D 4572 6166 M -11 23 R -35 12 R -24 0 R -35 -12 R -23 -35 R
-12 -58 R 0 -59 R 12 -46 R 23 -24 R 35 -11 R 12 0 R 35 11 R 23 24 R 12 35 R
0 11 R -12 35 R -23 24 R -35 12 R -12 0 R -35 -12 R -23 -24 R -12 -35 R D
4678 5979 M -12 -12 R 12 -11 R 11 11 R -11 12 R D 4841 6201 M -35 -12 R
-23 -35 R -12 -58 R 0 -35 R 12 -59 R 23 -35 R 35 -11 R 23 0 R 36 11 R
23 35 R 12 59 R 0 35 R -12 58 R -23 35 R -36 12 R -23 0 R D 5168 6201 M
-117 -245 R D 5005 6201 M 163 0 R D 5390 6166 M -11 23 R -35 12 R -24 0 R
-35 -12 R -23 -35 R -12 -58 R 0 -59 R 12 -46 R 23 -24 R 35 -11 R 12 0 R
35 11 R 23 24 R 12 35 R 0 11 R -12 35 R -23 24 R -35 12 R -12 0 R -35 -12 R
-23 -24 R -12 -35 R D 5624 6119 M -12 -35 R -23 -23 R -35 -12 R -12 0 R
-35 12 R -23 23 R -12 35 R 0 12 R 12 35 R 23 23 R 35 12 R 12 0 R 35 -12 R
23 -23 R 12 -47 R 0 -58 R -12 -59 R -23 -35 R -35 -11 R -24 0 R -35 11 R
-11 24 R D 5717 6201 M 0 -245 R D 5717 6201 M 152 0 R D 5717 6084 M 94 0 R D
5717 5956 M 152 0 R D 5939 6061 M 211 0 R D 6302 6201 M -35 -12 R -24 -35 R
-11 -58 R 0 -35 R 11 -59 R 24 -35 R 35 -11 R 23 0 R 35 11 R 23 35 R 12 59 R
0 35 R -12 58 R -23 35 R -35 12 R -23 0 R D 6489 6201 M 128 0 R -70 -93 R
35 0 R 23 -12 R 12 -12 R 12 -35 R 0 -23 R -12 -35 R -23 -24 R -35 -11 R
-35 0 R -35 11 R -12 12 R -12 23 R D 2878 5849 M 0 -199 R 12 -35 R 23 -11 R
24 0 R D 2843 5767 M 82 0 R D 3007 5849 M 0 -245 R D 3007 5720 M 35 36 R
23 11 R 35 0 R 24 -11 R 11 -36 R 0 -116 R D 3217 5697 M 140 0 R 0 23 R
-11 24 R -12 12 R -24 11 R -35 0 R -23 -11 R -23 -24 R -12 -35 R 0 -23 R
12 -35 R 23 -24 R 23 -11 R 35 0 R 24 11 R 23 24 R D 3486 5767 M -24 -11 R
-23 -24 R -12 -35 R 0 -23 R 12 -35 R 23 -24 R 24 -11 R 35 0 R 23 11 R
24 24 R 11 35 R 0 23 R -11 35 R -24 24 R -23 11 R -35 0 R D 3661 5767 M
0 -163 R D 3661 5697 M 12 35 R 23 24 R 23 11 R 35 0 R D 3790 5767 M
70 -163 R 70 163 R D 3860 5604 M -24 -59 R -23 -23 R -23 -12 R -12 0 R D
4187 5744 M 210 0 R D 4187 5674 M 210 0 R D 4993 5849 M -117 0 R -12 -105 R
12 12 R 35 11 R 35 0 R 35 -11 R 24 -24 R 11 -35 R 0 -23 R -11 -35 R
-24 -24 R -35 -11 R -35 0 R -35 11 R -12 12 R -11 23 R D 5110 5627 M
-12 -12 R 12 -11 R 12 11 R -12 12 R D 5355 5767 M -11 -35 R -24 -23 R
-35 -12 R -12 0 R -35 12 R -23 23 R -12 35 R 0 12 R 12 35 R 23 23 R 35 12 R
12 0 R 35 -12 R 24 -23 R 11 -47 R 0 -58 R -11 -59 R -24 -35 R -35 -11 R
-23 0 R -35 11 R -12 24 R D 5589 5814 M -12 23 R -35 12 R -23 0 R -35 -12 R
-24 -35 R -11 -58 R 0 -59 R 11 -46 R 24 -24 R 35 -11 R 11 0 R 36 11 R
23 24 R 12 35 R 0 11 R -12 35 R -23 24 R -36 12 R -11 0 R -35 -12 R
-24 -24 R -11 -35 R D 5788 5849 M -117 -164 R 175 0 R D 5788 5849 M 0 -245 R
D 5963 5849 M -35 -12 R -12 -23 R 0 -23 R 12 -24 R 23 -11 R 47 -12 R
35 -12 R 23 -23 R 12 -24 R 0 -35 R -12 -23 R -11 -12 R -35 -11 R -47 0 R
-35 11 R -12 12 R -12 23 R 0 35 R 12 24 R 23 23 R 35 12 R 47 12 R 24 11 R
11 24 R 0 23 R -11 23 R -35 12 R -47 0 R D 6150 5849 M 0 -245 R D
6150 5849 M 152 0 R D 6150 5732 M 93 0 R D 6150 5604 M 152 0 R D 6372 5709 M
210 0 R D 6734 5849 M -35 -12 R -23 -35 R -12 -58 R 0 -35 R 12 -59 R
23 -35 R 35 -11 R 23 0 R 35 11 R 24 35 R 11 59 R 0 35 R -11 58 R -24 35 R
-35 12 R -23 0 R D 6921 5849 M 128 0 R -70 -93 R 35 0 R 24 -12 R 11 -12 R
12 -35 R 0 -23 R -12 -35 R -23 -24 R -35 -11 R -35 0 R -35 11 R -12 12 R
-11 23 R D
%%PageTrailer
end
restore
showpage
%%PageResources: font Helvetica
%%Trailer
restore
%%Pages: 1
%%DocumentNeededResources: font Helvetica
%%EOF
