%!PS-Adobe-3.0
%%BoundingBox: 91 288 519 502
%%Title: Graphics produced by IDL
%%For: yssu@archMini, 
%%      /home/yssu/SURF2015/Summer/multi_band/emissivity/hists
%%Creator: IDL Version 8.3 (linux x86_64 m64)
%%CreationDate: Tue Aug 18 10:59:21 2015
%%DocumentData: Clean7bit
%%Requirements: color
%%LanguageLevel: 2
%%PageOrder: Ascend
%%Pages: (atend)
%%DocumentNeededResources: (atend)
%%EndComments
%%BeginProlog
save
%+ prolog.ps -- Prolog for IDL generated PostScript files
%+ Copyright (c) 1988-2013 Exelis Visual Information Solutions, Inc. All Rights Reserved.
%v 5
/$IDL_DICT 40 dict def $IDL_DICT begin /bdef { bind def } bind def /C
{currentpoint newpath moveto} bdef /CP {currentpoint} bdef /D {currentpoint
stroke moveto} bdef /F {closepath fill} bdef /K { setgray } bdef /M {moveto}
bdef /N {rmoveto} bdef /P {lineto} bdef /R {rlineto} bdef /S {gsave show
grestore} bdef /X {currentpoint pop} bdef /Z {gsave currentpoint lineto 20
setlinewidth 1 setlinecap stroke grestore} bdef /L0 {[] 0 setdash} bdef /L1
{[40 100] 0 setdash} bdef /L2 {[200 200] 0 setdash} bdef /L3 {[200 100 50
100] 0 setdash} bdef /L4 {[300 100 50 100 50 100 50 100] 0 setdash} bdef /L5
{[400 200] 0 setdash} bdef /STDFONT { findfont exch scalefont setfont } bdef
/ISOFONT { findfont dup length dict begin { 1 index /FID ne {def} {pop pop}
ifelse } forall /Encoding ISOLatin1Encoding def currentdict end /idltmpfont
exch definefont exch scalefont setfont } bdef /ISOBULLET { gsave /Helvetica
findfont exch scalefont setfont (\267) show currentpoint grestore moveto}
bdef /MITERLIMIT { 2.5 setmiterlimit } bdef end
%%EndProlog
%%Page: 0 1
%%PageRequirements: color
%%PageResources: (atend)
%%PageOrientation: Portrait
%%PageBoundingBox: 91 288 519 502
%%BeginPageSetup
save
$IDL_DICT begin 91 288 translate 0.0283465 dup scale MITERLIMIT
%%IncludeResource: font Helvetica
423.333 /Helvetica STDFONT
%%EndPageSetup
10 setlinewidth L0 0.000 0.000 0.000 setrgbcolor 4668 7370 M 204 -307 R D
4872 7370 M -204 -307 R D 5208 7268 M 0 -322 R D 5208 7224 M 29 29 R 29 15 R
44 0 R 29 -15 R 30 -29 R 14 -44 R 0 -29 R -14 -44 R -30 -29 R -29 -15 R
-44 0 R -29 15 R -29 29 R D 5544 7268 M -29 -15 R -29 -29 R -15 -44 R
0 -29 R 15 -44 R 29 -29 R 29 -15 R 44 0 R 29 15 R 29 29 R 15 44 R 0 29 R
-15 44 R -29 29 R -29 15 R -44 0 R D 5909 7224 M -15 29 R -43 15 R -44 0 R
-44 -15 R -15 -29 R 15 -29 R 29 -15 R 73 -15 R 29 -14 R 15 -29 R 0 -15 R
-15 -29 R -43 -15 R -44 0 R -44 15 R -15 29 R D 5997 7370 M 14 -15 R 15 15 R
-15 15 R -14 -15 R D 6011 7268 M 0 -205 R D 6143 7370 M 0 -248 R 14 -44 R
30 -15 R 29 0 R D 6099 7268 M 102 0 R D 6289 7370 M 14 -15 R 15 15 R
-15 15 R -14 -15 R D 6303 7268 M 0 -205 R D 6479 7268 M -30 -15 R -29 -29 R
-14 -44 R 0 -29 R 14 -44 R 29 -29 R 30 -15 R 44 0 R 29 15 R 29 29 R 15 44 R
0 29 R -15 44 R -29 29 R -29 15 R -44 0 R D 6698 7268 M 0 -205 R D
6698 7209 M 44 44 R 29 15 R 44 0 R 29 -15 R 14 -44 R 0 -146 R D 7194 7180 M
176 0 R 0 29 R -15 30 R -15 14 R -29 15 R -44 0 R -29 -15 R -29 -29 R
-15 -44 R 0 -29 R 15 -44 R 29 -29 R 29 -15 R 44 0 R 29 15 R 30 29 R D
7618 7224 M -15 29 R -44 15 R -43 0 R -44 -15 R -15 -29 R 15 -29 R 29 -15 R
73 -15 R 29 -14 R 15 -29 R 0 -15 R -15 -29 R -44 -15 R -43 0 R -44 15 R
-15 29 R D 7735 7370 M 0 -248 R 14 -44 R 30 -15 R 29 0 R D 7691 7268 M
102 0 R D 7881 7370 M 14 -15 R 15 15 R -15 15 R -14 -15 R D 7895 7268 M
0 -205 R D 8012 7268 M 0 -205 R D 8012 7209 M 44 44 R 29 15 R 44 0 R
29 -15 R 15 -44 R 0 -146 R D 8173 7209 M 44 44 R 29 15 R 44 0 R 29 -15 R
15 -44 R 0 -146 R D 8611 7268 M 0 -205 R D 8611 7224 M -29 29 R -29 15 R
-44 0 R -29 -15 R -30 -29 R -14 -44 R 0 -29 R 14 -44 R 30 -29 R 29 -15 R
44 0 R 29 15 R 29 29 R D 8743 7370 M 0 -248 R 14 -44 R 29 -15 R 30 0 R D
8699 7268 M 102 0 R D 8889 7370 M 14 -15 R 15 15 R -15 15 R -14 -15 R D
8903 7268 M 0 -205 R D 9078 7268 M -29 -15 R -29 -29 R -15 -44 R 0 -29 R
15 -44 R 29 -29 R 29 -15 R 44 0 R 29 15 R 30 29 R 14 44 R 0 29 R -14 44 R
-30 29 R -29 15 R -44 0 R D 9298 7268 M 0 -205 R D 9298 7209 M 43 44 R
30 15 R 43 0 R 30 -15 R 14 -44 R 0 -146 R D 9969 7370 M 0 -307 R D
9969 7224 M -29 29 R -29 15 R -44 0 R -29 -15 R -29 -29 R -15 -44 R 0 -29 R
15 -44 R 29 -29 R 29 -15 R 44 0 R 29 15 R 29 29 R D 10072 7180 M 175 0 R
0 29 R -15 30 R -14 14 R -30 15 R -43 0 R -30 -15 R -29 -29 R -14 -44 R
0 -29 R 14 -44 R 29 -29 R 30 -15 R 43 0 R 30 15 R 29 29 R D 10320 7268 M
88 -205 R 87 205 R D 10568 7370 M 15 -15 R 14 15 R -14 15 R -15 -15 R D
10583 7268 M 0 -205 R D 10860 7268 M 0 -205 R D 10860 7224 M -29 29 R
-29 15 R -44 0 R -29 -15 R -29 -29 R -15 -44 R 0 -29 R 15 -44 R 29 -29 R
29 -15 R 44 0 R 29 15 R 29 29 R D 10992 7370 M 0 -248 R 14 -44 R 30 -15 R
29 0 R D 10948 7268 M 102 0 R D 11138 7370 M 14 -15 R 15 15 R -15 15 R
-14 -15 R D 11152 7268 M 0 -205 R D 11328 7268 M -30 -15 R -29 -29 R
-14 -44 R 0 -29 R 14 -44 R 29 -29 R 30 -15 R 43 0 R 30 15 R 29 29 R 14 44 R
0 29 R -14 44 R -29 29 R -30 15 R -43 0 R D 11547 7268 M 0 -205 R D
11547 7209 M 44 44 R 29 15 R 44 0 R 29 -15 R 14 -44 R 0 -146 R D
11970 7224 M -14 29 R -44 15 R -44 0 R -44 -15 R -14 -29 R 14 -29 R 29 -15 R
73 -15 R 30 -14 R 14 -29 R 0 -15 R -14 -29 R -44 -15 R -44 0 R -44 15 R
-14 29 R D 40 setlinewidth 2220 1408 M 12227 0 R D 2220 1408 M 0 109 R D
10 setlinewidth 1753 1079 M 23 11 R 35 35 R 0 -245 R D 1975 903 M -12 -11 R
12 -12 R 11 12 R -11 11 R D 2185 1125 M -117 -163 R 175 0 R D 2185 1125 M
0 -245 R D 2454 1044 M -12 -35 R -23 -24 R -35 -11 R -12 0 R -35 11 R
-23 24 R -12 35 R 0 11 R 12 35 R 23 24 R 35 11 R 12 0 R 35 -11 R 23 -24 R
12 -46 R 0 -59 R -12 -58 R -23 -35 R -35 -12 R -24 0 R -35 12 R -11 23 R D
2547 1067 M 0 12 R 12 23 R 12 12 R 23 11 R 47 0 R 23 -11 R 12 -12 R 11 -23 R
0 -24 R -11 -23 R -24 -35 R -116 -117 R 163 0 R D 40 setlinewidth
3967 1408 M 0 109 R D 10 setlinewidth 3499 1079 M 24 11 R 35 35 R 0 -245 R D
3721 903 M -11 -11 R 11 -12 R 12 12 R -12 11 R D 3932 1125 M -117 -163 R
175 0 R D 3932 1125 M 0 -245 R D 4200 1044 M -11 -35 R -24 -24 R -35 -11 R
-11 0 R -35 11 R -24 24 R -11 35 R 0 11 R 11 35 R 24 24 R 35 11 R 11 0 R
35 -11 R 24 -24 R 11 -46 R 0 -59 R -11 -58 R -24 -35 R -35 -12 R -23 0 R
-35 12 R -12 23 R D 4399 1125 M -117 -163 R 176 0 R D 4399 1125 M 0 -245 R D
40 setlinewidth 5714 1408 M 0 109 R D 10 setlinewidth 5246 1079 M 24 11 R
35 35 R 0 -245 R D 5468 903 M -12 -11 R 12 -12 R 12 12 R -12 11 R D
5678 1125 M -116 -163 R 175 0 R D 5678 1125 M 0 -245 R D 5947 1044 M
-11 -35 R -24 -24 R -35 -11 R -12 0 R -35 11 R -23 24 R -12 35 R 0 11 R
12 35 R 23 24 R 35 11 R 12 0 R 35 -11 R 24 -24 R 11 -46 R 0 -59 R -11 -58 R
-24 -35 R -35 -12 R -23 0 R -35 12 R -12 23 R D 6181 1090 M -12 24 R
-35 11 R -23 0 R -35 -11 R -24 -35 R -11 -59 R 0 -58 R 11 -47 R 24 -23 R
35 -12 R 11 0 R 36 12 R 23 23 R 12 35 R 0 12 R -12 35 R -23 23 R -36 12 R
-11 0 R -35 -12 R -24 -23 R -11 -35 R D 40 setlinewidth 7460 1408 M 0 109 R
D 10 setlinewidth 6993 1079 M 23 11 R 35 35 R 0 -245 R D 7215 903 M
-12 -11 R 12 -12 R 12 12 R -12 11 R D 7425 1125 M -117 -163 R 176 0 R D
7425 1125 M 0 -245 R D 7694 1044 M -12 -35 R -23 -24 R -35 -11 R -12 0 R
-35 11 R -23 24 R -12 35 R 0 11 R 12 35 R 23 24 R 35 11 R 12 0 R 35 -11 R
23 -24 R 12 -46 R 0 -59 R -12 -58 R -23 -35 R -35 -12 R -24 0 R -35 12 R
-11 23 R D 7834 1125 M -35 -11 R -12 -24 R 0 -23 R 12 -23 R 23 -12 R
47 -12 R 35 -11 R 24 -24 R 11 -23 R 0 -35 R -11 -24 R -12 -11 R -35 -12 R
-47 0 R -35 12 R -12 11 R -11 24 R 0 35 R 11 23 R 24 24 R 35 11 R 47 12 R
23 12 R 12 23 R 0 23 R -12 24 R -35 11 R -47 0 R D 40 setlinewidth
9207 1408 M 0 109 R D 10 setlinewidth 8740 1079 M 23 11 R 35 35 R 0 -245 R D
8962 903 M -12 -11 R 12 -12 R 11 12 R -11 11 R D 9195 1125 M -117 0 R
-11 -105 R 11 12 R 35 12 R 36 0 R 35 -12 R 23 -23 R 12 -35 R 0 -24 R
-12 -35 R -23 -23 R -35 -12 R -36 0 R -35 12 R -11 11 R -12 24 R D
9359 1125 M -35 -11 R -24 -35 R -11 -59 R 0 -35 R 11 -58 R 24 -35 R 35 -12 R
23 0 R 35 12 R 24 35 R 11 58 R 0 35 R -11 59 R -24 35 R -35 11 R -23 0 R D
9593 1125 M -36 -11 R -23 -35 R -12 -59 R 0 -35 R 12 -58 R 23 -35 R 36 -12 R
23 0 R 35 12 R 23 35 R 12 58 R 0 35 R -12 59 R -23 35 R -35 11 R -23 0 R D
40 setlinewidth 10954 1408 M 0 109 R D 10 setlinewidth 10486 1079 M 24 11 R
35 35 R 0 -245 R D 10708 903 M -11 -11 R 11 -12 R 12 12 R -12 11 R D
10942 1125 M -117 0 R -12 -105 R 12 12 R 35 12 R 35 0 R 35 -12 R 24 -23 R
11 -35 R 0 -24 R -11 -35 R -24 -23 R -35 -12 R -35 0 R -35 12 R -12 11 R
-11 24 R D 11106 1125 M -36 -11 R -23 -35 R -12 -59 R 0 -35 R 12 -58 R
23 -35 R 36 -12 R 23 0 R 35 12 R 23 35 R 12 58 R 0 35 R -12 59 R -23 35 R
-35 11 R -23 0 R D 11281 1067 M 0 12 R 11 23 R 12 12 R 24 11 R 46 0 R
24 -11 R 11 -12 R 12 -23 R 0 -24 R -12 -23 R -23 -35 R -117 -117 R 164 0 R D
40 setlinewidth 12700 1408 M 0 109 R D 10 setlinewidth 12233 1079 M 23 11 R
35 35 R 0 -245 R D 12455 903 M -12 -11 R 12 -12 R 12 12 R -12 11 R D
12689 1125 M -117 0 R -12 -105 R 12 12 R 35 12 R 35 0 R 35 -12 R 23 -23 R
12 -35 R 0 -24 R -12 -35 R -23 -23 R -35 -12 R -35 0 R -35 12 R -12 11 R
-12 24 R D 12852 1125 M -35 -11 R -23 -35 R -12 -59 R 0 -35 R 12 -58 R
23 -35 R 35 -12 R 24 0 R 35 12 R 23 35 R 12 58 R 0 35 R -12 59 R -23 35 R
-35 11 R -24 0 R D 13133 1125 M -117 -163 R 175 0 R D 13133 1125 M 0 -245 R
D 40 setlinewidth 14447 1408 M 0 109 R D 10 setlinewidth 13980 1079 M
23 11 R 35 35 R 0 -245 R D 14202 903 M -12 -11 R 12 -12 R 11 12 R -11 11 R D
14435 1125 M -116 0 R -12 -105 R 12 12 R 35 12 R 35 0 R 35 -12 R 23 -23 R
12 -35 R 0 -24 R -12 -35 R -23 -23 R -35 -12 R -35 0 R -35 12 R -12 11 R
-12 24 R D 14599 1125 M -35 -11 R -23 -35 R -12 -59 R 0 -35 R 12 -58 R
23 -35 R 35 -12 R 23 0 R 35 12 R 24 35 R 11 58 R 0 35 R -11 59 R -24 35 R
-35 11 R -23 0 R D 14914 1090 M -11 24 R -35 11 R -24 0 R -35 -11 R
-23 -35 R -12 -59 R 0 -58 R 12 -47 R 23 -23 R 35 -12 R 12 0 R 35 12 R
23 23 R 12 35 R 0 12 R -12 35 R -23 23 R -35 12 R -12 0 R -35 -12 R
-23 -23 R -12 -35 R D 40 setlinewidth 2657 1408 M 0 54 R D 3093 1408 M
0 54 R D 3530 1408 M 0 54 R D 4403 1408 M 0 54 R D 4840 1408 M 0 54 R D
5277 1408 M 0 54 R D 6150 1408 M 0 54 R D 6587 1408 M 0 54 R D 7024 1408 M
0 54 R D 7897 1408 M 0 54 R D 8334 1408 M 0 54 R D 8770 1408 M 0 54 R D
9644 1408 M 0 54 R D 10080 1408 M 0 54 R D 10517 1408 M 0 54 R D
11390 1408 M 0 54 R D 11827 1408 M 0 54 R D 12264 1408 M 0 54 R D
13137 1408 M 0 54 R D 13574 1408 M 0 54 R D 14010 1408 M 0 54 R D
10 setlinewidth 6914 668 M 164 -246 R D 7078 668 M -164 -246 R D 7346 586 M
0 -257 R D 7346 551 M 24 23 R 23 12 R 35 0 R 23 -12 R 24 -23 R 11 -35 R
0 -23 R -11 -36 R -24 -23 R -23 -12 R -35 0 R -23 12 R -24 23 R D 7615 586 M
-23 -12 R -24 -23 R -11 -35 R 0 -23 R 11 -36 R 24 -23 R 23 -12 R 35 0 R
23 12 R 24 23 R 11 36 R 0 23 R -11 35 R -24 23 R -23 12 R -35 0 R D
7907 551 M -12 23 R -35 12 R -35 0 R -35 -12 R -11 -23 R 11 -23 R 24 -12 R
58 -12 R 23 -11 R 12 -24 R 0 -12 R -12 -23 R -35 -12 R -35 0 R -35 12 R
-11 23 R D 7977 668 M 12 -12 R 12 12 R -12 11 R -12 -11 R D 7989 586 M
0 -164 R D 8094 668 M 0 -199 R 12 -35 R 23 -12 R 23 0 R D 8059 586 M 82 0 R
D 8211 668 M 12 -12 R 11 12 R -11 11 R -12 -11 R D 8223 586 M 0 -164 R D
8363 586 M -24 -12 R -23 -23 R -12 -35 R 0 -23 R 12 -36 R 23 -23 R 24 -12 R
35 0 R 23 12 R 24 23 R 11 36 R 0 23 R -11 35 R -24 23 R -23 12 R -35 0 R D
8538 586 M 0 -164 R D 8538 539 M 35 35 R 23 12 R 36 0 R 23 -12 R 12 -35 R
0 -117 R D 9029 715 M -24 -24 R -23 -35 R -23 -47 R -12 -58 R 0 -47 R
12 -58 R 23 -59 R 23 -35 R 24 -23 R D 9111 668 M 0 -246 R D 9111 551 M
23 23 R 23 12 R 35 0 R 24 -12 R 23 -23 R 12 -35 R 0 -23 R -12 -36 R
-23 -23 R -24 -12 R -35 0 R -23 12 R -23 23 R D 9321 668 M 12 -12 R 11 12 R
-11 11 R -12 -11 R D 9333 586 M 0 -164 R D 9426 586 M 0 -164 R D 9426 539 M
35 35 R 23 12 R 36 0 R 23 -12 R 12 -35 R 0 -117 R D 9636 715 M 24 -24 R
23 -35 R 23 -47 R 12 -58 R 0 -47 R -12 -58 R -23 -59 R -23 -35 R -24 -23 R D
40 setlinewidth 2220 6852 M 12227 0 R D 2220 6852 M 0 -109 R D 3967 6852 M
0 -109 R D 5714 6852 M 0 -109 R D 7460 6852 M 0 -109 R D 9207 6852 M
0 -109 R D 10954 6852 M 0 -109 R D 12700 6852 M 0 -109 R D 14447 6852 M
0 -109 R D 2657 6852 M 0 -54 R D 3093 6852 M 0 -54 R D 3530 6852 M 0 -54 R D
4403 6852 M 0 -54 R D 4840 6852 M 0 -54 R D 5277 6852 M 0 -54 R D
6150 6852 M 0 -54 R D 6587 6852 M 0 -54 R D 7024 6852 M 0 -54 R D
7897 6852 M 0 -54 R D 8334 6852 M 0 -54 R D 8770 6852 M 0 -54 R D
9644 6852 M 0 -54 R D 10080 6852 M 0 -54 R D 10517 6852 M 0 -54 R D
11390 6852 M 0 -54 R D 11827 6852 M 0 -54 R D 12264 6852 M 0 -54 R D
13137 6852 M 0 -54 R D 13574 6852 M 0 -54 R D 14010 6852 M 0 -54 R D
2220 1408 M 0 5444 R D 2220 1408 M 245 0 R D 10 setlinewidth 1969 1653 M
-35 -11 R -24 -35 R -11 -59 R 0 -35 R 11 -58 R 24 -35 R 35 -12 R 23 0 R
35 12 R 24 35 R 11 58 R 0 35 R -11 59 R -24 35 R -35 11 R -23 0 R D
40 setlinewidth 2220 2769 M 245 0 R D 10 setlinewidth 1677 2815 M 0 12 R
11 23 R 12 12 R 23 12 R 47 0 R 24 -12 R 11 -12 R 12 -23 R 0 -23 R -12 -24 R
-23 -35 R -117 -117 R 164 0 R D 1969 2874 M -35 -12 R -24 -35 R -11 -59 R
0 -35 R 11 -58 R 24 -35 R 35 -12 R 23 0 R 35 12 R 24 35 R 11 58 R 0 35 R
-11 59 R -24 35 R -35 12 R -23 0 R D 40 setlinewidth 2220 4130 M 245 0 R D
10 setlinewidth 1782 4235 M -117 -164 R 175 0 R D 1782 4235 M 0 -246 R D
1969 4235 M -35 -12 R -24 -35 R -11 -59 R 0 -35 R 11 -58 R 24 -35 R 35 -12 R
23 0 R 35 12 R 24 35 R 11 58 R 0 35 R -11 59 R -24 35 R -35 12 R -23 0 R D
40 setlinewidth 2220 5491 M 245 0 R D 10 setlinewidth 1817 5561 M -12 23 R
-35 12 R -23 0 R -35 -12 R -24 -35 R -11 -59 R 0 -58 R 11 -47 R 24 -23 R
35 -12 R 12 0 R 35 12 R 23 23 R 12 35 R 0 12 R -12 35 R -23 23 R -35 12 R
-12 0 R -35 -12 R -24 -23 R -11 -35 R D 1969 5596 M -35 -12 R -24 -35 R
-11 -59 R 0 -35 R 11 -58 R 24 -35 R 35 -12 R 23 0 R 35 12 R 24 35 R 11 58 R
0 35 R -11 59 R -24 35 R -35 12 R -23 0 R D 40 setlinewidth 2220 6852 M
245 0 R D 10 setlinewidth 1723 6851 M -35 -12 R -11 -23 R 0 -23 R 11 -24 R
24 -11 R 47 -12 R 35 -12 R 23 -23 R 12 -24 R 0 -35 R -12 -23 R -12 -12 R
-35 -11 R -47 0 R -35 11 R -11 12 R -12 23 R 0 35 R 12 24 R 23 23 R 35 12 R
47 12 R 23 11 R 12 24 R 0 23 R -12 23 R -35 12 R -47 0 R D 1969 6851 M
-35 -12 R -24 -35 R -11 -58 R 0 -35 R 11 -59 R 24 -35 R 35 -11 R 23 0 R
35 11 R 24 35 R 11 59 R 0 35 R -11 58 R -24 35 R -35 12 R -23 0 R D
40 setlinewidth 2220 1748 M 122 0 R D 2220 2089 M 122 0 R D 2220 2429 M
122 0 R D 2220 3109 M 122 0 R D 2220 3450 M 122 0 R D 2220 3790 M 122 0 R D
2220 4470 M 122 0 R D 2220 4811 M 122 0 R D 2220 5151 M 122 0 R D
2220 5831 M 122 0 R D 2220 6172 M 122 0 R D 2220 6512 M 122 0 R D
14447 1408 M 0 5444 R D 14447 1408 M -244 0 R D 14447 2769 M -244 0 R D
14447 4130 M -244 0 R D 14447 5491 M -244 0 R D 14447 6852 M -244 0 R D
14447 1748 M -122 0 R D 14447 2089 M -122 0 R D 14447 2429 M -122 0 R D
14447 3109 M -122 0 R D 14447 3450 M -122 0 R D 14447 3790 M -122 0 R D
14447 4470 M -122 0 R D 14447 4811 M -122 0 R D 14447 5151 M -122 0 R D
14447 5831 M -122 0 R D 14447 6172 M -122 0 R D 14447 6512 M -122 0 R D
5417 1476 M 12 0 R 12 0 R 11 0 R 0 -68 R 12 0 R 12 0 R 0 68 R 12 0 R 11 0 R
0 -68 R 12 0 R 12 0 R 12 0 R 11 0 R 0 68 R 12 0 R 12 0 R 0 -68 R 12 0 R
11 0 R 12 0 R 12 0 R 0 68 R 12 0 R 11 0 R 0 -68 R 12 0 R 12 0 R 12 0 R
12 0 R 11 0 R 12 0 R 12 0 R 12 0 R 0 68 R 11 0 R 12 0 R 0 -68 R 12 0 R
12 0 R 11 0 R 12 0 R 0 204 R 12 0 R 12 0 R 0 -204 R 11 0 R 12 0 R 12 0 R
12 0 R 11 0 R 12 0 R 0 68 R 12 0 R 12 0 R 0 -68 R 11 0 R 12 0 R 12 0 R
12 0 R 0 68 R 12 0 R 11 0 R 0 -68 R 12 0 R 12 0 R 12 0 R 11 0 R 0 68 R
12 0 R 12 0 R 0 -68 R 12 0 R 11 0 R 0 136 R 12 0 R 12 0 R 0 -136 R 12 0 R
11 0 R 12 0 R 12 0 R 0 136 R 12 0 R 11 0 R 0 -136 R 12 0 R 12 0 R 0 68 R
12 0 R 12 0 R 11 0 R 12 0 R 12 0 R 12 0 R 11 0 R 12 0 R 12 0 R 12 0 R
0 136 R 11 0 R 12 0 R 0 -136 R 12 0 R 12 0 R 11 0 R 12 0 R 0 68 R 12 0 R
12 0 R 0 -68 R 11 0 R 12 0 R 0 68 R 12 0 R 12 0 R 11 0 R 12 0 R 0 -68 R
12 0 R 12 0 R 12 0 R 11 0 R 0 68 R 12 0 R 12 0 R 0 68 R 12 0 R 11 0 R
0 -68 R 12 0 R 12 0 R 0 -68 R 12 0 R 11 0 R 0 -68 R 12 0 R 12 0 R 0 136 R
12 0 R 11 0 R 0 136 R 12 0 R 12 0 R 0 68 R 12 0 R 11 0 R 0 -204 R 12 0 R
12 0 R 0 204 R 12 0 R 12 0 R 0 -68 R 11 0 R 12 0 R 0 -136 R 12 0 R 12 0 R
0 68 R 11 0 R 12 0 R 0 68 R 12 0 R 12 0 R 11 0 R 12 0 R 12 0 R 12 0 R
0 136 R 11 0 R 12 0 R 0 -272 R 12 0 R 12 0 R 0 68 R 11 0 R 12 0 R 0 477 R
12 0 R 12 0 R 0 -477 R 11 0 R 12 0 R 0 272 R 12 0 R 12 0 R 0 -136 R 12 0 R
11 0 R 0 204 R 12 0 R 12 0 R 0 205 R 12 0 R 11 0 R 0 -205 R 12 0 R 12 0 R
0 205 R 12 0 R 11 0 R 0 136 R 12 0 R 12 0 R 0 -341 R 12 0 R 11 0 R 0 341 R
12 0 R 12 0 R 0 -68 R 12 0 R 11 0 R 0 136 R 12 0 R 12 0 R 0 68 R 12 0 R
11 0 R 0 -409 R 12 0 R 12 0 R 0 341 R 12 0 R 12 0 R 0 136 R 11 0 R 12 0 R
0 -340 R 12 0 R 12 0 R 0 204 R 11 0 R 12 0 R 12 0 R 12 0 R 0 -136 R 11 0 R
12 0 R 0 408 R 12 0 R 12 0 R 0 -613 R 11 0 R 12 0 R 0 613 R 12 0 R 12 0 R
0 -68 R 11 0 R 12 0 R 12 0 R 12 0 R 12 0 R 11 0 R 0 136 R 12 0 R 12 0 R
0 136 R 12 0 R 11 0 R 0 -408 R 12 0 R 12 0 R 0 68 R 12 0 R 11 0 R 0 204 R
12 0 R 12 0 R 0 476 R 12 0 R 11 0 R 0 -544 R 12 0 R 12 0 R 0 -68 R 12 0 R
11 0 R 0 748 R 12 0 R 12 0 R 0 -680 R 12 0 R 11 0 R 0 748 R 12 0 R 12 0 R
0 -272 R 12 0 R 12 0 R 0 -408 R 11 0 R 12 0 R 0 544 R 12 0 R 12 0 R 0 68 R
11 0 R 12 0 R 0 205 R 12 0 R 12 0 R 0 -409 R 11 0 R 12 0 R 0 136 R 12 0 R
12 0 R 0 -68 R 11 0 R 12 0 R 0 341 R 12 0 R 12 0 R 0 -68 R 11 0 R 12 0 R
0 136 R 12 0 R 12 0 R 0 -749 R 12 0 R 11 0 R 0 272 R 12 0 R 12 0 R 0 613 R
12 0 R 11 0 R 0 612 R 12 0 R 12 0 R 0 -272 R 12 0 R 11 0 R 0 -68 R 12 0 R
12 0 R 0 -272 R 12 0 R 11 0 R 0 -341 R 12 0 R 12 0 R 0 953 R 12 0 R 11 0 R
0 -612 R 12 0 R 12 0 R 0 1429 R 12 0 R 11 0 R 0 -409 R 12 0 R 12 0 R
0 -544 R 12 0 R 12 0 R 0 476 R 11 0 R 12 0 R 0 -340 R 12 0 R 12 0 R 0 272 R
11 0 R 12 0 R 0 -476 R 12 0 R 12 0 R 11 0 R 12 0 R 0 476 R 12 0 R 12 0 R
0 -340 R 11 0 R 12 0 R 0 613 R 12 0 R 12 0 R 0 -545 R 11 0 R 12 0 R 0 204 R
12 0 R 12 0 R 0 68 R 12 0 R 11 0 R 0 -136 R 12 0 R 12 0 R 0 613 R 12 0 R
11 0 R 0 -953 R 12 0 R 12 0 R 0 68 R 12 0 R 11 0 R 0 136 R 12 0 R 12 0 R
0 953 R 12 0 R 11 0 R 0 -681 R 12 0 R 12 0 R 0 -204 R 12 0 R 11 0 R 0 1429 R
12 0 R 12 0 R 0 -544 R 12 0 R 11 0 R 0 -545 R 12 0 R 12 0 R 0 69 R 12 0 R
12 0 R 0 -273 R 11 0 R 12 0 R 0 273 R 12 0 R 12 0 R 0 204 R 11 0 R 12 0 R
0 -341 R 12 0 R 12 0 R 0 68 R 11 0 R 12 0 R 0 273 R 12 0 R 12 0 R 0 136 R
11 0 R 12 0 R 0 136 R 12 0 R 12 0 R 0 -408 R 11 0 R 12 0 R 0 544 R 12 0 R
12 0 R 0 -476 R 11 0 R 12 0 R 0 204 R 12 0 R 12 0 R 0 612 R 12 0 R 11 0 R
0 -1157 R 12 0 R 12 0 R 0 953 R 12 0 R 11 0 R 0 -1089 R 12 0 R 12 0 R
0 1225 R 12 0 R 11 0 R 0 -68 R 12 0 R 12 0 R 0 -1293 R 12 0 R 11 0 R 0 136 R
12 0 R 12 0 R 12 0 R 11 0 R 0 409 R 12 0 R 12 0 R 0 -409 R 12 0 R 12 0 R
0 749 R 11 0 R 12 0 R 0 -749 R 12 0 R 12 0 R 0 749 R 11 0 R 12 0 R 0 -545 R
12 0 R 12 0 R 0 1089 R 11 0 R 12 0 R 0 -476 R 12 0 R 12 0 R 0 -545 R 11 0 R
12 0 R 0 -476 R 12 0 R 12 0 R 0 408 R 11 0 R 12 0 R 0 545 R 12 0 R 12 0 R
0 -1769 R 11 0 R 12 0 R 0 1429 R 12 0 R 12 0 R 0 -1225 R 12 0 R 11 0 R
0 1361 R 12 0 R 12 0 R 0 -1225 R 12 0 R 11 0 R 0 136 R 12 0 R 12 0 R 0 544 R
12 0 R 11 0 R 0 204 R 12 0 R 12 0 R 0 -136 R 12 0 R 11 0 R 0 -1020 R 12 0 R
12 0 R 0 204 R 12 0 R 11 0 R 12 0 R 12 0 R 0 -477 R 12 0 R 12 0 R 0 749 R
11 0 R 12 0 R 0 -544 R 12 0 R 12 0 R 0 272 R 11 0 R 12 0 R 12 0 R 12 0 R
11 0 R 12 0 R 0 544 R 12 0 R 12 0 R 0 -1293 R 11 0 R 12 0 R 0 613 R 12 0 R
12 0 R 0 408 R 11 0 R 12 0 R 0 -476 R 12 0 R 12 0 R 0 68 R 11 0 R 12 0 R
0 -273 R 12 0 R 12 0 R 0 -68 R 12 0 R 11 0 R 0 -136 R 12 0 R 12 0 R 0 -68 R
12 0 R 11 0 R 0 272 R 12 0 R 12 0 R 0 -476 R 12 0 R 11 0 R 0 340 R 12 0 R
12 0 R 0 -408 R 12 0 R 11 0 R 0 953 R 12 0 R 12 0 R 0 -545 R 12 0 R 11 0 R
0 -748 R 12 0 R 12 0 R 0 544 R 12 0 R 12 0 R 0 68 R 11 0 R 12 0 R 0 -748 R
12 0 R 12 0 R 0 952 R 11 0 R 12 0 R 0 -748 R 12 0 R 12 0 R 0 68 R 11 0 R
12 0 R 0 136 R 12 0 R 12 0 R 0 -749 R 11 0 R 12 0 R 0 613 R 12 0 R 12 0 R
0 -68 R 11 0 R 12 0 R 0 68 R 12 0 R 12 0 R 0 -408 R 11 0 R 12 0 R 0 68 R
12 0 R 12 0 R 0 272 R 12 0 R 11 0 R 12 0 R 12 0 R 0 -204 R 12 0 R 11 0 R
0 408 R 12 0 R 12 0 R 0 -408 R 12 0 R 11 0 R 0 -136 R 12 0 R 12 0 R 0 68 R
12 0 R 11 0 R 0 272 R 12 0 R 12 0 R 0 -340 R 12 0 R 11 0 R 0 -273 R 12 0 R
12 0 R 0 545 R 12 0 R 11 0 R 0 -477 R 12 0 R 12 0 R 0 205 R 12 0 R 12 0 R
0 -137 R 11 0 R 12 0 R 0 -136 R 12 0 R 12 0 R 0 68 R 11 0 R 12 0 R 0 -68 R
12 0 R 12 0 R 11 0 R 12 0 R 0 -68 R 12 0 R 12 0 R 0 273 R 11 0 R 12 0 R
0 -477 R 12 0 R 12 0 R 0 68 R 11 0 R 12 0 R 0 204 R 12 0 R 12 0 R 0 68 R
12 0 R 11 0 R 0 -272 R 12 0 R 12 0 R 0 -68 R 12 0 R 11 0 R 0 68 R 12 0 R
12 0 R 0 -136 R 12 0 R 11 0 R D 11544 1544 M 0 340 R 12 0 R 12 0 R 0 -340 R
12 0 R 11 0 R 12 0 R 12 0 R 0 68 R 12 0 R 11 0 R 0 136 R 12 0 R 12 0 R
0 -136 R 12 0 R 11 0 R 0 -68 R 12 0 R 12 0 R 0 272 R 12 0 R 12 0 R 0 -204 R
11 0 R 12 0 R 0 68 R 12 0 R 12 0 R 0 -68 R 11 0 R 12 0 R 0 -68 R 12 0 R
12 0 R 0 -68 R 11 0 R 12 0 R 0 204 R 12 0 R 12 0 R 0 -272 R 11 0 R 12 0 R
0 136 R 12 0 R 12 0 R 0 136 R 11 0 R 12 0 R 0 -136 R 12 0 R 12 0 R 0 -136 R
12 0 R 11 0 R 12 0 R 12 0 R 0 136 R 12 0 R 11 0 R 12 0 R 12 0 R 0 68 R
12 0 R 11 0 R 0 -68 R 12 0 R 12 0 R 12 0 R 11 0 R 12 0 R 12 0 R 0 -68 R
12 0 R 11 0 R 12 0 R 12 0 R 0 68 R 12 0 R 11 0 R 0 -68 R 12 0 R 12 0 R
0 136 R 12 0 R 12 0 R 0 -204 R 11 0 R 12 0 R 12 0 R 12 0 R 11 0 R 12 0 R
0 68 R 12 0 R 12 0 R 0 136 R 11 0 R 12 0 R 0 -204 R 12 0 R 12 0 R 11 0 R
12 0 R 12 0 R 12 0 R 11 0 R 12 0 R 0 68 R 12 0 R 12 0 R 0 -68 R 12 0 R
11 0 R 0 68 R 12 0 R 12 0 R 12 0 R 11 0 R 0 68 R 12 0 R 12 0 R 0 -136 R
12 0 R 11 0 R 12 0 R 12 0 R 12 0 R 11 0 R 12 0 R 12 0 R 12 0 R 11 0 R 12 0 R
12 0 R 0 68 R 12 0 R D 60 setlinewidth 1.000 0.000 0.000 setrgbcolor
5417 1414 M 24 0 R 23 1 R 24 0 R 23 1 R 24 1 R 23 0 R 24 1 R 23 1 R 24 1 R
23 1 R 24 1 R 23 1 R 24 1 R 23 1 R 24 1 R 23 2 R 24 1 R 23 2 R 24 1 R 23 2 R
24 2 R 23 2 R 24 2 R 24 3 R 23 2 R 24 3 R 23 2 R 24 3 R 23 3 R 24 4 R 23 3 R
24 4 R 23 4 R 24 4 R 23 4 R 24 5 R 23 5 R 24 5 R 23 5 R 24 6 R 23 6 R 24 6 R
23 7 R 24 7 R 23 7 R 24 8 R 24 8 R 23 8 R 24 9 R 23 9 R 24 10 R 23 10 R
24 11 R 23 11 R 24 12 R 23 12 R 24 13 R 23 13 R 24 14 R 23 14 R 24 15 R
23 16 R 24 16 R 23 17 R 24 17 R 23 19 R 24 19 R 23 19 R 24 20 R 24 21 R
23 22 R 24 22 R 23 24 R 24 23 R 23 25 R 24 26 R 23 26 R 24 27 R 23 28 R
24 29 R 23 29 R 24 30 R 23 31 R 24 32 R 23 33 R 24 33 R 23 35 R 24 35 R
23 36 R 24 36 R 23 38 R 24 38 R 24 39 R 23 40 R 24 40 R 23 41 R 24 42 R
23 43 R 24 43 R 23 44 R 24 44 R 23 45 R 24 45 R 23 46 R 24 47 R 23 46 R
24 48 R 23 47 R 24 48 R 23 49 R 24 48 R 23 49 R 24 49 R 23 49 R 24 49 R
24 49 R 23 49 R 24 49 R 23 49 R 24 48 R 23 49 R 24 48 R 23 48 R 24 47 R
23 47 R 24 46 R 23 46 R 24 45 R 23 45 R 24 44 R 23 43 R 24 42 R 23 41 R
24 40 R 23 39 R 24 39 R 23 37 R 24 36 R 24 34 R 23 34 R 24 32 R 23 31 R
24 29 R 23 28 R 24 26 R 23 25 R 24 24 R 23 21 R 24 20 R 23 19 R 24 17 R
23 15 R 24 13 R 23 12 R 24 10 R 23 8 R 24 6 R 23 4 R 24 3 R 23 1 R 24 -1 R
23 -3 R 24 -4 R 24 -7 R 23 -8 R 24 -10 R 23 -12 R 24 -13 R 23 -15 R 24 -17 R
23 -19 R 24 -20 R 23 -22 R 24 -23 R 23 -25 R 24 -27 R 23 -28 R 24 -29 R
23 -31 R 24 -32 R 23 -34 R 24 -35 R 23 -36 R 24 -37 R 23 -38 R 24 -39 R
24 -41 R 23 -41 R 24 -42 R 23 -43 R 24 -44 R 23 -45 R 24 -45 R 23 -46 R
24 -46 R 23 -47 R 24 -47 R 23 -48 R 24 -48 R 23 -49 R 24 -48 R 23 -49 R
24 -49 R 23 -49 R 24 -49 R 23 -49 R 24 -49 R 23 -49 R 24 -49 R 24 -48 R
23 -49 R 24 -48 R 23 -47 R 24 -47 R 23 -47 R 24 -47 R 23 -46 R 24 -45 R
23 -45 R 24 -44 R 23 -44 R 24 -43 R 23 -43 R 24 -41 R 23 -41 R 24 -41 R
23 -39 R 24 -39 R 23 -39 R 24 -37 R 23 -37 R 24 -35 R 24 -35 R 23 -35 R
24 -33 R 23 -33 R 24 -32 R 23 -31 R 24 -30 R 23 -29 R 24 -29 R 23 -28 R
24 -27 R 23 -26 R 24 -25 R 23 -25 R 24 -24 R 23 -23 R 24 -22 R 23 -22 R
24 -21 R 23 -20 R 24 -20 R 23 -18 R 24 -19 R 24 -17 R 23 -17 R 24 -16 R
23 -16 R 24 -15 R 23 -14 R 24 -14 R 23 -13 R 24 -13 R 23 -12 R 24 -11 R
23 -12 R 24 -10 R 23 -10 R 24 -10 R 23 -9 R 24 -9 R 23 -9 R 24 -8 R 23 -8 R
24 -7 R 23 -7 R 24 -6 R 24 -7 R 23 -6 R 24 -5 R 23 -6 R 24 -5 R 23 -5 R
24 -4 R 23 -5 R 24 -4 R 23 -3 R 24 -4 R 23 -4 R 24 -3 R 23 -3 R 24 -3 R
23 -3 R 24 -2 R 23 -3 R 24 -2 R 23 -2 R 24 -2 R 23 -2 R 24 -2 R 24 -1 R
23 -2 R 24 -1 R 23 -2 R 24 -1 R 23 -1 R 24 -1 R 23 -1 R 24 -1 R 23 -1 R
24 -1 R D 10 setlinewidth 0.000 0.000 0.000 setrgbcolor 2866 6471 M 0 -163 R
D 2866 6424 M 36 36 R 23 11 R 35 0 R 23 -11 R 12 -36 R 0 -116 R D
2995 6424 M 35 36 R 23 11 R 35 0 R 24 -11 R 12 -36 R 0 -116 R D 3205 6401 M
141 0 R 0 23 R -12 24 R -12 12 R -23 11 R -35 0 R -24 -11 R -23 -24 R
-12 -35 R 0 -23 R 12 -35 R 23 -24 R 24 -11 R 35 0 R 23 11 R 24 24 R D
3556 6471 M 0 -163 R D 3556 6436 M -24 24 R -23 11 R -35 0 R -23 -11 R
-24 -24 R -11 -35 R 0 -23 R 11 -35 R 24 -24 R 23 -11 R 35 0 R 23 11 R
24 24 R D 3649 6471 M 0 -163 R D 3649 6424 M 35 36 R 24 11 R 35 0 R 23 -11 R
12 -36 R 0 -116 R D 4058 6448 M 211 0 R D 4058 6378 M 211 0 R D 5507 6506 M
23 12 R 36 35 R 0 -245 R D 5729 6331 M -12 -12 R 12 -11 R 12 11 R -12 12 R D
5963 6553 M -117 0 R -12 -105 R 12 12 R 35 11 R 35 0 R 35 -11 R 23 -24 R
12 -35 R 0 -23 R -12 -35 R -23 -24 R -35 -11 R -35 0 R -35 11 R -12 12 R
-11 23 R D 2866 6119 M 0 -163 R D 2866 6049 M 12 35 R 24 24 R 23 11 R 35 0 R
D 3018 6119 M 0 -163 R D 3018 6072 M 35 36 R 24 11 R 35 0 R 23 -11 R
12 -36 R 0 -116 R D 3147 6072 M 35 36 R 23 11 R 35 0 R 24 -11 R 11 -36 R
0 -116 R D 3486 6084 M -12 24 R -35 11 R -35 0 R -35 -11 R -12 -24 R
12 -23 R 23 -12 R 59 -12 R 23 -11 R 12 -24 R 0 -11 R -12 -24 R -35 -11 R
-35 0 R -35 11 R -12 24 R D 3754 6096 M 211 0 R D 3754 6026 M 211 0 R D
4456 6154 M 23 12 R 35 35 R 0 -245 R D 4678 5979 M -12 -12 R 12 -11 R
11 11 R -11 12 R D 4783 6143 M 0 11 R 11 24 R 12 11 R 23 12 R 47 0 R
24 -12 R 11 -11 R 12 -24 R 0 -23 R -12 -23 R -23 -36 R -117 -116 R 164 0 R D
5075 6201 M -35 -12 R -24 -35 R -11 -58 R 0 -35 R 11 -59 R 24 -35 R 35 -11 R
23 0 R 35 11 R 24 35 R 11 59 R 0 35 R -11 58 R -24 35 R -35 12 R -23 0 R D
5308 6201 M -35 -12 R -23 -35 R -12 -58 R 0 -35 R 12 -59 R 23 -35 R 35 -11 R
24 0 R 35 11 R 23 35 R 12 59 R 0 35 R -12 58 R -23 35 R -35 12 R -24 0 R D
5624 6119 M -12 -35 R -23 -23 R -35 -12 R -12 0 R -35 12 R -23 23 R -12 35 R
0 12 R 12 35 R 23 23 R 35 12 R 12 0 R 35 -12 R 23 -23 R 12 -47 R 0 -58 R
-12 -59 R -23 -35 R -35 -11 R -24 0 R -35 11 R -11 24 R D 5717 6201 M
0 -245 R D 5717 6201 M 152 0 R D 5717 6084 M 94 0 R D 5717 5956 M 152 0 R D
5939 6061 M 211 0 R D 6302 6201 M -35 -12 R -24 -35 R -11 -58 R 0 -35 R
11 -59 R 24 -35 R 35 -11 R 23 0 R 35 11 R 23 35 R 12 59 R 0 35 R -12 58 R
-23 35 R -35 12 R -23 0 R D 6489 6201 M 128 0 R -70 -93 R 35 0 R 23 -12 R
12 -12 R 12 -35 R 0 -23 R -12 -35 R -23 -24 R -35 -11 R -35 0 R -35 11 R
-12 12 R -12 23 R D 2878 5849 M 0 -199 R 12 -35 R 23 -11 R 24 0 R D
2843 5767 M 82 0 R D 3007 5849 M 0 -245 R D 3007 5720 M 35 36 R 23 11 R
35 0 R 24 -11 R 11 -36 R 0 -116 R D 3217 5697 M 140 0 R 0 23 R -11 24 R
-12 12 R -24 11 R -35 0 R -23 -11 R -23 -24 R -12 -35 R 0 -23 R 12 -35 R
23 -24 R 23 -11 R 35 0 R 24 11 R 23 24 R D 3486 5767 M -24 -11 R -23 -24 R
-12 -35 R 0 -23 R 12 -35 R 23 -24 R 24 -11 R 35 0 R 23 11 R 24 24 R 11 35 R
0 23 R -11 35 R -24 24 R -23 11 R -35 0 R D 3661 5767 M 0 -163 R D
3661 5697 M 12 35 R 23 24 R 23 11 R 35 0 R D 3790 5767 M 70 -163 R 70 163 R
D 3860 5604 M -24 -59 R -23 -23 R -23 -12 R -12 0 R D 4187 5744 M 210 0 R D
4187 5674 M 210 0 R D 4911 5849 M -35 -12 R -12 -23 R 0 -23 R 12 -24 R
24 -11 R 46 -12 R 35 -12 R 24 -23 R 11 -24 R 0 -35 R -11 -23 R -12 -12 R
-35 -11 R -47 0 R -35 11 R -12 12 R -11 23 R 0 35 R 11 24 R 24 23 R 35 12 R
47 12 R 23 11 R 12 24 R 0 23 R -12 23 R -35 12 R -47 0 R D 5110 5627 M
-12 -12 R 12 -11 R 12 11 R -12 12 R D 5273 5849 M -35 -12 R -23 -35 R
-12 -58 R 0 -35 R 12 -59 R 23 -35 R 35 -11 R 24 0 R 35 11 R 23 35 R 12 59 R
0 35 R -12 58 R -23 35 R -35 12 R -24 0 R D 5601 5849 M -117 -245 R D
5437 5849 M 164 0 R D 5823 5767 M -12 -35 R -23 -23 R -36 -12 R -11 0 R
-35 12 R -24 23 R -11 35 R 0 12 R 11 35 R 24 23 R 35 12 R 11 0 R 36 -12 R
23 -23 R 12 -47 R 0 -58 R -12 -59 R -23 -35 R -36 -11 R -23 0 R -35 11 R
-12 24 R D 6068 5849 M -117 -245 R D 5904 5849 M 164 0 R D 6150 5849 M
0 -245 R D 6150 5849 M 152 0 R D 6150 5732 M 93 0 R D 6150 5604 M 152 0 R D
6372 5709 M 210 0 R D 6734 5849 M -35 -12 R -23 -35 R -12 -58 R 0 -35 R
12 -59 R 23 -35 R 35 -11 R 23 0 R 35 11 R 24 35 R 11 59 R 0 35 R -11 58 R
-24 35 R -35 12 R -23 0 R D 7014 5849 M -116 -164 R 175 0 R D 7014 5849 M
0 -245 R D
%%PageTrailer
end
restore
showpage
%%PageResources: font Helvetica
%%Trailer
restore
%%Pages: 1
%%DocumentNeededResources: font Helvetica
%%EOF
