%!PS-Adobe-3.0
%%BoundingBox: 91 288 519 502
%%Title: Graphics produced by IDL
%%For: yssu@archMini, 
%%      /home/yssu/SURF2015/Summer/multi_band/emissivity/hists
%%Creator: IDL Version 8.3 (linux x86_64 m64)
%%CreationDate: Mon Aug 17 10:22:29 2015
%%DocumentData: Clean7bit
%%Requirements: color
%%LanguageLevel: 2
%%PageOrder: Ascend
%%Pages: (atend)
%%DocumentNeededResources: (atend)
%%EndComments
%%BeginProlog
save
%+ prolog.ps -- Prolog for IDL generated PostScript files
%+ Copyright (c) 1988-2013 Exelis Visual Information Solutions, Inc. All Rights Reserved.
%v 5
/$IDL_DICT 40 dict def $IDL_DICT begin /bdef { bind def } bind def /C
{currentpoint newpath moveto} bdef /CP {currentpoint} bdef /D {currentpoint
stroke moveto} bdef /F {closepath fill} bdef /K { setgray } bdef /M {moveto}
bdef /N {rmoveto} bdef /P {lineto} bdef /R {rlineto} bdef /S {gsave show
grestore} bdef /X {currentpoint pop} bdef /Z {gsave currentpoint lineto 20
setlinewidth 1 setlinecap stroke grestore} bdef /L0 {[] 0 setdash} bdef /L1
{[40 100] 0 setdash} bdef /L2 {[200 200] 0 setdash} bdef /L3 {[200 100 50
100] 0 setdash} bdef /L4 {[300 100 50 100 50 100 50 100] 0 setdash} bdef /L5
{[400 200] 0 setdash} bdef /STDFONT { findfont exch scalefont setfont } bdef
/ISOFONT { findfont dup length dict begin { 1 index /FID ne {def} {pop pop}
ifelse } forall /Encoding ISOLatin1Encoding def currentdict end /idltmpfont
exch definefont exch scalefont setfont } bdef /ISOBULLET { gsave /Helvetica
findfont exch scalefont setfont (\267) show currentpoint grestore moveto}
bdef /MITERLIMIT { 2.5 setmiterlimit } bdef end
%%EndProlog
%%Page: 0 1
%%PageRequirements: color
%%PageResources: (atend)
%%PageOrientation: Portrait
%%PageBoundingBox: 91 288 519 502
%%BeginPageSetup
save
$IDL_DICT begin 91 288 translate 0.0283465 dup scale MITERLIMIT
%%IncludeResource: font Helvetica
423.333 /Helvetica STDFONT
%%EndPageSetup
10 setlinewidth L0 0.000 0.000 0.000 setrgbcolor 4668 7370 M 204 -307 R D
4872 7370 M -204 -307 R D 5208 7268 M 0 -322 R D 5208 7224 M 29 29 R 29 15 R
44 0 R 29 -15 R 30 -29 R 14 -44 R 0 -29 R -14 -44 R -30 -29 R -29 -15 R
-44 0 R -29 15 R -29 29 R D 5544 7268 M -29 -15 R -29 -29 R -15 -44 R
0 -29 R 15 -44 R 29 -29 R 29 -15 R 44 0 R 29 15 R 29 29 R 15 44 R 0 29 R
-15 44 R -29 29 R -29 15 R -44 0 R D 5909 7224 M -15 29 R -43 15 R -44 0 R
-44 -15 R -15 -29 R 15 -29 R 29 -15 R 73 -15 R 29 -14 R 15 -29 R 0 -15 R
-15 -29 R -43 -15 R -44 0 R -44 15 R -15 29 R D 5997 7370 M 14 -15 R 15 15 R
-15 15 R -14 -15 R D 6011 7268 M 0 -205 R D 6143 7370 M 0 -248 R 14 -44 R
30 -15 R 29 0 R D 6099 7268 M 102 0 R D 6289 7370 M 14 -15 R 15 15 R
-15 15 R -14 -15 R D 6303 7268 M 0 -205 R D 6479 7268 M -30 -15 R -29 -29 R
-14 -44 R 0 -29 R 14 -44 R 29 -29 R 30 -15 R 44 0 R 29 15 R 29 29 R 15 44 R
0 29 R -15 44 R -29 29 R -29 15 R -44 0 R D 6698 7268 M 0 -205 R D
6698 7209 M 44 44 R 29 15 R 44 0 R 29 -15 R 14 -44 R 0 -146 R D 7194 7180 M
176 0 R 0 29 R -15 30 R -15 14 R -29 15 R -44 0 R -29 -15 R -29 -29 R
-15 -44 R 0 -29 R 15 -44 R 29 -29 R 29 -15 R 44 0 R 29 15 R 30 29 R D
7618 7224 M -15 29 R -44 15 R -43 0 R -44 -15 R -15 -29 R 15 -29 R 29 -15 R
73 -15 R 29 -14 R 15 -29 R 0 -15 R -15 -29 R -44 -15 R -43 0 R -44 15 R
-15 29 R D 7735 7370 M 0 -248 R 14 -44 R 30 -15 R 29 0 R D 7691 7268 M
102 0 R D 7881 7370 M 14 -15 R 15 15 R -15 15 R -14 -15 R D 7895 7268 M
0 -205 R D 8012 7268 M 0 -205 R D 8012 7209 M 44 44 R 29 15 R 44 0 R
29 -15 R 15 -44 R 0 -146 R D 8173 7209 M 44 44 R 29 15 R 44 0 R 29 -15 R
15 -44 R 0 -146 R D 8611 7268 M 0 -205 R D 8611 7224 M -29 29 R -29 15 R
-44 0 R -29 -15 R -30 -29 R -14 -44 R 0 -29 R 14 -44 R 30 -29 R 29 -15 R
44 0 R 29 15 R 29 29 R D 8743 7370 M 0 -248 R 14 -44 R 29 -15 R 30 0 R D
8699 7268 M 102 0 R D 8889 7370 M 14 -15 R 15 15 R -15 15 R -14 -15 R D
8903 7268 M 0 -205 R D 9078 7268 M -29 -15 R -29 -29 R -15 -44 R 0 -29 R
15 -44 R 29 -29 R 29 -15 R 44 0 R 29 15 R 30 29 R 14 44 R 0 29 R -14 44 R
-30 29 R -29 15 R -44 0 R D 9298 7268 M 0 -205 R D 9298 7209 M 43 44 R
30 15 R 43 0 R 30 -15 R 14 -44 R 0 -146 R D 9969 7370 M 0 -307 R D
9969 7224 M -29 29 R -29 15 R -44 0 R -29 -15 R -29 -29 R -15 -44 R 0 -29 R
15 -44 R 29 -29 R 29 -15 R 44 0 R 29 15 R 29 29 R D 10072 7180 M 175 0 R
0 29 R -15 30 R -14 14 R -30 15 R -43 0 R -30 -15 R -29 -29 R -14 -44 R
0 -29 R 14 -44 R 29 -29 R 30 -15 R 43 0 R 30 15 R 29 29 R D 10320 7268 M
88 -205 R 87 205 R D 10568 7370 M 15 -15 R 14 15 R -14 15 R -15 -15 R D
10583 7268 M 0 -205 R D 10860 7268 M 0 -205 R D 10860 7224 M -29 29 R
-29 15 R -44 0 R -29 -15 R -29 -29 R -15 -44 R 0 -29 R 15 -44 R 29 -29 R
29 -15 R 44 0 R 29 15 R 29 29 R D 10992 7370 M 0 -248 R 14 -44 R 30 -15 R
29 0 R D 10948 7268 M 102 0 R D 11138 7370 M 14 -15 R 15 15 R -15 15 R
-14 -15 R D 11152 7268 M 0 -205 R D 11328 7268 M -30 -15 R -29 -29 R
-14 -44 R 0 -29 R 14 -44 R 29 -29 R 30 -15 R 43 0 R 30 15 R 29 29 R 14 44 R
0 29 R -14 44 R -29 29 R -30 15 R -43 0 R D 11547 7268 M 0 -205 R D
11547 7209 M 44 44 R 29 15 R 44 0 R 29 -15 R 14 -44 R 0 -146 R D
11970 7224 M -14 29 R -44 15 R -44 0 R -44 -15 R -14 -29 R 14 -29 R 29 -15 R
73 -15 R 30 -14 R 14 -29 R 0 -15 R -14 -29 R -44 -15 R -44 0 R -44 15 R
-14 29 R D 40 setlinewidth 2220 1408 M 12227 0 R D 2220 1408 M 0 109 R D
10 setlinewidth 1870 1079 M 23 11 R 35 35 R 0 -245 R D 2092 903 M -12 -11 R
12 -12 R 11 12 R -11 11 R D 2302 1125 M -117 -163 R 175 0 R D 2302 1125 M
0 -245 R D 2477 1125 M -35 -11 R -12 -24 R 0 -23 R 12 -23 R 23 -12 R
47 -12 R 35 -11 R 24 -24 R 11 -23 R 0 -35 R -11 -24 R -12 -11 R -35 -12 R
-47 0 R -35 12 R -12 11 R -11 24 R 0 35 R 11 23 R 24 24 R 35 11 R 47 12 R
23 12 R 12 23 R 0 23 R -12 24 R -35 11 R -47 0 R D 40 setlinewidth
5277 1408 M 0 109 R D 10 setlinewidth 4926 1079 M 24 11 R 35 35 R 0 -245 R D
5148 903 M -11 -11 R 11 -12 R 12 12 R -12 11 R D 5359 1125 M -117 -163 R
175 0 R D 5359 1125 M 0 -245 R D 5627 1044 M -11 -35 R -24 -24 R -35 -11 R
-11 0 R -35 11 R -24 24 R -12 35 R 0 11 R 12 35 R 24 24 R 35 11 R 11 0 R
35 -11 R 24 -24 R 11 -46 R 0 -59 R -11 -58 R -24 -35 R -35 -12 R -23 0 R
-35 12 R -12 23 R D 40 setlinewidth 8334 1408 M 0 109 R D 10 setlinewidth
7983 1079 M 23 11 R 35 35 R 0 -245 R D 8205 903 M -12 -11 R 12 -12 R 12 12 R
-12 11 R D 8439 1125 M -117 0 R -12 -105 R 12 12 R 35 12 R 35 0 R 35 -12 R
23 -23 R 12 -35 R 0 -24 R -12 -35 R -23 -23 R -35 -12 R -35 0 R -35 12 R
-12 11 R -11 24 R D 8602 1125 M -35 -11 R -23 -35 R -12 -59 R 0 -35 R
12 -58 R 23 -35 R 35 -12 R 24 0 R 35 12 R 23 35 R 12 58 R 0 35 R -12 59 R
-23 35 R -35 11 R -24 0 R D 40 setlinewidth 11390 1408 M 0 109 R D
10 setlinewidth 11040 1079 M 23 11 R 35 35 R 0 -245 R D 11262 903 M
-12 -11 R 12 -12 R 11 12 R -11 11 R D 11495 1125 M -116 0 R -12 -105 R
12 12 R 35 12 R 35 0 R 35 -12 R 23 -23 R 12 -35 R 0 -24 R -12 -35 R
-23 -23 R -35 -12 R -35 0 R -35 12 R -12 11 R -12 24 R D 11624 1079 M
23 11 R 35 35 R 0 -245 R D 40 setlinewidth 14447 1408 M 0 109 R D
10 setlinewidth 14097 1079 M 23 11 R 35 35 R 0 -245 R D 14319 903 M
-12 -11 R 12 -12 R 11 12 R -11 11 R D 14552 1125 M -117 0 R -11 -105 R
11 12 R 35 12 R 35 0 R 36 -12 R 23 -23 R 12 -35 R 0 -24 R -12 -35 R
-23 -23 R -36 -12 R -35 0 R -35 12 R -11 11 R -12 24 R D 14657 1067 M 0 12 R
12 23 R 12 12 R 23 11 R 47 0 R 23 -11 R 12 -12 R 12 -23 R 0 -24 R -12 -23 R
-23 -35 R -117 -117 R 163 0 R D 40 setlinewidth 2526 1408 M 0 54 R D
2831 1408 M 0 54 R D 3137 1408 M 0 54 R D 3443 1408 M 0 54 R D 3748 1408 M
0 54 R D 4054 1408 M 0 54 R D 4360 1408 M 0 54 R D 4665 1408 M 0 54 R D
4971 1408 M 0 54 R D 5583 1408 M 0 54 R D 5888 1408 M 0 54 R D 6194 1408 M
0 54 R D 6500 1408 M 0 54 R D 6805 1408 M 0 54 R D 7111 1408 M 0 54 R D
7417 1408 M 0 54 R D 7722 1408 M 0 54 R D 8028 1408 M 0 54 R D 8639 1408 M
0 54 R D 8945 1408 M 0 54 R D 9251 1408 M 0 54 R D 9556 1408 M 0 54 R D
9862 1408 M 0 54 R D 10168 1408 M 0 54 R D 10473 1408 M 0 54 R D
10779 1408 M 0 54 R D 11085 1408 M 0 54 R D 11696 1408 M 0 54 R D
12002 1408 M 0 54 R D 12307 1408 M 0 54 R D 12613 1408 M 0 54 R D
12919 1408 M 0 54 R D 13224 1408 M 0 54 R D 13530 1408 M 0 54 R D
13836 1408 M 0 54 R D 14141 1408 M 0 54 R D 10 setlinewidth 6914 668 M
164 -246 R D 7078 668 M -164 -246 R D 7346 586 M 0 -257 R D 7346 551 M
24 23 R 23 12 R 35 0 R 23 -12 R 24 -23 R 11 -35 R 0 -23 R -11 -36 R
-24 -23 R -23 -12 R -35 0 R -23 12 R -24 23 R D 7615 586 M -23 -12 R
-24 -23 R -11 -35 R 0 -23 R 11 -36 R 24 -23 R 23 -12 R 35 0 R 23 12 R
24 23 R 11 36 R 0 23 R -11 35 R -24 23 R -23 12 R -35 0 R D 7907 551 M
-12 23 R -35 12 R -35 0 R -35 -12 R -11 -23 R 11 -23 R 24 -12 R 58 -12 R
23 -11 R 12 -24 R 0 -12 R -12 -23 R -35 -12 R -35 0 R -35 12 R -11 23 R D
7977 668 M 12 -12 R 12 12 R -12 11 R -12 -11 R D 7989 586 M 0 -164 R D
8094 668 M 0 -199 R 12 -35 R 23 -12 R 23 0 R D 8059 586 M 82 0 R D
8211 668 M 12 -12 R 11 12 R -11 11 R -12 -11 R D 8223 586 M 0 -164 R D
8363 586 M -24 -12 R -23 -23 R -12 -35 R 0 -23 R 12 -36 R 23 -23 R 24 -12 R
35 0 R 23 12 R 24 23 R 11 36 R 0 23 R -11 35 R -24 23 R -23 12 R -35 0 R D
8538 586 M 0 -164 R D 8538 539 M 35 35 R 23 12 R 36 0 R 23 -12 R 12 -35 R
0 -117 R D 9029 715 M -24 -24 R -23 -35 R -23 -47 R -12 -58 R 0 -47 R
12 -58 R 23 -59 R 23 -35 R 24 -23 R D 9111 668 M 0 -246 R D 9111 551 M
23 23 R 23 12 R 35 0 R 24 -12 R 23 -23 R 12 -35 R 0 -23 R -12 -36 R
-23 -23 R -24 -12 R -35 0 R -23 12 R -23 23 R D 9321 668 M 12 -12 R 11 12 R
-11 11 R -12 -11 R D 9333 586 M 0 -164 R D 9426 586 M 0 -164 R D 9426 539 M
35 35 R 23 12 R 36 0 R 23 -12 R 12 -35 R 0 -117 R D 9636 715 M 24 -24 R
23 -35 R 23 -47 R 12 -58 R 0 -47 R -12 -58 R -23 -59 R -23 -35 R -24 -23 R D
40 setlinewidth 2220 6852 M 12227 0 R D 2220 6852 M 0 -109 R D 5277 6852 M
0 -109 R D 8334 6852 M 0 -109 R D 11390 6852 M 0 -109 R D 14447 6852 M
0 -109 R D 2526 6852 M 0 -54 R D 2831 6852 M 0 -54 R D 3137 6852 M 0 -54 R D
3443 6852 M 0 -54 R D 3748 6852 M 0 -54 R D 4054 6852 M 0 -54 R D
4360 6852 M 0 -54 R D 4665 6852 M 0 -54 R D 4971 6852 M 0 -54 R D
5583 6852 M 0 -54 R D 5888 6852 M 0 -54 R D 6194 6852 M 0 -54 R D
6500 6852 M 0 -54 R D 6805 6852 M 0 -54 R D 7111 6852 M 0 -54 R D
7417 6852 M 0 -54 R D 7722 6852 M 0 -54 R D 8028 6852 M 0 -54 R D
8639 6852 M 0 -54 R D 8945 6852 M 0 -54 R D 9251 6852 M 0 -54 R D
9556 6852 M 0 -54 R D 9862 6852 M 0 -54 R D 10168 6852 M 0 -54 R D
10473 6852 M 0 -54 R D 10779 6852 M 0 -54 R D 11085 6852 M 0 -54 R D
11696 6852 M 0 -54 R D 12002 6852 M 0 -54 R D 12307 6852 M 0 -54 R D
12613 6852 M 0 -54 R D 12919 6852 M 0 -54 R D 13224 6852 M 0 -54 R D
13530 6852 M 0 -54 R D 13836 6852 M 0 -54 R D 14141 6852 M 0 -54 R D
2220 1408 M 0 5444 R D 2220 1408 M 245 0 R D 10 setlinewidth 1969 1653 M
-35 -11 R -24 -35 R -11 -59 R 0 -35 R 11 -58 R 24 -35 R 35 -12 R 23 0 R
35 12 R 24 35 R 11 58 R 0 35 R -11 59 R -24 35 R -35 11 R -23 0 R D
40 setlinewidth 2220 2769 M 245 0 R D 10 setlinewidth 1700 2827 M 23 12 R
36 35 R 0 -246 R D 1969 2874 M -35 -12 R -24 -35 R -11 -59 R 0 -35 R
11 -58 R 24 -35 R 35 -12 R 23 0 R 35 12 R 24 35 R 11 58 R 0 35 R -11 59 R
-24 35 R -35 12 R -23 0 R D 40 setlinewidth 2220 4130 M 245 0 R D
10 setlinewidth 1677 4176 M 0 12 R 11 23 R 12 12 R 23 12 R 47 0 R 24 -12 R
11 -12 R 12 -23 R 0 -23 R -12 -24 R -23 -35 R -117 -117 R 164 0 R D
1969 4235 M -35 -12 R -24 -35 R -11 -59 R 0 -35 R 11 -58 R 24 -35 R 35 -12 R
23 0 R 35 12 R 24 35 R 11 58 R 0 35 R -11 59 R -24 35 R -35 12 R -23 0 R D
40 setlinewidth 2220 5491 M 245 0 R D 10 setlinewidth 1688 5596 M 129 0 R
-70 -94 R 35 0 R 23 -12 R 12 -11 R 12 -35 R 0 -24 R -12 -35 R -23 -23 R
-35 -12 R -36 0 R -35 12 R -11 12 R -12 23 R D 1969 5596 M -35 -12 R
-24 -35 R -11 -59 R 0 -35 R 11 -58 R 24 -35 R 35 -12 R 23 0 R 35 12 R
24 35 R 11 58 R 0 35 R -11 59 R -24 35 R -35 12 R -23 0 R D 40 setlinewidth
2220 6852 M 245 0 R D 10 setlinewidth 1782 6851 M -117 -164 R 175 0 R D
1782 6851 M 0 -245 R D 1969 6851 M -35 -12 R -24 -35 R -11 -58 R 0 -35 R
11 -59 R 24 -35 R 35 -11 R 23 0 R 35 11 R 24 35 R 11 59 R 0 35 R -11 58 R
-24 35 R -35 12 R -23 0 R D 40 setlinewidth 2220 1544 M 122 0 R D
2220 1680 M 122 0 R D 2220 1816 M 122 0 R D 2220 1952 M 122 0 R D
2220 2089 M 122 0 R D 2220 2225 M 122 0 R D 2220 2361 M 122 0 R D
2220 2497 M 122 0 R D 2220 2633 M 122 0 R D 2220 2905 M 122 0 R D
2220 3041 M 122 0 R D 2220 3177 M 122 0 R D 2220 3313 M 122 0 R D
2220 3450 M 122 0 R D 2220 3586 M 122 0 R D 2220 3722 M 122 0 R D
2220 3858 M 122 0 R D 2220 3994 M 122 0 R D 2220 4266 M 122 0 R D
2220 4402 M 122 0 R D 2220 4538 M 122 0 R D 2220 4674 M 122 0 R D
2220 4811 M 122 0 R D 2220 4947 M 122 0 R D 2220 5083 M 122 0 R D
2220 5219 M 122 0 R D 2220 5355 M 122 0 R D 2220 5627 M 122 0 R D
2220 5763 M 122 0 R D 2220 5899 M 122 0 R D 2220 6035 M 122 0 R D
2220 6172 M 122 0 R D 2220 6308 M 122 0 R D 2220 6444 M 122 0 R D
2220 6580 M 122 0 R D 2220 6716 M 122 0 R D 14447 1408 M 0 5444 R D
14447 1408 M -244 0 R D 14447 2769 M -244 0 R D 14447 4130 M -244 0 R D
14447 5491 M -244 0 R D 14447 6852 M -244 0 R D 14447 1544 M -122 0 R D
14447 1680 M -122 0 R D 14447 1816 M -122 0 R D 14447 1952 M -122 0 R D
14447 2089 M -122 0 R D 14447 2225 M -122 0 R D 14447 2361 M -122 0 R D
14447 2497 M -122 0 R D 14447 2633 M -122 0 R D 14447 2905 M -122 0 R D
14447 3041 M -122 0 R D 14447 3177 M -122 0 R D 14447 3313 M -122 0 R D
14447 3450 M -122 0 R D 14447 3586 M -122 0 R D 14447 3722 M -122 0 R D
14447 3858 M -122 0 R D 14447 3994 M -122 0 R D 14447 4266 M -122 0 R D
14447 4402 M -122 0 R D 14447 4538 M -122 0 R D 14447 4674 M -122 0 R D
14447 4811 M -122 0 R D 14447 4947 M -122 0 R D 14447 5083 M -122 0 R D
14447 5219 M -122 0 R D 14447 5355 M -122 0 R D 14447 5627 M -122 0 R D
14447 5763 M -122 0 R D 14447 5899 M -122 0 R D 14447 6035 M -122 0 R D
14447 6172 M -122 0 R D 14447 6308 M -122 0 R D 14447 6444 M -122 0 R D
14447 6580 M -122 0 R D 14447 6716 M -122 0 R D 5883 1680 M 13 0 R 0 -136 R
13 0 R 12 0 R 0 -136 R 13 0 R 13 0 R 12 0 R 13 0 R 13 0 R 12 0 R 0 136 R
13 0 R 13 0 R 0 -136 R 12 0 R 13 0 R 0 272 R 13 0 R 12 0 R 0 -272 R 13 0 R
13 0 R 0 136 R 12 0 R 13 0 R 0 -136 R 13 0 R 12 0 R 13 0 R 13 0 R 12 0 R
13 0 R 0 272 R 13 0 R 12 0 R 13 0 R 13 0 R 0 -272 R 12 0 R 13 0 R 0 272 R
13 0 R 12 0 R 0 -272 R 13 0 R 13 0 R 0 272 R 12 0 R 13 0 R 13 0 R 12 0 R
0 -272 R 13 0 R 13 0 R 0 681 R 12 0 R 13 0 R 0 -273 R 13 0 R 12 0 R 0 -272 R
13 0 R 13 0 R 0 408 R 12 0 R 13 0 R 0 137 R 13 0 R 12 0 R 0 -273 R 13 0 R
12 0 R 13 0 R 13 0 R 0 -136 R 12 0 R 13 0 R 13 0 R 12 0 R 0 681 R 13 0 R
13 0 R 0 -409 R 12 0 R 13 0 R 0 -272 R 13 0 R 12 0 R 0 545 R 13 0 R 13 0 R
0 -409 R 12 0 R 13 0 R 0 409 R 13 0 R 12 0 R 0 -545 R 13 0 R 13 0 R 0 545 R
12 0 R 13 0 R 13 0 R 12 0 R 0 -273 R 13 0 R 13 0 R 0 409 R 12 0 R 13 0 R
0 -409 R 13 0 R 12 0 R 0 953 R 13 0 R 13 0 R 0 -272 R 12 0 R 13 0 R 0 -136 R
13 0 R 12 0 R 13 0 R 13 0 R 0 -408 R 12 0 R 13 0 R 0 136 R 13 0 R 12 0 R
0 816 R 13 0 R 13 0 R 0 -136 R 12 0 R 13 0 R 0 -408 R 13 0 R 12 0 R 0 272 R
13 0 R 13 0 R 0 136 R 12 0 R 13 0 R 0 -272 R 13 0 R 12 0 R 0 -136 R 13 0 R
13 0 R 0 136 R 12 0 R 13 0 R 0 408 R 13 0 R 12 0 R 0 -408 R 13 0 R 13 0 R
0 408 R 12 0 R 13 0 R 0 -136 R 13 0 R 12 0 R 0 408 R 13 0 R 13 0 R 12 0 R
13 0 R 0 -408 R 13 0 R 12 0 R 0 1633 R 13 0 R 13 0 R 0 -1497 R 12 0 R 13 0 R
0 409 R 13 0 R 12 0 R 0 136 R 13 0 R 13 0 R 0 -953 R 12 0 R 13 0 R 0 1225 R
13 0 R 12 0 R 0 -1361 R 13 0 R 12 0 R 0 816 R 13 0 R 13 0 R 0 273 R 12 0 R
13 0 R 0 -136 R 13 0 R 12 0 R 0 408 R 13 0 R 13 0 R 0 272 R 12 0 R 13 0 R
0 -953 R 13 0 R 12 0 R 0 -136 R 13 0 R 13 0 R 0 953 R 12 0 R 13 0 R 0 -136 R
13 0 R 12 0 R 0 136 R 13 0 R 13 0 R 0 -544 R 12 0 R 13 0 R 0 544 R 13 0 R
12 0 R 0 544 R 13 0 R 13 0 R 0 409 R 12 0 R 13 0 R 0 -545 R 13 0 R 12 0 R
0 1089 R 13 0 R 13 0 R 0 -817 R 12 0 R 13 0 R 0 -1088 R 13 0 R 12 0 R
0 408 R 13 0 R 13 0 R 12 0 R 13 0 R 0 272 R 13 0 R 12 0 R 0 136 R 13 0 R
13 0 R 12 0 R 13 0 R 0 -136 R 13 0 R 12 0 R 0 -136 R 13 0 R 13 0 R 12 0 R
13 0 R 0 1089 R 13 0 R 12 0 R 0 816 R 13 0 R 13 0 R 0 -1088 R 12 0 R 13 0 R
0 -136 R 13 0 R 12 0 R 0 -953 R 13 0 R 13 0 R 0 272 R 12 0 R 13 0 R
0 -1089 R 13 0 R 12 0 R 0 681 R 13 0 R 13 0 R 0 408 R 12 0 R 13 0 R 0 -136 R
13 0 R 12 0 R 0 680 R 13 0 R 13 0 R 0 -408 R 12 0 R 13 0 R 0 -816 R 13 0 R
12 0 R 0 1633 R 13 0 R 13 0 R 0 -1770 R 12 0 R 13 0 R 0 953 R 13 0 R 12 0 R
0 408 R 13 0 R 13 0 R 0 -680 R 12 0 R 13 0 R 0 -136 R 12 0 R 13 0 R 0 544 R
13 0 R 12 0 R 0 409 R 13 0 R 13 0 R 0 -681 R 12 0 R 13 0 R 0 272 R 13 0 R
12 0 R 0 -272 R 13 0 R 13 0 R 0 -136 R 12 0 R 13 0 R 0 -136 R 13 0 R 12 0 R
0 -136 R 13 0 R 13 0 R 0 -681 R 12 0 R 13 0 R 0 -544 R 13 0 R 12 0 R
0 1089 R 13 0 R 13 0 R 0 -136 R 12 0 R 13 0 R 0 -273 R 13 0 R 12 0 R 0 273 R
13 0 R 13 0 R 0 -273 R 12 0 R 13 0 R 0 -272 R 13 0 R 12 0 R 0 817 R 13 0 R
13 0 R 12 0 R 13 0 R 0 -953 R 13 0 R 12 0 R 0 408 R 13 0 R 13 0 R 12 0 R
13 0 R 0 -272 R 13 0 R 12 0 R 0 1225 R 13 0 R 13 0 R 0 -544 R 12 0 R 13 0 R
0 -953 R 13 0 R 12 0 R 0 408 R 13 0 R 13 0 R 0 -680 R 12 0 R 13 0 R 0 680 R
13 0 R 12 0 R 0 136 R 13 0 R 13 0 R 0 -680 R 12 0 R 13 0 R 0 -408 R 13 0 R
12 0 R 0 272 R 13 0 R 13 0 R 0 -545 R 12 0 R 13 0 R 0 681 R 13 0 R 12 0 R
0 -272 R 13 0 R 13 0 R 0 -136 R 12 0 R 13 0 R 0 -409 R 13 0 R 12 0 R 0 817 R
13 0 R 13 0 R 0 -272 R 12 0 R 13 0 R 0 -273 R 13 0 R 12 0 R 0 -272 R 13 0 R
13 0 R 0 272 R 12 0 R 13 0 R 0 -136 R 12 0 R 13 0 R 13 0 R 12 0 R 13 0 R
13 0 R 12 0 R 13 0 R 0 -272 R 13 0 R 12 0 R 0 953 R 13 0 R 13 0 R 0 -408 R
12 0 R 13 0 R 0 -273 R 13 0 R 12 0 R 0 545 R 13 0 R 13 0 R 0 136 R 12 0 R
13 0 R 0 -817 R 13 0 R 12 0 R 0 -136 R 13 0 R 13 0 R 12 0 R 13 0 R 13 0 R
12 0 R 13 0 R 13 0 R 12 0 R 13 0 R 0 136 R 13 0 R 12 0 R 0 -136 R 13 0 R
13 0 R 12 0 R 13 0 R 13 0 R 12 0 R 13 0 R 13 0 R 0 -136 R 12 0 R 13 0 R
0 272 R 13 0 R 12 0 R 0 136 R 13 0 R 13 0 R 0 -136 R 12 0 R 13 0 R 0 -136 R
13 0 R 12 0 R 0 -136 R 13 0 R 13 0 R 0 136 R 12 0 R 13 0 R 0 272 R 13 0 R
12 0 R 0 -408 R 13 0 R 13 0 R 0 272 R 12 0 R 13 0 R 0 -272 R 13 0 R 12 0 R
13 0 R 13 0 R 12 0 R 13 0 R 0 408 R 13 0 R 12 0 R 0 -408 R 13 0 R 13 0 R
12 0 R 13 0 R 13 0 R 12 0 R 13 0 R 13 0 R 0 136 R 12 0 R D 60 setlinewidth
1.000 0.000 0.000 setrgbcolor 5883 1467 M 26 4 R 25 6 R 25 5 R 26 6 R 25 7 R
25 7 R 26 7 R 25 8 R 25 8 R 26 9 R 25 10 R 25 10 R 26 11 R 25 11 R 25 12 R
26 13 R 25 13 R 25 14 R 26 15 R 25 16 R 25 17 R 26 17 R 25 18 R 25 20 R
26 20 R 25 21 R 25 22 R 25 23 R 26 24 R 25 26 R 25 26 R 26 27 R 25 29 R
25 29 R 26 31 R 25 31 R 25 33 R 26 34 R 25 35 R 25 36 R 26 38 R 25 38 R
25 39 R 26 41 R 25 42 R 25 42 R 26 44 R 25 44 R 25 46 R 26 46 R 25 47 R
25 48 R 26 49 R 25 49 R 25 50 R 26 51 R 25 51 R 25 52 R 26 51 R 25 53 R
25 52 R 26 52 R 25 53 R 25 52 R 26 53 R 25 52 R 25 51 R 26 52 R 25 51 R
25 50 R 25 49 R 26 49 R 25 47 R 25 47 R 26 45 R 25 45 R 25 42 R 26 42 R
25 40 R 25 38 R 26 37 R 25 35 R 25 33 R 26 31 R 25 29 R 25 27 R 26 25 R
25 23 R 25 20 R 26 18 R 25 16 R 25 13 R 26 11 R 25 9 R 25 6 R 26 3 R 25 1 R
25 -1 R 26 -4 R 25 -7 R 25 -9 R 26 -11 R 25 -14 R 25 -17 R 26 -18 R 25 -21 R
25 -23 R 26 -26 R 25 -27 R 25 -30 R 26 -31 R 25 -34 R 25 -35 R 25 -37 R
26 -39 R 25 -40 R 25 -42 R 26 -43 R 25 -45 R 25 -46 R 26 -46 R 25 -48 R
25 -49 R 26 -50 R 25 -50 R 25 -51 R 26 -51 R 25 -52 R 25 -52 R 26 -52 R
25 -53 R 25 -52 R 26 -53 R 25 -52 R 25 -52 R 26 -52 R 25 -52 R 25 -51 R
26 -50 R 25 -50 R 25 -49 R 26 -49 R 25 -48 R 25 -47 R 26 -46 R 25 -45 R
25 -44 R 26 -44 R 25 -42 R 25 -41 R 26 -41 R 25 -39 R 25 -38 R 26 -37 R
25 -36 R 25 -35 R 25 -33 R 26 -33 R 25 -31 R 25 -31 R 26 -29 R 25 -28 R
25 -27 R 26 -26 R 25 -25 R 25 -24 R 26 -23 R 25 -22 R 25 -21 R 26 -20 R
25 -19 R 25 -18 R 26 -17 R 25 -17 R 25 -15 R 26 -15 R 25 -14 R 25 -13 R
26 -13 R 25 -12 R 25 -11 R 26 -10 R 25 -10 R 25 -10 R 26 -8 R 25 -9 R
25 -8 R 26 -7 R 25 -7 R 25 -6 R 26 -6 R 25 -6 R 25 -5 R 26 -5 R 25 -4 R
25 -4 R D 10 setlinewidth 0.000 0.000 0.000 setrgbcolor 2866 6471 M 0 -163 R
D 2866 6424 M 36 36 R 23 11 R 35 0 R 23 -11 R 12 -36 R 0 -116 R D
2995 6424 M 35 36 R 23 11 R 35 0 R 24 -11 R 12 -36 R 0 -116 R D 3205 6401 M
141 0 R 0 23 R -12 24 R -12 12 R -23 11 R -35 0 R -24 -11 R -23 -24 R
-12 -35 R 0 -23 R 12 -35 R 23 -24 R 24 -11 R 35 0 R 23 11 R 24 24 R D
3556 6471 M 0 -163 R D 3556 6436 M -24 24 R -23 11 R -35 0 R -23 -11 R
-24 -24 R -11 -35 R 0 -23 R 11 -35 R 24 -24 R 23 -11 R 35 0 R 23 11 R
24 24 R D 3649 6471 M 0 -163 R D 3649 6424 M 35 36 R 24 11 R 35 0 R 23 -11 R
12 -36 R 0 -116 R D 4058 6448 M 211 0 R D 4058 6378 M 211 0 R D 5507 6506 M
23 12 R 36 35 R 0 -245 R D 5729 6331 M -12 -12 R 12 -11 R 12 11 R -12 12 R D
5963 6553 M -117 0 R -12 -105 R 12 12 R 35 11 R 35 0 R 35 -11 R 23 -24 R
12 -35 R 0 -23 R -12 -35 R -23 -24 R -35 -11 R -35 0 R -35 11 R -12 12 R
-11 23 R D 2866 6119 M 0 -163 R D 2866 6049 M 12 35 R 24 24 R 23 11 R 35 0 R
D 3018 6119 M 0 -163 R D 3018 6072 M 35 36 R 24 11 R 35 0 R 23 -11 R
12 -36 R 0 -116 R D 3147 6072 M 35 36 R 23 11 R 35 0 R 24 -11 R 11 -36 R
0 -116 R D 3486 6084 M -12 24 R -35 11 R -35 0 R -35 -11 R -12 -24 R
12 -23 R 23 -12 R 59 -12 R 23 -11 R 12 -24 R 0 -11 R -12 -24 R -35 -11 R
-35 0 R -35 11 R -12 24 R D 3754 6096 M 211 0 R D 3754 6026 M 211 0 R D
4432 6143 M 0 11 R 12 24 R 12 11 R 23 12 R 47 0 R 23 -12 R 12 -11 R 11 -24 R
0 -23 R -11 -23 R -24 -36 R -117 -116 R 164 0 R D 4678 5979 M -12 -12 R
12 -11 R 11 11 R -11 12 R D 4829 6201 M -35 -12 R -11 -23 R 0 -23 R 11 -24 R
24 -11 R 46 -12 R 36 -12 R 23 -23 R 12 -24 R 0 -35 R -12 -23 R -12 -12 R
-35 -11 R -47 0 R -35 11 R -11 12 R -12 23 R 0 35 R 12 24 R 23 23 R 35 12 R
47 12 R 23 11 R 12 24 R 0 23 R -12 23 R -35 12 R -47 0 R D 5157 6166 M
-12 23 R -35 12 R -24 0 R -35 -12 R -23 -35 R -12 -58 R 0 -59 R 12 -46 R
23 -24 R 35 -11 R 12 0 R 35 11 R 24 24 R 11 35 R 0 11 R -11 35 R -24 24 R
-35 12 R -12 0 R -35 -12 R -23 -24 R -12 -35 R D 5273 6154 M 24 12 R 35 35 R
0 -245 R D 5636 6201 M -117 -245 R D 5472 6201 M 164 0 R D 5717 6201 M
0 -245 R D 5717 6201 M 152 0 R D 5717 6084 M 94 0 R D 5717 5956 M 152 0 R D
5939 6061 M 211 0 R D 6302 6201 M -35 -12 R -24 -35 R -11 -58 R 0 -35 R
11 -59 R 24 -35 R 35 -11 R 23 0 R 35 11 R 23 35 R 12 59 R 0 35 R -12 58 R
-23 35 R -35 12 R -23 0 R D 6489 6201 M 128 0 R -70 -93 R 35 0 R 23 -12 R
12 -12 R 12 -35 R 0 -23 R -12 -35 R -23 -24 R -35 -11 R -35 0 R -35 11 R
-12 12 R -12 23 R D 2878 5849 M 0 -199 R 12 -35 R 23 -11 R 24 0 R D
2843 5767 M 82 0 R D 3007 5849 M 0 -245 R D 3007 5720 M 35 36 R 23 11 R
35 0 R 24 -11 R 11 -36 R 0 -116 R D 3217 5697 M 140 0 R 0 23 R -11 24 R
-12 12 R -24 11 R -35 0 R -23 -11 R -23 -24 R -12 -35 R 0 -23 R 12 -35 R
23 -24 R 23 -11 R 35 0 R 24 11 R 23 24 R D 3486 5767 M -24 -11 R -23 -24 R
-12 -35 R 0 -23 R 12 -35 R 23 -24 R 24 -11 R 35 0 R 23 11 R 24 24 R 11 35 R
0 23 R -11 35 R -24 24 R -23 11 R -35 0 R D 3661 5767 M 0 -163 R D
3661 5697 M 12 35 R 23 24 R 23 11 R 35 0 R D 3790 5767 M 70 -163 R 70 163 R
D 3860 5604 M -24 -59 R -23 -23 R -23 -12 R -12 0 R D 4187 5744 M 210 0 R D
4187 5674 M 210 0 R D 4864 5791 M 0 11 R 12 24 R 12 11 R 23 12 R 47 0 R
23 -12 R 12 -11 R 12 -24 R 0 -23 R -12 -23 R -23 -36 R -117 -116 R 163 0 R D
5110 5627 M -12 -12 R 12 -11 R 12 11 R -12 12 R D 5320 5849 M -117 -164 R
176 0 R D 5320 5849 M 0 -245 R D 5495 5849 M -35 -12 R -11 -23 R 0 -23 R
11 -24 R 24 -11 R 46 -12 R 36 -12 R 23 -23 R 12 -24 R 0 -35 R -12 -23 R
-12 -12 R -35 -11 R -47 0 R -35 11 R -11 12 R -12 23 R 0 35 R 12 24 R
23 23 R 35 12 R 47 12 R 23 11 R 12 24 R 0 23 R -12 23 R -35 12 R -47 0 R D
5811 5849 M -117 0 R -12 -105 R 12 12 R 35 11 R 35 0 R 35 -11 R 24 -24 R
11 -35 R 0 -23 R -11 -35 R -24 -24 R -35 -11 R -35 0 R -35 11 R -12 12 R
-11 23 R D 6056 5814 M -11 23 R -35 12 R -24 0 R -35 -12 R -23 -35 R
-12 -58 R 0 -59 R 12 -46 R 23 -24 R 35 -11 R 12 0 R 35 11 R 23 24 R 12 35 R
0 11 R -12 35 R -23 24 R -35 12 R -12 0 R -35 -12 R -23 -24 R -12 -35 R D
6150 5849 M 0 -245 R D 6150 5849 M 152 0 R D 6150 5732 M 93 0 R D
6150 5604 M 152 0 R D 6372 5709 M 210 0 R D 6734 5849 M -35 -12 R -23 -35 R
-12 -58 R 0 -35 R 12 -59 R 23 -35 R 35 -11 R 23 0 R 35 11 R 24 35 R 11 59 R
0 35 R -11 58 R -24 35 R -35 12 R -23 0 R D 6921 5849 M 128 0 R -70 -93 R
35 0 R 24 -12 R 11 -12 R 12 -35 R 0 -23 R -12 -35 R -23 -24 R -35 -11 R
-35 0 R -35 11 R -12 12 R -11 23 R D
%%PageTrailer
end
restore
showpage
%%PageResources: font Helvetica
%%Trailer
restore
%%Pages: 1
%%DocumentNeededResources: font Helvetica
%%EOF
