%!PS-Adobe-3.0
%%BoundingBox: 91 288 519 502
%%Title: Graphics produced by IDL
%%For: yssu@archMini, 
%%      /home/yssu/SURF2015/Summer/multi_band/emissivity/hists
%%Creator: IDL Version 8.3 (linux x86_64 m64)
%%CreationDate: Mon Aug 17 10:15:09 2015
%%DocumentData: Clean7bit
%%Requirements: color
%%LanguageLevel: 2
%%PageOrder: Ascend
%%Pages: (atend)
%%DocumentNeededResources: (atend)
%%EndComments
%%BeginProlog
save
%+ prolog.ps -- Prolog for IDL generated PostScript files
%+ Copyright (c) 1988-2013 Exelis Visual Information Solutions, Inc. All Rights Reserved.
%v 5
/$IDL_DICT 40 dict def $IDL_DICT begin /bdef { bind def } bind def /C
{currentpoint newpath moveto} bdef /CP {currentpoint} bdef /D {currentpoint
stroke moveto} bdef /F {closepath fill} bdef /K { setgray } bdef /M {moveto}
bdef /N {rmoveto} bdef /P {lineto} bdef /R {rlineto} bdef /S {gsave show
grestore} bdef /X {currentpoint pop} bdef /Z {gsave currentpoint lineto 20
setlinewidth 1 setlinecap stroke grestore} bdef /L0 {[] 0 setdash} bdef /L1
{[40 100] 0 setdash} bdef /L2 {[200 200] 0 setdash} bdef /L3 {[200 100 50
100] 0 setdash} bdef /L4 {[300 100 50 100 50 100 50 100] 0 setdash} bdef /L5
{[400 200] 0 setdash} bdef /STDFONT { findfont exch scalefont setfont } bdef
/ISOFONT { findfont dup length dict begin { 1 index /FID ne {def} {pop pop}
ifelse } forall /Encoding ISOLatin1Encoding def currentdict end /idltmpfont
exch definefont exch scalefont setfont } bdef /ISOBULLET { gsave /Helvetica
findfont exch scalefont setfont (\267) show currentpoint grestore moveto}
bdef /MITERLIMIT { 2.5 setmiterlimit } bdef end
%%EndProlog
%%Page: 0 1
%%PageRequirements: color
%%PageResources: (atend)
%%PageOrientation: Portrait
%%PageBoundingBox: 91 288 519 502
%%BeginPageSetup
save
$IDL_DICT begin 91 288 translate 0.0283465 dup scale MITERLIMIT
%%IncludeResource: font Helvetica
423.333 /Helvetica STDFONT
%%EndPageSetup
10 setlinewidth L0 0.000 0.000 0.000 setrgbcolor 4668 7370 M 204 -307 R D
4872 7370 M -204 -307 R D 5208 7268 M 0 -322 R D 5208 7224 M 29 29 R 29 15 R
44 0 R 29 -15 R 30 -29 R 14 -44 R 0 -29 R -14 -44 R -30 -29 R -29 -15 R
-44 0 R -29 15 R -29 29 R D 5544 7268 M -29 -15 R -29 -29 R -15 -44 R
0 -29 R 15 -44 R 29 -29 R 29 -15 R 44 0 R 29 15 R 29 29 R 15 44 R 0 29 R
-15 44 R -29 29 R -29 15 R -44 0 R D 5909 7224 M -15 29 R -43 15 R -44 0 R
-44 -15 R -15 -29 R 15 -29 R 29 -15 R 73 -15 R 29 -14 R 15 -29 R 0 -15 R
-15 -29 R -43 -15 R -44 0 R -44 15 R -15 29 R D 5997 7370 M 14 -15 R 15 15 R
-15 15 R -14 -15 R D 6011 7268 M 0 -205 R D 6143 7370 M 0 -248 R 14 -44 R
30 -15 R 29 0 R D 6099 7268 M 102 0 R D 6289 7370 M 14 -15 R 15 15 R
-15 15 R -14 -15 R D 6303 7268 M 0 -205 R D 6479 7268 M -30 -15 R -29 -29 R
-14 -44 R 0 -29 R 14 -44 R 29 -29 R 30 -15 R 44 0 R 29 15 R 29 29 R 15 44 R
0 29 R -15 44 R -29 29 R -29 15 R -44 0 R D 6698 7268 M 0 -205 R D
6698 7209 M 44 44 R 29 15 R 44 0 R 29 -15 R 14 -44 R 0 -146 R D 7194 7180 M
176 0 R 0 29 R -15 30 R -15 14 R -29 15 R -44 0 R -29 -15 R -29 -29 R
-15 -44 R 0 -29 R 15 -44 R 29 -29 R 29 -15 R 44 0 R 29 15 R 30 29 R D
7618 7224 M -15 29 R -44 15 R -43 0 R -44 -15 R -15 -29 R 15 -29 R 29 -15 R
73 -15 R 29 -14 R 15 -29 R 0 -15 R -15 -29 R -44 -15 R -43 0 R -44 15 R
-15 29 R D 7735 7370 M 0 -248 R 14 -44 R 30 -15 R 29 0 R D 7691 7268 M
102 0 R D 7881 7370 M 14 -15 R 15 15 R -15 15 R -14 -15 R D 7895 7268 M
0 -205 R D 8012 7268 M 0 -205 R D 8012 7209 M 44 44 R 29 15 R 44 0 R
29 -15 R 15 -44 R 0 -146 R D 8173 7209 M 44 44 R 29 15 R 44 0 R 29 -15 R
15 -44 R 0 -146 R D 8611 7268 M 0 -205 R D 8611 7224 M -29 29 R -29 15 R
-44 0 R -29 -15 R -30 -29 R -14 -44 R 0 -29 R 14 -44 R 30 -29 R 29 -15 R
44 0 R 29 15 R 29 29 R D 8743 7370 M 0 -248 R 14 -44 R 29 -15 R 30 0 R D
8699 7268 M 102 0 R D 8889 7370 M 14 -15 R 15 15 R -15 15 R -14 -15 R D
8903 7268 M 0 -205 R D 9078 7268 M -29 -15 R -29 -29 R -15 -44 R 0 -29 R
15 -44 R 29 -29 R 29 -15 R 44 0 R 29 15 R 30 29 R 14 44 R 0 29 R -14 44 R
-30 29 R -29 15 R -44 0 R D 9298 7268 M 0 -205 R D 9298 7209 M 43 44 R
30 15 R 43 0 R 30 -15 R 14 -44 R 0 -146 R D 9969 7370 M 0 -307 R D
9969 7224 M -29 29 R -29 15 R -44 0 R -29 -15 R -29 -29 R -15 -44 R 0 -29 R
15 -44 R 29 -29 R 29 -15 R 44 0 R 29 15 R 29 29 R D 10072 7180 M 175 0 R
0 29 R -15 30 R -14 14 R -30 15 R -43 0 R -30 -15 R -29 -29 R -14 -44 R
0 -29 R 14 -44 R 29 -29 R 30 -15 R 43 0 R 30 15 R 29 29 R D 10320 7268 M
88 -205 R 87 205 R D 10568 7370 M 15 -15 R 14 15 R -14 15 R -15 -15 R D
10583 7268 M 0 -205 R D 10860 7268 M 0 -205 R D 10860 7224 M -29 29 R
-29 15 R -44 0 R -29 -15 R -29 -29 R -15 -44 R 0 -29 R 15 -44 R 29 -29 R
29 -15 R 44 0 R 29 15 R 29 29 R D 10992 7370 M 0 -248 R 14 -44 R 30 -15 R
29 0 R D 10948 7268 M 102 0 R D 11138 7370 M 14 -15 R 15 15 R -15 15 R
-14 -15 R D 11152 7268 M 0 -205 R D 11328 7268 M -30 -15 R -29 -29 R
-14 -44 R 0 -29 R 14 -44 R 29 -29 R 30 -15 R 43 0 R 30 15 R 29 29 R 14 44 R
0 29 R -14 44 R -29 29 R -30 15 R -43 0 R D 11547 7268 M 0 -205 R D
11547 7209 M 44 44 R 29 15 R 44 0 R 29 -15 R 14 -44 R 0 -146 R D
11970 7224 M -14 29 R -44 15 R -44 0 R -44 -15 R -14 -29 R 14 -29 R 29 -15 R
73 -15 R 30 -14 R 14 -29 R 0 -15 R -14 -29 R -44 -15 R -44 0 R -44 15 R
-14 29 R D 40 setlinewidth 2220 1408 M 12227 0 R D 2220 1408 M 0 109 R D
10 setlinewidth 1753 1079 M 23 11 R 35 35 R 0 -245 R D 1975 903 M -12 -11 R
12 -12 R 11 12 R -11 11 R D 2185 1125 M -117 -163 R 175 0 R D 2185 1125 M
0 -245 R D 2454 1044 M -12 -35 R -23 -24 R -35 -11 R -12 0 R -35 11 R
-23 24 R -12 35 R 0 11 R 12 35 R 23 24 R 35 11 R 12 0 R 35 -11 R 23 -24 R
12 -46 R 0 -59 R -12 -58 R -23 -35 R -35 -12 R -24 0 R -35 12 R -11 23 R D
2547 1067 M 0 12 R 12 23 R 12 12 R 23 11 R 47 0 R 23 -11 R 12 -12 R 11 -23 R
0 -24 R -11 -23 R -24 -35 R -116 -117 R 163 0 R D 40 setlinewidth
3748 1408 M 0 109 R D 10 setlinewidth 3281 1079 M 23 11 R 36 35 R 0 -245 R D
3503 903 M -12 -11 R 12 -12 R 12 12 R -12 11 R D 3713 1125 M -116 -163 R
175 0 R D 3713 1125 M 0 -245 R D 3982 1044 M -12 -35 R -23 -24 R -35 -11 R
-12 0 R -35 11 R -23 24 R -12 35 R 0 11 R 12 35 R 23 24 R 35 11 R 12 0 R
35 -11 R 23 -24 R 12 -46 R 0 -59 R -12 -58 R -23 -35 R -35 -12 R -23 0 R
-35 12 R -12 23 R D 4181 1125 M -117 -163 R 175 0 R D 4181 1125 M 0 -245 R D
40 setlinewidth 5277 1408 M 0 109 R D 10 setlinewidth 4809 1079 M 24 11 R
35 35 R 0 -245 R D 5031 903 M -11 -11 R 11 -12 R 12 12 R -12 11 R D
5242 1125 M -117 -163 R 175 0 R D 5242 1125 M 0 -245 R D 5511 1044 M
-12 -35 R -24 -24 R -35 -11 R -11 0 R -35 11 R -24 24 R -11 35 R 0 11 R
11 35 R 24 24 R 35 11 R 11 0 R 35 -11 R 24 -24 R 12 -46 R 0 -59 R -12 -58 R
-24 -35 R -35 -12 R -23 0 R -35 12 R -12 23 R D 5744 1090 M -11 24 R
-36 11 R -23 0 R -35 -11 R -23 -35 R -12 -59 R 0 -58 R 12 -47 R 23 -23 R
35 -12 R 12 0 R 35 12 R 23 23 R 12 35 R 0 12 R -12 35 R -23 23 R -35 12 R
-12 0 R -35 -12 R -23 -23 R -12 -35 R D 40 setlinewidth 6805 1408 M 0 109 R
D 10 setlinewidth 6338 1079 M 23 11 R 35 35 R 0 -245 R D 6560 903 M
-12 -11 R 12 -12 R 12 12 R -12 11 R D 6770 1125 M -117 -163 R 176 0 R D
6770 1125 M 0 -245 R D 7039 1044 M -12 -35 R -23 -24 R -35 -11 R -12 0 R
-35 11 R -23 24 R -12 35 R 0 11 R 12 35 R 23 24 R 35 11 R 12 0 R 35 -11 R
23 -24 R 12 -46 R 0 -59 R -12 -58 R -23 -35 R -35 -12 R -24 0 R -35 12 R
-11 23 R D 7179 1125 M -35 -11 R -12 -24 R 0 -23 R 12 -23 R 23 -12 R
47 -12 R 35 -11 R 24 -24 R 11 -23 R 0 -35 R -11 -24 R -12 -11 R -35 -12 R
-47 0 R -35 12 R -12 11 R -11 24 R 0 35 R 11 23 R 24 24 R 35 11 R 47 12 R
23 12 R 12 23 R 0 23 R -12 24 R -35 11 R -47 0 R D 40 setlinewidth
8334 1408 M 0 109 R D 10 setlinewidth 7866 1079 M 24 11 R 35 35 R 0 -245 R D
8088 903 M -11 -11 R 11 -12 R 12 12 R -12 11 R D 8322 1125 M -117 0 R
-12 -105 R 12 12 R 35 12 R 35 0 R 35 -12 R 24 -23 R 11 -35 R 0 -24 R
-11 -35 R -24 -23 R -35 -12 R -35 0 R -35 12 R -12 11 R -11 24 R D
8485 1125 M -35 -11 R -23 -35 R -12 -59 R 0 -35 R 12 -58 R 23 -35 R 35 -12 R
24 0 R 35 12 R 23 35 R 12 58 R 0 35 R -12 59 R -23 35 R -35 11 R -24 0 R D
8719 1125 M -35 -11 R -23 -35 R -12 -59 R 0 -35 R 12 -58 R 23 -35 R 35 -12 R
24 0 R 35 12 R 23 35 R 12 58 R 0 35 R -12 59 R -23 35 R -35 11 R -24 0 R D
40 setlinewidth 9862 1408 M 0 109 R D 10 setlinewidth 9395 1079 M 23 11 R
35 35 R 0 -245 R D 9617 903 M -12 -11 R 12 -12 R 11 12 R -11 11 R D
9850 1125 M -117 0 R -11 -105 R 11 12 R 35 12 R 36 0 R 35 -12 R 23 -23 R
12 -35 R 0 -24 R -12 -35 R -23 -23 R -35 -12 R -36 0 R -35 12 R -11 11 R
-12 24 R D 10014 1125 M -35 -11 R -24 -35 R -11 -59 R 0 -35 R 11 -58 R
24 -35 R 35 -12 R 23 0 R 35 12 R 24 35 R 11 58 R 0 35 R -11 59 R -24 35 R
-35 11 R -23 0 R D 10189 1067 M 0 12 R 12 23 R 11 12 R 24 11 R 47 0 R
23 -11 R 12 -12 R 11 -23 R 0 -24 R -11 -23 R -24 -35 R -117 -117 R 164 0 R D
40 setlinewidth 11390 1408 M 0 109 R D 10 setlinewidth 10923 1079 M 23 11 R
35 35 R 0 -245 R D 11145 903 M -12 -11 R 12 -12 R 12 12 R -12 11 R D
11379 1125 M -117 0 R -12 -105 R 12 12 R 35 12 R 35 0 R 35 -12 R 23 -23 R
12 -35 R 0 -24 R -12 -35 R -23 -23 R -35 -12 R -35 0 R -35 12 R -12 11 R
-12 24 R D 11542 1125 M -35 -11 R -23 -35 R -12 -59 R 0 -35 R 12 -58 R
23 -35 R 35 -12 R 24 0 R 35 12 R 23 35 R 12 58 R 0 35 R -12 59 R -23 35 R
-35 11 R -24 0 R D 11823 1125 M -117 -163 R 175 0 R D 11823 1125 M 0 -245 R
D 40 setlinewidth 12919 1408 M 0 109 R D 10 setlinewidth 12451 1079 M
24 11 R 35 35 R 0 -245 R D 12673 903 M -11 -11 R 11 -12 R 12 12 R -12 11 R D
12907 1125 M -117 0 R -12 -105 R 12 12 R 35 12 R 35 0 R 35 -12 R 24 -23 R
11 -35 R 0 -24 R -11 -35 R -24 -23 R -35 -12 R -35 0 R -35 12 R -12 11 R
-11 24 R D 13071 1125 M -35 -11 R -24 -35 R -12 -59 R 0 -35 R 12 -58 R
24 -35 R 35 -12 R 23 0 R 35 12 R 23 35 R 12 58 R 0 35 R -12 59 R -23 35 R
-35 11 R -23 0 R D 13386 1090 M -12 24 R -35 11 R -23 0 R -35 -11 R
-23 -35 R -12 -59 R 0 -58 R 12 -47 R 23 -23 R 35 -12 R 12 0 R 35 12 R
23 23 R 12 35 R 0 12 R -12 35 R -23 23 R -35 12 R -12 0 R -35 -12 R
-23 -23 R -12 -35 R D 40 setlinewidth 14447 1408 M 0 109 R D 10 setlinewidth
13980 1079 M 23 11 R 35 35 R 0 -245 R D 14202 903 M -12 -11 R 12 -12 R
11 12 R -11 11 R D 14435 1125 M -116 0 R -12 -105 R 12 12 R 35 12 R 35 0 R
35 -12 R 23 -23 R 12 -35 R 0 -24 R -12 -35 R -23 -23 R -35 -12 R -35 0 R
-35 12 R -12 11 R -12 24 R D 14599 1125 M -35 -11 R -23 -35 R -12 -59 R
0 -35 R 12 -58 R 23 -35 R 35 -12 R 23 0 R 35 12 R 24 35 R 11 58 R 0 35 R
-11 59 R -24 35 R -35 11 R -23 0 R D 14821 1125 M -35 -11 R -12 -24 R
0 -23 R 12 -23 R 23 -12 R 47 -12 R 35 -11 R 23 -24 R 12 -23 R 0 -35 R
-12 -24 R -11 -11 R -35 -12 R -47 0 R -35 12 R -12 11 R -11 24 R 0 35 R
11 23 R 24 24 R 35 11 R 46 12 R 24 12 R 11 23 R 0 23 R -11 24 R -35 11 R
-47 0 R D 40 setlinewidth 2602 1408 M 0 54 R D 2984 1408 M 0 54 R D
3366 1408 M 0 54 R D 4131 1408 M 0 54 R D 4513 1408 M 0 54 R D 4895 1408 M
0 54 R D 5659 1408 M 0 54 R D 6041 1408 M 0 54 R D 6423 1408 M 0 54 R D
7187 1408 M 0 54 R D 7569 1408 M 0 54 R D 7951 1408 M 0 54 R D 8716 1408 M
0 54 R D 9098 1408 M 0 54 R D 9480 1408 M 0 54 R D 10244 1408 M 0 54 R D
10626 1408 M 0 54 R D 11008 1408 M 0 54 R D 11772 1408 M 0 54 R D
12155 1408 M 0 54 R D 12537 1408 M 0 54 R D 13301 1408 M 0 54 R D
13683 1408 M 0 54 R D 14065 1408 M 0 54 R D 10 setlinewidth 6914 668 M
164 -246 R D 7078 668 M -164 -246 R D 7346 586 M 0 -257 R D 7346 551 M
24 23 R 23 12 R 35 0 R 23 -12 R 24 -23 R 11 -35 R 0 -23 R -11 -36 R
-24 -23 R -23 -12 R -35 0 R -23 12 R -24 23 R D 7615 586 M -23 -12 R
-24 -23 R -11 -35 R 0 -23 R 11 -36 R 24 -23 R 23 -12 R 35 0 R 23 12 R
24 23 R 11 36 R 0 23 R -11 35 R -24 23 R -23 12 R -35 0 R D 7907 551 M
-12 23 R -35 12 R -35 0 R -35 -12 R -11 -23 R 11 -23 R 24 -12 R 58 -12 R
23 -11 R 12 -24 R 0 -12 R -12 -23 R -35 -12 R -35 0 R -35 12 R -11 23 R D
7977 668 M 12 -12 R 12 12 R -12 11 R -12 -11 R D 7989 586 M 0 -164 R D
8094 668 M 0 -199 R 12 -35 R 23 -12 R 23 0 R D 8059 586 M 82 0 R D
8211 668 M 12 -12 R 11 12 R -11 11 R -12 -11 R D 8223 586 M 0 -164 R D
8363 586 M -24 -12 R -23 -23 R -12 -35 R 0 -23 R 12 -36 R 23 -23 R 24 -12 R
35 0 R 23 12 R 24 23 R 11 36 R 0 23 R -11 35 R -24 23 R -23 12 R -35 0 R D
8538 586 M 0 -164 R D 8538 539 M 35 35 R 23 12 R 36 0 R 23 -12 R 12 -35 R
0 -117 R D 9029 715 M -24 -24 R -23 -35 R -23 -47 R -12 -58 R 0 -47 R
12 -58 R 23 -59 R 23 -35 R 24 -23 R D 9111 668 M 0 -246 R D 9111 551 M
23 23 R 23 12 R 35 0 R 24 -12 R 23 -23 R 12 -35 R 0 -23 R -12 -36 R
-23 -23 R -24 -12 R -35 0 R -23 12 R -23 23 R D 9321 668 M 12 -12 R 11 12 R
-11 11 R -12 -11 R D 9333 586 M 0 -164 R D 9426 586 M 0 -164 R D 9426 539 M
35 35 R 23 12 R 36 0 R 23 -12 R 12 -35 R 0 -117 R D 9636 715 M 24 -24 R
23 -35 R 23 -47 R 12 -58 R 0 -47 R -12 -58 R -23 -59 R -23 -35 R -24 -23 R D
40 setlinewidth 2220 6852 M 12227 0 R D 2220 6852 M 0 -109 R D 3748 6852 M
0 -109 R D 5277 6852 M 0 -109 R D 6805 6852 M 0 -109 R D 8334 6852 M
0 -109 R D 9862 6852 M 0 -109 R D 11390 6852 M 0 -109 R D 12919 6852 M
0 -109 R D 14447 6852 M 0 -109 R D 2602 6852 M 0 -54 R D 2984 6852 M 0 -54 R
D 3366 6852 M 0 -54 R D 4131 6852 M 0 -54 R D 4513 6852 M 0 -54 R D
4895 6852 M 0 -54 R D 5659 6852 M 0 -54 R D 6041 6852 M 0 -54 R D
6423 6852 M 0 -54 R D 7187 6852 M 0 -54 R D 7569 6852 M 0 -54 R D
7951 6852 M 0 -54 R D 8716 6852 M 0 -54 R D 9098 6852 M 0 -54 R D
9480 6852 M 0 -54 R D 10244 6852 M 0 -54 R D 10626 6852 M 0 -54 R D
11008 6852 M 0 -54 R D 11772 6852 M 0 -54 R D 12155 6852 M 0 -54 R D
12537 6852 M 0 -54 R D 13301 6852 M 0 -54 R D 13683 6852 M 0 -54 R D
14065 6852 M 0 -54 R D 2220 1408 M 0 5444 R D 2220 1408 M 245 0 R D
10 setlinewidth 1969 1653 M -35 -11 R -24 -35 R -11 -59 R 0 -35 R 11 -58 R
24 -35 R 35 -12 R 23 0 R 35 12 R 24 35 R 11 58 R 0 35 R -11 59 R -24 35 R
-35 11 R -23 0 R D 40 setlinewidth 2220 2315 M 245 0 R D 10 setlinewidth
1700 2373 M 23 12 R 36 35 R 0 -245 R D 1969 2420 M -35 -12 R -24 -35 R
-11 -58 R 0 -35 R 11 -59 R 24 -35 R 35 -11 R 23 0 R 35 11 R 24 35 R 11 59 R
0 35 R -11 58 R -24 35 R -35 12 R -23 0 R D 40 setlinewidth 2220 3223 M
245 0 R D 10 setlinewidth 1677 3269 M 0 12 R 11 23 R 12 12 R 23 11 R 47 0 R
24 -11 R 11 -12 R 12 -23 R 0 -24 R -12 -23 R -23 -35 R -117 -117 R 164 0 R D
1969 3327 M -35 -11 R -24 -35 R -11 -59 R 0 -35 R 11 -58 R 24 -35 R 35 -12 R
23 0 R 35 12 R 24 35 R 11 58 R 0 35 R -11 59 R -24 35 R -35 11 R -23 0 R D
40 setlinewidth 2220 4130 M 245 0 R D 10 setlinewidth 1688 4235 M 129 0 R
-70 -94 R 35 0 R 23 -12 R 12 -11 R 12 -35 R 0 -24 R -12 -35 R -23 -23 R
-35 -12 R -36 0 R -35 12 R -11 12 R -12 23 R D 1969 4235 M -35 -12 R
-24 -35 R -11 -59 R 0 -35 R 11 -58 R 24 -35 R 35 -12 R 23 0 R 35 12 R
24 35 R 11 58 R 0 35 R -11 59 R -24 35 R -35 12 R -23 0 R D 40 setlinewidth
2220 5037 M 245 0 R D 10 setlinewidth 1782 5142 M -117 -164 R 175 0 R D
1782 5142 M 0 -245 R D 1969 5142 M -35 -12 R -24 -35 R -11 -58 R 0 -35 R
11 -59 R 24 -35 R 35 -11 R 23 0 R 35 11 R 24 35 R 11 59 R 0 35 R -11 58 R
-24 35 R -35 12 R -23 0 R D 40 setlinewidth 2220 5945 M 245 0 R D
10 setlinewidth 1805 6049 M -117 0 R -11 -105 R 11 12 R 35 11 R 36 0 R
35 -11 R 23 -24 R 12 -35 R 0 -23 R -12 -35 R -23 -23 R -35 -12 R -36 0 R
-35 12 R -11 11 R -12 24 R D 1969 6049 M -35 -11 R -24 -35 R -11 -59 R
0 -35 R 11 -58 R 24 -35 R 35 -12 R 23 0 R 35 12 R 24 35 R 11 58 R 0 35 R
-11 59 R -24 35 R -35 11 R -23 0 R D 40 setlinewidth 2220 6852 M 245 0 R D
10 setlinewidth 1817 6816 M -12 23 R -35 12 R -23 0 R -35 -12 R -24 -35 R
-11 -58 R 0 -59 R 11 -46 R 24 -24 R 35 -11 R 12 0 R 35 11 R 23 24 R 12 35 R
0 11 R -12 35 R -23 24 R -35 12 R -12 0 R -35 -12 R -24 -24 R -11 -35 R D
1969 6851 M -35 -12 R -24 -35 R -11 -58 R 0 -35 R 11 -59 R 24 -35 R 35 -11 R
23 0 R 35 11 R 24 35 R 11 59 R 0 35 R -11 58 R -24 35 R -35 12 R -23 0 R D
40 setlinewidth 2220 1499 M 122 0 R D 2220 1590 M 122 0 R D 2220 1680 M
122 0 R D 2220 1771 M 122 0 R D 2220 1862 M 122 0 R D 2220 1952 M 122 0 R D
2220 2043 M 122 0 R D 2220 2134 M 122 0 R D 2220 2225 M 122 0 R D
2220 2406 M 122 0 R D 2220 2497 M 122 0 R D 2220 2588 M 122 0 R D
2220 2678 M 122 0 R D 2220 2769 M 122 0 R D 2220 2860 M 122 0 R D
2220 2951 M 122 0 R D 2220 3041 M 122 0 R D 2220 3132 M 122 0 R D
2220 3313 M 122 0 R D 2220 3404 M 122 0 R D 2220 3495 M 122 0 R D
2220 3586 M 122 0 R D 2220 3676 M 122 0 R D 2220 3767 M 122 0 R D
2220 3858 M 122 0 R D 2220 3949 M 122 0 R D 2220 4039 M 122 0 R D
2220 4221 M 122 0 R D 2220 4312 M 122 0 R D 2220 4402 M 122 0 R D
2220 4493 M 122 0 R D 2220 4584 M 122 0 R D 2220 4674 M 122 0 R D
2220 4765 M 122 0 R D 2220 4856 M 122 0 R D 2220 4947 M 122 0 R D
2220 5128 M 122 0 R D 2220 5219 M 122 0 R D 2220 5310 M 122 0 R D
2220 5400 M 122 0 R D 2220 5491 M 122 0 R D 2220 5582 M 122 0 R D
2220 5673 M 122 0 R D 2220 5763 M 122 0 R D 2220 5854 M 122 0 R D
2220 6035 M 122 0 R D 2220 6126 M 122 0 R D 2220 6217 M 122 0 R D
2220 6308 M 122 0 R D 2220 6398 M 122 0 R D 2220 6489 M 122 0 R D
2220 6580 M 122 0 R D 2220 6671 M 122 0 R D 2220 6761 M 122 0 R D
14447 1408 M 0 5444 R D 14447 1408 M -244 0 R D 14447 2315 M -244 0 R D
14447 3223 M -244 0 R D 14447 4130 M -244 0 R D 14447 5037 M -244 0 R D
14447 5945 M -244 0 R D 14447 6852 M -244 0 R D 14447 1499 M -122 0 R D
14447 1590 M -122 0 R D 14447 1680 M -122 0 R D 14447 1771 M -122 0 R D
14447 1862 M -122 0 R D 14447 1952 M -122 0 R D 14447 2043 M -122 0 R D
14447 2134 M -122 0 R D 14447 2225 M -122 0 R D 14447 2406 M -122 0 R D
14447 2497 M -122 0 R D 14447 2588 M -122 0 R D 14447 2678 M -122 0 R D
14447 2769 M -122 0 R D 14447 2860 M -122 0 R D 14447 2951 M -122 0 R D
14447 3041 M -122 0 R D 14447 3132 M -122 0 R D 14447 3313 M -122 0 R D
14447 3404 M -122 0 R D 14447 3495 M -122 0 R D 14447 3586 M -122 0 R D
14447 3676 M -122 0 R D 14447 3767 M -122 0 R D 14447 3858 M -122 0 R D
14447 3949 M -122 0 R D 14447 4039 M -122 0 R D 14447 4221 M -122 0 R D
14447 4312 M -122 0 R D 14447 4402 M -122 0 R D 14447 4493 M -122 0 R D
14447 4584 M -122 0 R D 14447 4674 M -122 0 R D 14447 4765 M -122 0 R D
14447 4856 M -122 0 R D 14447 4947 M -122 0 R D 14447 5128 M -122 0 R D
14447 5219 M -122 0 R D 14447 5310 M -122 0 R D 14447 5400 M -122 0 R D
14447 5491 M -122 0 R D 14447 5582 M -122 0 R D 14447 5673 M -122 0 R D
14447 5763 M -122 0 R D 14447 5854 M -122 0 R D 14447 6035 M -122 0 R D
14447 6126 M -122 0 R D 14447 6217 M -122 0 R D 14447 6308 M -122 0 R D
14447 6398 M -122 0 R D 14447 6489 M -122 0 R D 14447 6580 M -122 0 R D
14447 6671 M -122 0 R D 14447 6761 M -122 0 R D 5135 1499 M 10 0 R 0 -91 R
10 0 R 10 0 R 11 0 R 10 0 R 10 0 R 11 0 R 10 0 R 10 0 R 10 0 R 11 0 R 0 91 R
10 0 R 10 0 R 0 -91 R 11 0 R 10 0 R 0 91 R 10 0 R 10 0 R 0 -91 R 11 0 R
10 0 R 0 182 R 10 0 R 10 0 R 0 -182 R 11 0 R 10 0 R 10 0 R 11 0 R 10 0 R
10 0 R 10 0 R 11 0 R 10 0 R 10 0 R 11 0 R 10 0 R 10 0 R 10 0 R 11 0 R 10 0 R
0 91 R 10 0 R 10 0 R 0 -91 R 11 0 R 10 0 R 0 91 R 10 0 R 11 0 R 0 -91 R
10 0 R 10 0 R 0 91 R 10 0 R 11 0 R 10 0 R 10 0 R 0 -91 R 11 0 R 10 0 R
10 0 R 10 0 R 11 0 R 10 0 R 10 0 R 10 0 R 0 91 R 11 0 R 10 0 R 0 -91 R
10 0 R 11 0 R 0 91 R 10 0 R 10 0 R 0 91 R 10 0 R 11 0 R 0 -91 R 10 0 R
10 0 R 10 0 R 11 0 R 0 91 R 10 0 R 10 0 R 0 -182 R 11 0 R 10 0 R 0 182 R
10 0 R 10 0 R 11 0 R 10 0 R 0 -91 R 10 0 R 11 0 R 0 181 R 10 0 R 10 0 R
0 -181 R 10 0 R 11 0 R 0 272 R 10 0 R 10 0 R 0 -272 R 10 0 R 11 0 R 0 181 R
10 0 R 10 0 R 0 -272 R 11 0 R 10 0 R 0 272 R 10 0 R 10 0 R 11 0 R 10 0 R
0 182 R 10 0 R 11 0 R 0 -182 R 10 0 R 10 0 R 0 272 R 10 0 R 11 0 R 0 -272 R
10 0 R 10 0 R 0 -90 R 10 0 R 11 0 R 10 0 R 10 0 R 0 -91 R 11 0 R 10 0 R
10 0 R 10 0 R 0 363 R 11 0 R 10 0 R 0 90 R 10 0 R 11 0 R 0 -181 R 10 0 R
10 0 R 0 272 R 10 0 R 11 0 R 0 -181 R 10 0 R 10 0 R 0 272 R 10 0 R 11 0 R
0 -363 R 10 0 R 10 0 R 0 -272 R 11 0 R 10 0 R 0 272 R 10 0 R 10 0 R 0 -91 R
11 0 R 10 0 R 10 0 R 10 0 R 0 635 R 11 0 R 10 0 R 0 -635 R 10 0 R 11 0 R
0 182 R 10 0 R 10 0 R 0 272 R 10 0 R 11 0 R 0 91 R 10 0 R 10 0 R 11 0 R
10 0 R 0 726 R 10 0 R 10 0 R 0 -363 R 11 0 R 10 0 R 0 -454 R 10 0 R 10 0 R
0 -272 R 11 0 R 10 0 R 0 453 R 10 0 R 11 0 R 10 0 R 10 0 R 10 0 R 11 0 R
0 454 R 10 0 R 10 0 R 0 -907 R 11 0 R 10 0 R 0 544 R 10 0 R 10 0 R 0 182 R
11 0 R 10 0 R 0 90 R 10 0 R 10 0 R 0 -90 R 11 0 R 10 0 R 0 453 R 10 0 R
11 0 R 0 -453 R 10 0 R 10 0 R 0 90 R 10 0 R 11 0 R 10 0 R 10 0 R 0 -90 R
11 0 R 10 0 R 0 90 R 10 0 R 10 0 R 0 91 R 11 0 R 10 0 R 0 726 R 10 0 R
10 0 R 0 -454 R 11 0 R 10 0 R 10 0 R 11 0 R 0 545 R 10 0 R 10 0 R 0 -635 R
10 0 R 11 0 R 0 272 R 10 0 R 10 0 R 0 272 R 11 0 R 10 0 R 0 544 R 10 0 R
10 0 R 0 -726 R 11 0 R 10 0 R 0 545 R 10 0 R 10 0 R 11 0 R 10 0 R 0 -998 R
10 0 R 11 0 R 0 272 R 10 0 R 10 0 R 0 907 R 10 0 R 11 0 R 0 -816 R 10 0 R
10 0 R 0 1089 R 10 0 R 11 0 R 0 -454 R 10 0 R 10 0 R 0 181 R 11 0 R 10 0 R
0 363 R 10 0 R 10 0 R 0 -544 R 11 0 R 10 0 R 0 181 R 10 0 R 11 0 R 0 273 R
10 0 R 10 0 R 0 -726 R 10 0 R 11 0 R 0 726 R 10 0 R 10 0 R 0 -91 R 10 0 R
11 0 R 0 363 R 10 0 R 10 0 R 0 -545 R 11 0 R 10 0 R 0 1271 R 10 0 R 10 0 R
0 -998 R 11 0 R 10 0 R 0 90 R 10 0 R 11 0 R 0 545 R 10 0 R 10 0 R 0 -635 R
10 0 R 11 0 R 0 725 R 10 0 R 10 0 R 0 91 R 10 0 R 11 0 R 0 -272 R 10 0 R
10 0 R 0 -454 R 11 0 R 10 0 R 0 998 R 10 0 R 10 0 R 0 -272 R 11 0 R 10 0 R
0 272 R 10 0 R 11 0 R 0 454 R 10 0 R 10 0 R 0 -1270 R 10 0 R 11 0 R 0 -91 R
10 0 R 10 0 R 0 363 R 10 0 R 11 0 R 0 -182 R 10 0 R 10 0 R 0 -90 R 11 0 R
10 0 R 0 635 R 10 0 R 10 0 R 0 181 R 11 0 R 10 0 R 0 635 R 10 0 R 10 0 R
0 -1451 R 11 0 R 10 0 R 0 1089 R 10 0 R 11 0 R 0 -999 R 10 0 R 10 0 R
0 1361 R 10 0 R 11 0 R 0 -1088 R 10 0 R 10 0 R 0 -363 R 11 0 R 10 0 R
0 -272 R 10 0 R 10 0 R 0 1270 R 11 0 R 10 0 R 0 -635 R 10 0 R 10 0 R 0 363 R
11 0 R 10 0 R 0 907 R 10 0 R 11 0 R 0 -1270 R 10 0 R 10 0 R 0 544 R 10 0 R
11 0 R 0 -544 R 10 0 R 10 0 R 0 181 R 11 0 R 10 0 R 0 726 R 10 0 R 10 0 R
0 -91 R 11 0 R 10 0 R 0 -272 R 10 0 R 10 0 R 0 -181 R 11 0 R 10 0 R 0 -545 R
10 0 R 11 0 R 0 1361 R 10 0 R 10 0 R 10 0 R 11 0 R 0 -726 R 10 0 R 10 0 R
0 182 R 11 0 R 10 0 R 0 -272 R 10 0 R 10 0 R 0 -726 R 11 0 R 10 0 R 0 544 R
10 0 R 10 0 R 0 -181 R 11 0 R 10 0 R 0 272 R 10 0 R 11 0 R 0 726 R 10 0 R
10 0 R 0 -363 R 10 0 R 11 0 R 0 -1633 R 10 0 R 10 0 R 0 1270 R 10 0 R 11 0 R
0 -635 R 10 0 R 10 0 R 11 0 R 10 0 R 0 1451 R 10 0 R 10 0 R 0 -362 R 11 0 R
10 0 R 0 -545 R 10 0 R 11 0 R 0 272 R 10 0 R 10 0 R 0 -453 R 10 0 R 11 0 R
0 -998 R 10 0 R 10 0 R 0 998 R 10 0 R 11 0 R 0 -1089 R 10 0 R 10 0 R 0 635 R
11 0 R 10 0 R 0 -726 R 10 0 R 10 0 R 0 1543 R 11 0 R 10 0 R 0 -636 R 10 0 R
11 0 R 0 -362 R 10 0 R 10 0 R 0 181 R 10 0 R 11 0 R 0 363 R 10 0 R 10 0 R
0 -363 R 10 0 R 11 0 R 10 0 R 10 0 R 0 181 R 11 0 R 10 0 R 0 -272 R 10 0 R
10 0 R 0 -635 R 11 0 R 10 0 R 0 272 R 10 0 R 11 0 R 0 -272 R 10 0 R 10 0 R
0 454 R 10 0 R 11 0 R 0 272 R 10 0 R 10 0 R 0 272 R 10 0 R 11 0 R 0 -816 R
10 0 R 10 0 R 0 181 R 11 0 R 10 0 R 0 -91 R 10 0 R 10 0 R 0 -726 R 11 0 R
10 0 R 0 -362 R 10 0 R 11 0 R 0 90 R 10 0 R 10 0 R 10 0 R 11 0 R 0 -181 R
10 0 R 10 0 R 0 635 R 10 0 R 11 0 R 0 -272 R 10 0 R 10 0 R 0 -182 R 11 0 R
10 0 R 0 272 R 10 0 R 10 0 R 0 -272 R 11 0 R 10 0 R 10 0 R 10 0 R 0 -90 R
11 0 R 10 0 R 0 -545 R 10 0 R 11 0 R 0 635 R 10 0 R 10 0 R 0 -90 R 10 0 R
11 0 R 0 181 R 10 0 R 10 0 R 0 907 R 11 0 R 10 0 R 0 -1270 R 10 0 R 10 0 R
0 -181 R 11 0 R 10 0 R 0 -182 R 10 0 R 10 0 R 0 -91 R 11 0 R 10 0 R 0 -90 R
10 0 R 11 0 R 0 90 R 10 0 R 10 0 R 0 -181 R 10 0 R 11 0 R 0 544 R 10 0 R
10 0 R 0 -453 R 11 0 R 10 0 R 0 -273 R 10 0 R 10 0 R 0 726 R 11 0 R 10 0 R
10 0 R 10 0 R 0 -181 R 11 0 R 10 0 R 0 -545 R 10 0 R 11 0 R 10 0 R 10 0 R
0 545 R 10 0 R 11 0 R 0 -454 R 10 0 R 10 0 R 0 -272 R 11 0 R 10 0 R 0 635 R
10 0 R 10 0 R 0 -181 R 11 0 R 10 0 R 0 363 R 10 0 R 10 0 R 0 -726 R 11 0 R
10 0 R 10 0 R 11 0 R 0 90 R 10 0 R 10 0 R 0 -272 R 10 0 R 11 0 R 0 545 R
10 0 R 10 0 R 0 -91 R 10 0 R 11 0 R 0 -91 R 10 0 R 10 0 R 0 363 R 11 0 R
10 0 R 0 -816 R 10 0 R 10 0 R 0 544 R 11 0 R 10 0 R 0 -363 R 10 0 R 11 0 R
0 -91 R 10 0 R 10 0 R 10 0 R 11 0 R 10 0 R 10 0 R 0 272 R 10 0 R 11 0 R
0 -362 R 10 0 R 10 0 R 0 90 R 11 0 R 10 0 R 0 272 R 10 0 R 10 0 R 0 -181 R
11 0 R 10 0 R 0 -181 R 10 0 R 11 0 R 10 0 R 10 0 R 0 -91 R D 10530 1499 M
10 0 R 11 0 R 10 0 R 10 0 R 0 272 R 10 0 R 11 0 R 0 -181 R 10 0 R 10 0 R
0 272 R 11 0 R 10 0 R 0 -182 R 10 0 R 10 0 R 0 -181 R 11 0 R 10 0 R 0 -91 R
10 0 R 11 0 R 0 182 R 10 0 R 10 0 R 10 0 R 11 0 R 10 0 R 10 0 R 0 -182 R
10 0 R 11 0 R 10 0 R 10 0 R 0 91 R 11 0 R 10 0 R 0 91 R 10 0 R 10 0 R
0 -91 R 11 0 R 10 0 R 0 -91 R 10 0 R 10 0 R 0 272 R 11 0 R 10 0 R 0 -181 R
10 0 R 11 0 R 0 -91 R 10 0 R 10 0 R 0 91 R 10 0 R 11 0 R 0 -91 R 10 0 R
10 0 R 11 0 R 10 0 R 10 0 R 10 0 R 11 0 R 10 0 R 0 182 R 10 0 R 10 0 R
0 -182 R 11 0 R 10 0 R 10 0 R 11 0 R 10 0 R 10 0 R 10 0 R 11 0 R 10 0 R
10 0 R 0 91 R 11 0 R 10 0 R 0 -91 R 10 0 R 10 0 R 0 91 R 11 0 R 10 0 R
0 -91 R 10 0 R 10 0 R 11 0 R 10 0 R 0 91 R 10 0 R 11 0 R 0 -91 R 10 0 R
10 0 R 10 0 R 11 0 R 10 0 R 10 0 R 11 0 R 10 0 R 10 0 R 10 0 R 11 0 R 10 0 R
10 0 R 10 0 R 11 0 R 10 0 R 10 0 R 11 0 R 10 0 R 10 0 R 10 0 R 11 0 R 10 0 R
10 0 R 10 0 R 11 0 R 10 0 R 10 0 R 0 91 R 11 0 R 10 0 R 0 -91 R 10 0 R
10 0 R 11 0 R 10 0 R 10 0 R 11 0 R 10 0 R 10 0 R 10 0 R 11 0 R 10 0 R 10 0 R
10 0 R 11 0 R 10 0 R 10 0 R 11 0 R 10 0 R 0 91 R 10 0 R 10 0 R 0 -91 R
11 0 R 10 0 R 10 0 R 11 0 R 0 91 R 10 0 R D 60 setlinewidth
1.000 0.000 0.000 setrgbcolor 5135 1420 M 20 1 R 21 1 R 20 1 R 21 1 R 20 2 R
21 1 R 21 1 R 20 2 R 21 1 R 20 2 R 21 2 R 20 2 R 21 2 R 20 2 R 21 2 R 21 3 R
20 3 R 21 2 R 20 3 R 21 3 R 20 4 R 21 3 R 20 4 R 21 4 R 21 4 R 20 5 R 21 4 R
20 5 R 21 5 R 20 6 R 21 6 R 20 6 R 21 6 R 20 7 R 21 7 R 21 7 R 20 8 R 21 8 R
20 9 R 21 9 R 20 10 R 21 10 R 20 10 R 21 11 R 21 11 R 20 12 R 21 12 R
20 13 R 21 14 R 20 14 R 21 15 R 20 15 R 21 16 R 21 17 R 20 17 R 21 18 R
20 18 R 21 19 R 20 20 R 21 21 R 20 22 R 21 22 R 21 23 R 20 24 R 21 24 R
20 26 R 21 26 R 20 27 R 21 28 R 20 29 R 21 29 R 21 31 R 20 31 R 21 32 R
20 33 R 21 34 R 20 35 R 21 36 R 20 36 R 21 38 R 21 38 R 20 39 R 21 40 R
20 41 R 21 42 R 20 42 R 21 44 R 20 44 R 21 44 R 21 46 R 20 46 R 21 47 R
20 48 R 21 48 R 20 49 R 21 50 R 20 50 R 21 51 R 21 51 R 20 52 R 21 52 R
20 52 R 21 53 R 20 53 R 21 53 R 20 54 R 21 54 R 20 53 R 21 54 R 21 54 R
20 54 R 21 54 R 20 53 R 21 54 R 20 53 R 21 53 R 20 52 R 21 52 R 21 51 R
20 51 R 21 50 R 20 50 R 21 49 R 20 48 R 21 47 R 20 46 R 21 46 R 21 44 R
20 43 R 21 42 R 20 41 R 21 39 R 20 39 R 21 36 R 20 36 R 21 34 R 21 33 R
20 30 R 21 30 R 20 28 R 21 26 R 20 24 R 21 23 R 20 20 R 21 20 R 21 17 R
20 15 R 21 14 R 20 11 R 21 10 R 20 7 R 21 6 R 20 4 R 21 2 R 21 0 R 20 -2 R
21 -4 R 20 -6 R 21 -8 R 20 -10 R 21 -12 R 20 -13 R 21 -16 R 21 -17 R
20 -20 R 21 -21 R 20 -22 R 21 -25 R 20 -26 R 21 -28 R 20 -30 R 21 -31 R
20 -32 R 21 -35 R 21 -35 R 20 -37 R 21 -39 R 20 -39 R 21 -41 R 20 -42 R
21 -44 R 20 -44 R 21 -45 R 21 -47 R 20 -47 R 21 -48 R 20 -49 R 21 -50 R
20 -50 R 21 -51 R 20 -51 R 21 -52 R 21 -53 R 20 -53 R 21 -53 R 20 -53 R
21 -54 R 20 -53 R 21 -54 R 20 -54 R 21 -54 R 21 -54 R 20 -54 R 21 -53 R
20 -53 R 21 -53 R 20 -53 R 21 -53 R 20 -52 R 21 -51 R 21 -51 R 20 -51 R
21 -50 R 20 -50 R 21 -48 R 20 -49 R 21 -47 R 20 -47 R 21 -47 R 21 -45 R
20 -45 R 21 -44 R 20 -43 R 21 -42 R 20 -42 R 21 -41 R 20 -40 R 21 -39 R
21 -38 R 20 -37 R 21 -37 R 20 -35 R 21 -35 R 20 -34 R 21 -33 R 20 -32 R
21 -31 R 21 -31 R 20 -29 R 21 -29 R 20 -28 R 21 -27 R 20 -26 R 21 -25 R
20 -25 R 21 -23 R 20 -23 R 21 -23 R 21 -21 R 20 -21 R 21 -20 R 20 -19 R
21 -18 R 20 -18 R 21 -17 R 20 -17 R 21 -16 R 21 -15 R 20 -14 R 21 -14 R
20 -14 R 21 -13 R 20 -12 R 21 -12 R 20 -11 R 21 -11 R 21 -10 R 20 -10 R
21 -10 R 20 -9 R 21 -8 R 20 -9 R 21 -7 R 20 -8 R 21 -7 R 21 -6 R 20 -7 R
21 -6 R 20 -6 R 21 -5 R 20 -5 R 21 -5 R 20 -5 R 21 -4 R 21 -4 R 20 -4 R
21 -4 R 20 -4 R 21 -3 R 20 -3 R 21 -3 R 20 -3 R 21 -2 R 21 -3 R 20 -2 R
21 -2 R 20 -2 R 21 -2 R 20 -2 R 21 -2 R 20 -1 R 21 -2 R 21 -1 R 20 -2 R
21 -1 R 20 -1 R 21 -1 R 20 -1 R 21 -1 R 20 -1 R 21 -1 R 20 0 R 21 -1 R
21 -1 R 20 0 R 21 -1 R 20 0 R 21 -1 R 20 0 R 21 -1 R 20 0 R 21 -1 R 21 0 R
20 0 R 21 -1 R 20 0 R 21 0 R D 10 setlinewidth 0.000 0.000 0.000 setrgbcolor
2866 6471 M 0 -163 R D 2866 6424 M 36 36 R 23 11 R 35 0 R 23 -11 R 12 -36 R
0 -116 R D 2995 6424 M 35 36 R 23 11 R 35 0 R 24 -11 R 12 -36 R 0 -116 R D
3205 6401 M 141 0 R 0 23 R -12 24 R -12 12 R -23 11 R -35 0 R -24 -11 R
-23 -24 R -12 -35 R 0 -23 R 12 -35 R 23 -24 R 24 -11 R 35 0 R 23 11 R
24 24 R D 3556 6471 M 0 -163 R D 3556 6436 M -24 24 R -23 11 R -35 0 R
-23 -11 R -24 -24 R -11 -35 R 0 -23 R 11 -35 R 24 -24 R 23 -11 R 35 0 R
23 11 R 24 24 R D 3649 6471 M 0 -163 R D 3649 6424 M 35 36 R 24 11 R 35 0 R
23 -11 R 12 -36 R 0 -116 R D 4058 6448 M 211 0 R D 4058 6378 M 211 0 R D
5507 6506 M 23 12 R 36 35 R 0 -245 R D 5729 6331 M -12 -12 R 12 -11 R
12 11 R -12 12 R D 5963 6553 M -117 0 R -12 -105 R 12 12 R 35 11 R 35 0 R
35 -11 R 23 -24 R 12 -35 R 0 -23 R -12 -35 R -23 -24 R -35 -11 R -35 0 R
-35 11 R -12 12 R -11 23 R D 2866 6119 M 0 -163 R D 2866 6049 M 12 35 R
24 24 R 23 11 R 35 0 R D 3018 6119 M 0 -163 R D 3018 6072 M 35 36 R 24 11 R
35 0 R 23 -11 R 12 -36 R 0 -116 R D 3147 6072 M 35 36 R 23 11 R 35 0 R
24 -11 R 11 -36 R 0 -116 R D 3486 6084 M -12 24 R -35 11 R -35 0 R -35 -11 R
-12 -24 R 12 -23 R 23 -12 R 59 -12 R 23 -11 R 12 -24 R 0 -11 R -12 -24 R
-35 -11 R -35 0 R -35 11 R -12 24 R D 3754 6096 M 211 0 R D 3754 6026 M
211 0 R D 4456 6154 M 23 12 R 35 35 R 0 -245 R D 4678 5979 M -12 -12 R
12 -11 R 11 11 R -11 12 R D 4783 6143 M 0 11 R 11 24 R 12 11 R 23 12 R
47 0 R 24 -12 R 11 -11 R 12 -24 R 0 -23 R -12 -23 R -23 -36 R -117 -116 R
164 0 R D 5040 6154 M 23 12 R 35 35 R 0 -245 R D 5390 6119 M -11 -35 R
-24 -23 R -35 -12 R -12 0 R -35 12 R -23 23 R -12 35 R 0 12 R 12 35 R
23 23 R 35 12 R 12 0 R 35 -12 R 24 -23 R 11 -47 R 0 -58 R -11 -59 R
-24 -35 R -35 -11 R -23 0 R -35 11 R -12 24 R D 5507 6154 M 23 12 R 36 35 R
0 -245 R D 5717 6201 M 0 -245 R D 5717 6201 M 152 0 R D 5717 6084 M 94 0 R D
5717 5956 M 152 0 R D 5939 6061 M 211 0 R D 6302 6201 M -35 -12 R -24 -35 R
-11 -58 R 0 -35 R 11 -59 R 24 -35 R 35 -11 R 23 0 R 35 11 R 23 35 R 12 59 R
0 35 R -12 58 R -23 35 R -35 12 R -23 0 R D 6489 6201 M 128 0 R -70 -93 R
35 0 R 23 -12 R 12 -12 R 12 -35 R 0 -23 R -12 -35 R -23 -24 R -35 -11 R
-35 0 R -35 11 R -12 12 R -12 23 R D 2878 5849 M 0 -199 R 12 -35 R 23 -11 R
24 0 R D 2843 5767 M 82 0 R D 3007 5849 M 0 -245 R D 3007 5720 M 35 36 R
23 11 R 35 0 R 24 -11 R 11 -36 R 0 -116 R D 3217 5697 M 140 0 R 0 23 R
-11 24 R -12 12 R -24 11 R -35 0 R -23 -11 R -23 -24 R -12 -35 R 0 -23 R
12 -35 R 23 -24 R 23 -11 R 35 0 R 24 11 R 23 24 R D 3486 5767 M -24 -11 R
-23 -24 R -12 -35 R 0 -23 R 12 -35 R 23 -24 R 24 -11 R 35 0 R 23 11 R
24 24 R 11 35 R 0 23 R -11 35 R -24 24 R -23 11 R -35 0 R D 3661 5767 M
0 -163 R D 3661 5697 M 12 35 R 23 24 R 23 11 R 35 0 R D 3790 5767 M
70 -163 R 70 163 R D 3860 5604 M -24 -59 R -23 -23 R -23 -12 R -12 0 R D
4187 5744 M 210 0 R D 4187 5674 M 210 0 R D 4911 5849 M -35 -12 R -12 -23 R
0 -23 R 12 -24 R 24 -11 R 46 -12 R 35 -12 R 24 -23 R 11 -24 R 0 -35 R
-11 -23 R -12 -12 R -35 -11 R -47 0 R -35 11 R -12 12 R -11 23 R 0 35 R
11 24 R 24 23 R 35 12 R 47 12 R 23 11 R 12 24 R 0 23 R -12 23 R -35 12 R
-47 0 R D 5110 5627 M -12 -12 R 12 -11 R 12 11 R -12 12 R D 5273 5849 M
-35 -12 R -23 -35 R -12 -58 R 0 -35 R 12 -59 R 23 -35 R 35 -11 R 24 0 R
35 11 R 23 35 R 12 59 R 0 35 R -12 58 R -23 35 R -35 12 R -24 0 R D
5589 5814 M -12 23 R -35 12 R -23 0 R -35 -12 R -24 -35 R -11 -58 R 0 -59 R
11 -46 R 24 -24 R 35 -11 R 11 0 R 36 11 R 23 24 R 12 35 R 0 11 R -12 35 R
-23 24 R -36 12 R -11 0 R -35 -12 R -24 -24 R -11 -35 R D 5823 5767 M
-12 -35 R -23 -23 R -36 -12 R -11 0 R -35 12 R -24 23 R -11 35 R 0 12 R
11 35 R 24 23 R 35 12 R 11 0 R 36 -12 R 23 -23 R 12 -47 R 0 -58 R -12 -59 R
-23 -35 R -36 -11 R -23 0 R -35 11 R -12 24 R D 5974 5849 M -35 -12 R
-23 -35 R -12 -58 R 0 -35 R 12 -59 R 23 -35 R 35 -11 R 24 0 R 35 11 R
23 35 R 12 59 R 0 35 R -12 58 R -23 35 R -35 12 R -24 0 R D 6150 5849 M
0 -245 R D 6150 5849 M 152 0 R D 6150 5732 M 93 0 R D 6150 5604 M 152 0 R D
6372 5709 M 210 0 R D 6734 5849 M -35 -12 R -23 -35 R -12 -58 R 0 -35 R
12 -59 R 23 -35 R 35 -11 R 23 0 R 35 11 R 24 35 R 11 59 R 0 35 R -11 58 R
-24 35 R -35 12 R -23 0 R D 7014 5849 M -116 -164 R 175 0 R D 7014 5849 M
0 -245 R D
%%PageTrailer
end
restore
showpage
%%PageResources: font Helvetica
%%Trailer
restore
%%Pages: 1
%%DocumentNeededResources: font Helvetica
%%EOF
