%!PS-Adobe-3.0
%%BoundingBox: 91 288 519 502
%%Title: Graphics produced by IDL
%%For: yssu@archMini, /home/yssu/SURF2015/Summer/multi_band/emissivity
%%Creator: IDL Version 8.3 (linux x86_64 m64)
%%CreationDate: Sun Aug 16 13:16:03 2015
%%DocumentData: Clean7bit
%%Requirements: color
%%LanguageLevel: 2
%%PageOrder: Ascend
%%Pages: (atend)
%%DocumentNeededResources: (atend)
%%EndComments
%%BeginProlog
save
%+ prolog.ps -- Prolog for IDL generated PostScript files
%+ Copyright (c) 1988-2013 Exelis Visual Information Solutions, Inc. All Rights Reserved.
%v 5
/$IDL_DICT 40 dict def $IDL_DICT begin /bdef { bind def } bind def /C
{currentpoint newpath moveto} bdef /CP {currentpoint} bdef /D {currentpoint
stroke moveto} bdef /F {closepath fill} bdef /K { setgray } bdef /M {moveto}
bdef /N {rmoveto} bdef /P {lineto} bdef /R {rlineto} bdef /S {gsave show
grestore} bdef /X {currentpoint pop} bdef /Z {gsave currentpoint lineto 20
setlinewidth 1 setlinecap stroke grestore} bdef /L0 {[] 0 setdash} bdef /L1
{[40 100] 0 setdash} bdef /L2 {[200 200] 0 setdash} bdef /L3 {[200 100 50
100] 0 setdash} bdef /L4 {[300 100 50 100 50 100 50 100] 0 setdash} bdef /L5
{[400 200] 0 setdash} bdef /STDFONT { findfont exch scalefont setfont } bdef
/ISOFONT { findfont dup length dict begin { 1 index /FID ne {def} {pop pop}
ifelse } forall /Encoding ISOLatin1Encoding def currentdict end /idltmpfont
exch definefont exch scalefont setfont } bdef /ISOBULLET { gsave /Helvetica
findfont exch scalefont setfont (\267) show currentpoint grestore moveto}
bdef /MITERLIMIT { 2.5 setmiterlimit } bdef end
%%EndProlog
%%Page: 0 1
%%PageRequirements: color
%%PageResources: (atend)
%%PageOrientation: Portrait
%%PageBoundingBox: 91 288 519 502
%%BeginPageSetup
save
$IDL_DICT begin 91 288 translate 0.0283465 dup scale MITERLIMIT
%%IncludeResource: font Helvetica
423.333 /Helvetica STDFONT
%%EndPageSetup
10 setlinewidth L0 0.000 0.000 0.000 setrgbcolor 4668 7370 M 204 -307 R D
4872 7370 M -204 -307 R D 5208 7268 M 0 -322 R D 5208 7224 M 29 29 R 29 15 R
44 0 R 29 -15 R 30 -29 R 14 -44 R 0 -29 R -14 -44 R -30 -29 R -29 -15 R
-44 0 R -29 15 R -29 29 R D 5544 7268 M -29 -15 R -29 -29 R -15 -44 R
0 -29 R 15 -44 R 29 -29 R 29 -15 R 44 0 R 29 15 R 29 29 R 15 44 R 0 29 R
-15 44 R -29 29 R -29 15 R -44 0 R D 5909 7224 M -15 29 R -43 15 R -44 0 R
-44 -15 R -15 -29 R 15 -29 R 29 -15 R 73 -15 R 29 -14 R 15 -29 R 0 -15 R
-15 -29 R -43 -15 R -44 0 R -44 15 R -15 29 R D 5997 7370 M 14 -15 R 15 15 R
-15 15 R -14 -15 R D 6011 7268 M 0 -205 R D 6143 7370 M 0 -248 R 14 -44 R
30 -15 R 29 0 R D 6099 7268 M 102 0 R D 6289 7370 M 14 -15 R 15 15 R
-15 15 R -14 -15 R D 6303 7268 M 0 -205 R D 6479 7268 M -30 -15 R -29 -29 R
-14 -44 R 0 -29 R 14 -44 R 29 -29 R 30 -15 R 44 0 R 29 15 R 29 29 R 15 44 R
0 29 R -15 44 R -29 29 R -29 15 R -44 0 R D 6698 7268 M 0 -205 R D
6698 7209 M 44 44 R 29 15 R 44 0 R 29 -15 R 14 -44 R 0 -146 R D 7194 7180 M
176 0 R 0 29 R -15 30 R -15 14 R -29 15 R -44 0 R -29 -15 R -29 -29 R
-15 -44 R 0 -29 R 15 -44 R 29 -29 R 29 -15 R 44 0 R 29 15 R 30 29 R D
7618 7224 M -15 29 R -44 15 R -43 0 R -44 -15 R -15 -29 R 15 -29 R 29 -15 R
73 -15 R 29 -14 R 15 -29 R 0 -15 R -15 -29 R -44 -15 R -43 0 R -44 15 R
-15 29 R D 7735 7370 M 0 -248 R 14 -44 R 30 -15 R 29 0 R D 7691 7268 M
102 0 R D 7881 7370 M 14 -15 R 15 15 R -15 15 R -14 -15 R D 7895 7268 M
0 -205 R D 8012 7268 M 0 -205 R D 8012 7209 M 44 44 R 29 15 R 44 0 R
29 -15 R 15 -44 R 0 -146 R D 8173 7209 M 44 44 R 29 15 R 44 0 R 29 -15 R
15 -44 R 0 -146 R D 8611 7268 M 0 -205 R D 8611 7224 M -29 29 R -29 15 R
-44 0 R -29 -15 R -30 -29 R -14 -44 R 0 -29 R 14 -44 R 30 -29 R 29 -15 R
44 0 R 29 15 R 29 29 R D 8743 7370 M 0 -248 R 14 -44 R 29 -15 R 30 0 R D
8699 7268 M 102 0 R D 8889 7370 M 14 -15 R 15 15 R -15 15 R -14 -15 R D
8903 7268 M 0 -205 R D 9078 7268 M -29 -15 R -29 -29 R -15 -44 R 0 -29 R
15 -44 R 29 -29 R 29 -15 R 44 0 R 29 15 R 30 29 R 14 44 R 0 29 R -14 44 R
-30 29 R -29 15 R -44 0 R D 9298 7268 M 0 -205 R D 9298 7209 M 43 44 R
30 15 R 43 0 R 30 -15 R 14 -44 R 0 -146 R D 9969 7370 M 0 -307 R D
9969 7224 M -29 29 R -29 15 R -44 0 R -29 -15 R -29 -29 R -15 -44 R 0 -29 R
15 -44 R 29 -29 R 29 -15 R 44 0 R 29 15 R 29 29 R D 10072 7180 M 175 0 R
0 29 R -15 30 R -14 14 R -30 15 R -43 0 R -30 -15 R -29 -29 R -14 -44 R
0 -29 R 14 -44 R 29 -29 R 30 -15 R 43 0 R 30 15 R 29 29 R D 10320 7268 M
88 -205 R 87 205 R D 10568 7370 M 15 -15 R 14 15 R -14 15 R -15 -15 R D
10583 7268 M 0 -205 R D 10860 7268 M 0 -205 R D 10860 7224 M -29 29 R
-29 15 R -44 0 R -29 -15 R -29 -29 R -15 -44 R 0 -29 R 15 -44 R 29 -29 R
29 -15 R 44 0 R 29 15 R 29 29 R D 10992 7370 M 0 -248 R 14 -44 R 30 -15 R
29 0 R D 10948 7268 M 102 0 R D 11138 7370 M 14 -15 R 15 15 R -15 15 R
-14 -15 R D 11152 7268 M 0 -205 R D 11328 7268 M -30 -15 R -29 -29 R
-14 -44 R 0 -29 R 14 -44 R 29 -29 R 30 -15 R 43 0 R 30 15 R 29 29 R 14 44 R
0 29 R -14 44 R -29 29 R -30 15 R -43 0 R D 11547 7268 M 0 -205 R D
11547 7209 M 44 44 R 29 15 R 44 0 R 29 -15 R 14 -44 R 0 -146 R D
11970 7224 M -14 29 R -44 15 R -44 0 R -44 -15 R -14 -29 R 14 -29 R 29 -15 R
73 -15 R 30 -14 R 14 -29 R 0 -15 R -14 -29 R -44 -15 R -44 0 R -44 15 R
-14 29 R D 40 setlinewidth 2220 1408 M 12227 0 R D 2220 1408 M 0 109 R D
10 setlinewidth 1753 1079 M 23 11 R 35 35 R 0 -245 R D 1975 903 M -12 -11 R
12 -12 R 11 12 R -11 11 R D 2185 1125 M -117 -163 R 175 0 R D 2185 1125 M
0 -245 R D 2360 1125 M -35 -11 R -11 -24 R 0 -23 R 11 -23 R 24 -12 R
46 -12 R 35 -11 R 24 -24 R 11 -23 R 0 -35 R -11 -24 R -12 -11 R -35 -12 R
-47 0 R -35 12 R -11 11 R -12 24 R 0 35 R 12 23 R 23 24 R 35 11 R 47 12 R
23 12 R 12 23 R 0 23 R -12 24 R -35 11 R -47 0 R D 2676 1125 M -117 0 R
-12 -105 R 12 12 R 35 12 R 35 0 R 35 -12 R 23 -23 R 12 -35 R 0 -24 R
-12 -35 R -23 -23 R -35 -12 R -35 0 R -35 12 R -12 11 R -11 24 R D
40 setlinewidth 4258 1408 M 0 109 R D 10 setlinewidth 3791 1079 M 23 11 R
35 35 R 0 -245 R D 4013 903 M -12 -11 R 12 -12 R 11 12 R -11 11 R D
4223 1125 M -117 -163 R 175 0 R D 4223 1125 M 0 -245 R D 4492 1044 M
-12 -35 R -23 -24 R -36 -11 R -11 0 R -35 11 R -24 24 R -11 35 R 0 11 R
11 35 R 24 24 R 35 11 R 11 0 R 36 -11 R 23 -24 R 12 -46 R 0 -59 R -12 -58 R
-23 -35 R -36 -12 R -23 0 R -35 12 R -12 23 R D 4643 1125 M -35 -11 R
-23 -35 R -12 -59 R 0 -35 R 12 -58 R 23 -35 R 35 -12 R 24 0 R 35 12 R
23 35 R 12 58 R 0 35 R -12 59 R -23 35 R -35 11 R -24 0 R D 40 setlinewidth
6296 1408 M 0 109 R D 10 setlinewidth 5828 1079 M 24 11 R 35 35 R 0 -245 R D
6050 903 M -11 -11 R 11 -12 R 12 12 R -12 11 R D 6261 1125 M -117 -163 R
175 0 R D 6261 1125 M 0 -245 R D 6529 1044 M -11 -35 R -24 -24 R -35 -11 R
-11 0 R -35 11 R -24 24 R -11 35 R 0 11 R 11 35 R 24 24 R 35 11 R 11 0 R
35 -11 R 24 -24 R 11 -46 R 0 -59 R -11 -58 R -24 -35 R -35 -12 R -23 0 R
-35 12 R -12 23 R D 6751 1125 M -116 0 R -12 -105 R 12 12 R 35 12 R 35 0 R
35 -12 R 23 -23 R 12 -35 R 0 -24 R -12 -35 R -23 -23 R -35 -12 R -35 0 R
-35 12 R -12 11 R -12 24 R D 40 setlinewidth 8334 1408 M 0 109 R D
10 setlinewidth 7866 1079 M 24 11 R 35 35 R 0 -245 R D 8088 903 M -11 -11 R
11 -12 R 12 12 R -12 11 R D 8322 1125 M -117 0 R -12 -105 R 12 12 R 35 12 R
35 0 R 35 -12 R 24 -23 R 11 -35 R 0 -24 R -11 -35 R -24 -23 R -35 -12 R
-35 0 R -35 12 R -12 11 R -11 24 R D 8485 1125 M -35 -11 R -23 -35 R
-12 -59 R 0 -35 R 12 -58 R 23 -35 R 35 -12 R 24 0 R 35 12 R 23 35 R 12 58 R
0 35 R -12 59 R -23 35 R -35 11 R -24 0 R D 8719 1125 M -35 -11 R -23 -35 R
-12 -59 R 0 -35 R 12 -58 R 23 -35 R 35 -12 R 24 0 R 35 12 R 23 35 R 12 58 R
0 35 R -12 59 R -23 35 R -35 11 R -24 0 R D 40 setlinewidth 10371 1408 M
0 109 R D 10 setlinewidth 9904 1079 M 23 11 R 35 35 R 0 -245 R D 10126 903 M
-12 -11 R 12 -12 R 12 12 R -12 11 R D 10360 1125 M -117 0 R -12 -105 R
12 12 R 35 12 R 35 0 R 35 -12 R 23 -23 R 12 -35 R 0 -24 R -12 -35 R
-23 -23 R -35 -12 R -35 0 R -35 12 R -12 11 R -11 24 R D 10523 1125 M
-35 -11 R -23 -35 R -12 -59 R 0 -35 R 12 -58 R 23 -35 R 35 -12 R 24 0 R
35 12 R 23 35 R 12 58 R 0 35 R -12 59 R -23 35 R -35 11 R -24 0 R D
10827 1125 M -117 0 R -11 -105 R 11 12 R 35 12 R 35 0 R 35 -12 R 24 -23 R
11 -35 R 0 -24 R -11 -35 R -24 -23 R -35 -12 R -35 0 R -35 12 R -11 11 R
-12 24 R D 40 setlinewidth 12409 1408 M 0 109 R D 10 setlinewidth
11942 1079 M 23 11 R 35 35 R 0 -245 R D 12164 903 M -12 -11 R 12 -12 R
12 12 R -12 11 R D 12398 1125 M -117 0 R -12 -105 R 12 12 R 35 12 R 35 0 R
35 -12 R 23 -23 R 12 -35 R 0 -24 R -12 -35 R -23 -23 R -35 -12 R -35 0 R
-35 12 R -12 11 R -12 24 R D 12526 1079 M 23 11 R 36 35 R 0 -245 R D
12795 1125 M -35 -11 R -24 -35 R -11 -59 R 0 -35 R 11 -58 R 24 -35 R
35 -12 R 23 0 R 35 12 R 24 35 R 11 58 R 0 35 R -11 59 R -24 35 R -35 11 R
-23 0 R D 40 setlinewidth 14447 1408 M 0 109 R D 10 setlinewidth
13980 1079 M 23 11 R 35 35 R 0 -245 R D 14202 903 M -12 -11 R 12 -12 R
11 12 R -11 11 R D 14435 1125 M -116 0 R -12 -105 R 12 12 R 35 12 R 35 0 R
35 -12 R 23 -23 R 12 -35 R 0 -24 R -12 -35 R -23 -23 R -35 -12 R -35 0 R
-35 12 R -12 11 R -12 24 R D 14564 1079 M 23 11 R 35 35 R 0 -245 R D
14903 1125 M -117 0 R -12 -105 R 12 12 R 35 12 R 35 0 R 35 -12 R 23 -23 R
12 -35 R 0 -24 R -12 -35 R -23 -23 R -35 -12 R -35 0 R -35 12 R -12 11 R
-11 24 R D 40 setlinewidth 2628 1408 M 0 54 R D 3035 1408 M 0 54 R D
3443 1408 M 0 54 R D 3850 1408 M 0 54 R D 4665 1408 M 0 54 R D 5073 1408 M
0 54 R D 5481 1408 M 0 54 R D 5888 1408 M 0 54 R D 6703 1408 M 0 54 R D
7111 1408 M 0 54 R D 7518 1408 M 0 54 R D 7926 1408 M 0 54 R D 8741 1408 M
0 54 R D 9149 1408 M 0 54 R D 9556 1408 M 0 54 R D 9964 1408 M 0 54 R D
10779 1408 M 0 54 R D 11187 1408 M 0 54 R D 11594 1408 M 0 54 R D
12002 1408 M 0 54 R D 12817 1408 M 0 54 R D 13224 1408 M 0 54 R D
13632 1408 M 0 54 R D 14040 1408 M 0 54 R D 10 setlinewidth 6914 668 M
164 -246 R D 7078 668 M -164 -246 R D 7346 586 M 0 -257 R D 7346 551 M
24 23 R 23 12 R 35 0 R 23 -12 R 24 -23 R 11 -35 R 0 -23 R -11 -36 R
-24 -23 R -23 -12 R -35 0 R -23 12 R -24 23 R D 7615 586 M -23 -12 R
-24 -23 R -11 -35 R 0 -23 R 11 -36 R 24 -23 R 23 -12 R 35 0 R 23 12 R
24 23 R 11 36 R 0 23 R -11 35 R -24 23 R -23 12 R -35 0 R D 7907 551 M
-12 23 R -35 12 R -35 0 R -35 -12 R -11 -23 R 11 -23 R 24 -12 R 58 -12 R
23 -11 R 12 -24 R 0 -12 R -12 -23 R -35 -12 R -35 0 R -35 12 R -11 23 R D
7977 668 M 12 -12 R 12 12 R -12 11 R -12 -11 R D 7989 586 M 0 -164 R D
8094 668 M 0 -199 R 12 -35 R 23 -12 R 23 0 R D 8059 586 M 82 0 R D
8211 668 M 12 -12 R 11 12 R -11 11 R -12 -11 R D 8223 586 M 0 -164 R D
8363 586 M -24 -12 R -23 -23 R -12 -35 R 0 -23 R 12 -36 R 23 -23 R 24 -12 R
35 0 R 23 12 R 24 23 R 11 36 R 0 23 R -11 35 R -24 23 R -23 12 R -35 0 R D
8538 586 M 0 -164 R D 8538 539 M 35 35 R 23 12 R 36 0 R 23 -12 R 12 -35 R
0 -117 R D 9029 715 M -24 -24 R -23 -35 R -23 -47 R -12 -58 R 0 -47 R
12 -58 R 23 -59 R 23 -35 R 24 -23 R D 9111 668 M 0 -246 R D 9111 551 M
23 23 R 23 12 R 35 0 R 24 -12 R 23 -23 R 12 -35 R 0 -23 R -12 -36 R
-23 -23 R -24 -12 R -35 0 R -23 12 R -23 23 R D 9321 668 M 12 -12 R 11 12 R
-11 11 R -12 -11 R D 9333 586 M 0 -164 R D 9426 586 M 0 -164 R D 9426 539 M
35 35 R 23 12 R 36 0 R 23 -12 R 12 -35 R 0 -117 R D 9636 715 M 24 -24 R
23 -35 R 23 -47 R 12 -58 R 0 -47 R -12 -58 R -23 -59 R -23 -35 R -24 -23 R D
40 setlinewidth 2220 6852 M 12227 0 R D 2220 6852 M 0 -109 R D 4258 6852 M
0 -109 R D 6296 6852 M 0 -109 R D 8334 6852 M 0 -109 R D 10371 6852 M
0 -109 R D 12409 6852 M 0 -109 R D 14447 6852 M 0 -109 R D 2628 6852 M
0 -54 R D 3035 6852 M 0 -54 R D 3443 6852 M 0 -54 R D 3850 6852 M 0 -54 R D
4665 6852 M 0 -54 R D 5073 6852 M 0 -54 R D 5481 6852 M 0 -54 R D
5888 6852 M 0 -54 R D 6703 6852 M 0 -54 R D 7111 6852 M 0 -54 R D
7518 6852 M 0 -54 R D 7926 6852 M 0 -54 R D 8741 6852 M 0 -54 R D
9149 6852 M 0 -54 R D 9556 6852 M 0 -54 R D 9964 6852 M 0 -54 R D
10779 6852 M 0 -54 R D 11187 6852 M 0 -54 R D 11594 6852 M 0 -54 R D
12002 6852 M 0 -54 R D 12817 6852 M 0 -54 R D 13224 6852 M 0 -54 R D
13632 6852 M 0 -54 R D 14040 6852 M 0 -54 R D 2220 1408 M 0 5444 R D
2220 1408 M 245 0 R D 10 setlinewidth 1969 1653 M -35 -11 R -24 -35 R
-11 -59 R 0 -35 R 11 -58 R 24 -35 R 35 -12 R 23 0 R 35 12 R 24 35 R 11 58 R
0 35 R -11 59 R -24 35 R -35 11 R -23 0 R D 40 setlinewidth 2220 2186 M
245 0 R D 10 setlinewidth 1677 2232 M 0 12 R 11 23 R 12 12 R 23 11 R 47 0 R
24 -11 R 11 -12 R 12 -23 R 0 -24 R -12 -23 R -23 -35 R -117 -117 R 164 0 R D
1969 2290 M -35 -11 R -24 -35 R -11 -59 R 0 -35 R 11 -58 R 24 -35 R 35 -12 R
23 0 R 35 12 R 24 35 R 11 58 R 0 35 R -11 59 R -24 35 R -35 11 R -23 0 R D
40 setlinewidth 2220 2963 M 245 0 R D 10 setlinewidth 1782 3068 M
-117 -164 R 175 0 R D 1782 3068 M 0 -245 R D 1969 3068 M -35 -12 R -24 -35 R
-11 -58 R 0 -35 R 11 -59 R 24 -35 R 35 -11 R 23 0 R 35 11 R 24 35 R 11 59 R
0 35 R -11 58 R -24 35 R -35 12 R -23 0 R D 40 setlinewidth 2220 3741 M
245 0 R D 10 setlinewidth 1817 3811 M -12 23 R -35 12 R -23 0 R -35 -12 R
-24 -35 R -11 -58 R 0 -59 R 11 -47 R 24 -23 R 35 -12 R 12 0 R 35 12 R
23 23 R 12 35 R 0 12 R -12 35 R -23 24 R -35 11 R -12 0 R -35 -11 R
-24 -24 R -11 -35 R D 1969 3846 M -35 -12 R -24 -35 R -11 -58 R 0 -35 R
11 -59 R 24 -35 R 35 -12 R 23 0 R 35 12 R 24 35 R 11 59 R 0 35 R -11 58 R
-24 35 R -35 12 R -23 0 R D 40 setlinewidth 2220 4519 M 245 0 R D
10 setlinewidth 1723 4623 M -35 -11 R -11 -24 R 0 -23 R 11 -23 R 24 -12 R
47 -12 R 35 -11 R 23 -24 R 12 -23 R 0 -35 R -12 -24 R -12 -11 R -35 -12 R
-47 0 R -35 12 R -11 11 R -12 24 R 0 35 R 12 23 R 23 24 R 35 11 R 47 12 R
23 12 R 12 23 R 0 23 R -12 24 R -35 11 R -47 0 R D 1969 4623 M -35 -11 R
-24 -35 R -11 -59 R 0 -35 R 11 -58 R 24 -35 R 35 -12 R 23 0 R 35 12 R
24 35 R 11 58 R 0 35 R -11 59 R -24 35 R -35 11 R -23 0 R D 40 setlinewidth
2220 5297 M 245 0 R D 10 setlinewidth 1466 5354 M 24 12 R 35 35 R 0 -245 R D
1735 5401 M -35 -12 R -23 -35 R -12 -58 R 0 -35 R 12 -58 R 23 -36 R 35 -11 R
24 0 R 35 11 R 23 36 R 12 58 R 0 35 R -12 58 R -23 35 R -35 12 R -24 0 R D
1969 5401 M -35 -12 R -24 -35 R -11 -58 R 0 -35 R 11 -58 R 24 -36 R 35 -11 R
23 0 R 35 11 R 24 36 R 11 58 R 0 35 R -11 58 R -24 35 R -35 12 R -23 0 R D
40 setlinewidth 2220 6074 M 245 0 R D 10 setlinewidth 1466 6132 M 24 12 R
35 35 R 0 -245 R D 1677 6120 M 0 12 R 11 24 R 12 11 R 23 12 R 47 0 R
24 -12 R 11 -11 R 12 -24 R 0 -23 R -12 -24 R -23 -35 R -117 -116 R 164 0 R D
1969 6179 M -35 -12 R -24 -35 R -11 -58 R 0 -35 R 11 -59 R 24 -35 R 35 -11 R
23 0 R 35 11 R 24 35 R 11 59 R 0 35 R -11 58 R -24 35 R -35 12 R -23 0 R D
40 setlinewidth 2220 6852 M 245 0 R D 10 setlinewidth 1466 6804 M 24 12 R
35 35 R 0 -245 R D 1782 6851 M -117 -164 R 175 0 R D 1782 6851 M 0 -245 R D
1969 6851 M -35 -12 R -24 -35 R -11 -58 R 0 -35 R 11 -59 R 24 -35 R 35 -11 R
23 0 R 35 11 R 24 35 R 11 59 R 0 35 R -11 58 R -24 35 R -35 12 R -23 0 R D
40 setlinewidth 2220 1602 M 122 0 R D 2220 1797 M 122 0 R D 2220 1991 M
122 0 R D 2220 2380 M 122 0 R D 2220 2575 M 122 0 R D 2220 2769 M 122 0 R D
2220 3158 M 122 0 R D 2220 3352 M 122 0 R D 2220 3547 M 122 0 R D
2220 3936 M 122 0 R D 2220 4130 M 122 0 R D 2220 4324 M 122 0 R D
2220 4713 M 122 0 R D 2220 4908 M 122 0 R D 2220 5102 M 122 0 R D
2220 5491 M 122 0 R D 2220 5685 M 122 0 R D 2220 5880 M 122 0 R D
2220 6269 M 122 0 R D 2220 6463 M 122 0 R D 2220 6658 M 122 0 R D
14447 1408 M 0 5444 R D 14447 1408 M -244 0 R D 14447 2186 M -244 0 R D
14447 2963 M -244 0 R D 14447 3741 M -244 0 R D 14447 4519 M -244 0 R D
14447 5297 M -244 0 R D 14447 6074 M -244 0 R D 14447 6852 M -244 0 R D
14447 1602 M -122 0 R D 14447 1797 M -122 0 R D 14447 1991 M -122 0 R D
14447 2380 M -122 0 R D 14447 2575 M -122 0 R D 14447 2769 M -122 0 R D
14447 3158 M -122 0 R D 14447 3352 M -122 0 R D 14447 3547 M -122 0 R D
14447 3936 M -122 0 R D 14447 4130 M -122 0 R D 14447 4324 M -122 0 R D
14447 4713 M -122 0 R D 14447 4908 M -122 0 R D 14447 5102 M -122 0 R D
14447 5491 M -122 0 R D 14447 5685 M -122 0 R D 14447 5880 M -122 0 R D
14447 6269 M -122 0 R D 14447 6463 M -122 0 R D 14447 6658 M -122 0 R D
4934 1447 M 12 0 R 0 -39 R 12 0 R 12 0 R 12 0 R 12 0 R 12 0 R 12 0 R 12 0 R
12 0 R 12 0 R 12 0 R 12 0 R 12 0 R 12 0 R 12 0 R 0 78 R 12 0 R 12 0 R
0 -78 R 12 0 R 12 0 R 11 0 R 12 0 R 12 0 R 12 0 R 12 0 R 12 0 R 12 0 R
12 0 R 0 78 R 12 0 R 12 0 R 0 -78 R 12 0 R 12 0 R 0 39 R 12 0 R 12 0 R
12 0 R 12 0 R 0 -39 R 12 0 R 12 0 R 12 0 R 12 0 R 0 39 R 12 0 R 11 0 R
12 0 R 12 0 R 12 0 R 12 0 R 0 -39 R 12 0 R 12 0 R 12 0 R 12 0 R 0 78 R
12 0 R 12 0 R 0 -39 R 12 0 R 12 0 R 12 0 R 12 0 R 0 -39 R 12 0 R 12 0 R
0 39 R 12 0 R 12 0 R 0 39 R 12 0 R 12 0 R 11 0 R 12 0 R 0 -39 R 12 0 R
12 0 R 12 0 R 12 0 R 0 117 R 12 0 R 12 0 R 0 -78 R 12 0 R 12 0 R 0 -39 R
12 0 R 12 0 R 0 -39 R 12 0 R 12 0 R 0 78 R 12 0 R 12 0 R 12 0 R 12 0 R
0 -78 R 12 0 R 12 0 R 0 78 R 12 0 R 11 0 R 0 155 R 12 0 R 12 0 R 0 -77 R
12 0 R 12 0 R 0 -39 R 12 0 R 12 0 R 0 77 R 12 0 R 12 0 R 0 117 R 12 0 R
12 0 R 0 -233 R 12 0 R 12 0 R 0 155 R 12 0 R 12 0 R 0 -39 R 12 0 R 12 0 R
0 78 R 12 0 R 12 0 R 0 -78 R 12 0 R 11 0 R 0 234 R 12 0 R 12 0 R 0 -156 R
12 0 R 12 0 R 0 78 R 12 0 R 12 0 R 0 39 R 12 0 R 12 0 R 0 -117 R 12 0 R
12 0 R 0 -78 R 12 0 R 12 0 R 0 78 R 12 0 R 12 0 R 0 -78 R 12 0 R 12 0 R
0 312 R 12 0 R 12 0 R 0 -39 R 12 0 R 12 0 R 0 311 R 11 0 R 12 0 R 0 -389 R
12 0 R 12 0 R 0 272 R 12 0 R 12 0 R 0 117 R 12 0 R 12 0 R 0 -506 R 12 0 R
12 0 R 0 428 R 12 0 R 12 0 R 12 0 R 12 0 R 0 -350 R 12 0 R 12 0 R 0 350 R
12 0 R 12 0 R 0 78 R 12 0 R 12 0 R 0 -272 R 12 0 R 11 0 R 0 272 R 12 0 R
12 0 R 0 116 R 12 0 R 12 0 R 0 -155 R 12 0 R 12 0 R 0 272 R 12 0 R 12 0 R
0 -78 R 12 0 R 12 0 R 0 -39 R 12 0 R 12 0 R 0 39 R 12 0 R 12 0 R 0 39 R
12 0 R 12 0 R 0 -155 R 12 0 R 12 0 R 0 155 R 12 0 R 12 0 R 0 39 R 11 0 R
12 0 R 0 194 R 12 0 R 12 0 R 0 350 R 12 0 R 12 0 R 0 39 R 12 0 R 12 0 R
0 -233 R 12 0 R 12 0 R 0 661 R 12 0 R 12 0 R 0 -428 R 12 0 R 12 0 R 0 -155 R
12 0 R 12 0 R 0 -117 R 12 0 R 12 0 R 0 583 R 12 0 R 12 0 R 0 39 R 12 0 R
11 0 R 0 78 R 12 0 R 12 0 R 0 117 R 12 0 R 12 0 R 0 -195 R 12 0 R 12 0 R
0 195 R 12 0 R 12 0 R 0 -39 R 12 0 R 12 0 R 0 272 R 12 0 R 12 0 R 0 117 R
12 0 R 12 0 R 0 -311 R 12 0 R 12 0 R 0 194 R 12 0 R 12 0 R 0 506 R 12 0 R
12 0 R 0 -350 R 11 0 R 12 0 R 0 -273 R 12 0 R 12 0 R 0 545 R 12 0 R 12 0 R
0 116 R 12 0 R 12 0 R 0 -233 R 12 0 R 12 0 R 0 -194 R 12 0 R 12 0 R 0 -156 R
12 0 R 12 0 R 0 428 R 12 0 R 12 0 R 0 350 R 12 0 R 12 0 R 0 350 R 12 0 R
12 0 R 0 700 R 11 0 R 12 0 R 0 -1400 R 12 0 R 12 0 R 0 233 R 12 0 R 12 0 R
0 -78 R 12 0 R 12 0 R 0 584 R 12 0 R 12 0 R 0 505 R 12 0 R 12 0 R 0 -661 R
12 0 R 12 0 R 0 39 R 12 0 R 12 0 R 0 661 R 12 0 R 12 0 R 0 272 R 12 0 R
12 0 R 0 -544 R 12 0 R 11 0 R 0 155 R 12 0 R 12 0 R 0 234 R 12 0 R 12 0 R
0 -350 R 12 0 R 12 0 R 0 194 R 12 0 R 12 0 R 0 -116 R 12 0 R 12 0 R 0 -467 R
12 0 R 12 0 R 0 544 R 12 0 R 12 0 R 0 428 R 12 0 R 12 0 R 0 -544 R 12 0 R
12 0 R 0 350 R 12 0 R 12 0 R 0 -622 R 11 0 R 12 0 R 0 233 R 12 0 R 12 0 R
0 -39 R 12 0 R 12 0 R 0 467 R 12 0 R 12 0 R 12 0 R 12 0 R 0 77 R 12 0 R
12 0 R 0 545 R 12 0 R 12 0 R 0 -1400 R 12 0 R 12 0 R 0 622 R 12 0 R 12 0 R
0 78 R 12 0 R 12 0 R 0 -195 R 12 0 R 11 0 R 0 -427 R 12 0 R 12 0 R 0 855 R
12 0 R 12 0 R 0 -194 R 12 0 R 12 0 R 0 -234 R 12 0 R 12 0 R 0 78 R 12 0 R
12 0 R 0 78 R 12 0 R 12 0 R 0 117 R 12 0 R 12 0 R 0 -273 R 12 0 R 12 0 R
0 195 R 12 0 R 12 0 R 0 -467 R 12 0 R 12 0 R 0 195 R 11 0 R 12 0 R 0 -467 R
12 0 R 12 0 R 0 739 R 12 0 R 12 0 R 0 -972 R 12 0 R 12 0 R 0 194 R 12 0 R
12 0 R 0 156 R 12 0 R 12 0 R 0 -117 R 12 0 R 12 0 R 0 350 R 12 0 R 12 0 R
0 -739 R 12 0 R 12 0 R 0 78 R 12 0 R 12 0 R 0 -195 R 11 0 R 12 0 R 0 389 R
12 0 R 12 0 R 0 -622 R 12 0 R 12 0 R 12 0 R 12 0 R 0 428 R 12 0 R 12 0 R
0 739 R 12 0 R 12 0 R 0 -934 R 12 0 R 12 0 R 0 467 R 12 0 R 12 0 R 0 -700 R
12 0 R 12 0 R 0 467 R 12 0 R 12 0 R 0 -778 R 12 0 R 11 0 R 0 389 R 12 0 R
12 0 R 0 -272 R 12 0 R 12 0 R 0 -545 R 12 0 R 12 0 R 0 311 R 12 0 R 12 0 R
0 428 R 12 0 R 12 0 R 0 -739 R 12 0 R 12 0 R 0 234 R 12 0 R 12 0 R 0 -78 R
12 0 R 12 0 R 0 -39 R 12 0 R 12 0 R 0 428 R 12 0 R 12 0 R 0 -972 R 11 0 R
12 0 R 0 350 R 12 0 R 12 0 R 0 38 R 12 0 R 12 0 R 0 -116 R 12 0 R 12 0 R
0 -156 R 12 0 R 12 0 R 0 -39 R 12 0 R 12 0 R 0 -389 R 12 0 R 12 0 R 0 584 R
12 0 R 12 0 R 0 -506 R 12 0 R 12 0 R 0 -155 R 12 0 R 12 0 R 0 544 R 12 0 R
11 0 R 0 -311 R 12 0 R 12 0 R 0 39 R 12 0 R 12 0 R 0 -311 R 12 0 R 12 0 R
0 233 R 12 0 R 12 0 R 0 -39 R 12 0 R 12 0 R 12 0 R 12 0 R 0 -311 R 12 0 R
12 0 R 0 78 R 12 0 R 12 0 R 0 -78 R 12 0 R 12 0 R 0 -78 R 12 0 R 12 0 R
0 -116 R 11 0 R 12 0 R 0 39 R 12 0 R 12 0 R 0 272 R 12 0 R 12 0 R 0 -389 R
12 0 R 12 0 R 0 -78 R 12 0 R 12 0 R 0 39 R 12 0 R 12 0 R 0 -78 R 12 0 R
12 0 R 0 156 R 12 0 R 12 0 R 0 -195 R 12 0 R 12 0 R 0 -77 R 12 0 R 12 0 R
0 350 R 12 0 R 11 0 R 0 -350 R 12 0 R 12 0 R 0 -78 R 12 0 R 12 0 R 0 39 R
12 0 R 12 0 R 0 39 R 12 0 R 12 0 R 12 0 R 12 0 R 0 -195 R 12 0 R 12 0 R
0 272 R 12 0 R 12 0 R 0 -311 R 12 0 R 12 0 R 0 234 R 12 0 R 12 0 R 0 -311 R
12 0 R 11 0 R 0 155 R 12 0 R 12 0 R 12 0 R 12 0 R 0 -155 R 12 0 R 12 0 R
12 0 R 12 0 R 0 77 R 12 0 R 12 0 R 0 117 R 12 0 R 12 0 R 0 -78 R 12 0 R
12 0 R 0 39 R 12 0 R 12 0 R 12 0 R 12 0 R 0 -272 R 12 0 R 12 0 R 0 272 R
11 0 R 12 0 R 0 -194 R 12 0 R 12 0 R 0 39 R 12 0 R 12 0 R 0 -39 R 12 0 R
12 0 R 12 0 R 12 0 R 0 116 R 12 0 R 12 0 R 0 -233 R 12 0 R 12 0 R 0 78 R
12 0 R 12 0 R 0 -39 R 12 0 R 12 0 R 0 39 R 12 0 R 12 0 R 12 0 R 11 0 R
0 -39 R 12 0 R 12 0 R 12 0 R 12 0 R 0 78 R 12 0 R 12 0 R 0 -78 R 12 0 R
12 0 R 0 -39 R 12 0 R 12 0 R 0 39 R 12 0 R 12 0 R 0 39 R 12 0 R 12 0 R
0 -78 R 12 0 R 12 0 R 12 0 R 12 0 R 0 78 R 12 0 R 12 0 R 0 -78 R 11 0 R
12 0 R D 11161 1408 M 12 0 R 12 0 R 12 0 R 12 0 R 0 39 R 12 0 R 12 0 R
0 -39 R 12 0 R 12 0 R 12 0 R 12 0 R 0 78 R 12 0 R 12 0 R 0 -39 R 12 0 R
12 0 R 0 -39 R 12 0 R 12 0 R 0 39 R 12 0 R 12 0 R 0 39 R 12 0 R 11 0 R
0 -78 R 12 0 R 12 0 R 12 0 R 12 0 R 12 0 R 12 0 R 12 0 R 12 0 R 12 0 R
12 0 R 12 0 R 12 0 R 0 39 R 12 0 R 12 0 R 0 -39 R 12 0 R 12 0 R 12 0 R
12 0 R 12 0 R 11 0 R 12 0 R 12 0 R 12 0 R 12 0 R 12 0 R 12 0 R 12 0 R 12 0 R
12 0 R 12 0 R 12 0 R 12 0 R 12 0 R 12 0 R 0 39 R 12 0 R D 60 setlinewidth
1.000 0.000 0.000 setrgbcolor 4934 1412 M 24 0 R 24 1 R 24 0 R 24 1 R 24 0 R
24 1 R 24 0 R 24 1 R 24 1 R 23 1 R 24 1 R 24 1 R 24 1 R 24 1 R 24 1 R 24 2 R
24 1 R 24 2 R 24 2 R 24 2 R 23 2 R 24 2 R 24 2 R 24 3 R 24 3 R 24 3 R 24 3 R
24 4 R 24 4 R 24 4 R 23 4 R 24 5 R 24 4 R 24 6 R 24 5 R 24 7 R 24 6 R 24 7 R
24 7 R 24 8 R 24 8 R 23 9 R 24 10 R 24 9 R 24 11 R 24 11 R 24 12 R 24 12 R
24 13 R 24 14 R 24 15 R 23 15 R 24 17 R 24 17 R 24 18 R 24 19 R 24 19 R
24 21 R 24 22 R 24 23 R 24 24 R 23 24 R 24 26 R 24 27 R 24 29 R 24 29 R
24 31 R 24 31 R 24 33 R 24 35 R 24 35 R 24 37 R 23 38 R 24 39 R 24 41 R
24 42 R 24 43 R 24 45 R 24 45 R 24 47 R 24 49 R 24 49 R 23 51 R 24 52 R
24 53 R 24 55 R 24 55 R 24 57 R 24 58 R 24 58 R 24 60 R 24 61 R 24 61 R
23 62 R 24 63 R 24 64 R 24 64 R 24 65 R 24 65 R 24 66 R 24 65 R 24 67 R
24 66 R 23 66 R 24 66 R 24 66 R 24 66 R 24 65 R 24 65 R 24 65 R 24 63 R
24 63 R 24 62 R 23 61 R 24 60 R 24 59 R 24 58 R 24 56 R 24 54 R 24 53 R
24 51 R 24 50 R 24 47 R 24 46 R 23 43 R 24 41 R 24 39 R 24 37 R 24 34 R
24 32 R 24 29 R 24 26 R 24 24 R 24 22 R 23 18 R 24 16 R 24 12 R 24 10 R
24 8 R 24 4 R 24 1 R 24 -2 R 24 -4 R 24 -7 R 24 -11 R 23 -13 R 24 -16 R
24 -18 R 24 -22 R 24 -24 R 24 -27 R 24 -29 R 24 -32 R 24 -35 R 24 -37 R
23 -39 R 24 -41 R 24 -44 R 24 -45 R 24 -48 R 24 -50 R 24 -51 R 24 -53 R
24 -55 R 24 -56 R 23 -58 R 24 -58 R 24 -61 R 24 -61 R 24 -62 R 24 -63 R
24 -64 R 24 -64 R 24 -65 R 24 -65 R 24 -66 R 23 -66 R 24 -67 R 24 -66 R
24 -66 R 24 -66 R 24 -66 R 24 -66 R 24 -65 R 24 -64 R 24 -65 R 23 -63 R
24 -63 R 24 -62 R 24 -62 R 24 -60 R 24 -60 R 24 -58 R 24 -58 R 24 -56 R
24 -56 R 24 -54 R 23 -53 R 24 -52 R 24 -51 R 24 -49 R 24 -48 R 24 -47 R
24 -46 R 24 -44 R 24 -43 R 24 -42 R 23 -41 R 24 -39 R 24 -38 R 24 -36 R
24 -36 R 24 -34 R 24 -33 R 24 -31 R 24 -31 R 24 -29 R 24 -28 R 23 -27 R
24 -26 R 24 -25 R 24 -24 R 24 -22 R 24 -22 R 24 -21 R 24 -19 R 24 -19 R
24 -18 R 23 -17 R 24 -16 R 24 -15 R 24 -15 R 24 -14 R 24 -13 R 24 -12 R
24 -12 R 24 -11 R 24 -11 R 23 -9 R 24 -10 R 24 -9 R 24 -8 R 24 -8 R 24 -7 R
24 -7 R 24 -6 R 24 -6 R 24 -6 R 24 -5 R 23 -5 R 24 -5 R 24 -4 R 24 -4 R
24 -4 R 24 -3 R 24 -3 R 24 -3 R 24 -3 R 24 -3 R 23 -2 R 24 -2 R 24 -3 R
24 -1 R 24 -2 R 24 -2 R 24 -1 R 24 -2 R 24 -1 R 24 -1 R 24 -1 R 23 -1 R
24 -1 R 24 -1 R 24 -1 R 24 -1 R 24 0 R 24 -1 R 24 -1 R 24 0 R 24 0 R 23 -1 R
24 0 R 24 -1 R 24 0 R 24 0 R 24 -1 R 24 0 R 24 0 R D 10 setlinewidth
0.000 0.000 0.000 setrgbcolor 2866 6471 M 0 -163 R D 2866 6424 M 36 36 R
23 11 R 35 0 R 23 -11 R 12 -36 R 0 -116 R D 2995 6424 M 35 36 R 23 11 R
35 0 R 24 -11 R 12 -36 R 0 -116 R D 3205 6401 M 141 0 R 0 23 R -12 24 R
-12 12 R -23 11 R -35 0 R -24 -11 R -23 -24 R -12 -35 R 0 -23 R 12 -35 R
23 -24 R 24 -11 R 35 0 R 23 11 R 24 24 R D 3556 6471 M 0 -163 R D
3556 6436 M -24 24 R -23 11 R -35 0 R -23 -11 R -24 -24 R -11 -35 R 0 -23 R
11 -35 R 24 -24 R 23 -11 R 35 0 R 23 11 R 24 24 R D 3649 6471 M 0 -163 R D
3649 6424 M 35 36 R 24 11 R 35 0 R 23 -11 R 12 -36 R 0 -116 R D 4058 6448 M
211 0 R D 4058 6378 M 211 0 R D 5507 6506 M 23 12 R 36 35 R 0 -245 R D
5729 6331 M -12 -12 R 12 -11 R 12 11 R -12 12 R D 5963 6553 M -117 0 R
-12 -105 R 12 12 R 35 11 R 35 0 R 35 -11 R 23 -24 R 12 -35 R 0 -23 R
-12 -35 R -23 -24 R -35 -11 R -35 0 R -35 11 R -12 12 R -11 23 R D
2866 6119 M 0 -163 R D 2866 6049 M 12 35 R 24 24 R 23 11 R 35 0 R D
3018 6119 M 0 -163 R D 3018 6072 M 35 36 R 24 11 R 35 0 R 23 -11 R 12 -36 R
0 -116 R D 3147 6072 M 35 36 R 23 11 R 35 0 R 24 -11 R 11 -36 R 0 -116 R D
3486 6084 M -12 24 R -35 11 R -35 0 R -35 -11 R -12 -24 R 12 -23 R 23 -12 R
59 -12 R 23 -11 R 12 -24 R 0 -11 R -12 -24 R -35 -11 R -35 0 R -35 11 R
-12 24 R D 3754 6096 M 211 0 R D 3754 6026 M 211 0 R D 4432 6143 M 0 11 R
12 24 R 12 11 R 23 12 R 47 0 R 23 -12 R 12 -11 R 11 -24 R 0 -23 R -11 -23 R
-24 -36 R -117 -116 R 164 0 R D 4678 5979 M -12 -12 R 12 -11 R 11 11 R
-11 12 R D 4783 6143 M 0 11 R 11 24 R 12 11 R 23 12 R 47 0 R 24 -12 R
11 -11 R 12 -24 R 0 -23 R -12 -23 R -23 -36 R -117 -116 R 164 0 R D
5075 6201 M -35 -12 R -24 -35 R -11 -58 R 0 -35 R 11 -59 R 24 -35 R 35 -11 R
23 0 R 35 11 R 24 35 R 11 59 R 0 35 R -11 58 R -24 35 R -35 12 R -23 0 R D
5297 6201 M -35 -12 R -12 -23 R 0 -23 R 12 -24 R 23 -11 R 47 -12 R 35 -12 R
23 -23 R 12 -24 R 0 -35 R -12 -23 R -11 -12 R -35 -11 R -47 0 R -35 11 R
-12 12 R -12 23 R 0 35 R 12 24 R 23 23 R 35 12 R 47 12 R 24 11 R 11 24 R
0 23 R -11 23 R -35 12 R -47 0 R D 5484 6143 M 0 11 R 11 24 R 12 11 R
23 12 R 47 0 R 24 -12 R 11 -11 R 12 -24 R 0 -23 R -12 -23 R -23 -36 R
-117 -116 R 164 0 R D 5717 6201 M 0 -245 R D 5717 6201 M 152 0 R D
5717 6084 M 94 0 R D 5717 5956 M 152 0 R D 5939 6061 M 211 0 R D 6302 6201 M
-35 -12 R -24 -35 R -11 -58 R 0 -35 R 11 -59 R 24 -35 R 35 -11 R 23 0 R
35 11 R 23 35 R 12 59 R 0 35 R -12 58 R -23 35 R -35 12 R -23 0 R D
6489 6201 M 128 0 R -70 -93 R 35 0 R 23 -12 R 12 -12 R 12 -35 R 0 -23 R
-12 -35 R -23 -24 R -35 -11 R -35 0 R -35 11 R -12 12 R -12 23 R D
2878 5849 M 0 -199 R 12 -35 R 23 -11 R 24 0 R D 2843 5767 M 82 0 R D
3007 5849 M 0 -245 R D 3007 5720 M 35 36 R 23 11 R 35 0 R 24 -11 R 11 -36 R
0 -116 R D 3217 5697 M 140 0 R 0 23 R -11 24 R -12 12 R -24 11 R -35 0 R
-23 -11 R -23 -24 R -12 -35 R 0 -23 R 12 -35 R 23 -24 R 23 -11 R 35 0 R
24 11 R 23 24 R D 3486 5767 M -24 -11 R -23 -24 R -12 -35 R 0 -23 R 12 -35 R
23 -24 R 24 -11 R 35 0 R 23 11 R 24 24 R 11 35 R 0 23 R -11 35 R -24 24 R
-23 11 R -35 0 R D 3661 5767 M 0 -163 R D 3661 5697 M 12 35 R 23 24 R
23 11 R 35 0 R D 3790 5767 M 70 -163 R 70 163 R D 3860 5604 M -24 -59 R
-23 -23 R -23 -12 R -12 0 R D 4187 5744 M 210 0 R D 4187 5674 M 210 0 R D
4888 5802 M 23 12 R 35 35 R 0 -245 R D 5110 5627 M -12 -12 R 12 -11 R
12 11 R -12 12 R D 5367 5849 M -117 -245 R D 5203 5849 M 164 0 R D
5577 5849 M -117 0 R -11 -105 R 11 12 R 35 11 R 35 0 R 36 -11 R 23 -24 R
12 -35 R 0 -23 R -12 -35 R -23 -24 R -36 -11 R -35 0 R -35 11 R -11 12 R
-12 23 R D 5823 5767 M -12 -35 R -23 -23 R -36 -12 R -11 0 R -35 12 R
-24 23 R -11 35 R 0 12 R 11 35 R 24 23 R 35 12 R 11 0 R 36 -12 R 23 -23 R
12 -47 R 0 -58 R -12 -59 R -23 -35 R -36 -11 R -23 0 R -35 11 R -12 24 R D
6045 5849 M -117 0 R -12 -105 R 12 12 R 35 11 R 35 0 R 35 -11 R 23 -24 R
12 -35 R 0 -23 R -12 -35 R -23 -24 R -35 -11 R -35 0 R -35 11 R -12 12 R
-12 23 R D 6150 5849 M 0 -245 R D 6150 5849 M 152 0 R D 6150 5732 M 93 0 R D
6150 5604 M 152 0 R D 6372 5709 M 210 0 R D 6734 5849 M -35 -12 R -23 -35 R
-12 -58 R 0 -35 R 12 -59 R 23 -35 R 35 -11 R 23 0 R 35 11 R 24 35 R 11 59 R
0 35 R -11 58 R -24 35 R -35 12 R -23 0 R D 6921 5849 M 128 0 R -70 -93 R
35 0 R 24 -12 R 11 -12 R 12 -35 R 0 -23 R -12 -35 R -23 -24 R -35 -11 R
-35 0 R -35 11 R -12 12 R -11 23 R D
%%PageTrailer
end
restore
showpage
%%PageResources: font Helvetica
%%Trailer
restore
%%Pages: 1
%%DocumentNeededResources: font Helvetica
%%EOF
