%!PS-Adobe-3.0
%%BoundingBox: 91 181 519 609
%%Title: Graphics produced by IDL
%%For: yssu@archMini, 
%%      /home/yssu/SURF2015/Thesis/point_source/emissivity/chi2/4var
%%Creator: IDL Version 8.3 (linux x86_64 m64)
%%CreationDate: Mon Dec  7 04:30:42 2015
%%DocumentData: Clean7bit
%%Requirements: color
%%LanguageLevel: 2
%%PageOrder: Ascend
%%Pages: (atend)
%%DocumentNeededResources: (atend)
%%EndComments
%%BeginProlog
save
%+ prolog.ps -- Prolog for IDL generated PostScript files
%+ Copyright (c) 1988-2013 Exelis Visual Information Solutions, Inc. All Rights Reserved.
%v 5
/$IDL_DICT 40 dict def $IDL_DICT begin /bdef { bind def } bind def /C
{currentpoint newpath moveto} bdef /CP {currentpoint} bdef /D {currentpoint
stroke moveto} bdef /F {closepath fill} bdef /K { setgray } bdef /M {moveto}
bdef /N {rmoveto} bdef /P {lineto} bdef /R {rlineto} bdef /S {gsave show
grestore} bdef /X {currentpoint pop} bdef /Z {gsave currentpoint lineto 20
setlinewidth 1 setlinecap stroke grestore} bdef /L0 {[] 0 setdash} bdef /L1
{[40 100] 0 setdash} bdef /L2 {[200 200] 0 setdash} bdef /L3 {[200 100 50
100] 0 setdash} bdef /L4 {[300 100 50 100 50 100 50 100] 0 setdash} bdef /L5
{[400 200] 0 setdash} bdef /STDFONT { findfont exch scalefont setfont } bdef
/ISOFONT { findfont dup length dict begin { 1 index /FID ne {def} {pop pop}
ifelse } forall /Encoding ISOLatin1Encoding def currentdict end /idltmpfont
exch definefont exch scalefont setfont } bdef /ISOBULLET { gsave /Helvetica
findfont exch scalefont setfont (\267) show currentpoint grestore moveto}
bdef /MITERLIMIT { 2.5 setmiterlimit } bdef end
%%EndProlog
%%Page: 0 1
%%PageRequirements: color
%%PageResources: (atend)
%%PageOrientation: Portrait
%%PageBoundingBox: 91 181 519 609
%%BeginPageSetup
save
$IDL_DICT begin 91 181 translate 0.0283465 dup scale MITERLIMIT
%%IncludeResource: font Helvetica
423.333 /Helvetica STDFONT
%%EndPageSetup
40 setlinewidth L0 0.000 0.000 0.000 setrgbcolor 4440 2816 M 9341 0 R D
4440 2816 M 0 218 R D 10 setlinewidth 3973 2157 M 46 24 R 71 70 R 0 -491 R D
4417 1807 M -24 -24 R 24 -23 R 23 23 R -23 24 R D 4650 2251 M 257 0 R
-140 -187 R 70 0 R 47 -24 R 23 -23 R 24 -70 R 0 -47 R -24 -70 R -46 -47 R
-70 -23 R -71 0 R -70 23 R -23 24 R -23 47 R D 40 setlinewidth 6775 2816 M
0 218 R D 10 setlinewidth 6308 2157 M 47 24 R 70 70 R 0 -491 R D 6752 1807 M
-23 -24 R 23 -23 R 23 23 R -23 24 R D 7173 2251 M -234 -327 R 350 0 R D
7173 2251 M 0 -491 R D 40 setlinewidth 9111 2816 M 0 218 R D 10 setlinewidth
8643 2157 M 47 24 R 70 70 R 0 -491 R D 9087 1807 M -23 -24 R 23 -23 R
24 23 R -24 24 R D 9555 2251 M -234 0 R -23 -211 R 23 24 R 70 23 R 70 0 R
70 -23 R 47 -47 R 23 -70 R 0 -47 R -23 -70 R -47 -47 R -70 -23 R -70 0 R
-70 23 R -23 24 R -24 47 R D 40 setlinewidth 11446 2816 M 0 218 R D
10 setlinewidth 10978 2157 M 47 24 R 70 70 R 0 -491 R D 11422 1807 M
-23 -24 R 23 -23 R 24 23 R -24 24 R D 11913 2181 M -23 46 R -70 24 R -47 0 R
-70 -24 R -47 -70 R -23 -117 R 0 -116 R 23 -94 R 47 -47 R 70 -23 R 23 0 R
70 23 R 47 47 R 24 70 R 0 24 R -24 70 R -47 46 R -70 24 R -23 0 R -70 -24 R
-47 -46 R -23 -70 R D 40 setlinewidth 13781 2816 M 0 218 R D 10 setlinewidth
13314 2157 M 46 24 R 71 70 R 0 -491 R D 13758 1807 M -24 -24 R 24 -23 R
23 23 R -23 24 R D 14272 2251 M -234 -491 R D 13945 2251 M 327 0 R D
40 setlinewidth 4674 2816 M 0 109 R D 4907 2816 M 0 109 R D 5141 2816 M
0 109 R D 5374 2816 M 0 109 R D 5608 2816 M 0 109 R D 5841 2816 M 0 109 R D
6075 2816 M 0 109 R D 6308 2816 M 0 109 R D 6542 2816 M 0 109 R D
7009 2816 M 0 109 R D 7242 2816 M 0 109 R D 7476 2816 M 0 109 R D
7709 2816 M 0 109 R D 7943 2816 M 0 109 R D 8176 2816 M 0 109 R D
8410 2816 M 0 109 R D 8644 2816 M 0 109 R D 8877 2816 M 0 109 R D
9344 2816 M 0 109 R D 9578 2816 M 0 109 R D 9811 2816 M 0 109 R D
10045 2816 M 0 109 R D 10278 2816 M 0 109 R D 10512 2816 M 0 109 R D
10745 2816 M 0 109 R D 10979 2816 M 0 109 R D 11212 2816 M 0 109 R D
11679 2816 M 0 109 R D 11913 2816 M 0 109 R D 12146 2816 M 0 109 R D
12380 2816 M 0 109 R D 12613 2816 M 0 109 R D 12847 2816 M 0 109 R D
13081 2816 M 0 109 R D 13314 2816 M 0 109 R D 13548 2816 M 0 109 R D
10 setlinewidth 8386 1336 M 0 -491 R D 8386 1102 M 47 47 R 47 23 R 70 0 R
46 -23 R 47 -47 R 24 -70 R 0 -47 R -24 -70 R -47 -47 R -46 -23 R -70 0 R
-47 23 R -47 47 R D 8807 1032 M 280 0 R 0 47 R -23 46 R -24 24 R -46 23 R
-70 0 R -47 -23 R -47 -47 R -23 -70 R 0 -47 R 23 -70 R 47 -47 R 47 -23 R
70 0 R 46 23 R 47 47 R D 9274 1336 M 0 -398 R 24 -70 R 46 -23 R 47 0 R D
9204 1172 M 164 0 R D 9788 1172 M 0 -327 R D 9788 1102 M -46 47 R -47 23 R
-70 0 R -47 -23 R -47 -47 R -23 -70 R 0 -47 R 23 -70 R 47 -47 R 47 -23 R
70 0 R 47 23 R 46 47 R D 40 setlinewidth 4440 13705 M 9341 0 R D
4440 13705 M 0 -218 R D 6775 13705 M 0 -218 R D 9111 13705 M 0 -218 R D
11446 13705 M 0 -218 R D 13781 13705 M 0 -218 R D 4674 13705 M 0 -109 R D
4907 13705 M 0 -109 R D 5141 13705 M 0 -109 R D 5374 13705 M 0 -109 R D
5608 13705 M 0 -109 R D 5841 13705 M 0 -109 R D 6075 13705 M 0 -109 R D
6308 13705 M 0 -109 R D 6542 13705 M 0 -109 R D 7009 13705 M 0 -109 R D
7242 13705 M 0 -109 R D 7476 13705 M 0 -109 R D 7709 13705 M 0 -109 R D
7943 13705 M 0 -109 R D 8176 13705 M 0 -109 R D 8410 13705 M 0 -109 R D
8644 13705 M 0 -109 R D 8877 13705 M 0 -109 R D 9344 13705 M 0 -109 R D
9578 13705 M 0 -109 R D 9811 13705 M 0 -109 R D 10045 13705 M 0 -109 R D
10278 13705 M 0 -109 R D 10512 13705 M 0 -109 R D 10745 13705 M 0 -109 R D
10979 13705 M 0 -109 R D 11212 13705 M 0 -109 R D 11679 13705 M 0 -109 R D
11913 13705 M 0 -109 R D 12146 13705 M 0 -109 R D 12380 13705 M 0 -109 R D
12613 13705 M 0 -109 R D 12847 13705 M 0 -109 R D 13081 13705 M 0 -109 R D
13314 13705 M 0 -109 R D 13548 13705 M 0 -109 R D 4440 2816 M 0 10889 R D
4440 2816 M 187 0 R D 10 setlinewidth 2769 3307 M -70 -24 R -47 -70 R
-23 -117 R 0 -70 R 23 -116 R 47 -71 R 70 -23 R 47 0 R 70 23 R 47 71 R
23 116 R 0 70 R -23 117 R -47 70 R -70 24 R -47 0 R D 3143 2863 M -23 -24 R
23 -23 R 23 23 R -23 24 R D 3634 3143 M -24 -70 R -46 -47 R -70 -23 R
-24 0 R -70 23 R -47 47 R -23 70 R 0 24 R 23 70 R 47 46 R 70 24 R 24 0 R
70 -24 R 46 -46 R 24 -94 R 0 -117 R -24 -116 R -46 -71 R -70 -23 R -47 0 R
-70 23 R -24 47 R D 3914 3307 M -70 -24 R -23 -46 R 0 -47 R 23 -47 R
47 -23 R 93 -24 R 70 -23 R 47 -47 R 24 -46 R 0 -70 R -24 -47 R -23 -24 R
-70 -23 R -94 0 R -70 23 R -23 24 R -24 47 R 0 70 R 24 46 R 47 47 R 70 23 R
93 24 R 47 23 R 23 47 R 0 47 R -23 46 R -70 24 R -94 0 R D 40 setlinewidth
4440 5538 M 187 0 R D 10 setlinewidth 2769 5747 M -70 -23 R -47 -70 R
-23 -117 R 0 -70 R 23 -117 R 47 -70 R 70 -23 R 47 0 R 70 23 R 47 70 R
23 117 R 0 70 R -23 117 R -47 70 R -70 23 R -47 0 R D 3143 5303 M -23 -23 R
23 -23 R 23 23 R -23 23 R D 3634 5584 M -24 -70 R -46 -47 R -70 -23 R
-24 0 R -70 23 R -47 47 R -23 70 R 0 23 R 23 70 R 47 47 R 70 23 R 24 0 R
70 -23 R 46 -47 R 24 -93 R 0 -117 R -24 -117 R -46 -70 R -70 -23 R -47 0 R
-70 23 R -24 47 R D 4101 5584 M -23 -70 R -47 -47 R -70 -23 R -23 0 R
-70 23 R -47 47 R -24 70 R 0 23 R 24 70 R 47 47 R 70 23 R 23 0 R 70 -23 R
47 -47 R 23 -93 R 0 -117 R -23 -117 R -47 -70 R -70 -23 R -47 0 R -70 23 R
-23 47 R D 40 setlinewidth 4440 8261 M 187 0 R D 10 setlinewidth 2699 8376 M
47 24 R 70 70 R 0 -491 R D 3143 8026 M -23 -24 R 23 -23 R 23 23 R -23 24 R D
3470 8470 M -70 -24 R -47 -70 R -23 -117 R 0 -70 R 23 -117 R 47 -70 R
70 -23 R 47 0 R 70 23 R 47 70 R 23 117 R 0 70 R -23 117 R -47 70 R -70 24 R
-47 0 R D 3938 8470 M -70 -24 R -47 -70 R -24 -117 R 0 -70 R 24 -117 R
47 -70 R 70 -23 R 46 0 R 70 23 R 47 70 R 24 117 R 0 70 R -24 117 R -47 70 R
-70 24 R -46 0 R D 40 setlinewidth 4440 10983 M 187 0 R D 10 setlinewidth
2699 11098 M 47 24 R 70 70 R 0 -491 R D 3143 10748 M -23 -23 R 23 -24 R
23 24 R -23 23 R D 3470 11192 M -70 -23 R -47 -71 R -23 -116 R 0 -70 R
23 -117 R 47 -70 R 70 -24 R 47 0 R 70 24 R 47 70 R 23 117 R 0 70 R -23 116 R
-47 71 R -70 23 R -47 0 R D 3868 11098 M 46 24 R 70 70 R 0 -491 R D
40 setlinewidth 4440 13705 M 187 0 R D 10 setlinewidth 2699 13610 M 47 23 R
70 70 R 0 -491 R D 3143 13259 M -23 -23 R 23 -24 R 23 24 R -23 23 R D
3470 13703 M -70 -23 R -47 -70 R -23 -117 R 0 -70 R 23 -117 R 47 -70 R
70 -24 R 47 0 R 70 24 R 47 70 R 23 117 R 0 70 R -23 117 R -47 70 R -70 23 R
-47 0 R D 3821 13586 M 0 24 R 23 46 R 24 24 R 46 23 R 94 0 R 46 -23 R
24 -24 R 23 -46 R 0 -47 R -23 -47 R -47 -70 R -234 -234 R 328 0 R D
40 setlinewidth 4440 3088 M 93 0 R D 4440 3361 M 93 0 R D 4440 3633 M 93 0 R
D 4440 3905 M 93 0 R D 4440 4177 M 93 0 R D 4440 4449 M 93 0 R D 4440 4722 M
93 0 R D 4440 4994 M 93 0 R D 4440 5266 M 93 0 R D 4440 5811 M 93 0 R D
4440 6083 M 93 0 R D 4440 6355 M 93 0 R D 4440 6627 M 93 0 R D 4440 6899 M
93 0 R D 4440 7172 M 93 0 R D 4440 7444 M 93 0 R D 4440 7716 M 93 0 R D
4440 7988 M 93 0 R D 4440 8533 M 93 0 R D 4440 8805 M 93 0 R D 4440 9077 M
93 0 R D 4440 9349 M 93 0 R D 4440 9622 M 93 0 R D 4440 9894 M 93 0 R D
4440 10166 M 93 0 R D 4440 10438 M 93 0 R D 4440 10711 M 93 0 R D
4440 11255 M 93 0 R D 4440 11527 M 93 0 R D 4440 11800 M 93 0 R D
4440 12072 M 93 0 R D 4440 12344 M 93 0 R D 4440 12616 M 93 0 R D
4440 12888 M 93 0 R D 4440 13161 M 93 0 R D 4440 13433 M 93 0 R D
10 setlinewidth 1589 7793 M 327 0 R D 1659 7793 M -47 -47 R -23 -46 R
0 -70 R 23 -47 R 47 -47 R 70 -23 R 47 0 R 70 23 R 47 47 R 23 47 R 0 70 R
-23 46 R -47 47 R D 1589 7980 M 327 0 R D 1683 7980 M -71 70 R -23 47 R
0 70 R 23 47 R 71 23 R 233 0 R D 1683 8237 M -71 70 R -23 47 R 0 70 R
23 47 R 71 23 R 233 0 R D 1589 8681 M 514 0 R D 1659 8681 M -47 47 R
-23 47 R 0 70 R 23 47 R 47 46 R 70 24 R 47 0 R 70 -24 R 47 -46 R 23 -47 R
0 -70 R -23 -47 R -47 -47 R D 40 setlinewidth 13781 2816 M 0 10889 R D
13781 2816 M -187 0 R D 13781 5538 M -187 0 R D 13781 8261 M -187 0 R D
13781 10983 M -187 0 R D 13781 13705 M -187 0 R D 13781 3088 M -93 0 R D
13781 3361 M -93 0 R D 13781 3633 M -93 0 R D 13781 3905 M -93 0 R D
13781 4177 M -93 0 R D 13781 4449 M -93 0 R D 13781 4722 M -93 0 R D
13781 4994 M -93 0 R D 13781 5266 M -93 0 R D 13781 5811 M -93 0 R D
13781 6083 M -93 0 R D 13781 6355 M -93 0 R D 13781 6627 M -93 0 R D
13781 6899 M -93 0 R D 13781 7172 M -93 0 R D 13781 7444 M -93 0 R D
13781 7716 M -93 0 R D 13781 7988 M -93 0 R D 13781 8533 M -93 0 R D
13781 8805 M -93 0 R D 13781 9077 M -93 0 R D 13781 9349 M -93 0 R D
13781 9622 M -93 0 R D 13781 9894 M -93 0 R D 13781 10166 M -93 0 R D
13781 10438 M -93 0 R D 13781 10711 M -93 0 R D 13781 11255 M -93 0 R D
13781 11527 M -93 0 R D 13781 11800 M -93 0 R D 13781 12072 M -93 0 R D
13781 12344 M -93 0 R D 13781 12616 M -93 0 R D 13781 12888 M -93 0 R D
13781 13161 M -93 0 R D 13781 13433 M -93 0 R D 10 setlinewidth 7212 14741 M
0 -614 R D 7212 14449 M 58 58 R 59 29 R 87 0 R 59 -29 R 58 -58 R 29 -88 R
0 -58 R -29 -88 R -58 -58 R -59 -30 R -87 0 R -59 30 R -58 58 R D
7738 14361 M 350 0 R 0 59 R -29 58 R -29 29 R -59 29 R -87 0 R -59 -29 R
-58 -58 R -29 -88 R 0 -58 R 29 -88 R 58 -58 R 59 -30 R 87 0 R 59 30 R
58 58 R D 8322 14741 M 0 -497 R 29 -87 R 59 -30 R 58 0 R D 8234 14536 M
205 0 R D 8965 14536 M 0 -409 R D 8965 14449 M -59 58 R -58 29 R -88 0 R
-58 -29 R -59 -58 R -29 -88 R 0 -58 R 29 -88 R 59 -58 R 58 -30 R 88 0 R
58 30 R 59 58 R D 9520 14536 M 0 -409 R D 9520 14449 M -59 58 R -58 29 R
-88 0 R -58 -29 R -59 -58 R -29 -88 R 0 -58 R 29 -88 R 59 -58 R 58 -30 R
88 0 R 58 30 R 59 58 R D 9753 14536 M 0 -409 R D 9753 14420 M 88 87 R
58 29 R 88 0 R 58 -29 R 30 -87 R 0 -293 R D 10075 14420 M 87 87 R 59 29 R
87 0 R 59 -29 R 29 -87 R 0 -293 R D 10630 14536 M 0 -642 R D 10630 14449 M
58 58 R 58 29 R 88 0 R 58 -29 R 59 -58 R 29 -88 R 0 -58 R -29 -88 R
-59 -58 R -58 -30 R -88 0 R -58 30 R -58 58 R D 40 setlinewidth 10593 2816 M
84 545 R 88 544 R 85 544 R 12 74 R 67 471 R 78 544 R 74 545 R 77 544 R
54 371 R 24 174 R 71 544 R 69 545 R 63 544 R 66 544 R 58 414 R 16 131 R
54 544 R 59 545 R 57 544 R 57 545 R 52 544 R 55 539 R 0 6 R 49 544 R D
7755 13705 M -46 -285 R -35 -259 R -74 -545 R -79 -544 R -78 -545 R
-80 -544 R -4 -30 R -63 -515 R -71 -544 R -68 -545 R -74 -544 R -69 -544 R
-5 -43 R -56 -502 R -59 -544 R -66 -545 R -60 -544 R -60 -545 R -49 -414 R
-14 -130 R -48 -545 R -54 -544 R -54 -544 R -46 -545 R D 11629 2816 M
80 545 R 83 544 R 79 544 R 42 286 R 35 259 R 78 544 R 77 545 R 72 544 R
76 545 R 12 90 R 58 454 R 68 545 R 67 544 R 73 544 R 66 545 R 18 152 R D
6885 13705 M -72 -544 R -78 -545 R -76 -515 R -4 -29 R -64 -545 R -71 -544 R
-70 -545 R -72 -544 R -70 -527 R -2 -18 R -60 -544 R -67 -544 R -65 -545 R
-65 -544 R -63 -545 R -28 -233 R -34 -311 R -59 -545 R -59 -544 R -58 -545 R
-57 -544 R -60 -544 R -23 -218 R D 12448 2816 M 82 545 R 83 537 R D
6234 13705 M -72 -544 R -71 -545 R -72 -544 R -61 -429 R -15 -116 R
-66 -544 R -67 -545 R -67 -544 R -70 -545 R -65 -506 R D 5691 13705 M
-72 -544 R -11 -83 R D
%%PageTrailer
end
restore
showpage
%%PageResources: font Helvetica
%%Trailer
restore
%%Pages: 1
%%DocumentNeededResources: font Helvetica
%%EOF
