%!PS-Adobe-3.0
%%BoundingBox: 91 181 519 609
%%Title: Graphics produced by IDL
%%For: yssu@archMini, 
%%      /home/yssu/SURF2015/Thesis/point_source/emissivity/chi2/4var
%%Creator: IDL Version 8.3 (linux x86_64 m64)
%%CreationDate: Mon Dec  7 04:30:46 2015
%%DocumentData: Clean7bit
%%Requirements: color
%%LanguageLevel: 2
%%PageOrder: Ascend
%%Pages: (atend)
%%DocumentNeededResources: (atend)
%%EndComments
%%BeginProlog
save
%+ prolog.ps -- Prolog for IDL generated PostScript files
%+ Copyright (c) 1988-2013 Exelis Visual Information Solutions, Inc. All Rights Reserved.
%v 5
/$IDL_DICT 40 dict def $IDL_DICT begin /bdef { bind def } bind def /C
{currentpoint newpath moveto} bdef /CP {currentpoint} bdef /D {currentpoint
stroke moveto} bdef /F {closepath fill} bdef /K { setgray } bdef /M {moveto}
bdef /N {rmoveto} bdef /P {lineto} bdef /R {rlineto} bdef /S {gsave show
grestore} bdef /X {currentpoint pop} bdef /Z {gsave currentpoint lineto 20
setlinewidth 1 setlinecap stroke grestore} bdef /L0 {[] 0 setdash} bdef /L1
{[40 100] 0 setdash} bdef /L2 {[200 200] 0 setdash} bdef /L3 {[200 100 50
100] 0 setdash} bdef /L4 {[300 100 50 100 50 100 50 100] 0 setdash} bdef /L5
{[400 200] 0 setdash} bdef /STDFONT { findfont exch scalefont setfont } bdef
/ISOFONT { findfont dup length dict begin { 1 index /FID ne {def} {pop pop}
ifelse } forall /Encoding ISOLatin1Encoding def currentdict end /idltmpfont
exch definefont exch scalefont setfont } bdef /ISOBULLET { gsave /Helvetica
findfont exch scalefont setfont (\267) show currentpoint grestore moveto}
bdef /MITERLIMIT { 2.5 setmiterlimit } bdef end
%%EndProlog
%%Page: 0 1
%%PageRequirements: color
%%PageResources: (atend)
%%PageOrientation: Portrait
%%PageBoundingBox: 91 181 519 609
%%BeginPageSetup
save
$IDL_DICT begin 91 181 translate 0.0283465 dup scale MITERLIMIT
%%IncludeResource: font Helvetica
423.333 /Helvetica STDFONT
%%EndPageSetup
40 setlinewidth L0 0.000 0.000 0.000 setrgbcolor 4440 2816 M 9341 0 R D
4440 2816 M 0 218 R D 10 setlinewidth 3856 2157 M 47 24 R 70 70 R 0 -491 R D
4276 2134 M 0 23 R 24 47 R 23 23 R 47 24 R 93 0 R 47 -24 R 24 -23 R 23 -47 R
0 -46 R -23 -47 R -47 -70 R -234 -234 R 327 0 R D 4954 2251 M -234 -327 R
351 0 R D 4954 2251 M 0 -491 R D 40 setlinewidth 6308 2816 M 0 218 R D
10 setlinewidth 5724 2157 M 47 24 R 70 70 R 0 -491 R D 6145 2134 M 0 23 R
23 47 R 23 23 R 47 24 R 94 0 R 46 -24 R 24 -23 R 23 -47 R 0 -46 R -23 -47 R
-47 -70 R -234 -234 R 327 0 R D 6869 2251 M -234 0 R -23 -211 R 23 24 R
71 23 R 70 0 R 70 -23 R 46 -47 R 24 -70 R 0 -47 R -24 -70 R -46 -47 R
-70 -23 R -70 0 R -71 23 R -23 24 R -23 47 R D 40 setlinewidth 8176 2816 M
0 218 R D 10 setlinewidth 7592 2157 M 47 24 R 70 70 R 0 -491 R D 8013 2134 M
0 23 R 23 47 R 24 23 R 46 24 R 94 0 R 47 -24 R 23 -23 R 23 -47 R 0 -46 R
-23 -47 R -47 -70 R -233 -234 R 327 0 R D 8761 2181 M -24 46 R -70 24 R
-47 0 R -70 -24 R -46 -70 R -24 -117 R 0 -116 R 24 -94 R 46 -47 R 70 -23 R
24 0 R 70 23 R 47 47 R 23 70 R 0 24 R -23 70 R -47 46 R -70 24 R -24 0 R
-70 -24 R -46 -46 R -24 -70 R D 40 setlinewidth 10045 2816 M 0 218 R D
10 setlinewidth 9460 2157 M 47 24 R 70 70 R 0 -491 R D 9881 2134 M 0 23 R
23 47 R 24 23 R 47 24 R 93 0 R 47 -24 R 23 -23 R 24 -47 R 0 -46 R -24 -47 R
-47 -70 R -233 -234 R 327 0 R D 10652 2251 M -233 -491 R D 10325 2251 M
327 0 R D 40 setlinewidth 11913 2816 M 0 218 R D 10 setlinewidth
11329 2157 M 46 24 R 71 70 R 0 -491 R D 11749 2134 M 0 23 R 24 47 R 23 23 R
47 24 R 93 0 R 47 -24 R 23 -23 R 24 -47 R 0 -46 R -24 -47 R -46 -70 R
-234 -234 R 327 0 R D 12310 2251 M -70 -24 R -23 -46 R 0 -47 R 23 -47 R
47 -23 R 93 -24 R 70 -23 R 47 -47 R 23 -46 R 0 -70 R -23 -47 R -23 -24 R
-70 -23 R -94 0 R -70 23 R -23 24 R -24 47 R 0 70 R 24 46 R 46 47 R 71 23 R
93 24 R 47 23 R 23 47 R 0 47 R -23 46 R -70 24 R -94 0 R D 40 setlinewidth
13781 2816 M 0 218 R D 10 setlinewidth 13197 2157 M 47 24 R 70 70 R 0 -491 R
D 13617 2134 M 0 23 R 24 47 R 23 23 R 47 24 R 93 0 R 47 -24 R 24 -23 R
23 -47 R 0 -46 R -23 -47 R -47 -70 R -234 -234 R 327 0 R D 14365 2087 M
-23 -70 R -47 -47 R -70 -23 R -23 0 R -70 23 R -47 47 R -24 70 R 0 24 R
24 70 R 47 46 R 70 24 R 23 0 R 70 -24 R 47 -46 R 23 -94 R 0 -117 R
-23 -116 R -47 -71 R -70 -23 R -47 0 R -70 23 R -23 47 R D 40 setlinewidth
4627 2816 M 0 109 R D 4814 2816 M 0 109 R D 5001 2816 M 0 109 R D
5187 2816 M 0 109 R D 5374 2816 M 0 109 R D 5561 2816 M 0 109 R D
5748 2816 M 0 109 R D 5935 2816 M 0 109 R D 6121 2816 M 0 109 R D
6495 2816 M 0 109 R D 6682 2816 M 0 109 R D 6869 2816 M 0 109 R D
7056 2816 M 0 109 R D 7242 2816 M 0 109 R D 7429 2816 M 0 109 R D
7616 2816 M 0 109 R D 7803 2816 M 0 109 R D 7990 2816 M 0 109 R D
8363 2816 M 0 109 R D 8550 2816 M 0 109 R D 8737 2816 M 0 109 R D
8924 2816 M 0 109 R D 9111 2816 M 0 109 R D 9297 2816 M 0 109 R D
9484 2816 M 0 109 R D 9671 2816 M 0 109 R D 9858 2816 M 0 109 R D
10231 2816 M 0 109 R D 10418 2816 M 0 109 R D 10605 2816 M 0 109 R D
10792 2816 M 0 109 R D 10979 2816 M 0 109 R D 11166 2816 M 0 109 R D
11352 2816 M 0 109 R D 11539 2816 M 0 109 R D 11726 2816 M 0 109 R D
12100 2816 M 0 109 R D 12287 2816 M 0 109 R D 12473 2816 M 0 109 R D
12660 2816 M 0 109 R D 12847 2816 M 0 109 R D 13034 2816 M 0 109 R D
13221 2816 M 0 109 R D 13407 2816 M 0 109 R D 13594 2816 M 0 109 R D
10 setlinewidth 8959 1172 M 257 -327 R D 9216 1172 M -257 -327 R D
40 setlinewidth 4440 13705 M 9341 0 R D 4440 13705 M 0 -218 R D 6308 13705 M
0 -218 R D 8176 13705 M 0 -218 R D 10045 13705 M 0 -218 R D 11913 13705 M
0 -218 R D 13781 13705 M 0 -218 R D 4627 13705 M 0 -109 R D 4814 13705 M
0 -109 R D 5001 13705 M 0 -109 R D 5187 13705 M 0 -109 R D 5374 13705 M
0 -109 R D 5561 13705 M 0 -109 R D 5748 13705 M 0 -109 R D 5935 13705 M
0 -109 R D 6121 13705 M 0 -109 R D 6495 13705 M 0 -109 R D 6682 13705 M
0 -109 R D 6869 13705 M 0 -109 R D 7056 13705 M 0 -109 R D 7242 13705 M
0 -109 R D 7429 13705 M 0 -109 R D 7616 13705 M 0 -109 R D 7803 13705 M
0 -109 R D 7990 13705 M 0 -109 R D 8363 13705 M 0 -109 R D 8550 13705 M
0 -109 R D 8737 13705 M 0 -109 R D 8924 13705 M 0 -109 R D 9111 13705 M
0 -109 R D 9297 13705 M 0 -109 R D 9484 13705 M 0 -109 R D 9671 13705 M
0 -109 R D 9858 13705 M 0 -109 R D 10231 13705 M 0 -109 R D 10418 13705 M
0 -109 R D 10605 13705 M 0 -109 R D 10792 13705 M 0 -109 R D 10979 13705 M
0 -109 R D 11166 13705 M 0 -109 R D 11352 13705 M 0 -109 R D 11539 13705 M
0 -109 R D 11726 13705 M 0 -109 R D 12100 13705 M 0 -109 R D 12287 13705 M
0 -109 R D 12473 13705 M 0 -109 R D 12660 13705 M 0 -109 R D 12847 13705 M
0 -109 R D 13034 13705 M 0 -109 R D 13221 13705 M 0 -109 R D 13407 13705 M
0 -109 R D 13594 13705 M 0 -109 R D 4440 2816 M 0 10889 R D 4440 2816 M
187 0 R D 10 setlinewidth 2933 3213 M 47 24 R 70 70 R 0 -491 R D 3353 3190 M
0 23 R 24 47 R 23 23 R 47 24 R 93 0 R 47 -24 R 23 -23 R 24 -47 R 0 -46 R
-24 -47 R -46 -70 R -234 -234 R 327 0 R D 4031 3307 M -234 -327 R 351 0 R D
4031 3307 M 0 -491 R D 40 setlinewidth 4440 4994 M 187 0 R D 10 setlinewidth
2933 5110 M 47 23 R 70 70 R 0 -491 R D 3353 5086 M 0 24 R 24 46 R 23 24 R
47 23 R 93 0 R 47 -23 R 23 -24 R 24 -46 R 0 -47 R -24 -47 R -46 -70 R
-234 -234 R 327 0 R D 4078 5203 M -234 0 R -23 -210 R 23 23 R 70 23 R 70 0 R
70 -23 R 47 -47 R 24 -70 R 0 -47 R -24 -70 R -47 -46 R -70 -24 R -70 0 R
-70 24 R -23 23 R -24 47 R D 40 setlinewidth 4440 7172 M 187 0 R D
10 setlinewidth 2933 7287 M 47 24 R 70 70 R 0 -491 R D 3353 7264 M 0 23 R
24 47 R 23 23 R 47 24 R 93 0 R 47 -24 R 23 -23 R 24 -47 R 0 -46 R -24 -47 R
-46 -70 R -234 -234 R 327 0 R D 4101 7311 M -23 46 R -70 24 R -47 0 R
-70 -24 R -47 -70 R -23 -117 R 0 -116 R 23 -94 R 47 -47 R 70 -23 R 23 0 R
70 23 R 47 47 R 24 70 R 0 24 R -24 70 R -47 46 R -70 24 R -23 0 R -70 -24 R
-47 -46 R -23 -70 R D 40 setlinewidth 4440 9349 M 187 0 R D 10 setlinewidth
2933 9465 M 47 24 R 70 70 R 0 -491 R D 3353 9442 M 0 23 R 24 47 R 23 23 R
47 24 R 93 0 R 47 -24 R 23 -23 R 24 -47 R 0 -47 R -24 -46 R -46 -70 R
-234 -234 R 327 0 R D 4125 9559 M -234 -491 R D 3797 9559 M 328 0 R D
40 setlinewidth 4440 11527 M 187 0 R D 10 setlinewidth 2933 11643 M 47 23 R
70 70 R 0 -490 R D 3353 11620 M 0 23 R 24 47 R 23 23 R 47 23 R 93 0 R
47 -23 R 23 -23 R 24 -47 R 0 -47 R -24 -47 R -46 -70 R -234 -233 R 327 0 R D
3914 11736 M -70 -23 R -23 -47 R 0 -46 R 23 -47 R 47 -24 R 93 -23 R 70 -23 R
47 -47 R 24 -47 R 0 -70 R -24 -47 R -23 -23 R -70 -23 R -94 0 R -70 23 R
-23 23 R -24 47 R 0 70 R 24 47 R 47 47 R 70 23 R 93 23 R 47 24 R 23 47 R
0 46 R -23 47 R -70 23 R -94 0 R D 40 setlinewidth 4440 13705 M 187 0 R D
10 setlinewidth 2933 13610 M 47 23 R 70 70 R 0 -491 R D 3353 13586 M 0 24 R
24 46 R 23 24 R 47 23 R 93 0 R 47 -23 R 23 -24 R 24 -46 R 0 -47 R -24 -47 R
-46 -70 R -234 -234 R 327 0 R D 4101 13539 M -23 -70 R -47 -46 R -70 -24 R
-23 0 R -70 24 R -47 46 R -24 70 R 0 24 R 24 70 R 47 47 R 70 23 R 23 0 R
70 -23 R 47 -47 R 23 -94 R 0 -116 R -23 -117 R -47 -70 R -70 -24 R -47 0 R
-70 24 R -23 46 R D 40 setlinewidth 4440 3034 M 93 0 R D 4440 3252 M 93 0 R
D 4440 3469 M 93 0 R D 4440 3687 M 93 0 R D 4440 3905 M 93 0 R D 4440 4123 M
93 0 R D 4440 4341 M 93 0 R D 4440 4558 M 93 0 R D 4440 4776 M 93 0 R D
4440 5212 M 93 0 R D 4440 5429 M 93 0 R D 4440 5647 M 93 0 R D 4440 5865 M
93 0 R D 4440 6083 M 93 0 R D 4440 6301 M 93 0 R D 4440 6518 M 93 0 R D
4440 6736 M 93 0 R D 4440 6954 M 93 0 R D 4440 7389 M 93 0 R D 4440 7607 M
93 0 R D 4440 7825 M 93 0 R D 4440 8043 M 93 0 R D 4440 8261 M 93 0 R D
4440 8478 M 93 0 R D 4440 8696 M 93 0 R D 4440 8914 M 93 0 R D 4440 9132 M
93 0 R D 4440 9567 M 93 0 R D 4440 9785 M 93 0 R D 4440 10003 M 93 0 R D
4440 10221 M 93 0 R D 4440 10438 M 93 0 R D 4440 10656 M 93 0 R D
4440 10874 M 93 0 R D 4440 11092 M 93 0 R D 4440 11309 M 93 0 R D
4440 11745 M 93 0 R D 4440 11963 M 93 0 R D 4440 12181 M 93 0 R D
4440 12398 M 93 0 R D 4440 12616 M 93 0 R D 4440 12834 M 93 0 R D
4440 13052 M 93 0 R D 4440 13270 M 93 0 R D 4440 13487 M 93 0 R D
10 setlinewidth 1823 8097 M 327 140 R -327 140 R D 2150 8237 M 117 -47 R
47 -46 R 23 -47 R 0 -23 R D 40 setlinewidth 13781 2816 M 0 10889 R D
13781 2816 M -187 0 R D 13781 4994 M -187 0 R D 13781 7172 M -187 0 R D
13781 9349 M -187 0 R D 13781 11527 M -187 0 R D 13781 13705 M -187 0 R D
13781 3034 M -93 0 R D 13781 3252 M -93 0 R D 13781 3469 M -93 0 R D
13781 3687 M -93 0 R D 13781 3905 M -93 0 R D 13781 4123 M -93 0 R D
13781 4341 M -93 0 R D 13781 4558 M -93 0 R D 13781 4776 M -93 0 R D
13781 5212 M -93 0 R D 13781 5429 M -93 0 R D 13781 5647 M -93 0 R D
13781 5865 M -93 0 R D 13781 6083 M -93 0 R D 13781 6301 M -93 0 R D
13781 6518 M -93 0 R D 13781 6736 M -93 0 R D 13781 6954 M -93 0 R D
13781 7389 M -93 0 R D 13781 7607 M -93 0 R D 13781 7825 M -93 0 R D
13781 8043 M -93 0 R D 13781 8261 M -93 0 R D 13781 8478 M -93 0 R D
13781 8696 M -93 0 R D 13781 8914 M -93 0 R D 13781 9132 M -93 0 R D
13781 9567 M -93 0 R D 13781 9785 M -93 0 R D 13781 10003 M -93 0 R D
13781 10221 M -93 0 R D 13781 10438 M -93 0 R D 13781 10656 M -93 0 R D
13781 10874 M -93 0 R D 13781 11092 M -93 0 R D 13781 11309 M -93 0 R D
13781 11745 M -93 0 R D 13781 11963 M -93 0 R D 13781 12181 M -93 0 R D
13781 12398 M -93 0 R D 13781 12616 M -93 0 R D 13781 12834 M -93 0 R D
13781 13052 M -93 0 R D 13781 13270 M -93 0 R D 13781 13487 M -93 0 R D
10 setlinewidth 8687 14536 M 321 -409 R D 9008 14536 M -321 -409 R D
9154 14536 M 176 -409 R 175 409 R D 9330 14127 M -59 -146 R -58 -58 R
-59 -29 R -29 0 R D 40 setlinewidth 9578 8640 M 467 -181 R 467 181 R
141 165 R 155 544 R -156 545 R -140 164 R -467 180 R -467 -180 R -141 -164 R
-155 -545 R 154 -544 R 142 -165 R D 9578 8166 M 467 -108 R 467 111 R
131 92 R 336 391 R 78 153 R 95 544 R -93 545 R -80 155 R -333 389 R
-134 94 R -467 107 R -467 -108 R -132 -93 R -335 -390 R -80 -154 R
-95 -545 R 94 -544 R 81 -157 R 332 -387 R 135 -95 R D 9111 8166 M 467 -326 R
467 -108 R 467 109 R 467 325 R 81 95 R 280 544 R 93 544 R -94 545 R
-280 544 R -80 94 R -467 327 R -467 109 R -467 -108 R -467 -330 R -79 -92 R
-282 -544 R -95 -545 R 94 -544 R 281 -544 R 81 -95 R D 9578 7565 M 467 -77 R
467 78 R 298 150 R 169 118 R 367 427 R 100 192 R 130 352 R 66 544 R
-68 545 R -128 349 R -101 195 R -366 427 R -168 118 R -299 150 R -467 79 R
-467 -78 R -301 -151 R -166 -117 R -367 -428 R -100 -195 R -130 -349 R
-68 -545 R 68 -544 R 130 -351 R 99 -193 R 368 -429 R 166 -116 R 301 -151 R D
9111 7556 M 467 -235 R 467 -78 R 467 78 R 467 235 R 192 160 R 275 320 R
138 225 R 201 544 R 65 544 R -66 545 R -200 544 R -138 224 R -275 321 R
-192 160 R -467 235 R -467 78 R -467 -78 R -467 -234 R -192 -161 R
-275 -321 R -138 -224 R -201 -544 R -68 -545 R 68 -544 R 200 -544 R
139 -225 R 274 -320 R 193 -160 R D
%%PageTrailer
end
restore
showpage
%%PageResources: font Helvetica
%%Trailer
restore
%%Pages: 1
%%DocumentNeededResources: font Helvetica
%%EOF
