%!PS-Adobe-3.0
%%BoundingBox: 91 181 519 609
%%Title: Graphics produced by IDL
%%For: yssu@archMini, 
%%      /home/yssu/SURF2015/Thesis/point_source/emissivity/chi2/4var
%%Creator: IDL Version 8.3 (linux x86_64 m64)
%%CreationDate: Mon Dec  7 04:30:46 2015
%%DocumentData: Clean7bit
%%Requirements: color
%%LanguageLevel: 2
%%PageOrder: Ascend
%%Pages: (atend)
%%DocumentNeededResources: (atend)
%%EndComments
%%BeginProlog
save
%+ prolog.ps -- Prolog for IDL generated PostScript files
%+ Copyright (c) 1988-2013 Exelis Visual Information Solutions, Inc. All Rights Reserved.
%v 5
/$IDL_DICT 40 dict def $IDL_DICT begin /bdef { bind def } bind def /C
{currentpoint newpath moveto} bdef /CP {currentpoint} bdef /D {currentpoint
stroke moveto} bdef /F {closepath fill} bdef /K { setgray } bdef /M {moveto}
bdef /N {rmoveto} bdef /P {lineto} bdef /R {rlineto} bdef /S {gsave show
grestore} bdef /X {currentpoint pop} bdef /Z {gsave currentpoint lineto 20
setlinewidth 1 setlinecap stroke grestore} bdef /L0 {[] 0 setdash} bdef /L1
{[40 100] 0 setdash} bdef /L2 {[200 200] 0 setdash} bdef /L3 {[200 100 50
100] 0 setdash} bdef /L4 {[300 100 50 100 50 100 50 100] 0 setdash} bdef /L5
{[400 200] 0 setdash} bdef /STDFONT { findfont exch scalefont setfont } bdef
/ISOFONT { findfont dup length dict begin { 1 index /FID ne {def} {pop pop}
ifelse } forall /Encoding ISOLatin1Encoding def currentdict end /idltmpfont
exch definefont exch scalefont setfont } bdef /ISOBULLET { gsave /Helvetica
findfont exch scalefont setfont (\267) show currentpoint grestore moveto}
bdef /MITERLIMIT { 2.5 setmiterlimit } bdef end
%%EndProlog
%%Page: 0 1
%%PageRequirements: color
%%PageResources: (atend)
%%PageOrientation: Portrait
%%PageBoundingBox: 91 181 519 609
%%BeginPageSetup
save
$IDL_DICT begin 91 181 translate 0.0283465 dup scale MITERLIMIT
%%IncludeResource: font Helvetica
423.333 /Helvetica STDFONT
%%EndPageSetup
40 setlinewidth L0 0.000 0.000 0.000 setrgbcolor 4440 2816 M 9341 0 R D
4440 2816 M 0 218 R D 10 setlinewidth 3856 2157 M 47 24 R 70 70 R 0 -491 R D
4276 2134 M 0 23 R 24 47 R 23 23 R 47 24 R 93 0 R 47 -24 R 24 -23 R 23 -47 R
0 -46 R -23 -47 R -47 -70 R -234 -234 R 327 0 R D 4954 2251 M -234 -327 R
351 0 R D 4954 2251 M 0 -491 R D 40 setlinewidth 6308 2816 M 0 218 R D
10 setlinewidth 5724 2157 M 47 24 R 70 70 R 0 -491 R D 6145 2134 M 0 23 R
23 47 R 23 23 R 47 24 R 94 0 R 46 -24 R 24 -23 R 23 -47 R 0 -46 R -23 -47 R
-47 -70 R -234 -234 R 327 0 R D 6869 2251 M -234 0 R -23 -211 R 23 24 R
71 23 R 70 0 R 70 -23 R 46 -47 R 24 -70 R 0 -47 R -24 -70 R -46 -47 R
-70 -23 R -70 0 R -71 23 R -23 24 R -23 47 R D 40 setlinewidth 8176 2816 M
0 218 R D 10 setlinewidth 7592 2157 M 47 24 R 70 70 R 0 -491 R D 8013 2134 M
0 23 R 23 47 R 24 23 R 46 24 R 94 0 R 47 -24 R 23 -23 R 23 -47 R 0 -46 R
-23 -47 R -47 -70 R -233 -234 R 327 0 R D 8761 2181 M -24 46 R -70 24 R
-47 0 R -70 -24 R -46 -70 R -24 -117 R 0 -116 R 24 -94 R 46 -47 R 70 -23 R
24 0 R 70 23 R 47 47 R 23 70 R 0 24 R -23 70 R -47 46 R -70 24 R -24 0 R
-70 -24 R -46 -46 R -24 -70 R D 40 setlinewidth 10045 2816 M 0 218 R D
10 setlinewidth 9460 2157 M 47 24 R 70 70 R 0 -491 R D 9881 2134 M 0 23 R
23 47 R 24 23 R 47 24 R 93 0 R 47 -24 R 23 -23 R 24 -47 R 0 -46 R -24 -47 R
-47 -70 R -233 -234 R 327 0 R D 10652 2251 M -233 -491 R D 10325 2251 M
327 0 R D 40 setlinewidth 11913 2816 M 0 218 R D 10 setlinewidth
11329 2157 M 46 24 R 71 70 R 0 -491 R D 11749 2134 M 0 23 R 24 47 R 23 23 R
47 24 R 93 0 R 47 -24 R 23 -23 R 24 -47 R 0 -46 R -24 -47 R -46 -70 R
-234 -234 R 327 0 R D 12310 2251 M -70 -24 R -23 -46 R 0 -47 R 23 -47 R
47 -23 R 93 -24 R 70 -23 R 47 -47 R 23 -46 R 0 -70 R -23 -47 R -23 -24 R
-70 -23 R -94 0 R -70 23 R -23 24 R -24 47 R 0 70 R 24 46 R 46 47 R 71 23 R
93 24 R 47 23 R 23 47 R 0 47 R -23 46 R -70 24 R -94 0 R D 40 setlinewidth
13781 2816 M 0 218 R D 10 setlinewidth 13197 2157 M 47 24 R 70 70 R 0 -491 R
D 13617 2134 M 0 23 R 24 47 R 23 23 R 47 24 R 93 0 R 47 -24 R 24 -23 R
23 -47 R 0 -46 R -23 -47 R -47 -70 R -234 -234 R 327 0 R D 14365 2087 M
-23 -70 R -47 -47 R -70 -23 R -23 0 R -70 23 R -47 47 R -24 70 R 0 24 R
24 70 R 47 46 R 70 24 R 23 0 R 70 -24 R 47 -46 R 23 -94 R 0 -117 R
-23 -116 R -47 -71 R -70 -23 R -47 0 R -70 23 R -23 47 R D 40 setlinewidth
4627 2816 M 0 109 R D 4814 2816 M 0 109 R D 5001 2816 M 0 109 R D
5187 2816 M 0 109 R D 5374 2816 M 0 109 R D 5561 2816 M 0 109 R D
5748 2816 M 0 109 R D 5935 2816 M 0 109 R D 6121 2816 M 0 109 R D
6495 2816 M 0 109 R D 6682 2816 M 0 109 R D 6869 2816 M 0 109 R D
7056 2816 M 0 109 R D 7242 2816 M 0 109 R D 7429 2816 M 0 109 R D
7616 2816 M 0 109 R D 7803 2816 M 0 109 R D 7990 2816 M 0 109 R D
8363 2816 M 0 109 R D 8550 2816 M 0 109 R D 8737 2816 M 0 109 R D
8924 2816 M 0 109 R D 9111 2816 M 0 109 R D 9297 2816 M 0 109 R D
9484 2816 M 0 109 R D 9671 2816 M 0 109 R D 9858 2816 M 0 109 R D
10231 2816 M 0 109 R D 10418 2816 M 0 109 R D 10605 2816 M 0 109 R D
10792 2816 M 0 109 R D 10979 2816 M 0 109 R D 11166 2816 M 0 109 R D
11352 2816 M 0 109 R D 11539 2816 M 0 109 R D 11726 2816 M 0 109 R D
12100 2816 M 0 109 R D 12287 2816 M 0 109 R D 12473 2816 M 0 109 R D
12660 2816 M 0 109 R D 12847 2816 M 0 109 R D 13034 2816 M 0 109 R D
13221 2816 M 0 109 R D 13407 2816 M 0 109 R D 13594 2816 M 0 109 R D
10 setlinewidth 8947 1172 M 140 -327 R 140 327 R D 9087 845 M -47 -117 R
-46 -47 R -47 -23 R -23 0 R D 40 setlinewidth 4440 13705 M 9341 0 R D
4440 13705 M 0 -218 R D 6308 13705 M 0 -218 R D 8176 13705 M 0 -218 R D
10045 13705 M 0 -218 R D 11913 13705 M 0 -218 R D 13781 13705 M 0 -218 R D
4627 13705 M 0 -109 R D 4814 13705 M 0 -109 R D 5001 13705 M 0 -109 R D
5187 13705 M 0 -109 R D 5374 13705 M 0 -109 R D 5561 13705 M 0 -109 R D
5748 13705 M 0 -109 R D 5935 13705 M 0 -109 R D 6121 13705 M 0 -109 R D
6495 13705 M 0 -109 R D 6682 13705 M 0 -109 R D 6869 13705 M 0 -109 R D
7056 13705 M 0 -109 R D 7242 13705 M 0 -109 R D 7429 13705 M 0 -109 R D
7616 13705 M 0 -109 R D 7803 13705 M 0 -109 R D 7990 13705 M 0 -109 R D
8363 13705 M 0 -109 R D 8550 13705 M 0 -109 R D 8737 13705 M 0 -109 R D
8924 13705 M 0 -109 R D 9111 13705 M 0 -109 R D 9297 13705 M 0 -109 R D
9484 13705 M 0 -109 R D 9671 13705 M 0 -109 R D 9858 13705 M 0 -109 R D
10231 13705 M 0 -109 R D 10418 13705 M 0 -109 R D 10605 13705 M 0 -109 R D
10792 13705 M 0 -109 R D 10979 13705 M 0 -109 R D 11166 13705 M 0 -109 R D
11352 13705 M 0 -109 R D 11539 13705 M 0 -109 R D 11726 13705 M 0 -109 R D
12100 13705 M 0 -109 R D 12287 13705 M 0 -109 R D 12473 13705 M 0 -109 R D
12660 13705 M 0 -109 R D 12847 13705 M 0 -109 R D 13034 13705 M 0 -109 R D
13221 13705 M 0 -109 R D 13407 13705 M 0 -109 R D 13594 13705 M 0 -109 R D
4440 2816 M 0 10889 R D 4440 2816 M 187 0 R D 10 setlinewidth 3166 3213 M
47 24 R 70 70 R 0 -491 R D 3610 2863 M -23 -24 R 23 -23 R 24 23 R -24 24 R D
3844 3307 M 257 0 R -140 -187 R 70 0 R 47 -24 R 23 -23 R 24 -70 R 0 -47 R
-24 -70 R -47 -47 R -70 -23 R -70 0 R -70 23 R -23 24 R -24 47 R D
40 setlinewidth 4440 5538 M 187 0 R D 10 setlinewidth 3166 5654 M 47 23 R
70 70 R 0 -490 R D 3610 5303 M -23 -23 R 23 -23 R 24 23 R -24 23 R D
4031 5747 M -234 -327 R 351 0 R D 4031 5747 M 0 -490 R D 40 setlinewidth
4440 8261 M 187 0 R D 10 setlinewidth 3166 8376 M 47 24 R 70 70 R 0 -491 R D
3610 8026 M -23 -24 R 23 -23 R 24 23 R -24 24 R D 4078 8470 M -234 0 R
-23 -211 R 23 24 R 70 23 R 70 0 R 70 -23 R 47 -47 R 24 -70 R 0 -47 R
-24 -70 R -47 -47 R -70 -23 R -70 0 R -70 23 R -23 24 R -24 46 R D
40 setlinewidth 4440 10983 M 187 0 R D 10 setlinewidth 3166 11098 M 47 24 R
70 70 R 0 -491 R D 3610 10748 M -23 -23 R 23 -24 R 24 24 R -24 23 R D
4101 11122 M -23 47 R -70 23 R -47 0 R -70 -23 R -47 -71 R -23 -116 R
0 -117 R 23 -94 R 47 -46 R 70 -24 R 23 0 R 70 24 R 47 46 R 24 70 R 0 24 R
-24 70 R -47 47 R -70 23 R -23 0 R -70 -23 R -47 -47 R -23 -70 R D
40 setlinewidth 4440 13705 M 187 0 R D 10 setlinewidth 3166 13610 M 47 23 R
70 70 R 0 -491 R D 3610 13259 M -23 -23 R 23 -24 R 24 24 R -24 23 R D
4125 13703 M -234 -491 R D 3797 13703 M 328 0 R D 40 setlinewidth
4440 3088 M 93 0 R D 4440 3361 M 93 0 R D 4440 3633 M 93 0 R D 4440 3905 M
93 0 R D 4440 4177 M 93 0 R D 4440 4449 M 93 0 R D 4440 4722 M 93 0 R D
4440 4994 M 93 0 R D 4440 5266 M 93 0 R D 4440 5811 M 93 0 R D 4440 6083 M
93 0 R D 4440 6355 M 93 0 R D 4440 6627 M 93 0 R D 4440 6899 M 93 0 R D
4440 7172 M 93 0 R D 4440 7444 M 93 0 R D 4440 7716 M 93 0 R D 4440 7988 M
93 0 R D 4440 8533 M 93 0 R D 4440 8805 M 93 0 R D 4440 9077 M 93 0 R D
4440 9349 M 93 0 R D 4440 9622 M 93 0 R D 4440 9894 M 93 0 R D 4440 10166 M
93 0 R D 4440 10438 M 93 0 R D 4440 10711 M 93 0 R D 4440 11255 M 93 0 R D
4440 11527 M 93 0 R D 4440 11800 M 93 0 R D 4440 12072 M 93 0 R D
4440 12344 M 93 0 R D 4440 12616 M 93 0 R D 4440 12888 M 93 0 R D
4440 13161 M 93 0 R D 4440 13433 M 93 0 R D 10 setlinewidth 1893 7536 M
491 0 R D 2127 7536 M -47 47 R -24 47 R 0 70 R 24 46 R 47 47 R 70 24 R
46 0 R 71 -24 R 46 -47 R 24 -46 R 0 -70 R -24 -47 R -46 -47 R D 2197 7957 M
0 280 R -47 0 R -47 -23 R -23 -24 R -24 -46 R 0 -70 R 24 -47 R 47 -47 R
70 -23 R 46 0 R 71 23 R 46 47 R 24 47 R 0 70 R -24 46 R -46 47 R D
1893 8424 M 397 0 R 70 24 R 24 46 R 0 47 R D 2056 8354 M 0 164 R D
2056 8938 M 328 0 R D 2127 8938 M -47 -46 R -24 -47 R 0 -70 R 24 -47 R
47 -47 R 70 -23 R 46 0 R 71 23 R 46 47 R 24 47 R 0 70 R -24 47 R -46 46 R D
40 setlinewidth 13781 2816 M 0 10889 R D 13781 2816 M -187 0 R D
13781 5538 M -187 0 R D 13781 8261 M -187 0 R D 13781 10983 M -187 0 R D
13781 13705 M -187 0 R D 13781 3088 M -93 0 R D 13781 3361 M -93 0 R D
13781 3633 M -93 0 R D 13781 3905 M -93 0 R D 13781 4177 M -93 0 R D
13781 4449 M -93 0 R D 13781 4722 M -93 0 R D 13781 4994 M -93 0 R D
13781 5266 M -93 0 R D 13781 5811 M -93 0 R D 13781 6083 M -93 0 R D
13781 6355 M -93 0 R D 13781 6627 M -93 0 R D 13781 6899 M -93 0 R D
13781 7172 M -93 0 R D 13781 7444 M -93 0 R D 13781 7716 M -93 0 R D
13781 7988 M -93 0 R D 13781 8533 M -93 0 R D 13781 8805 M -93 0 R D
13781 9077 M -93 0 R D 13781 9349 M -93 0 R D 13781 9622 M -93 0 R D
13781 9894 M -93 0 R D 13781 10166 M -93 0 R D 13781 10438 M -93 0 R D
13781 10711 M -93 0 R D 13781 11255 M -93 0 R D 13781 11527 M -93 0 R D
13781 11800 M -93 0 R D 13781 12072 M -93 0 R D 13781 12344 M -93 0 R D
13781 12616 M -93 0 R D 13781 12888 M -93 0 R D 13781 13161 M -93 0 R D
13781 13433 M -93 0 R D 10 setlinewidth 7913 14536 M 175 -409 R 175 409 R D
8088 14127 M -58 -146 R -59 -58 R -58 -29 R -29 0 R D 8439 14741 M 0 -614 R
D 8439 14449 M 58 58 R 59 29 R 87 0 R 59 -29 R 58 -58 R 29 -88 R 0 -58 R
-29 -88 R -58 -58 R -59 -30 R -87 0 R -59 30 R -58 58 R D 8965 14361 M
350 0 R 0 59 R -29 58 R -29 29 R -59 29 R -87 0 R -59 -29 R -58 -58 R
-29 -88 R 0 -58 R 29 -88 R 58 -58 R 59 -30 R 87 0 R 59 30 R 58 58 R D
9549 14741 M 0 -497 R 29 -87 R 58 -30 R 59 0 R D 9461 14536 M 205 0 R D
10191 14536 M 0 -409 R D 10191 14449 M -58 58 R -58 29 R -88 0 R -59 -29 R
-58 -58 R -29 -88 R 0 -58 R 29 -88 R 58 -58 R 59 -30 R 88 0 R 58 30 R
58 58 R D 40 setlinewidth 10045 5822 M 412 397 R 55 65 R 92 343 R 87 409 R
62 408 R 34 408 R 16 409 R -12 408 R -30 408 R -56 409 R -73 408 R -99 408 R
-21 75 R -289 334 R -178 177 R -181 -177 R -286 -335 R -21 -74 R -97 -408 R
-76 -408 R -54 -409 R -35 -408 R -10 -408 R 14 -409 R 38 -408 R 61 -408 R
88 -409 R 92 -334 R 61 -74 R 406 -397 R D 10045 4846 M 246 148 R 221 153 R
121 255 R 168 409 R 141 408 R 37 131 R 46 277 R 53 409 R 38 408 R 22 408 R
11 409 R -6 408 R -19 408 R -31 409 R -45 408 R -58 408 R -11 64 R -97 345 R
-134 408 R -154 408 R -82 196 R -266 213 R -201 143 R -200 -143 R
-267 -214 R -83 -195 R -154 -408 R -135 -408 R -95 -333 R -13 -76 R
-55 -408 R -46 -408 R -33 -409 R -19 -408 R -5 -408 R 9 -409 R 25 -408 R
36 -408 R 53 -409 R 48 -281 R 35 -127 R 142 -408 R 168 -409 R 122 -254 R
220 -154 R 247 -148 R D 10205 4177 M 307 165 R 153 244 R 224 408 R 90 184 R
66 224 R 103 409 R 86 408 R 69 408 R 55 409 R 38 408 R 23 408 R 10 409 R
-3 408 R -19 408 R -31 409 R -44 408 R -57 408 R -68 409 R -80 408 R
-92 408 R -56 226 R -76 183 R -189 408 R D 9377 12344 M -191 -408 R
-75 -181 R -57 -228 R -93 -408 R -79 -408 R -68 -409 R -57 -408 R -43 -408 R
-33 -409 R -17 -408 R -4 -408 R 10 -409 R 25 -408 R 37 -408 R 54 -409 R
69 -408 R 86 -408 R 103 -409 R 67 -230 R 85 -178 R 226 -408 R 156 -246 R
307 -163 R D 10869 4177 M 110 173 R 90 236 R 136 408 R 120 408 R 105 409 R
16 77 R 50 331 R 51 408 R 39 409 R 28 408 R 18 408 R 8 409 R -3 408 R
-13 408 R -22 409 R -30 408 R -40 408 R -48 409 R -38 274 R -26 134 R
-91 408 R -102 409 R -113 408 R D 8975 12344 M -113 -408 R -102 -409 R
-91 -408 R -25 -133 R -39 -275 R -47 -409 R -41 -408 R -30 -408 R -23 -409 R
-12 -408 R -2 -408 R 8 -409 R 18 -408 R 27 -408 R 40 -409 R 50 -408 R
51 -332 R 15 -76 R 105 -409 R 120 -408 R 137 -408 R 90 -234 R 111 -175 R D
11196 4177 M 155 409 R 95 277 R 32 131 R 86 408 R 75 409 R 63 408 R 51 408 R
40 409 R 29 408 R 19 408 R 8 409 R -3 408 R -11 408 R -22 409 R -28 408 R
-39 408 R -49 409 R -56 408 R -64 408 R -74 409 R -57 294 R -31 114 R D
8673 12344 M -29 -109 R -59 -299 R -72 -409 R -65 -408 R -55 -408 R
-48 -409 R -40 -408 R -30 -408 R -22 -409 R -11 -408 R -1 -408 R 9 -409 R
18 -408 R 28 -408 R 41 -409 R 51 -408 R 62 -408 R 75 -409 R 87 -408 R
32 -128 R 95 -280 R 155 -409 R D
%%PageTrailer
end
restore
showpage
%%PageResources: font Helvetica
%%Trailer
restore
%%Pages: 1
%%DocumentNeededResources: font Helvetica
%%EOF
