%!PS-Adobe-3.0
%%BoundingBox: 91 288 519 502
%%Title: Graphics produced by IDL
%%For: yssu@archMini, /home/yssu/SURF2015/Summer/single_band/2DOff
%%Creator: IDL Version 8.3 (linux x86_64 m64)
%%CreationDate: Fri Sep 25 14:06:31 2015
%%DocumentData: Clean7bit
%%Requirements: color
%%LanguageLevel: 2
%%PageOrder: Ascend
%%Pages: (atend)
%%DocumentNeededResources: (atend)
%%EndComments
%%BeginProlog
save
%+ prolog.ps -- Prolog for IDL generated PostScript files
%+ Copyright (c) 1988-2013 Exelis Visual Information Solutions, Inc. All Rights Reserved.
%v 5
/$IDL_DICT 40 dict def $IDL_DICT begin /bdef { bind def } bind def /C
{currentpoint newpath moveto} bdef /CP {currentpoint} bdef /D {currentpoint
stroke moveto} bdef /F {closepath fill} bdef /K { setgray } bdef /M {moveto}
bdef /N {rmoveto} bdef /P {lineto} bdef /R {rlineto} bdef /S {gsave show
grestore} bdef /X {currentpoint pop} bdef /Z {gsave currentpoint lineto 20
setlinewidth 1 setlinecap stroke grestore} bdef /L0 {[] 0 setdash} bdef /L1
{[40 100] 0 setdash} bdef /L2 {[200 200] 0 setdash} bdef /L3 {[200 100 50
100] 0 setdash} bdef /L4 {[300 100 50 100 50 100 50 100] 0 setdash} bdef /L5
{[400 200] 0 setdash} bdef /STDFONT { findfont exch scalefont setfont } bdef
/ISOFONT { findfont dup length dict begin { 1 index /FID ne {def} {pop pop}
ifelse } forall /Encoding ISOLatin1Encoding def currentdict end /idltmpfont
exch definefont exch scalefont setfont } bdef /ISOBULLET { gsave /Helvetica
findfont exch scalefont setfont (\267) show currentpoint grestore moveto}
bdef /MITERLIMIT { 2.5 setmiterlimit } bdef end
%%EndProlog
%%Page: 0 1
%%PageRequirements: color
%%PageResources: (atend)
%%PageOrientation: Portrait
%%PageBoundingBox: 91 288 519 502
%%BeginPageSetup
save
$IDL_DICT begin 91 288 translate 0.0283465 dup scale MITERLIMIT
%%IncludeResource: font Helvetica
423.333 /Helvetica STDFONT
%%EndPageSetup
10 setlinewidth L0 0.000 0.000 0.000 setrgbcolor 5894 7370 M 205 -307 R D
6099 7370 M -205 -307 R D 6435 7268 M 0 -322 R D 6435 7224 M 29 29 R 29 15 R
44 0 R 29 -15 R 30 -29 R 14 -44 R 0 -29 R -14 -44 R -30 -29 R -29 -15 R
-44 0 R -29 15 R -29 29 R D 6771 7268 M -29 -15 R -30 -29 R -14 -44 R
0 -29 R 14 -44 R 30 -29 R 29 -15 R 44 0 R 29 15 R 29 29 R 15 44 R 0 29 R
-15 44 R -29 29 R -29 15 R -44 0 R D 7136 7224 M -15 29 R -43 15 R -44 0 R
-44 -15 R -15 -29 R 15 -29 R 29 -15 R 73 -15 R 29 -14 R 15 -29 R 0 -15 R
-15 -29 R -43 -15 R -44 0 R -44 15 R -15 29 R D 7224 7370 M 14 -15 R 15 15 R
-15 15 R -14 -15 R D 7238 7268 M 0 -205 R D 7370 7370 M 0 -248 R 14 -44 R
29 -15 R 30 0 R D 7326 7268 M 102 0 R D 7516 7370 M 14 -15 R 15 15 R
-15 15 R -14 -15 R D 7530 7268 M 0 -205 R D 7706 7268 M -30 -15 R -29 -29 R
-14 -44 R 0 -29 R 14 -44 R 29 -29 R 30 -15 R 43 0 R 30 15 R 29 29 R 14 44 R
0 29 R -14 44 R -29 29 R -30 15 R -43 0 R D 7925 7268 M 0 -205 R D
7925 7209 M 43 44 R 30 15 R 43 0 R 30 -15 R 14 -44 R 0 -146 R D 8421 7180 M
175 0 R 0 29 R -14 30 R -15 14 R -29 15 R -44 0 R -29 -15 R -29 -29 R
-15 -44 R 0 -29 R 15 -44 R 29 -29 R 29 -15 R 44 0 R 29 15 R 29 29 R D
8845 7224 M -15 29 R -44 15 R -43 0 R -44 -15 R -15 -29 R 15 -29 R 29 -15 R
73 -15 R 29 -14 R 15 -29 R 0 -15 R -15 -29 R -44 -15 R -43 0 R -44 15 R
-15 29 R D 8962 7370 M 0 -248 R 14 -44 R 29 -15 R 30 0 R D 8918 7268 M
102 0 R D 9108 7370 M 14 -15 R 15 15 R -15 15 R -14 -15 R D 9122 7268 M
0 -205 R D 9239 7268 M 0 -205 R D 9239 7209 M 44 44 R 29 15 R 44 0 R
29 -15 R 15 -44 R 0 -146 R D 9400 7209 M 44 44 R 29 15 R 44 0 R 29 -15 R
14 -44 R 0 -146 R D 9838 7268 M 0 -205 R D 9838 7224 M -29 29 R -30 15 R
-43 0 R -30 -15 R -29 -29 R -14 -44 R 0 -29 R 14 -44 R 29 -29 R 30 -15 R
43 0 R 30 15 R 29 29 R D 9969 7370 M 0 -248 R 15 -44 R 29 -15 R 29 0 R D
9926 7268 M 102 0 R D 10188 7268 M -29 -15 R -29 -29 R -15 -44 R 0 -29 R
15 -44 R 29 -29 R 29 -15 R 44 0 R 29 15 R 30 29 R 14 44 R 0 29 R -14 44 R
-30 29 R -29 15 R -44 0 R D 10408 7268 M 0 -205 R D 10408 7180 M 14 44 R
29 29 R 30 15 R 43 0 R D 10743 7224 M -14 29 R -44 15 R -44 0 R -44 -15 R
-14 -29 R 14 -29 R 30 -15 R 73 -15 R 29 -14 R 14 -29 R 0 -15 R -14 -29 R
-44 -15 R -44 0 R -44 15 R -14 29 R D 40 setlinewidth 2220 1408 M 12227 0 R
D 2220 1408 M 0 109 R D 10 setlinewidth 1811 985 M 210 0 R D 2173 1125 M
-35 -11 R -23 -35 R -12 -59 R 0 -35 R 12 -58 R 23 -35 R 35 -12 R 24 0 R
35 12 R 23 35 R 12 58 R 0 35 R -12 59 R -23 35 R -35 11 R -24 0 R D
2360 903 M -11 -11 R 11 -12 R 12 12 R -12 11 R D 2571 1125 M -117 -163 R
175 0 R D 2571 1125 M 0 -245 R D 40 setlinewidth 5277 1408 M 0 109 R D
10 setlinewidth 4868 985 M 210 0 R D 5230 1125 M -35 -11 R -23 -35 R
-12 -59 R 0 -35 R 12 -58 R 23 -35 R 35 -12 R 23 0 R 36 12 R 23 35 R 12 58 R
0 35 R -12 59 R -23 35 R -36 11 R -23 0 R D 5417 903 M -12 -11 R 12 -12 R
12 12 R -12 11 R D 5522 1067 M 0 12 R 12 23 R 12 12 R 23 11 R 47 0 R
23 -11 R 12 -12 R 11 -23 R 0 -24 R -11 -23 R -24 -35 R -116 -117 R 163 0 R D
40 setlinewidth 8334 1408 M 0 109 R D 10 setlinewidth 8135 1125 M -35 -11 R
-23 -35 R -12 -59 R 0 -35 R 12 -58 R 23 -35 R 35 -12 R 23 0 R 35 12 R
24 35 R 11 58 R 0 35 R -11 59 R -24 35 R -35 11 R -23 0 R D 8322 903 M
-12 -11 R 12 -12 R 12 12 R -12 11 R D 8485 1125 M -35 -11 R -23 -35 R
-12 -59 R 0 -35 R 12 -58 R 23 -35 R 35 -12 R 24 0 R 35 12 R 23 35 R 12 58 R
0 35 R -12 59 R -23 35 R -35 11 R -24 0 R D 40 setlinewidth 11390 1408 M
0 109 R D 10 setlinewidth 11192 1125 M -35 -11 R -24 -35 R -11 -59 R 0 -35 R
11 -58 R 24 -35 R 35 -12 R 23 0 R 35 12 R 23 35 R 12 58 R 0 35 R -12 59 R
-23 35 R -35 11 R -23 0 R D 11379 903 M -12 -11 R 12 -12 R 11 12 R -11 11 R
D 11484 1067 M 0 12 R 11 23 R 12 12 R 24 11 R 46 0 R 24 -11 R 11 -12 R
12 -23 R 0 -24 R -12 -23 R -23 -35 R -117 -117 R 164 0 R D 40 setlinewidth
14447 1408 M 0 109 R D 10 setlinewidth 14248 1125 M -35 -11 R -23 -35 R
-12 -59 R 0 -35 R 12 -58 R 23 -35 R 35 -12 R 24 0 R 35 12 R 23 35 R 12 58 R
0 35 R -12 59 R -23 35 R -35 11 R -24 0 R D 14435 903 M -11 -11 R 11 -12 R
12 12 R -12 11 R D 14646 1125 M -117 -163 R 175 0 R D 14646 1125 M 0 -245 R
D 40 setlinewidth 2984 1408 M 0 54 R D 3748 1408 M 0 54 R D 4513 1408 M
0 54 R D 6041 1408 M 0 54 R D 6805 1408 M 0 54 R D 7569 1408 M 0 54 R D
9098 1408 M 0 54 R D 9862 1408 M 0 54 R D 10626 1408 M 0 54 R D 12155 1408 M
0 54 R D 12919 1408 M 0 54 R D 13683 1408 M 0 54 R D 10 setlinewidth
6914 668 M 164 -246 R D 7078 668 M -164 -246 R D 7346 586 M 0 -257 R D
7346 551 M 24 23 R 23 12 R 35 0 R 23 -12 R 24 -23 R 11 -35 R 0 -23 R
-11 -36 R -24 -23 R -23 -12 R -35 0 R -23 12 R -24 23 R D 7615 586 M
-23 -12 R -24 -23 R -11 -35 R 0 -23 R 11 -36 R 24 -23 R 23 -12 R 35 0 R
23 12 R 24 23 R 11 36 R 0 23 R -11 35 R -24 23 R -23 12 R -35 0 R D
7907 551 M -12 23 R -35 12 R -35 0 R -35 -12 R -11 -23 R 11 -23 R 24 -12 R
58 -12 R 23 -11 R 12 -24 R 0 -12 R -12 -23 R -35 -12 R -35 0 R -35 12 R
-11 23 R D 7977 668 M 12 -12 R 12 12 R -12 11 R -12 -11 R D 7989 586 M
0 -164 R D 8094 668 M 0 -199 R 12 -35 R 23 -12 R 23 0 R D 8059 586 M 82 0 R
D 8211 668 M 12 -12 R 11 12 R -11 11 R -12 -11 R D 8223 586 M 0 -164 R D
8363 586 M -24 -12 R -23 -23 R -12 -35 R 0 -23 R 12 -36 R 23 -23 R 24 -12 R
35 0 R 23 12 R 24 23 R 11 36 R 0 23 R -11 35 R -24 23 R -23 12 R -35 0 R D
8538 586 M 0 -164 R D 8538 539 M 35 35 R 23 12 R 36 0 R 23 -12 R 12 -35 R
0 -117 R D 9029 715 M -24 -24 R -23 -35 R -23 -47 R -12 -58 R 0 -47 R
12 -58 R 23 -59 R 23 -35 R 24 -23 R D 9111 668 M 0 -246 R D 9111 551 M
23 23 R 23 12 R 35 0 R 24 -12 R 23 -23 R 12 -35 R 0 -23 R -12 -36 R
-23 -23 R -24 -12 R -35 0 R -23 12 R -23 23 R D 9321 668 M 12 -12 R 11 12 R
-11 11 R -12 -11 R D 9333 586 M 0 -164 R D 9426 586 M 0 -164 R D 9426 539 M
35 35 R 23 12 R 36 0 R 23 -12 R 12 -35 R 0 -117 R D 9636 715 M 24 -24 R
23 -35 R 23 -47 R 12 -58 R 0 -47 R -12 -58 R -23 -59 R -23 -35 R -24 -23 R D
40 setlinewidth 2220 6852 M 12227 0 R D 2220 6852 M 0 -109 R D 5277 6852 M
0 -109 R D 8334 6852 M 0 -109 R D 11390 6852 M 0 -109 R D 14447 6852 M
0 -109 R D 2984 6852 M 0 -54 R D 3748 6852 M 0 -54 R D 4513 6852 M 0 -54 R D
6041 6852 M 0 -54 R D 6805 6852 M 0 -54 R D 7569 6852 M 0 -54 R D
9098 6852 M 0 -54 R D 9862 6852 M 0 -54 R D 10626 6852 M 0 -54 R D
12155 6852 M 0 -54 R D 12919 6852 M 0 -54 R D 13683 6852 M 0 -54 R D
2220 1408 M 0 5444 R D 2220 1408 M 245 0 R D 10 setlinewidth 1969 1653 M
-35 -11 R -24 -35 R -11 -59 R 0 -35 R 11 -58 R 24 -35 R 35 -12 R 23 0 R
35 12 R 24 35 R 11 58 R 0 35 R -11 59 R -24 35 R -35 11 R -23 0 R D
40 setlinewidth 2220 2497 M 245 0 R D 10 setlinewidth 1805 2601 M -117 0 R
-11 -105 R 11 12 R 35 12 R 36 0 R 35 -12 R 23 -23 R 12 -35 R 0 -24 R
-12 -35 R -23 -23 R -35 -12 R -36 0 R -35 12 R -11 11 R -12 24 R D
1969 2601 M -35 -11 R -24 -35 R -11 -59 R 0 -35 R 11 -58 R 24 -35 R 35 -12 R
23 0 R 35 12 R 24 35 R 11 58 R 0 35 R -11 59 R -24 35 R -35 11 R -23 0 R D
40 setlinewidth 2220 3586 M 245 0 R D 10 setlinewidth 1466 3643 M 24 12 R
35 35 R 0 -245 R D 1735 3690 M -35 -11 R -23 -36 R -12 -58 R 0 -35 R
12 -58 R 23 -35 R 35 -12 R 24 0 R 35 12 R 23 35 R 12 58 R 0 35 R -12 58 R
-23 36 R -35 11 R -24 0 R D 1969 3690 M -35 -11 R -24 -36 R -11 -58 R
0 -35 R 11 -58 R 24 -35 R 35 -12 R 23 0 R 35 12 R 24 35 R 11 58 R 0 35 R
-11 58 R -24 36 R -35 11 R -23 0 R D 40 setlinewidth 2220 4674 M 245 0 R D
10 setlinewidth 1466 4732 M 24 12 R 35 35 R 0 -245 R D 1805 4779 M -117 0 R
-11 -105 R 11 12 R 35 11 R 36 0 R 35 -11 R 23 -24 R 12 -35 R 0 -23 R
-12 -35 R -23 -24 R -35 -11 R -36 0 R -35 11 R -11 12 R -12 23 R D
1969 4779 M -35 -12 R -24 -35 R -11 -58 R 0 -35 R 11 -59 R 24 -35 R 35 -11 R
23 0 R 35 11 R 24 35 R 11 59 R 0 35 R -11 58 R -24 35 R -35 12 R -23 0 R D
40 setlinewidth 2220 5763 M 245 0 R D 10 setlinewidth 1443 5809 M 0 12 R
12 23 R 11 12 R 24 12 R 47 0 R 23 -12 R 12 -12 R 11 -23 R 0 -23 R -11 -24 R
-24 -35 R -117 -117 R 164 0 R D 1735 5868 M -35 -12 R -23 -35 R -12 -58 R
0 -35 R 12 -59 R 23 -35 R 35 -12 R 24 0 R 35 12 R 23 35 R 12 59 R 0 35 R
-12 58 R -23 35 R -35 12 R -24 0 R D 1969 5868 M -35 -12 R -24 -35 R
-11 -58 R 0 -35 R 11 -59 R 24 -35 R 35 -12 R 23 0 R 35 12 R 24 35 R 11 59 R
0 35 R -11 58 R -24 35 R -35 12 R -23 0 R D 40 setlinewidth 2220 6852 M
245 0 R D 10 setlinewidth 1443 6793 M 0 11 R 12 24 R 11 11 R 24 12 R 47 0 R
23 -12 R 12 -11 R 11 -24 R 0 -23 R -11 -23 R -24 -36 R -117 -116 R 164 0 R D
1805 6851 M -117 0 R -11 -105 R 11 12 R 35 11 R 36 0 R 35 -11 R 23 -24 R
12 -35 R 0 -23 R -12 -35 R -23 -24 R -35 -11 R -36 0 R -35 11 R -11 12 R
-12 23 R D 1969 6851 M -35 -12 R -24 -35 R -11 -58 R 0 -35 R 11 -59 R
24 -35 R 35 -11 R 23 0 R 35 11 R 24 35 R 11 59 R 0 35 R -11 58 R -24 35 R
-35 12 R -23 0 R D 40 setlinewidth 2220 1626 M 122 0 R D 2220 1844 M 122 0 R
D 2220 2061 M 122 0 R D 2220 2279 M 122 0 R D 2220 2715 M 122 0 R D
2220 2932 M 122 0 R D 2220 3150 M 122 0 R D 2220 3368 M 122 0 R D
2220 3803 M 122 0 R D 2220 4021 M 122 0 R D 2220 4239 M 122 0 R D
2220 4457 M 122 0 R D 2220 4892 M 122 0 R D 2220 5110 M 122 0 R D
2220 5328 M 122 0 R D 2220 5545 M 122 0 R D 2220 5981 M 122 0 R D
2220 6199 M 122 0 R D 2220 6417 M 122 0 R D 2220 6634 M 122 0 R D
14447 1408 M 0 5444 R D 14447 1408 M -244 0 R D 14447 2497 M -244 0 R D
14447 3586 M -244 0 R D 14447 4674 M -244 0 R D 14447 5763 M -244 0 R D
14447 6852 M -244 0 R D 14447 1626 M -122 0 R D 14447 1844 M -122 0 R D
14447 2061 M -122 0 R D 14447 2279 M -122 0 R D 14447 2715 M -122 0 R D
14447 2932 M -122 0 R D 14447 3150 M -122 0 R D 14447 3368 M -122 0 R D
14447 3803 M -122 0 R D 14447 4021 M -122 0 R D 14447 4239 M -122 0 R D
14447 4457 M -122 0 R D 14447 4892 M -122 0 R D 14447 5110 M -122 0 R D
14447 5328 M -122 0 R D 14447 5545 M -122 0 R D 14447 5981 M -122 0 R D
14447 6199 M -122 0 R D 14447 6417 M -122 0 R D 14447 6634 M -122 0 R D
4189 1473 M 61 0 R 0 -65 R 62 0 R 61 0 R 0 131 R 62 0 R 61 0 R 0 -109 R
61 0 R 62 0 R 0 43 R 61 0 R 62 0 R 0 -21 R 61 0 R 62 0 R 0 65 R 61 0 R
61 0 R 0 109 R 62 0 R 61 0 R 0 22 R 62 0 R 61 0 R 0 21 R 62 0 R 61 0 R
0 -65 R 61 0 R 62 0 R 0 370 R 61 0 R 62 0 R 0 -22 R 61 0 R 62 0 R 0 196 R
61 0 R 61 0 R 0 -130 R 62 0 R 61 0 R 0 239 R 62 0 R 61 0 R 0 153 R 62 0 R
61 0 R 0 435 R 61 0 R 62 0 R 0 -174 R 61 0 R 62 0 R 0 240 R 61 0 R 61 0 R
0 762 R 62 0 R 61 0 R 0 -87 R 62 0 R 61 0 R 0 -87 R 62 0 R 61 0 R 0 500 R
61 0 R 62 0 R 0 -130 R 61 0 R 62 0 R 0 609 R 61 0 R 62 0 R 0 567 R 61 0 R
61 0 R 0 -196 R 62 0 R 61 0 R 0 435 R 62 0 R 61 0 R 0 -283 R 62 0 R 61 0 R
0 523 R 61 0 R 62 0 R 0 -370 R 61 0 R 62 0 R 0 435 R 61 0 R 62 0 R 0 283 R
61 0 R 61 0 R 0 -718 R 62 0 R 61 0 R 0 174 R 62 0 R 61 0 R 0 -22 R 62 0 R
61 0 R 0 305 R 61 0 R 62 0 R 0 -545 R 61 0 R 62 0 R 0 -152 R 61 0 R 62 0 R
0 -414 R 61 0 R 61 0 R 0 131 R 62 0 R 61 0 R 0 -283 R 62 0 R 61 0 R 0 -414 R
62 0 R 61 0 R 0 261 R 61 0 R 62 0 R 0 -609 R 61 0 R 62 0 R 61 0 R 62 0 R
0 -479 R 61 0 R 61 0 R 0 108 R 62 0 R 61 0 R 0 -413 R 62 0 R 61 0 R 0 -262 R
62 0 R 61 0 R 0 -283 R 61 0 R 62 0 R 61 0 R 62 0 R 0 -217 R 61 0 R 62 0 R
0 -88 R 61 0 R 61 0 R 0 -174 R 62 0 R 61 0 R 0 109 R 62 0 R 61 0 R 0 44 R
62 0 R 61 0 R 0 -240 R 61 0 R 62 0 R 0 -131 R 61 0 R 62 0 R 0 -43 R 61 0 R
62 0 R 0 43 R 61 0 R 61 0 R 0 -21 R 62 0 R 61 0 R 0 -109 R 62 0 R 61 0 R
0 22 R 61 0 R 62 0 R 0 87 R 61 0 R 62 0 R 0 -109 R 61 0 R 62 0 R 0 22 R
61 0 R 61 0 R 0 -22 R 62 0 R 61 0 R 62 0 R 61 0 R 0 -22 R 62 0 R 61 0 R
0 22 R 61 0 R 62 0 R 0 -22 R 61 0 R 62 0 R 61 0 R 62 0 R 0 22 R 61 0 R D
60 setlinewidth 1.000 0.000 0.000 setrgbcolor 4189 1437 M 123 9 R 123 13 R
122 16 R 123 21 R 123 26 R 123 32 R 123 40 R 123 48 R 123 58 R 122 70 R
123 82 R 123 96 R 123 111 R 123 126 R 123 143 R 123 159 R 122 175 R
123 191 R 123 205 R 123 217 R 123 227 R 123 234 R 122 237 R 123 235 R
123 230 R 123 219 R 123 204 R 123 184 R 123 159 R 122 132 R 123 99 R
123 65 R 123 29 R 123 -8 R 123 -45 R 123 -80 R 122 -113 R 123 -144 R
123 -170 R 123 -193 R 123 -212 R 123 -224 R 123 -233 R 122 -236 R 123 -236 R
123 -231 R 123 -223 R 123 -212 R 123 -200 R 123 -184 R 122 -168 R 123 -152 R
123 -136 R 123 -120 R 123 -104 R 123 -90 R 123 -76 R 122 -65 R 123 -54 R
123 -44 R 123 -37 R 123 -29 R 123 -23 R 122 -19 R 123 -15 R 123 -11 R
123 -9 R 123 -6 R 123 -5 R 123 -4 R 122 -3 R 123 -2 R 123 -1 R 123 -2 R D
10 setlinewidth 0.000 0.000 0.000 setrgbcolor 2866 6471 M 0 -163 R D
2866 6424 M 36 36 R 23 11 R 35 0 R 23 -11 R 12 -36 R 0 -116 R D 2995 6424 M
35 36 R 23 11 R 35 0 R 24 -11 R 12 -36 R 0 -116 R D 3205 6401 M 141 0 R
0 23 R -12 24 R -12 12 R -23 11 R -35 0 R -24 -11 R -23 -24 R -12 -35 R
0 -23 R 12 -35 R 23 -24 R 24 -11 R 35 0 R 23 11 R 24 24 R D 3556 6471 M
0 -163 R D 3556 6436 M -24 24 R -23 11 R -35 0 R -23 -11 R -24 -24 R
-11 -35 R 0 -23 R 11 -35 R 24 -24 R 23 -11 R 35 0 R 23 11 R 24 24 R D
3649 6471 M 0 -163 R D 3649 6424 M 35 36 R 24 11 R 35 0 R 23 -11 R 12 -36 R
0 -116 R D 4058 6448 M 211 0 R D 4058 6378 M 211 0 R D 4549 6413 M 210 0 R D
4911 6553 M -35 -12 R -23 -35 R -12 -58 R 0 -35 R 12 -59 R 23 -35 R 35 -11 R
24 0 R 35 11 R 23 35 R 12 59 R 0 35 R -12 58 R -23 35 R -35 12 R -24 0 R D
5098 6331 M -12 -12 R 12 -11 R 12 11 R -12 12 R D 5262 6553 M -35 -12 R
-24 -35 R -11 -58 R 0 -35 R 11 -59 R 24 -35 R 35 -11 R 23 0 R 35 11 R
24 35 R 11 59 R 0 35 R -11 58 R -24 35 R -35 12 R -23 0 R D 5495 6553 M
-35 -12 R -23 -35 R -12 -58 R 0 -35 R 12 -59 R 23 -35 R 35 -11 R 24 0 R
35 11 R 23 35 R 12 59 R 0 35 R -12 58 R -23 35 R -35 12 R -24 0 R D
5682 6553 M 129 0 R -70 -93 R 35 0 R 23 -12 R 12 -12 R 12 -35 R 0 -23 R
-12 -35 R -23 -24 R -36 -11 R -35 0 R -35 11 R -11 12 R -12 23 R D
6045 6518 M -12 23 R -35 12 R -24 0 R -35 -12 R -23 -35 R -12 -58 R 0 -59 R
12 -46 R 23 -24 R 35 -11 R 12 0 R 35 11 R 24 24 R 11 35 R 0 11 R -11 35 R
-24 24 R -35 12 R -12 0 R -35 -12 R -23 -24 R -12 -35 R D 6150 6553 M
128 0 R -70 -93 R 35 0 R 24 -12 R 11 -12 R 12 -35 R 0 -23 R -12 -35 R
-23 -24 R -35 -11 R -35 0 R -35 11 R -12 12 R -12 23 R D 2866 6119 M
0 -163 R D 2866 6049 M 12 35 R 24 24 R 23 11 R 35 0 R D 3018 6119 M 0 -163 R
D 3018 6072 M 35 36 R 24 11 R 35 0 R 23 -11 R 12 -36 R 0 -116 R D
3147 6072 M 35 36 R 23 11 R 35 0 R 24 -11 R 11 -36 R 0 -116 R D 3486 6084 M
-12 24 R -35 11 R -35 0 R -35 -11 R -12 -24 R 12 -23 R 23 -12 R 59 -12 R
23 -11 R 12 -24 R 0 -11 R -12 -24 R -35 -11 R -35 0 R -35 11 R -12 24 R D
3754 6096 M 211 0 R D 3754 6026 M 211 0 R D 4491 6201 M -35 -12 R -24 -35 R
-12 -58 R 0 -35 R 12 -59 R 24 -35 R 35 -11 R 23 0 R 35 11 R 23 35 R 12 59 R
0 35 R -12 58 R -23 35 R -35 12 R -23 0 R D 4678 5979 M -12 -12 R 12 -11 R
11 11 R -11 12 R D 4841 6201 M -35 -12 R -23 -35 R -12 -58 R 0 -35 R
12 -59 R 23 -35 R 35 -11 R 23 0 R 36 11 R 23 35 R 12 59 R 0 35 R -12 58 R
-23 35 R -36 12 R -23 0 R D 5063 6201 M -35 -12 R -12 -23 R 0 -23 R 12 -24 R
23 -11 R 47 -12 R 35 -12 R 24 -23 R 11 -24 R 0 -35 R -11 -23 R -12 -12 R
-35 -11 R -47 0 R -35 11 R -12 12 R -11 23 R 0 35 R 11 24 R 24 23 R 35 12 R
47 12 R 23 11 R 12 24 R 0 23 R -12 23 R -35 12 R -47 0 R D 5355 6201 M
-117 -164 R 176 0 R D 5355 6201 M 0 -245 R D 5530 6201 M -35 -12 R -11 -23 R
0 -23 R 11 -24 R 24 -11 R 47 -12 R 35 -12 R 23 -23 R 12 -24 R 0 -35 R
-12 -23 R -12 -12 R -35 -11 R -47 0 R -35 11 R -11 12 R -12 23 R 0 35 R
12 24 R 23 23 R 35 12 R 47 12 R 23 11 R 12 24 R 0 23 R -12 23 R -35 12 R
-47 0 R D 5858 6166 M -12 23 R -35 12 R -23 0 R -36 -12 R -23 -35 R
-12 -58 R 0 -59 R 12 -46 R 23 -24 R 36 -11 R 11 0 R 35 11 R 24 24 R 11 35 R
0 11 R -11 35 R -24 24 R -35 12 R -11 0 R -36 -12 R -23 -24 R -12 -35 R D
2878 5849 M 0 -199 R 12 -35 R 23 -11 R 24 0 R D 2843 5767 M 82 0 R D
3007 5849 M 0 -245 R D 3007 5720 M 35 36 R 23 11 R 35 0 R 24 -11 R 11 -36 R
0 -116 R D 3217 5697 M 140 0 R 0 23 R -11 24 R -12 12 R -24 11 R -35 0 R
-23 -11 R -23 -24 R -12 -35 R 0 -23 R 12 -35 R 23 -24 R 23 -11 R 35 0 R
24 11 R 23 24 R D 3486 5767 M -24 -11 R -23 -24 R -12 -35 R 0 -23 R 12 -35 R
23 -24 R 24 -11 R 35 0 R 23 11 R 24 24 R 11 35 R 0 23 R -11 35 R -24 24 R
-23 11 R -35 0 R D 3661 5767 M 0 -163 R D 3661 5697 M 12 35 R 23 24 R
23 11 R 35 0 R D 3790 5767 M 70 -163 R 70 163 R D 3860 5604 M -24 -59 R
-23 -23 R -23 -12 R -12 0 R D 4187 5744 M 210 0 R D 4187 5674 M 210 0 R D
4923 5849 M -35 -12 R -24 -35 R -11 -58 R 0 -35 R 11 -59 R 24 -35 R 35 -11 R
23 0 R 35 11 R 24 35 R 11 59 R 0 35 R -11 58 R -24 35 R -35 12 R -23 0 R D
5110 5627 M -12 -12 R 12 -11 R 12 11 R -12 12 R D 5273 5849 M -35 -12 R
-23 -35 R -12 -58 R 0 -35 R 12 -59 R 23 -35 R 35 -11 R 24 0 R 35 11 R
23 35 R 12 59 R 0 35 R -12 58 R -23 35 R -35 12 R -24 0 R D 5495 5849 M
-35 -12 R -11 -23 R 0 -23 R 11 -24 R 24 -11 R 46 -12 R 36 -12 R 23 -23 R
12 -24 R 0 -35 R -12 -23 R -12 -12 R -35 -11 R -47 0 R -35 11 R -11 12 R
-12 23 R 0 35 R 12 24 R 23 23 R 35 12 R 47 12 R 23 11 R 12 24 R 0 23 R
-12 23 R -35 12 R -47 0 R D 5741 5849 M -35 -12 R -24 -35 R -11 -58 R
0 -35 R 11 -59 R 24 -35 R 35 -11 R 23 0 R 35 11 R 24 35 R 11 59 R 0 35 R
-11 58 R -24 35 R -35 12 R -23 0 R D 5928 5849 M 128 0 R -70 -93 R 35 0 R
24 -12 R 11 -12 R 12 -35 R 0 -23 R -12 -35 R -23 -24 R -35 -11 R -35 0 R
-35 11 R -12 12 R -12 23 R D 6196 5849 M -35 -12 R -11 -23 R 0 -23 R
11 -24 R 24 -11 R 47 -12 R 35 -12 R 23 -23 R 12 -24 R 0 -35 R -12 -23 R
-12 -12 R -35 -11 R -47 0 R -35 11 R -11 12 R -12 23 R 0 35 R 12 24 R
23 23 R 35 12 R 47 12 R 23 11 R 12 24 R 0 23 R -12 23 R -35 12 R -47 0 R D
%%PageTrailer
end
restore
showpage
%%PageResources: font Helvetica
%%Trailer
restore
%%Pages: 1
%%DocumentNeededResources: font Helvetica
%%EOF
